/* XPM */
static char * gimp_temp_42975_xpm[] = {
"128 64 3 1",
" 	c None",
".	c #404040",
"+	c #FFFF00",
"                                                                                                                                ",
"                                                                                                                                ",
"                                                                                                                                ",
"                                                                                                                                ",
"                                                                                                                                ",
"                                                                                                                                ",
"                                                                          ............                    ............          ",
"                                                                       ...            ...              ..................       ",
"                                                                    ...   ............   ...        .......+.+.++.+.+.......    ",
"            ........                        ........               .   ..................   .      ....+.+............+.+....   ",
"         ..............                  ..............             .......+.+.++.+.+.......      ...+....................+...  ",
"        ................                ................           ....+.+............+.+....    ..+........................+.. ",
"       ..................              ..................         ...+....................+...  ................................",
"      .......++..++.......            .......++..++.......       ..+........................+.. ..+..........................+..",
"     ...  ............  ...          ...  ............  ...     ................................................................",
"    ...     ........     ...        ...     ........     ...    ..+..........................+....+..........................+..",
"    ...        ..        ...       ...         ..         ...   ................................ ...+......................+... ",
"     ...                ...       ...                      ...  ..+..........................+..  ....+..................+....  ",
"      ...              ...       ...                        ...  ...+......................+...    .....+.+..........+.+.....   ",
"       ...            ...       ...                          ...  ....+..................+....      ........+.++.+.+........    ",
"        ...          ...         .                            .    .....+.+..........+.+.....          ..................       ",
"         .            .                                             ........+.++.+.+........           .. ............ ..       ",
"                                                                       ..................              ..    ..  ..    ..       ",
"                                                                       .. ............ ..              ..    ..  ..    ..       ",
"                                                                      ..     ..  ..     ..             ..    ..  ..    ..       ",
"                                                                     ..      ..  ..      ..            ..    ..  ..    ..       ",
"                                                                     .      ..    ..      .                  ..  ..             ",
"                                                                           ..      ..                                           ",
"                                                                                                                                ",
"                                                                                                                                ",
"                                                                                                                                ",
"                                                                                                                                ",
"                                                                                                                                ",
"                                                                                                                                ",
"                                                                                                                                ",
"                                                                                                                                ",
"                                                                                                                                ",
"                                                .                                                                               ",
"                                               ...                                                                              ",
"      ..                 ..                     .                                                                               ",
"      ...               ...                    ...                                                                              ",
"       ...             ...                      .                                                                               ",
"         ..           ..                       ...                                                                              ",
"          ..  .....  ..                       .....                                                                             ",
"           ...........                      .........                                                                           ",
"            .........                       .........                                                                           ",
"           ...+...+...                     ...+...+...                                                                          ",
"           ...........               .......................                                                                    ",
"           ...........               .......................                                                                    ",
"           ...........                     ...........                                                                          ",
"            ...+++...                       ...+++...                                                                           ",
"           ...........                      .........                                                                           ",
"          ..  .....  ..                       .....                                                                             ",
"         ..           ..                       ...                                                                              ",
"       ...             ...                      .                                                                               ",
"      ...               ...                    ...                                                                              ",
"      ..                 ..                     .                                                                               ",
"                                               ...                                                                              ",
"                                                .                                                                               ",
"                                                                                                                                ",
"                                                                                                                                ",
"                                                                                                                                ",
"                                                                                                                                ",
"                                                                                                                                "};
