/* XPM */
static char * gimp_temp_429735_xpm[] = {
"128 32 10 1",
" 	c None",
".	c #C0C0C0",
"+	c #404040",
"@	c #606060",
"#	c #808080",
"$	c #80802B",
"%	c #707030",
"&	c #A0A020",
"*	c #305630",
"=	c #206C20",
"                                ................................                                                                ",
"                                ................................                                                                ",
"                                ................................                                                                ",
"                                ................................                                                                ",
"................................................................                                                                ",
"................................................................                                                                ",
"................................................................                                                                ",
"................................................................                                                                ",
"................................................................                                                                ",
"................................................................         ++          ++                                         ",
"................................................................         ++          ++                                         ",
"................................................................         ++          ++                                         ",
"................................................................         @+          +@                                         ",
"................................................................        +#++        ++#+                                        ",
"................................................................        +#@+        +@#+                                        ",
"................................................................       ++##++      ++##++                                       ",
"................................................................     +++#+#++++++++++#+#+++                                     ",
"................................................................  +$%+++#+#+++&%%&+++#+#+++%$+                                  ",
"................................................................ +++++++#+#+%%++++%%+#+#+++++++                                 ",
"................................................................     +++++@+%%&&&&%%+@+++++                                     ",
"................................................................        *++++++++++++++*                                        ",
"................................................................        =+++++#++#+++++=                                        ",
"................................................................         *@+++#++#+++@*                                         ",
"................................................................         +*#++@@@@++#*+                                         ",
"................................................................           ++++@@++++                                           ",
"................................................................                                                                ",
"................................................................                                                                ",
"................................................................                                                                ",
"................................................................                                                                ",
"................................................................                                                                ",
"................................................................                                                                ",
"................................................................                                                                "};
