/* XPM */
static char * gimp_temp_429756_xpm[] = {
"64 32 5 1",
" 	c None",
".	c #FF0000",
"+	c #F20000",
"@	c #E60000",
"#	c #CC0000",
"                                                                ",
"                                                                ",
"                                                                ",
"                                                                ",
"                                                                ",
"                                                                ",
"                                                                ",
"                                                                ",
"                                                                ",
"             ......                  ......          ......     ",
"            ..+@@+..                ..+@@+..        ..+@@+..    ",
"           .+######+.              .+######+.      .+######+.   ",
"          .+########+.            .+########+.    .+########+.  ",
"         ..##########..          ..##########..  ..##########.. ",
"         .+##########+.          .+##########+.  .+##########+. ",
"         .@##########@.          .@##########@.  .@##########@. ",
"         .@##########@.          .@##########@.  .@##########@. ",
"         .+##########+.          .+##########+.  .+##########+. ",
"         ..##########..          ..##########..  ..##########.. ",
"          .+########+.            .+########+.    .+########+.  ",
"           .+######+.              .+######+.      .+######+.   ",
"            ..+@@+..                ..+@@+..        ..+@@+..    ",
"             ......                  ......          ......     ",
"                                                                ",
"                                                                ",
"                                                                ",
"                                                                ",
"                                                                ",
"                                                                ",
"                                                                ",
"                                                                ",
"                                                                "};
