/* XPM */
static char * bcBack_xpm[] = {
"96 64 3 1",
" 	c None",
".	c #545454",
"+	c #878787",
"                                  .++++++++++++++++++++++++++.                                  ",
"                                 ..++++++++++++++++++++++++++.                                  ",
"..................................+++++++++++++++++++++++++++.     ..........................   ",
"+++++++++++++++++++++++++++++++++++++++++++++++++++++++++++++.    ..++++++++++++++++++++++++..  ",
"+++++++++++++++++++++++++++++++++++++++++++++++++++++++++++++.    .++++++++++++++++++++++++++.  ",
"+++++++++++++++++++++++++++++++++++++++++++++++++++++++++++++.    .++++++++++++++++++++++++++.  ",
"+++++++++++++++++++++++++++++++++++++++++++++++++++++++++++++.    .++++++++++++++++++++++++++.  ",
"+++++++++++++++++++++++++++++++++++++++++++++++++++++++++++++.    .++++++++++++++++++++++++++.  ",
"+++++++++++++++++++++++++++++++++++++++++++++++++++++++++++++.    .++++++++++++++++++++++++++.  ",
"+++++++++++++++++++++++++++++++++++++++++++++++++++++++++++++.    .++++++++++++++++++++++++++.  ",
"+++++++++++++++++++++++++++++++++++++++++++++++++++++++++++++.    .++++++++++++++++++++++++++.  ",
"+++++++++++++++++++++++++++++++++++++++++++++++++++++++++++++.    .++++++++++++++++++++++++++.  ",
"+++++++++++++++++++++++++++++++++++++++++++++++++++++++++++++.    .++++++++++++++++++++++++++.  ",
"+++++++++++++++++++++++++++++++++++++++++++++++++++++++++++++.    .++++++++++++++++++++++++++.  ",
"+++++++++++++++++++++++++++++++++++++++++++++++++++++++++++++.    .++++++++++++++++++++++++++.  ",
"+++++++++++++++++++++++++++++++++++++++++++++++++++++++++++++.    .++++++++++++++++++++++++++.  ",
"+++++++++++++++++++++++++++++++++++++++++++++++++++++++++++++.    .++++++++++++++++++++++++++.  ",
"+++++++++++++++++++++++++++++++++++++++++++++++++++++++++++++.    .++++++++++++++++++++++++++.  ",
"+++++++++++++++++++++++++++++++++++++++++++++++++++++++++++++.    .++++++++++++++++++++++++++.  ",
"+++++++++++++++++++++++++++++++++++++++++++++++++++++++++++++.    .++++++++++++++++++++++++++.  ",
"+++++++++++++++++++++++++++++++++++++++++++++++++++++++++++++.    .++++++++++++++++++++++++++.  ",
"+++++++++++++++++++++++++++++++++++++++++++++++++++++++++++++.    .++++++++++++++++++++++++++.  ",
"+++++++++++++++++++++++++++++++++++++++++++++++++++++++++++++.    .++++++++++++++++++++++++++.  ",
"+++++++++++++++++++++++++++++++++++++++++++++++++++++++++++++.    .++++++++++++++++++++++++++.  ",
"+++++++++++++++++++++++++++++++++++++++++++++++++++++++++++++.    .++++++++++++++++++++++++++.  ",
"+++++++++++++++++++++++++++++++++++++++++++++++++++++++++++++.    .++++++++++++++++++++++++++.  ",
"+++++++++++++++++++++++++++++++++++++++++++++++++++++++++++++.    .++++++++++++++++++++++++++.  ",
"+++++++++++++++++++++++++++++++++++++++++++++++++++++++++++++.    .++++++++++++++++++++++++++.  ",
"+++++++++++++++++++++++++++++++++++++++++++++++++++++++++++++.    ..++++++++++++++++++++++++..  ",
"..+++++++++++++++++++++++++++++++++++++++++++++++++++++++++++.     ..........................   ",
" ..++++++++++++++++++++++++++++++++++++++++++++++++++++++++++.                                  ",
"  .++++++++++++++++++++++++++++++++++++++++++++++++++++++++++.                                  ",
"  .++++++++++++++++++++++++++++++++++++++++++++++++++++++++++.                                  ",
"  .++++++++++++++++++++++++++++++++++++++++++++++++++++++++++..                                 ",
"  .+++++++++++++++++++++++++++++++++++++++++++++++++++++++++++..                                ",
"  .+++++++++++++++++++++++++++++++++++++++++++++++++++++++++++++                                ",
"  .+++++++++++++++++++++++++++++++++++++++++++++++++++++++++++++                                ",
"  .+++++++++++++++++++++++++++++++++++++++++++++++++++++++++++++                                ",
"  .+++++++++++++++++++++++++++++++++++++++++++++++++++++++++++++                                ",
"  .+++++++++++++++++++++++++++++++++++++++++++++++++++++++++++++                                ",
"  .+++++++++++++++++++++++++++++++++++++++++++++++++++++++++++++                                ",
"  .+++++++++++++++++++++++++++++++++++++++++++++++++++++++++++++                                ",
"  .+++++++++++++++++++++++++++++++++++++++++++++++++++++++++++++                                ",
"  .+++++++++++++++++++++++++++++++++++++++++++++++++++++++++++++                                ",
"  .+++++++++++++++++++++++++++++++++++++++++++++++++++++++++++++                                ",
"  .+++++++++++++++++++++++++++++++++++++++++++++++++++++++++++++                                ",
"  .+++++++++++++++++++++++++++++++++++++++++++++++++++++++++++++                                ",
"  .+++++++++++++++++++++++++++++++++++++++++++++++++++++++++++++                                ",
"  .+++++++++++++++++++++++++++++++++++++++++++++++++++++++++++++                                ",
"  .+++++++++++++++++++++++++++++++++++++++++++++++++++++++++++++                                ",
"  .+++++++++++++++++++++++++++++++++++++++++++++++++++++++++++++                                ",
"  .+++++++++++++++++++++++++++++++++++++++++++++++++++++++++++++                                ",
"  .+++++++++++++++++++++++++++++++++++++++++++++++++++++++++++++                                ",
"  .+++++++++++++++++++++++++++++++++++++++++++++++++++++++++++++                                ",
"  .+++++++++++++++++++++++++++++++++++++++++++++++++++++++++++++                                ",
"  .+++++++++++++++++++++++++++++++++++++++++++++++++++++++++++++                                ",
"  .+++++++++++++++++++++++++++++++++++++++++++++++++++++++++++++                                ",
"  .+++++++++++++++++++++++++++++++++++++++++++++++++++++++++++++                                ",
"  .+++++++++++++++++++++++++++++++++++++++++++++++++++++++++++++                                ",
"  .+++++++++++++++++++++++++++++++++++++++++++++++++++++++++++++                                ",
"  .+++++++++++++++++++++++++++++++++++++++++++++++++++++++++++++                                ",
"  .+++++++++++++++++++++++++++..................................                                ",
"  .++++++++++++++++++++++++++..                                                                 ",
"  .++++++++++++++++++++++++++.                                                                  "};
