/* XPM */
static char * blFragezeichen_xpm[] = {
"32 32 11 1",
" 	c None",
".	c #D6CFA7",
"+	c #E8E1B9",
"@	c #CEC8A4",
"#	c #817D67",
"$	c #4D4B3D",
"%	c #676452",
"&	c #B5AF90",
"*	c #9A967B",
"=	c #000000",
"-	c #1A1915",
"                                ",
"                                ",
"                                ",
"    .........................   ",
"   .+++++++++++++++++++++++++.  ",
"   .+++++++++++++++++++++++++.  ",
"   .+++++++++++++++++++++++++.  ",
"   .++++++++++@#$$%&+++++++++.  ",
"   .+++++++++*======$++++++++.  ",
"   .++++++++*=-*++&$=$+++++++.  ",
"   .++++++++--@+++++$=&++++++.  ",
"   .+++++++*=#++++++@=%++++++.  ",
"   .+++++++*=*+++++++=$++++++.  ",
"   .+++++++@*@++++++&=%++++++.  ",
"   .+++++++++++++++@-=&++++++.  ",
"   .++++++++++++++@-=#+++++++.  ",
"   .+++++++++++++@-=%++++++++.  ",
"   .+++++++++++++$=*+++++++++.  ",
"   .++++++++++++&=$++++++++++.  ",
"   .++++++++++++%=@++++++++++.  ",
"   .++++++++++++#$+++++++++++.  ",
"   .+++++++++++++++++++++++++.  ",
"   .++++++++++++#$+++++++++++.  ",
"   .++++++++++++$=+++++++++++.  ",
"   .++++++++++++$=+++++++++++.  ",
"   .++++++++++++&*+++++++++++.  ",
"   .+++++++++++++++++++++++++.  ",
"   .+++++++++++++++++++++++++.  ",
"   .+++++++++++++++++++++++++.  ",
"    .........................   ",
"                                ",
"                                "};
