/* XPM */
static char * bmKarten_xpm[] = {
"480 64 86 1",
" 	c None",
".	c #030202",
"+	c #023A52",
"@	c #02A808",
"#	c #FE0202",
"$	c #D28D53",
"%	c #66FE32",
"&	c #FE6602",
"*	c #4EC236",
"=	c #0202FE",
"-	c #9A0232",
";	c #AEAE8D",
">	c #6EB6D6",
",	c #7D3B69",
"'	c #8AC6DE",
")	c #474647",
"!	c #8E4E1E",
"~	c #F6D940",
"{	c #8E0E0E",
"]	c #333231",
"^	c #FEEA76",
"/	c #86EE02",
"(	c #9AFECE",
"_	c #3799D1",
":	c #9A76FE",
"<	c #AED6E6",
"[	c #3232FE",
"}	c #E36864",
"|	c #FE9718",
"1	c #FEB10E",
"2	c #FE3232",
"3	c #FEC53D",
"4	c #020287",
"5	c #C27030",
"6	c #EEEE8E",
"7	c #9EF232",
"8	c #D6D6D6",
"9	c #FEEE92",
"0	c #A252CA",
"a	c #FE8632",
"b	c #02DE02",
"c	c #9E5D58",
"d	c #025602",
"e	c #4D084E",
"f	c #8EBAEE",
"g	c #AA324D",
"h	c #9A9A66",
"i	c #3E96B6",
"j	c #FEB942",
"k	c #BA6AE2",
"l	c #7A9ECE",
"m	c #F2F2F2",
"n	c #AE92FE",
"o	c #0A6E06",
"p	c #FECF03",
"q	c #EE0202",
"r	c #32329E",
"s	c #62B2CE",
"t	c #6E6E6E",
"u	c #8A26BA",
"v	c #32646E",
"w	c #FEAC45",
"x	c #FEFE12",
"y	c #FEFEFE",
"z	c #D63E30",
"A	c #86FE5E",
"B	c #F23232",
"C	c #9A9A9A",
"D	c #20B107",
"E	c #661A8E",
"F	c #828282",
"G	c #CECE7A",
"H	c #C686EA",
"I	c #86325E",
"J	c #D5A7EF",
"K	c #D171FE",
"L	c #147AAD",
"M	c #FEE312",
"N	c #C70C1F",
"O	c #E6CEB6",
"P	c #34C12E",
"Q	c #32E632",
"R	c #F3D432",
"S	c #AEFED6",
"T	c #CDCDCD",
"U	c #C6B29E",
"                                                                                                                                                                                                                                                                                                                                                                                                                                                                                                ",
" FFFFFFFFFFFFFFFFFFFFFFFFFFFFFF  FFFFFFFFFFFFFFFFFFFFFFFFFFFFFF  FFFFFFFFFFFFFFFFFFFFFFFFFFFFFF  FFFFFFFFFFFFFFFFFFFFFFFFFFFFFF  FFFFFFFFFFFFFFFFFFFFFFFFFFFFFF  FFFFFFFFFFFFFFFFFFFFFFFFFFFFFF  FFFFFFFFFFFFFFFFFFFFFFFFFFFFFF  FFFFFFFFFFFFFFFFFFFFFFFFFFFFFF  FFFFFFFFFFFFFFFFFFFFFFFFFFFFFF  FFFFFFFFFFFFFFFFFFFFFFFFFFFFFF  FFFFFFFFFFFFFFFFFFFFFFFFFFFFFF  FFFFFFFFFFFFFFFFFFFFFFFFFFFFFF  FFFFFFFFFFFFFFFFFFFFFFFFFFFFFF  FFFFFFFFFFFFFFFFFFFFFFFFFFFFFF  FFFFFFFFFFFFFFFFFFFFFFFFFFFFFF ",
" FFFFFFFFFFFFFFFFFFFFFFFFFFFFFF  FFFFFFFFFFFFFFFFFFFFFFFFFFFFFF  FFFFFFFFFFFFFFFFFFFFFFFFFFFFFF  FFFFFFFFFFFFFFFFFFFFFFFFFFFFFF  FFFFFFFFFFFFFFFFFFFFFFFFFFFFFF  FFFFFFFFFFFFFFFFFFFFFFFFFFFFFF  FFFFFFFFFFFFFFFFFFFFFFFFFFFFFF  FFFFFFFFFFFFFFFFFFFFFFFFFFFFFF  FFFFFFFFFFFFFFFFFFFFFFFFFFFFFF  FFFFFFFFFFFFFFFFFFFFFFFFFFFFFF  FFFFFFFFFFFF.....FFFFFFFFFFFFF  FFFFFFFFFFFFFFFFFFFFFFFFFFFFFF  FFFFFFFFFFFFFFFFFFFFFFFFFFFFFF  FFFFFFFFFFFFFFFFFFFFFFFFFFFFFF  FFFFFFFFFFFFFFFFFFFFFFFFFFFFFF ",
" FFO}OOOOO}OOOOOOOOLOOOOOOOOOFF  FFmmmmmmmmmmmmmmmmmmmmmmmmmmFF  FFmmmmmmmmmmmmmmmmmmmmmmmmmmFF  FF%%%%%%..%%%%%%==hhhhhhhhhhFF  FFmmmmmmmmmm======mmmmmmmmmmFF  FF^^mmmmmmmmmmmmmmmmmmmmmm^^FF  FFmmmmmmmmmmmmmmmmmmmmmmmmmmFF  FFmmmmmmmmmmmmmmmmmmmmmmmmmmFF  FFmmmmmmmmmmmmmmmmmmmmmmmmmmFF  FF..........................FF  FFmmmmmmm...ppppp...mmmmmmmmFF  FFmmmmmmmmmm:::::::::mmmmmmmFF  FFmmmmmmmmmmmmm..mmmmmmmmmmmFF  FFmmmmmmmmm.mmmmmmm.mmmmmmmmFF  FFmm...mmmmmmmmmmmmmm...mmmmFF ",
" FFOOOOOOOOLOOOOfOOOOO6OOOOOOFF  FtmmmmmmmmmmmmmmmmmmmmmmmmmmFF  FtmmmmmmmmmmmmmmmmmmmmmmmmmmFF  FF%%%%%%%%%%%%%=4hhhhhh..hhhFF  Ftmmmmmmmmm========mmmmmmmmmFF  Ft^M~^mmmmmmmmmmmmmmmmmm~^M~FF  FtmmmmmmmmmmmmmmmmmmmmmmmmmmFF  FtmmmmmmmmmmmmmmmmmmmmmmmmmmFF  Ftmmmmmmmmmm######mmmmmmmmmmFF  FF..........................FF  Ftmmmmm..pppp3ppppp&..mmmmmmFF  Ftmmmmmmmmm::::::::::mmmmmmmFF  Ftmmmmmmmmmmmmm.J..mmmmmmmmmFF  Ftmmmmmmmmm..mmmmmm..mmmmmmmFF  FFm.TTT.mmmmmmmmmmmm.TTT.mmmFF ",
" FtOOPUO6OOOO6OOOO6OOOOOO}LOOFF  FF8mmm8mm8mm8mm8mm8mm8mm8mmmFF  FF8mmm8mm8mm8mm8mm8mm8mm8mmmFF  FF%%%%%%%%%%%%%=hhhhhh...hhhFF  FFmm8mm8mm==yy==yy==m8mm8mmmFF  FFm^M~~^~m8mm8mm8mm8m^~^MM^mFF  FF8mmm8mm8mm8mm8mm8mm8mm8mmmFF  FF8mmm8mm8mm8mm8mm8mm8mm8mmmFF  FFmm8mm8mm##########m8mm8mmmFF  FF..yyyyyyyyyyyyyyyyyyyyyy..FF  FF8mmm.pp3pppp3&&&&&&&.m8mmmFF  FF::::m8mm::=========mmm8mmmFF  FFmm8mm8mm8mmm.nJkk..8mm8mmmFF  FF8mmm8mmmm.D.8mmmm...mm8mmmFF  tF.TTTTT.8mm....8mm.TTTTT.mmFF ",
" FFO6O_OOOOOfOOOLOOOlOOOOPOOOtF  FFmmmmmmmmmmmmmmmmmmmmmmmmmmtF  FFmmmmmmmmmm......mmmmmmmmmmtF  FF%@@L@&&&&&&&&hhhhhh....hhhFF  FFmmmmmmmm=y..yy..y=mmmmmmmmtF  FFm^MMMM^^^^^^^^^^^^^^MMMp^mFF  FFmmmmmmmmmmmmmmmmmmmmmmmmmmtF  FFmmmmmmmmmmmmmmmmmmmmmmmmmmtF  FFmmmmmm##############mmmmmmtF  FF..yyyyyyyyyyyyyyyyyyyyyy..FF  FFmmm.pppp3p&&&&&&&&&&&.mmmmtF  FF::::mmmm::==========mmmmmmtF  FFmmmmmmmmmmmm.JJkkkk..mmmmmtF  FFmmmmmmmmm.DD.mmm.DD.mmmmmmtF  FF.TTTTTT.m.TTTT.mm.TTTTTT.mtF ",
" FFOOOOOOOPOOOOOOOOOOOPOOOO6OFF  FFmmmmmmmmmmmmmmmmmmmmmmmmmmFF  FFmmmmmmmm..>>>>>>..mmmmmmmmFF  FFL@@@&&&&&&&&&&hhhhhhe.hhhhFF  FFmmmmmmmm=y..yy..y=mmmmmmmmFF  tFmm^MMMMMM^^^^^^^^MMMMMM^mmFF  FFmmmmmmmmmmmqqqqmmmmmmmmmmmFF  FFmmmmmmmmmmmmmmmmmmmmmmmmmmFF  FFmmmm##################mmmmFF  FF..yy..................yy..FF  FFmm.pp3p&&&&&&&&&&&&&&&.mmmFF  FF::====mm::===========mmmmmFF  FFmmmmmmmmmmm.HJuuukkkk.mmmmFF  FFmmmmmmmmm.DDD...DDD.mmmmmmFF  FF.TTTTTTT.TTTTTT...TTTTTTT.FF ",
" FFOO}OO}OOOOUOOPOOOOO}6OOOOOFF  FFmmmmmmmmmmmmmmmmmmmmmmmmmmFF  FFmmmmmm..>><<>>>>>>..mmmmmmFF  FF@NN&&&&&&&&&&&&hhhhhhhhhhhtF  Ftmmmmmmmm==yy==yy==mmmmmmmmFF  FFmm~MpMMpMMMpMMMpMpMpppp^mmFF  FFmmmmmmmmmmqqqqqqmmmmmmmmmmFF  FFmmmmmmmmmmmmmmmmmmmmmmmmmmFF  Ftmmmm##################mmmmFF  FF..yy..................yy..FF  FFm.pp3&&&&&&&&&&&&&&&&&&.mmFF  FF::=====m:=============mmmmFF  Ftmmmmmmmmmmm.JJuuuuuee.mmmmFF  FFmmmm8mmm.//DD////DDD.mmmmmFF  FF.TTTTTTTTTTTTTTTTTTTTTTTT.FF ",
" FtOPOOlOOOOfO9OOO}OOOOOOOfOOFF  Ftmm8mmmm8mmmmm8mmmm8mmm8mmmFF  tFm8mmm.>>s<mm<s>>>>ss.m8mmmFF  FtNNN&&&&&&&&&&&&hhhhhhhhhhhFF  FFmmm8mmmm====##====mmmm8mmmFF  Ftmm^^MMMMpMMMpMMMMMpMMp^~mmFF  Ftmmm8mmmmmqqxxxxqqm8mmm8mmmFF  Ftmm8mmmm8mmmmm8mmmm8mmm8mmmFF  FFmmm###################qmmmFF  FF..yy..yyyyyyyyyyyyyy..yy..FF  FFm.&p&&&&&&&&&&&&&&&&&&&&.mFF  FF::=====================mmmFF  FFmm8mmmm8mm.Jnuuuuuee.mmmmmFF  Ftmmmmmmm.///////////D.8mmmmFF  FF.TTTTTTTTTCCTCCTTTTTTTTTT.FF ",
" FFOO_OOOOOOOOOOOOOfOOOPOOOOLFF  FFmmmmmmmmmm8mmmmmmmmmmmmmmmtF  FFmmmmm.>>mm'<>>>s>>>>.mmmmmtF  FFNNN&&&&....&&&&hhhhhhhhNNNFF  FFmmmmmmmmm===##===mmmmmmmmmtF  FFmmm^MMMM..MMMpMp..pppp^mmmtF  FFmmmmmm8mmqqxxxxqqmmmmmmmmmtF  FFmmmmmmmmmm8mmmmmmmmmmmmmmmtF  FFmmm####################mmmtF  FF..yy..yyyyyyyyyyyyyy..yy..FF  FF.&&&&&&&&..&&..&&&&&&&&&.mFF  FF::===================44mmmtF  FFmmmmmmmmmm.JJuuuuuee.mmm8mFF  FFmmmmmm.////..DD../DDD.mmmmtF  FF.TTTTTTTTTCCTCCTTTTTTTTTT.FF ",
" FFOOO6OUOOOO}OO6OOOOLOOOO6OOFF  FFmmmmmmmmmmmmmmmmmmmmmmmmmmFF  FFmmmm.>>'m<>>>>>>>>>>>.mmmmFF  F:NN&&&&&&..&&&&&hhFhhhhCNNNFF  Ftmmmmmmmmmm==##==mm8mmmmmmmFF  FFmmm^pMM....MMMM....ppp^mmmFF  FtmmmmmmmmmqqxxxxqqmmmmmmmmmFF  FFmmmmmmmmmmmmmmmmmmmmmmmmmmFF  Ftmm######################mmFF  FF..yy..yy..........yy..yy..FF  FF.&&&&&&&&..&&..&&&&&&&&&&.FF  FF::====================44mmFF  FFmmmmmmmmm.JHuuuuu4e.mmmmmmFF  FF8mmmmm.////..DD..DDDD.mmmmFF  FF.TUTTTTTTT.TT.TTTTTTTTTTT.FF ",
" FFOOOOOO_U9OOOOOLOOOOOOOfOOOFF  FFmmm8mmmmmmmmmm8mmmmm8mmmmmFF  FFmmmm.>><ss>>>s>>>>>>_.mmmmFF  FFh&&&&&&&&&&&&&&hhhhhhhh...FF  FFmmmm8m=======##=====mmmmmmFF  FFmmm^^MM....pppp....1p^^mmmFF  FFmmmmmmmmmmqqxxqqmmmmmmmmmmFF  FFmmm8mmmmmmmmmm8mmmmm8mmmmmFF  FFmm######################mmFF  FF..yy..yy..........yy..yy..FF  F.&&&&&&&&&&&&&&&&&&&&&&&&&.FF  FFmm=====================44mFF  Ftmm..mmmmm.JJuuuuuee.mmmmmmFF  FFmmmmmm.DDDDDDDDDDDDDD.mmmmFF  FF.TTTTTTUTTTTTTTTUTTTUTTTT.FF ",
" FtOOPOOOOOOOPOOOOOPOOOUOOO}OFF  Ftmmmm8mmmmmmmmmmmmmmmmm8mmmFF  Ftmmm.>>>>>>>>>>>>>>>i_L.mmmFF  FF&&&&&&&&&&&&&&&&hhhhhhhe..FF  Ftmmmm==========##======8mmmFF  Ftmmm^~MMM..pppppp..jjj^~mmmFF  Ftmmmmmmmmmmmqqqqmmmm8mm8mmmFF  Ftmmmm8mmmmmmmmmmmmmmmmm8mmmFF  FFm########################mFF  FF..yy..yy..yyyyyy..yy..yy..FF  F.&&&&&&&&&&&&&&&&&&&&&&&&&&.F  FFmmm====================44mFF  FFmm.J..mm.JJuuuuuee.mmmmmmmFF  FFmm8mm.DDDDDDDDDDDDDDD.mmmmFF  FF.TTTTTTTTTTTTTTTTTTTTTTTT.FF ",
" FFOOOOOPOOOOOOOOOOOOO9OOPOOOtF  FFmmmmmmm8mmmmmmmm8mmmmmmmmmFF  FFmmm.>>>>>>>s>>>>>i__LL.mmmFF  FF&GG&&----&&&&&&&&&&&&&&...FF  FFmmm====================mmmFF  FFmmm^^ppppppp3jjjj1j11^^mmmtF  FFmm8mmmm8mmmqqqmmmmmmmmmmmmFF  FFmmmmmmm8mmmmmmmm8mmmmmmmmmFF  FFm########################mFF  FF..yy..yy..yyyyyy..yy..yy..FF  F.&&&&&&&&&&&&&&&&&&&&&&&&&&.F  FFmmmm::=================44mFF  FFmm.kJJ...Jnuuuuuee.mm8mmmmtF  FFmmmmm.DDDDD/////DDDDD.mm8mFF  FF.TTTTT.TTT.TT.TTTTT.TTTTT.FF ",
" FtO6OOOOO}OOOO}OOLOOOOOOOOOOFF  FFmmmmmmmmmmm8mmmmmmmmmmmmmmFF  Ftmmm.>>>>>>>>>>>_i__LLL.mmmFF  FtGGG&-----&&&&&&&&&&&&&&e..FF  Ftmm==========pp==========mmFF  FF8mm^^Mppppp3p3pj3j111^~mmmFF  FtmmmmmmmmmmmddmmmmmmmmmmmmmFF  FFmmmmmmmmmmm8mmmmmmmmmmmmmmFF  FFm########################mFF  FF..yy..yy..yy..yy..yy..yy..FF  F.&&&&&&&&&&&&&&&&&&&&&&&&&&.F  Ftmmmm::==================44FF  FFmmm.kJJHJJuuuuuee.mmmmmmmmFF  Ftmmmmm.DDD.///////.DDD.mmmmFF  FFm.TTT.TTTT.TT.TTTTT.TTTT.mFF ",
" FFOOOfOOOOLOO8OOOOOOOOOOO6OOFF  FFmmmmmmmmmmmmmmmmmmmmmmm8mmtF  FFmmm._>>>>>>___i__LLLL+.mmmtF  FFGGG------&&&&gI((((ee3G...FF  FFm==========pppp==========mtF  FFmmm^~pp331j111111111|9^mmmFF  FFmmmmmmmmmmmddmm8mmmmmmm8mmtF  FFmmmmmmmmmm......mmmmmmm8mmtF  FFm########################mFF  FF..yy..yy..yy..yy..yy..yy..FF  F.&&&&&&&&&.ppp&&&.&&&&&&&&&.F  FFmmm::===================44FF  Ftmmm.kkJJJJuuuuue4.mmmmmmmmFF  FFmmmmm.DDD.///////.DDD.mmmmFF  FFmm...TTTTT.TT.TTTTT.TTT.mmFF ",
" FFOOPOUOOOOOOOfOO6OOP}OOOOfOFF  Ftmmmmmmm8mmmmmmmmm8mmmmmmmmFF  Ftm..>._______i__LLLLL+.L..mFF  FtGG--------&&&gg(((S(eeR...FF  FF===m======pp3ppp======m===FF  FFmmm^^3pjp333j11111|1|^^mmmFF  FFmmm8m@@mmmmddmmm8mm@@mmmmmFF  Ftmmmmmmmm..&||1||...mmmmmmmFF  FFm########################mFF  FF..yy..yy..yyyyyy..yy..yy..FF  F.&&&&&&&&&.ppp&&&.&&&&&&&&&.F  Ftmm::===================444FF  FFmmm.kkuuJuuuuuee.mmmmm8mmmFF  Ftmmmmm.DDD.DDDDDDD.DDD.mmmmFF  tFmmmm.TTTTT.TT.TTTTT.TT.mmmFF ",
" FFOOOOO9OOO^OOOOOOOOOOOOOOOOtF  FFmm8mmmmmmmm8mmmmmmmmmmmmmmFF  FF.s<<>._i_sLLLLLLLLd+.+Ls>.FF  FF-----------bbbbbb((((e{..eFF  FF==mm======ppp3pp======mm==FF  FFmmm^^1j..1|1111|1..||^^mmmtF  FFmmmmm@@@m8mmdmmmmm@@@mmmmmFF  FFmm8mmm8m.{{{{yjj{{.mmmmmmmFF  FFmm######################mmFF  FF..yy..yy..yyyyyy..yy..yy..FF  F.&&&&&&&&&.&p3&&&.&&&&&&&&&.F  FFm::====================444FF  FFmmmm.kkuuuuuuuee.mmm8mmmmmtF  FFmmmmm.DDDD.DDDDD.oDDD.mmmmtF  FFmmmm.TTTTT.TT.TTTTT...mmmmtF ",
" FtOLOOfOOOOOfOOOOUOOOOfLO6OOFF  Ftmmmmmmmmmmmmm8mmmmm8mmmmmmFF  FF<m<>>.LLLLLLLLLd++++.+L>>sFF  FF-----------bbbbbb(((((e{..FF  FF==mm======3pp3pp======mm==FF  Ftmmm^^j31...11|1...|||^~mmmFF  Ftmmmmm@@@@mmmmddmm@@@@mmmmmFF  Ftmmmmmmmm.NNNN{{{zz.mmmmmmmFF  Ftmm######################mmFF  FF..yy..yy..........yy..yy..FF  FF.&&&&&&&&.&p&&&&.&&&&&&&&.FF  FF::====4444=============44mFF  Ftmmmm.kkuuuuuuEEE..mmmmmmmmFF  FFm8mmm.DDDDD.....oooDD.mmmmFF  Ftmmmm.TTTTT.TT.TTTTT.mmmmmmFF ",
" FFOOOOOOP}O}OOOO_O}OOUOOOPO_FF  FFmmmm8mmmmmmmmmmmmmmmmmm8mmFF  FF<>>>_L.+LLLd+d+++++.++_>>>FF  FF---....----bb..bb((((((e{eFF  FF==mm======pppp3p======mm==FF  FFmmm^11111........||||^^mmmFF  FFmmmmmm@@@@mmmddm@@@@mmmmmmtF  FFmmmmmmmm.N{NzzzBzN.mmm8mmmFF  FFmmm####################mmmtF  FF..yy..yy..........yy..yy..FF  FF.&&&&&&&&.&&&&&.&&&&&&&&&.FF  FF::===44444=========4==444mFF  FFmmmm.kkuuuuuuuEEkk..mmmmmmFF  FFmmmmm.DDDDDDDoooooDDD.mmmmFF  FFmmmm.TTTTT.TT.TTTTT.mmmmmmFF ",
" FFOOO^OOOOOOOOOOOOOO}_OOOOOOFF  FFmmmmmm8mmmmmmmmmmmmmmmmmmmFF  FFs>__L+.d+++++++++++.++__isFF  FF----..-----bbbbbb((((((({eFF  FF==mmm======3ppp======mmm==FF  FF8mm^111|1|......||||||~mmmFF  Ftmmmmmmm@@@@@@@@@@@@mm8mmmmFF  FFmmmmmmm.N{5Nzz{{NNN.mmmmmmFF  FFmmm####################mmmFF  FF..yy..yyyyyyyyyyyyyy..yy..FF  FF.&&&&&&&&.&&&&&.&&&&&&&&.mFF  FF::==4444mm::======4444444mFF  FF8mmmm.kkuuuuuuuukkkk..8mmmFF  FFmmmmm.DDDDDDDDoooDDDD.mmmmFF  Ftmmmm.TTTTT.TT.TTTTT.mm8mmmFF ",
" FFOOOTOOLOOUO*OOOOOOOO6OOOOOtF  FFmmmmmmmmmmmmmm8mmmmmmmmmmmtF  FF__L+++.++++++++++++.++LL__FF  FFe--------kKbbbbbb((..((((eFF  FF==mmmm======pp======mmmm==FF  FFmm~^||1|||||||||||||||^^mmFF  FFmm8mmmmm@@@@@@@@@@mmmmmmmmFF  FFmm8mmmm.N!55z{!55NN.mmmmmmtF  FFmmmm##################mmmmFF  FF..yy..yyyyyyyyyyyyyy..yy..FF  FFm.&&&&&&&&.&&&.&&&&&&&&&.mFF  FF::=4444mmm::=====44m44446mFF  FFmmmmm.kkuuuuuuueeeeEE..mmmFF  FFmmmmm.DDDDDDDDDDDDDDD.mm8mFF  FFmmmm.TTTCC.TT.CCCTT.mmmmmmFF ",
" Ft}OPOOOOOO_OOOOOOOOOOOO}OOOFF  Ftmmmmmmmmmm8mmmm8mmm8mmmmmmFF  FFLd+++...+++.....++...++LLLFF  FFe--------kkkbbbbb((S((((SeFF  FFmmmmmm==============mmmmmmFF  FFmm^11|1||||||||||||||||~mmFF  FFmmmmmmmmm@@@@@@@@mmmmmmmmmFF  Ftmmmmmmm.5555{!555NN.mmmmmmFF  Ftmmmm##################mmmmFF  FF..yy..................yy..FF  FFmm.&&&&&&&&...&&&&&&&&&.mmFF  FFmm4444mmmm::====44mmm6mmmmFF  FFmmmmm.kkuuuueee4ee...mmmmmFF  Ftmmmmm.DDDDDooooDDDDDD.mmmmFF  Ftmmmm.TTTC.TTTT.CCTT.mmmmmmFF ",
" FFOOOOOOOOOOOOfOOOOPOOUOOOPOFF  FFmm8mmmm8mmmmmmmmmmmmmm8mmmFF  FF+++..mmm...++++...mmm..++LFF  FFS((------KKkkbbggIg((((((vFF  FFmmmmmm==============mmmmmmFF  FFmm^||||||^^^^^^^^||||||^mmtF  FFmmmmmmmmmm@@@@@@mmmmmm8mmmFF  FFmmmmmmm.$5555555NgN{.mmmmmFF  FFmmmmm################mmmmmtF  FF..yy..................yy..FF  FFmmm.&&&&&&&&&&&&&&&&&&.mmmtF  FFmmm44mmmmm::===444mmmmmmmmtF  FFm8mmmm.k:Eee4ee...mmmmmmmmtF  FFmmmmm.DDDDD.....DDDDD.mmmmFF  FFmmmm.TTT.TTTTTT.TTT.mmm8mmtF ",
" FtOO}OOfOOOOOO}OOOfOOOO}OOOOFF  FFmmmmmmmmmmmmmmmmmmmmmmmmmmFF  FF+..mmmmmm.++++++.mmmmmm..+FF  FF(((------K0KkbbbgIgI((((((FF  tFm8mmm####========####m8mmmFF  tFm^||||^^^^^^~^^~^^~^|||a^mFF  Ftmmm8mmmmmmmmmmmmmm8mmmmmmmFF  FFmmmmmmm.5|555!55NNN5.m8mmmFF  Ftmmmmmm#############mmmmmmmFF  FF..yyyyyyyyyyyyyyyyyyyyyy..FF  Ftmmmm.&&&&&&&&&&&&&&&&.mmmmFF  Ftmmmm6mmmmm::==4444mmmmmmmmFF  tFmmmmmm.kEeee...mmmmmmm8mmmFF  FF8mmmm.DDDDD.mmm.DDDDD.mmmmFF  FF8mmm.TTTT.TTTT.TTTT.mmmmmmFF ",
" FFOO^POOOOOOOL9OOOOOOOOOOOOOtF  FFmmmmmmmmmmmmmmmmmmmmmmmmmmFF  FF.mmmmmmmm._+++++.mmmmmmmm.FF  FF(((xx----]]K0vvbbgIgIgIgg(FF  FFmmmm######======######mmmmtF  FFm^||^^^mmmmmmmmmmmm^^^||^mFF  FFmmmmmmmmmmmmmmmmmmmmmmmmmmtF  FFm8mmmm.55555$555{N{5.mmmmmtF  FFmmmmmmmm#########mmmmm8mmmFF  FF..yyyyyyyyyyyyyyyyyyyyyy..FF  FFmmmmm.&&&&&&&&&&&&&&.mmmmmFF  FFmmmmmmm8mmm:=44446mmm8mmmmFF  FFmmmmmm.Ee...mmmmmmmmmmmmmmFF  FFmmmmm.DDDDD.mmm.DDDDD.mmmmtF  FFmmmm.TTTTT....TTTTT.mmmmmmFF ",
" FtfOOOO6POOPOOOOOO^OOOLOO6OOFF  Ftmm8mmmmmmmmmm8mmm8mmmm8mmmFF  FFmmmmmmmmm._>++++.mmmmmmmmmFF  FF(((xx---N]]KKvvbbIgIgIgIgIFF  FFmmmm######mmmmmm######mmmmFF  FF^|^^mmmmmmmmmmmmmmmmmm^^|^FF  Ftmmmmmm8mmmmmmmmmmmmmmm8mmmFF  tFmmmmmm.5$!!t!5$55{!55.mmmmFF  Ftmm8mmmmmmmm####mmmmmmmmmmmFF  FF..........................FF  Ftmmmmmm.&&&&&&&&&&&..mmmmmmFF  Ftmmmmmmmmmmmm4444mmmmmmmmmmFF  FFmm8mmm...mmmmmmmm8mmmmmmmmFF  FFmmmmm.DDDDD.mmm.DDDDD.mmmmFF  FFmmmm.TTTT.mmmm.TTTT.mmmmmmFF ",
" FFOOOOUOOO_OOOOOU}OOPOOOfOOPFF  FFmmmmmm8mm8mmmmmmmmmmmmmmmmtF  FFmmmmmm8mm._>__++.mmmmmmmmmFF  FF(((xx----]]Kk)vbbgIgIgIgIgFF  FFmmmmm####mmmmmmmm####mmmmmFF  FF^^mmmmmmm8mmmmmmmmmmmmmm^~FF  FFmmmmmmmmmmmmmmmmmmmmmmmmmmFF  FFmmmmmm.555!t55555555!.mmmmFF  FFmmmmmmmmmmmmmmmmmm8mmmmmmmFF  FF..........................FF  FFmmmmmmm..&&&&&&&..mmmm8mmmFF  FFmm8mmmmmmmmmm44mmmmmmmmmmmtF  Ftmmmmmmmmmmmmmmmmmmmmmmmm8mFF  FFmmmmm.......mmm.......mmmmFF  FFmmmm.....mmmmmm.....mm8mmmFF ",
" FFFtFFFFFtFFFtFFFFFFFFFFtFFFFF  FFFFFtFFFFFFtFFFtFFFFtFFFtFFFF  tFFtFtFFFFFFFFFFFFFFtFFtFtFtFF  FFFFFFFFFFFFcFFFFFFFFFFFFFFFFF  tFtFtFFFFFFFFtFFtFFFFFFFFtFFFF  FtFFFFFFtFFFFFtFFtFFtFtFtFFFFF  FFFtFtFFFFtFFtFtFtFtFtFFFtFFFF  FFFtFtFFFFFFFFFFFFFFFFFFFtFFFF  FFFFFFtFtFFtFFFFFtFFFFtFFtFtFF  FFFFFFFFFFFFFFFFFFFFFFFFFFFFFF  FFFtFtFFFFF.......FFFFFFFFFtFF  FFFFFtFFtFFtFFFFFFtFtFFtFtFFFF  FFFFFFtFFFFFFtFFtFFFFtFtFFFFFF  FtFtFFFFFFFFFFFFFFFFFFFFFtFFFF  FtFtFFFFFFFFFFtFFFFFFFFFFFFtFF ",
" FFFFFFFFFFFFFFFFFFFtFFFFFFFFFF  FFFFFFFFFFFFFFFFFFFtFFFFFFFFFF  FFFFFFFFFFFFFFFFFFFFFFFFFFFFFF  FFFFFFFFFFFFFFFFFFFFFFFFtFFFFF  FFFFFFFFFtFFFFFFFFFFFtFFFFFFFF  FFFFtFFFFFFFFFFFFFFFFFFFFFFFFF  FFFFFFFFFFFFFFFFFFFFFFFFFFFFFF  FFFFFFFFFFFFFtFFFFFFFtFFFFFFFF  FFFtFFFFFFFFFtFFFFFFFFFFFFFFFF  FFFFFFFFFFFFFFFFFFFFFFFFFFFtFF  FFFFFFFFFFFFFFFFFFFFtFFFFFFFFF  FFFFFFFFFFFFFFFFtFFFFFFFFFFFFF  FFFFFFFFFFFFFFFFFFFtFFFFFFFFFF  FFFFFFFFFFFFFFtFFFFFFFFtFFFFFF  FFFFFFFFFtFFFFFFFFFFtFFFFFFFFF ",
"                                                                                                                                                                                                                                                                                                                                                                                                                                                                                                ",
"                                                                                                                                                                                                                                                                                                                                                                                                                                                                                                ",
"                                                                                                                                                                                                                                                                                                                                                                                                                                                                                                ",
"                                                                                                                                                                                                                                                                                                                                                                                                                                                                                                ",
"                                                                                                                                                                                                                                                                                                                                                                                                                                                                                                ",
"                                                                                                                                                                                                                                                                                                                                                                                                                                                                                                ",
"                                                                                                                                                                                                                                                                                                                                                                                                                                                                                                ",
"                                                                                                                                                                                                                                                                                                                                                                                                                                                                                                ",
"                                                                                                                                                                                                                                                                                                                                                                                                                                                                                                ",
"TUTUTUTUTUTUTUTUTUTUTUTUTUTUTUTU  CCCCCCCCCCCCCCCCCCCCCCCCCCCC    CCCCCCCCCCCCCCCCCCCCCCCCCCCC    CCCCCCCCCCCCCCCCCCCCCCCCCCCC    CCCCCCCCCCCCCCCCCCCCCCCCCCCC    CCCCCCCCCCCCCCCCCCCCCCCCCCCC    CCCCCCCCCCCCCCCCCCCCCCCCCCCC    CCCCCCCCCCCCCCCCCCCCCCCCCCCC    CCCCCCCCCCCCCCCCCCCCCCCCCCCC    CCCCCCCCCCCCCCCCCCCCCCCCCCCC    CCCCCCCCCCC]]]]]CCCCCCCCCCCC    CCCCCCCCCCCCCCCCCCCCCCCCCCCC    CCCCCCCCCCCCCCCCCCCCCCCCCCCC    CCCCCCCCCCCCCCCCCCCCCCCCCCCC    CCCCCCCCCCCCCCCCCCCCCCCCCCCC  ",
"tttttttttttttttttttttttttttttttt  CCmmmmmmmmmmmmmmmmmmmmmmmmCC    CCmmmmmmmmmmmmmmmmmmmmmmmmCC    CCAAAAAAAAAAAA[[;;;;;]];;;CC    CCmmmmmmmm[[[[[[[mmmmmmmmmCC    CCM99mmmmmmmmmmmmmmmmm99M9CC    CCmmmmmmmmmmmmmmmmmmmmmmmmCC    CCmmmmmmmmmmmmmmmmmmmmmmmmCC    CCmmmmmmmmm222222mmmmmmmmmCC    CC]]]]]]]]]]]]]]]]]]]]]]]]CC    CCmmmm]]R~R~R~~R~a]]mmmmmmCC    CCmmmmmmmmnnnnnnnnnmmmmmmmCC    CCmmmmmmmmmmmm]J]mmmmmmmmmCC    CCmmmmmmmm]]mmmmm]]mmmmmmmCC    CC]888]mmmmmmmmmmm]888]mmmCC  ",
"ttUUUU;UUUULUUUUllUU;UUGUUUUUUtt  CCmmmmmmmmmmmmmmmmmmmmmmmmCC    CCmmmmmmmmm]]]]]mmmmmmmmmmCC    CCDPiDaaaaaaaa;;;;;]]]];;;CC    CCmmmmmmm[y]]yy]][mmmmmmmmCC    CC9M^MM9999999999999MM^M9mCC    CCmmmmmmmmmmmmmmmmmmmmmmmmCC    CCmmmmmmmmmmmmmmmmmmmmmmmmCC    CCmmmmm2222222222222mmmmmmCC    CC]yyyyyyyyyyyyyyyyyyyyy]]CC    CCmm]~R~RRRaaaaaaaaaa]mmmmCC    CCnnnmmmmnn[[[[[[[[[mmmmmmCC    CCmmmmmmmmmmm]JTHHH]]mmmmmCC    CCmmmmmmmm]**]mmm**]mmmmmmCC    CC888888]m]8888]m]888888]mCC  ",
"ttUUGULUUUUUlUUULLUUUlUUUUDUUUtt  CCmmmmmmmmmmmmmmmmmmmmmmmmCC    CCmmmmm]]''<<''''']]mmmmmmCC    CnBzaaaaaaaaaaaa;;;;U;;;;;CC    CCmmmmmmm[[yy[[yy[mmmmmmmmCC    CCm9M^M^MM^MMM^MMM^~~M~9mmCC    CCmmmmmmmmmBBBBBBmmmmmmmmmCC    CCmmmmmmmmmmmmmmmmmmmmmmmmCC    CCmmm22222222222222222mmmmCC    CC]yy]]]]]]]]]]]]]]]]]yy]]CC    CC]~RRaaaaaaaaaaaaaaaaa]mmCC    CCn[[[[[mn[[[[[[[[[[[[mmmmCC    CCmmmmmmmmmm)JJ0000,,]mmmmCC    CCmmmmmmm]77**777***]mmmmmCC    CC88888888888888888888888]CC  ",
"ttUUU}UUcUUUUUUUPDJUUUUcGUUUUUtt CCmmmmmmmmmmmmmmmmmmmmmmmmmmCC  CCmmmmm]''mm8<'''''''']mmmmmCC  CCgBgaaaa]]]]aaaa;;;;;;;;BgBCC  CCmmmmmmmmm[[[22[[[mmmmmmmmmCC  CCmmm9MM^M]]^M^MM^]]~~~~9mmmCC  CCmmmmmmmmmBBxxxxBBmmmmmmmmmCC  CCmmmmmmmmmmmmmmmmmmmmmmmmmmCC  CCmmm22222222222222222222mmmCC  CC]]yy]]yyyyyyyyyyyyyy]]yy]]CC  CC]aaaaaaaa]]aa]]aaaaaaaaa]mCC  CCnn[[[[[[[[[[[[[[[[[[[rrmmmCC  CCmmmmmmmmmm]JT00000,)]mmmmmCC  CCmmmmmm]7777]]**]]7***]mmmmCC  CC]888888888;;8;;8888888888]CC ",
" tt;ULJUUUUUUUUJUUUlUUJDUUUULtt  CCmmmmymmmymmmymmmymmmymmmmmCC  CCmmmy]''<''''''''''''>]mmmmCC  CC;aaaaaaaaaaaaaa;;;;;;;;]]]CC  CCmymmmy[[[[[[[22[[[[[ymmmmmCC  CCmmm99MM]]]]M~~R]]]]3R99mmmCC  CCmymmmymmmyBB9xBBymmmymmmmmCC  CCmmmmymmmymmmymmmymmmymmmmmCC  CCmy2222222222222222222222mmCC  CC]]yy]]yy]]]]]]]]]]yy]]yy]]CC  C]aaaaaaaaaaaaaaaaaaaaaaaaa]CC  CCmm[[[[[[[[[[[[[[[[[[[[[rrmCC  CCmy]]mymmm)JJ00000r,]mmmmmmCC  CCmmmmym]**************]mmmmCC  CC]888888888888888888888888]CC ",
" ttUUUUUULJGU;UUULUUUUUUUlUUUtt  CCmmymmmmmmmmmmmmmmmmmmmmmmmCC  CCmmm]'''''''''''''sssii]mmmCC  CCaGGaaggggaaaaaaaaaaaaaa]]]CC  CCmmm[[[[[[[[[[[[[[[[[[[[mmmCC  CCmmm99~~~~~RRRR33R33j399mmmCC  CCmmmmmmmmmmmBBBymmmmmmmmmmmCC  CCmmymmmmmmmmmmmmmmmmmmmmmmmCC  CCm222222222222222222222222mCC  CC]]yy]]yy]]yyyyyy]]yy]]yy]]CC  C]aaaaaaaaaaaaaaaaaaaaaaaaaa]C  CCmmymnn[[[[[[[[[[[[[[[[[rrmCC  CCmm]HJJ)]]JT00000,,]mmmmmmmCC  CCmmymm]*****77777*****]mmmmCC  CC]88888]888]88]88888]88888]CC ",
" ttUUUUJDUUUUUUUUUUUUUGUJDUUUtt  CCmmmmmmmmmmmmmmmmmmmmmmmmmmCC  CCmmm]s''''''ssssssiiiiv]mmmCC  CCG~GggggggaaaaccSSSSIIRG,]]CC  CCm[[[[[[[[[[~~~~[[[[[[[[[[mCC  CCmmm99~~RRR333333jjjjw99mmmCC  CCmmmmmmmmmmyoLmmmmmmmmmmmmmCC  CCmmmmmmmmmm]]]]]]mmmmmmmmmmCC  CCm222222222222222222222222mCC  CC]]yy]]yy]]yy]]yy]]yy]]yy]]CC  C]aaaaaaaaa]RRRaaa]aaaaaaaaa]C  CCmmmnn[[[[[[[[[[[[[[[[[[[rrCC  CCmmy]HHJJJJ00000),]mmymmmmmCC  CCmmmmm]***]7777777]***]mmmmCC  CCmm]]]88888]88]88888]888]mmCC ",
" ttUUUlUUUULJUGUUUUUUUUUUUGUUtt  CCmmmmmymmmymmmymmmymmmymmmmCC  CC]'<8']ssssiiiiiiiivv]vi'']CC  CCgggggggggggQQQQQQSSSSII]]]CC  CC[[ym[[[[[[M~R~~~[[[[[[ym[[CC  CCmmm9933]]jjjjjjjj]]ww99mmmCC  CCmmymmPPPmmmyv9ymmmPPPmmmmmCC  CCmmmmmymm]g!g!yRRg!]mmymmmmCC  CCmm2222222222222222222222mmCC  CC]]yy]]yy]]yyyyyy]]yy]]yy]]CC  C]aaaaaaaaa]aRRaaa]aaaaaaaaa]C  CCmnn[[[[[[[[[[[[[[[[[[[[rrrCC  CCmmmy]HHk000000,,rmmmmmmmmmCC  CCmmmmm]****]*****]iP**]mmmmCC  CCmmmm]88888]88]88888]]]mmmmCC ",
" ttUUUUUGUUUGUUUUUUUUUUUUUUUUtt  CCmmmmmmmmmmmmmmmmmmmmmmmmmmCC  CC<'''si]viiivvvvvvvv]vvs'''CC  CCggg],]rggggQQ]]QQSSSSSSIgICC  CC[[my[[[[[[RR~R~M[[[[[[mm[[CC  CCymm9j33jj]]]]]]]]wwww99mmmCC  CCmmmmmmPPPPmyyovmPPPPmymmmmCC  CCmmmmmmmm)zgz}}}}}z]mmmmmmmCC  CCmyy22222222222222222222mmmCC  CC]]yy]]yy]]]]]]]]]]yy]]yy]]CC  CC]aaaaaaaa]aaaaa]aaaaaaaaa]CC  CCnn[[[rrrrr[[[[[[[[[r[[rrrmCC  CCmmmm]HH0000000,,HH]]mymmmmCC  CCmmmmm]*******ioioi***]mmmmCC  CCmmmm]88888]88]88888]mmmmmmCC ",
" ttUUUUUUDzUcUUUUvUzU;UUJUDJLtt  CCmmmmmmmmmmmmmmmmmmmmmmmmmmCC  CC>s_vvv]vvvvvvvvvvvv]vviissCC  CCIggggggggHKQQQQQQSS]]SSSSICC  CC[[mmym[[[[[[RR[[[[[[ymmm[[CC  CCmm99jwjwjwwwwwwwwwwwww99mmCC  CCmmmmmmmmPPPDP*PPPPmmmmmmmmCC  CCmmmmmmm]zF$$}g5$$zz]mmmmmmCC  CCmmmy222222222222222222ymmmCC  CC]]yy]]yyyyyyyyyyyyyy]]yy]]CC  CCm]aaaaaaaa]aaa]aaaaaaaaa]mCC  CCnn[rrrryyynn[[[[[)ryrrrrmmCC  CCmmmmy]HH0000000,,),,0]]mmmCC  CCmmmym]*P*************]ymmmCC  CCmmym]888;;]88];;;88]mmmmmmCC ",
" ttU$UUUULUUUJDUUUUUUU;GUUUUUtt CCmmymmmymmmymmmymmmymmmymmmmmCCCCvvv]]mmm]]]]v)vv]]]mmm]]vviiCCCCSSSggggggzHHKKQQccccSSSSSS(FCCCCmmmmmm[[[[[[[[[[[[[[[mmmmmmmCCCCmm9wwwwwww99999999wwwwwww9mmCCCCmmmmmmmmmmmPPPPPPmmmmmmmmmmmCCCCmmymmmym]|$$$$$$$$zzzg]mmmmmCCCCmmmmy22222222222222222mmmmmmCCCC]]yy]]]]]]]]]]]]]]]]]]]yy]]]CCCCmmm]aaaaaaaaaaaaaaaaaaa]]mmmCCCCmmyrryymmmmnJ[[[rrrmmymymmmmCCCCmymmmmm]HH,,,r,)r]r]mmmmmmmmCCCCmmmmmm]***P*]]]]]]*****]mmmmCCCCmmmmm]888r8888888]888]mmmmmmCC",
"  ttUUUUUJUUUUUUlUUUDJUUUUUDtt  CCmmmmmmmmmmmmmmmmmmmmmmmmmmmmCCCC]mmmmmmmm]ssvvvvv]mmmmmmmm]]CCCCSSSx9gggggt!HHFtQQcccccccccSCCCCmmmm2222222[[[[[[2222222mmmmCCCCm9wwj999mmmmmmmmmmmmm999ww9mCCCCmmymmmmmmmmmmmmmmmmmmmmmmmmmCCCCmmmmmmm]$$$$$$$$$$,z!$)mmmmmCCCCmmmmmmyy2222222222yymymmmmmmCCCC]]yyyyyyyyyyyyyyyyyyyyyyy]]]CCCCmmmmm]aaaaaaaaaaaaaaa]mmmmmmCCCCmmmmmmmmmmmmn[rrrrymmmmmmmmmCCCCmmmmmmm]0,]]]mmmmmmmmmmmmmmmCCCCmmmmmm]*****]mmm]]*****]mmmmCCCCmmmmm]88888]]]]]88888]ymmmmmCC",
"  ttUJGDUUUU$UJLGUUUUUU$UUUUtt  CCmmmmmmmmmmmmmmmmmmmmmmmmmmmmCCCCmmmmmmmmm]ss'slvv]mmmmmmmmmmCCCCSSSx9ggggg)tHHiFQQ}c}c}c}cccCCCCmmmmy22222mmymmymy22222mmmmmCCCC99mmmmmmmmmmmmmmmmmmmmmmmm99CCCCmmmmmmmmmmmmmmmmmmmmmmymmmmmCCCCmmmmmmm]$$$FF$$$$$$$$$5]mmmmCCCCmmmmmmmmyyyyyyyyymmmmmmmmmmmCCCC]]]]]]]]]]]]]]]]]]]]]]]]]]]]CCCCmmmmmmm]]]aaaaaaa]]mmmmmmmmmCCCCmmymmmmmmmmmmyrrmmmmmmmmmmmmCCCCmmmmmmmmmmmmmmmmmmmmmmymmmmmCCCCymmmmm]]]]]]]mmm]]]]]]]]mmmmCCCCmmmym]]]]]mmmmmmm]]]]]mmmmmmCC",
"  ttUUUUUUUULUUUUUzUUDUUUlUUtt  CCCCCCCCCCCCCCCCCCCCCCCCCCCCCCCCCCCCCCCCCCCCCCCCCCCCCCCCCCCCCCCCCCCCCCCCnCnCCCCCCCCCFCCCCCCCCCCCCCCCCCCCCCCCCCCCCCCCCCCCCCCCCCCCCCCCCCCCCCCCCCCCCCCCCCCCCCCCCCCCCCCCCCCCCCCCCCCCCCCCCCCCCCCCCCCCCCCCCCCCCCCCCCCCCClCCCClCCCCCCCCCCCCCCCCCCCCCCCCCCCCCCCCCCCCCCCCCCCCCCCCCCCCCCCCCCCCCCCCCCCCCCCCCCCCCCCCCCCCCCCCCCCCCCCCCCCCCCCCCCCCCCCCCCCCCCCCCCCCCCCCCCCCCCCCCCCCCCCCCCCCCCCCCCCCCCCCCCCCCCCCCCCCCCCCCCCChChChChCCCCCCCCCCCCCCCCCCCCCCCCCCCCCCCCCCCCCCCCCCCCC",
"  tttttttttttttttttttttttttttt  ))))))))))))))))))))))))))))))))))))))))))))))))])))))))))))))))))))))))))))))))]))))))])]))))))))))))))))))))))))))))))))))))))))))))))))))))))))))))))))))))))))))))))))))))])))))))))))))))))))))))))))))))))))))))))))))))))))))))))))))))))))))))))))))))))))))))))))))))))))))))))))))))))]))))])))]))])])]))]))))))))))))))))))))))))))))))))))))))))))))))))))))))))))))))))))))))))))))))))))))))))))))))))))))))))))))))))))))))))))))))))))))))))))) ",
"                                                                                                                                                                                                                                                                                                                                                                                                                                                                                                ",
"                                                                                                                                                                                                                                                                                                                                                                                                                                                                                                ",
"                                                                                                                                                                                                                                                                                                                                                                                                                                                                                                ",
"                                                                                                                                                                                                                                                                                                                                                                                                                                                                                                ",
"                                                                                                                                                                                                                                                                                                                                                                                                                                                                                                ",
"                                                                                                                                                                                                                                                                                                                                                                                                                                                                                                ",
"                                                                                                                                                                                                                                                                                                                                                                                                                                                                                                ",
"                                                                                                                                                                                                                                                                                                                                                                                                                                                                                                "};
