/* XPM */
static char * bmStrich_xpm[] = {
"32 32 5 1",
" 	c None",
".	c #CDCDCD",
"+	c #C6B29E",
"@	c #9E8874",
"#	c #474647",
"                                ",
"                                ",
"                                ",
"                                ",
"                                ",
"                                ",
"                                ",
"                                ",
"                                ",
"                                ",
"                                ",
"                                ",
"                                ",
"                                ",
"                                ",
".+.+.+.+.+.+.+.+.+.+.+.+.+.+.+.+",
"+@@@@@@@@@@@@@@@@@@@@@@@@@@@@@@@",
"################################",
"                                ",
"                                ",
"                                ",
"                                ",
"                                ",
"                                ",
"                                ",
"                                ",
"                                ",
"                                ",
"                                ",
"                                ",
"                                ",
"                                "};
