/* XPM */
static char * bpPinguN_xpm[] = {
"128 96 6 1",
" 	c None",
".	c #0000FF",
"+	c #FF0000",
"@	c #FFFFFF",
"#	c #000000",
"$	c #FFCC00",
"        ......++++                      ......++++                      ......++++                      ......++++              ",
"       ........++.                     ........++.                     ........++.                     ........++.              ",
"      ....  ......                    ....  ......   ..               ....  ......                    ....  ......              ",
"     ....  ........    ..            ....  ........  ..              ....  ........                  ....  ........             ",
"     ...  ..@@..@@..   ..            ...  ..@@..@@..  .              ...  ..@@..@@..                 ...  ..@@..@@..            ",
"    ....  .@##@@##@.   ..           ....  .@##@@##@.  ..            ....  .@##@@##@.                ....  .@##@@##@.            ",
"    ....  .@##@@##@.    ..          ....  .@##@@##@.  ..            ....  .@##@@##@.                ....  .@##@@##@.            ",
"    ....  ..@@..@@..    ..          ....  ..@@..@@..  ..            ....  ..@@..@@..          ..    ....  ..@@..@@..            ",
"    ....  ....++....    ..          ....  ....++....   .            ....  ....++....         ..     ....  ....++....            ",
"     ....  ...++...     ..           ....  ...++...    ..            ....  ...++...         ...      ....  ...++...             ",
"      ....  ..++..      ..            ....  ..++..     ..             ....  ..++..         ...        ....  ..++..           ...",
"       ........++..     ..             ........++..    ..              ........++..      ....          ........++..      .......",
"        ........++....  ..              ........++.... ..               ........++....  ....            ........++....  ....... ",
"        ..................              .................               ...................             ....................    ",
"        ..................              .................               ..................              ..................      ",
"       ..................              ..................              ..................              ..................       ",
"      ......$$$$$.......              ......$$$$$.......              ......$$$$$.......              ......$$$$$.......        ",
"      .....$$$$$$$......              .....$$$$$$$......              .....$$$$$$$......              .....$$$$$$$......        ",
"      .....$$$$$$$$.....              .....$$$$$$$$.....              .....$$$$$$$$.....              .....$$$$$$$$.....        ",
"      .....$$$$$$$$.....              .....$$$$$$$$.....              .....$$$$$$$$.....              .....$$$$$$$$.....        ",
"      .....$$$$$$$$$....              .....$$$$$$$$$....              .....$$$$$$$$$....              .....$$$$$$$$$....        ",
"      ......$$$$$$$$$....             ......$$$$$$$$$....             ......$$$$$$$$$....             ......$$$$$$$$$....       ",
"      ......$$$$$$$$$$....            ......$$$$$$$$$$....            ......$$$$$$$$$$....            ......$$$$$$$$$$....      ",
"      .......$$$$$$$$$.....           .......$$$$$$$$$.....           .......$$$$$$$$$.....           .......$$$$$$$$$.....     ",
"      ........$$$$$$$$......++++      ........$$$$$$$$......++++      ........$$$$$$$$......++++      ........$$$$$$$$......++++",
"       ........$$$$$$......+++++       ........$$$$$$......+++++       ........$$$$$$......+++++       ........$$$$$$......+++++",
"        ........$$$$.......+++++        ........$$$$.......+++++        ........$$$$.......+++++        ........$$$$.......+++++",
"        ....................++++        ....................++++        ....................++++        ....................++++",
"        ++++..............              ++++..............              ++++..............              ++++..............      ",
"       ++++++............              ++++++............              ++++++............              ++++++............       ",
"       ++++++..........                ++++++..........                ++++++..........                ++++++..........         ",
"        ++++..........                  ++++..........                  ++++..........                  ++++..........          ",
"              ++++                            ++++                      ......++++                      ......++++              ",
"    .        ..++.                           ..++.                     ........++                      ........++               ",
"    ...     ......                          ......                    ....                            ....                      ",
"    ...    ........                        ........                  ....   ......                   ....                       ",
"    ....  ..@@..@@..                      ..@@..@@..                 ...   ........                  ...    ......              ",
"     ...  .@##@@##@.        .    ...      .@##@@##@.        .       ....  ..@@..@@..        .       ....   ........         .   ",
"     ...  .@##@@##@.       ..    ....     .@##@@##@.       ..       ....  .@##@@##@.       ..       ....  ..@@..@@..       ..   ",
"     ...  ..@@..@@..       ..      ....   ..@@..@@..       ..       ....  .@##@@##@.       ..       ....  .@##@@##@.       ..   ",
"     ...  ....++....      ...       ....  ....++....      ...       ....  ..@@..@@..      ...       ....  .@##@@##@.      ...   ",
"      ...  ...++...       ..         ....  ...++...       ..         .... ....++....      ..         .... ..@@..@@..      ..    ",
"      ....  ..++..        ..          ....  ..++..        ..          .... ...++...       ..          ........++....      ..    ",
"       ........++..      ...           ........++..      ...           ...  ..++..       ...           .......++...      ...    ",
"        ........++....  ...             ........++....  ...             .......++.....  ...             ......++......  ...     ",
"        ...................             ...................             ........++.........             .......++..........     ",
"        ..................              ..................              ..................              ........++........      ",
"       ..................              ..................              ..................              ..................       ",
"      ......$$$$$.......              ......$$$$$.......              ......$$$$$.......              ......$$$$$.......        ",
"      .....$$$$$$$......              .....$$$$$$$......              .....$$$$$$$......              .....$$$$$$$......        ",
"      .....$$$$$$$$.....              .....$$$$$$$$.....              .....$$$$$$$$.....              .....$$$$$$$$.....        ",
"      .....$$$$$$$$.....              .....$$$$$$$$.....              .....$$$$$$$$.....              .....$$$$$$$$.....        ",
"      .....$$$$$$$$$....              .....$$$$$$$$$....              .....$$$$$$$$$....              .....$$$$$$$$$....        ",
"      ......$$$$$$$$$....             ......$$$$$$$$$....             ......$$$$$$$$$....             ......$$$$$$$$$....       ",
"      ......$$$$$$$$$$....            ......$$$$$$$$$$....            ......$$$$$$$$$$....            ......$$$$$$$$$$....      ",
"      .......$$$$$$$$$.....           .......$$$$$$$$$.....           .......$$$$$$$$$.....           .......$$$$$$$$$.....     ",
"      ........$$$$$$$$......++++      ........$$$$$$$$......++++      ........$$$$$$$$......++++      ........$$$$$$$$......++++",
"       ........$$$$$$......+++++       ........$$$$$$......+++++       ........$$$$$$......+++++       ........$$$$$$......+++++",
"        ........$$$$.......+++++        ........$$$$.......+++++        ........$$$$.......+++++        ........$$$$.......+++++",
"        ....................++++        ....................++++        ....................++++        ....................++++",
"        ++++..............              ++++..............              ++++..............              ++++..............      ",
"       ++++++............              ++++++............              ++++++............              ++++++............       ",
"       ++++++..........                ++++++..........                ++++++..........                ++++++..........         ",
"        ++++..........                  ++++..........                  ++++..........                  ++++..........          ",
"        ......++++                                                                                                              ",
"       ........++.                                                                                                              ",
"      ....  ......                                                                                                              ",
"     ....  ........                                                                                                             ",
"     ...  ..........                                                                                                            ",
"    ....  .@@@..@@@.        .                                                                                                   ",
"    ....  .@@@..@@@.       ..                                                                                                   ",
"    ....  ..........       ..                                                                                                   ",
"    ....  ....++....      ...                                                                                                   ",
"     ....  ...++...       ..                                                                                                    ",
"      ....  ..++..        ..                                                                                                    ",
"       ........++..      ...                                                                                                    ",
"        ........++....  ...                                                                                                     ",
"        ...................                                                                                                     ",
"        ..................                                                                                                      ",
"       ..................                                                                                                       ",
"      ......$$$$$.......                                                                                                        ",
"      .....$$$$$$$......                                                                                                        ",
"      .....$$$$$$$$.....                                                                                                        ",
"      .....$$$$$$$$.....                                                                                                        ",
"      .....$$$$$$$$$....                                                                                                        ",
"      ......$$$$$$$$$....                                                                                                       ",
"      ......$$$$$$$$$$....                                                                                                      ",
"      .......$$$$$$$$$.....                                                                                                     ",
"      ........$$$$$$$$......++++                                                                                                ",
"       ........$$$$$$......+++++                                                                                                ",
"        ........$$$$.......+++++                                                                                                ",
"        ....................++++                                                                                                ",
"        ++++..............                                                                                                      ",
"       ++++++............                                                                                                       ",
"       ++++++..........                                                                                                         ",
"        ++++..........                                                                                                          "};
