/* XPM */
static char * bpPinguE_xpm[] = {
"128 64 6 1",
" 	c None",
".	c #0000FF",
"+	c #FFFFFF",
"@	c #000000",
"#	c #FF0000",
"$	c #FFCC00",
"                                                                                                                                ",
"                                                                                                                                ",
"                                                                            ......                          ......              ",
"            ......                                                         ........                        ........             ",
"....       ........         ........                        ........      ..........        ........      ..++..++..        ....",
"....      ..++..++..       .... ....                       .... ....      .+++..+++.       .... ....      .+@@++@@+.       .... ",
"  ..      .+@@++@@+.      ....    ..                      ....    ..      .+++..+++.      ....    ..      .+@@++@@+.      ....  ",
"  ...     .+@@++@@+.      ...     ...      ........       ...     ...     ..........      ...     ...     ..++..++..      ...   ",
"  ....    ..++..++..      ..      ....    ..........      ..      ....    ....##....      ..      ....    ....##....      ..    ",
"   ...    ....##....      ..       ...    .+++..+++.      ..       ...     ...##...       ..       ...     ...##...       ..    ",
"    ..     ...##...       ..        ..    ..@@..@@..      ..        ..      ..##..        ..        ..      ..##..        ..    ",
"    ..      ..##..       ...        ..    ....##....     ...        ..     ....##..      ...        ..     ....##..      ...    ",
"    ..     ....##.. ..  ....        ..    ....##......  ....        ..    ......##....  ....        ..    ......##....  ....    ",
"    ...  .......##.........         ...  ......##..........         ...  ..................         ...  ..................     ",
"    ..........$$..........          ..........$$##........          ..........$$..........          ..........$$..........      ",
"     ........$$$$.........           ........$$$$.........           ........$$$$.........           ........$$$$.........      ",
"      ......$$$$$$........            ......$$$$$$........            ......$$$$$$........            ......$$$$$$........      ",
"      ......$$$$$$.......             ......$$$$$$.......             ......$$$$$$.......             ......$$$$$$.......       ",
"      ......$$$$$$......              ......$$$$$$......              ......$$$$$$......              ......$$$$$$.......       ",
"      ......$$$$$$......              ......$$$$$$......              ......$$$$$$......              ......$$$$$$......        ",
"      ......$$$$$$......              ......$$$$$$......              ......$$$$$$......              ......$$$$$$......        ",
"      ......$$$$$$......              ......$$$$$$......              ......$$$$$$......              ......$$$$$$......        ",
"      ......$$$$$$......              ......$$$$$$......              ......$$$$$$......              ......$$$$$$......        ",
"       ......$$$$......                ......$$$$......                ......$$$$......                ......$$$$......         ",
"        ......$$......                  ......$$......                  ......$$......                  ......$$......          ",
"        .............                   .............                   .............                   .............           ",
"        ............                    ............                    ............                    ............            ",
"        ...........                     ...........                     ...........                     ...........             ",
"        .####.....                      .####.....                      .####.....                     .####......              ",
"        ######....                      ######....                      ######....                     #######....              ",
"        ########..                      ########..                      ########..                     #########..              ",
"         ########                        ########                        ########                       #########               ",
"                                                                                                                                ",
"                                                                                                                                ",
"            ......                          ......                          ......                          ......              ",
"           ........                        ........                        ........                        ........             ",
"....      ..++..++..        ........      ..++..++..        ........      ..++..++..        ....   ..     ..++..++..       ..   ",
"....      .+@@++@@+.       .... ....      .+@@++@@+.       .... ....      .+@@++@@+.       ....    ..     .+@@++@@+.       ..   ",
"  ..      .+@@++@@+.      ....    ..      .+@@++@@+.      ....    ..      .+@@++@@+.      ....     ..     .+@@++@@+.      ...   ",
"  ...     ..++..++..      ...     ...     ..++..++..      ...     ...     ..++..++..      ...      ..     ..++..++..      ..    ",
"  ....    ....##....      ..      ....    ....##....      ..      ....    ....##....      ..       ...    ....##....      ..    ",
"   ...     ...##...       ..       ...     ...##...       ..       ...     ...##...       ..       ...     ...##...      ...    ",
"    ..      ..##..        ..        ..      ..##..        ..        ..      ..##..        ..        ..      ..##..       ..     ",
"    ..     ....##..      ...        ..     ....##..      ...        ..     ....##..      ...        ..     ....##..      ..     ",
"    ..    ......##....  ....        ..    ......##....  ....        ..    ......##....  ....        ..    ......##....  ...     ",
"    ...  ..................         ...  ..................         ...  ..................         ...  .................      ",
"    ..........$$..........          ..........$$..........          ..........$$..........           .........$$..........      ",
"     ........$$$$.........           ........$$$$.........           ........$$$$.........           ........$$$$.........      ",
"      ......$$$$$$........            .......$$$$$........            .......$$$$$........            ......$$$$$$........      ",
"      ......$$$$$$.......             ......$$$$$$.......             .......$$$$$$......             ......$$$$$$.......       ",
"      ......$$$$$$.......             ......$$$$$$$......             ......$$$$$$$......             ......$$$$$$......        ",
"      ......$$$$$$.......             ......$$$$$$$......             ......$$$$$$$......             ......$$$$$$......        ",
"      ......$$$$$$.......             ......$$$$$$.......             ......$$$$$$$......             ......$$$$$$......        ",
"      ......$$$$$$......              ......$$$$$$......              ......$$$$$$.......             ......$$$$$$......        ",
"      ......$$$$$$......              ......$$$$$$......              ......$$$$$$......              ......$$$$$$......        ",
"       ......$$$$......                ......$$$$......                ......$$$$......                ......$$$$......         ",
"        ......$$......                 .......$$......                 .......$$......                  ......$$......          ",
"        .............                  ..............                ####............                   .............           ",
"        ............                 ####...........                ######..........                    ............            ",
"      ####.........                 ######.........                 ######.........                     ...........             ",
"     ######.......                  ######........                   ####.........                      .####.....              ",
"     ######.##....                   ####...##....                         .##....                      ######....              ",
"      ####..####..                         .####..                         .####..                      ########..              ",
"           ######                          ######                          ######                        ########               "};
