/* XPM */
static char * bTest_xpm[] = {
"192 128 8 1",
" 	c None",
".	c #0000FF",
"+	c #FFFFFF",
"@	c #000000",
"#	c #FF0000",
"$	c #FFCC00",
"%	c #FFFF00",
"&	c #00FF00",
"            ......                          ......                          ......                          ......                          ......                          ......              ",
"           ........                        ........                        ........                        ........                        ........                        ........             ",
"          ..++..++..                      ..++..++..                      ..++..++..                      ..++..++..                      ..++..++..                      ..++..++..            ",
"          .+@@++@@+.                      .+@@++@@+.                      .+@@++@@+.                      .+@@++@@+.                      .+@@++@@+.                      .+@@++@@+.            ",
"          .+@@++@@+.                      .+@@++@@+.                      .+@@++@@+.                      .+@@++@@+.                      .+@@++@@+.                      .+@@++@@+.            ",
"          ..++..++..                      ..++..++..                      ..++..++..                      ..++..++..                      ..++..++..                      ..++..++..            ",
"          ....##....                      ....##....                      ....##....                      ....##....                      ....##....                      ....##....            ",
"           ...##...                        ...##...                        ...##...                        ...##...                        ...##...                        ...##...             ",
"            ..##..                          ..##..                          ..##..                          ..##..                          ..##..                          ..###.              ",
"           ....##..                        ....##..                        ....##..                        ....##..                        ....##..                        ....##..             ",
"        ........##....                  ........##....                  ........##....                  ........##....                  ........####..                  ........##....          ",
"       ................                ................                ................                ................                ...........##...                ................         ",
"      ..................              ..................              ..................              ..................              ..................              ..................        ",
"     ....................            ....................            ....................            ....................            ....................            ....................       ",
"    ..........$$..........          ..........$$..........          ..........$$..........          ..........$$..........          ..........$$..........          ..........$$..........      ",
"   ..........$$$$..........        ..........$$$$.........         ..........$$$$..........        ..........$$$$...##.....        ..........$$$$..........        ..........$$$$..........     ",
"   .. ......$$$$$$...... ..        .. ......$$$$$$.......          .. ......$$$$$$...... ..        .. ......$$$$$$..##.. ..        .. ......$$$$$$...... ..        .. ......$$$$$$...... ..     ",
"  ... ......$$$$$$...... ..       ... ......$$$$$$.......         ... ......$$$$$$...... ..       ... ......$$$$$$...... ..       ... ......$$$$$$...%%. ..       ... ......$$$$$$...... ..     ",
"  ..  ......$$$$$$.........       ..  ......$$$$$$.......         ..  ......$$$$$$...##. ..       ..  ......$$$$$$....%% ..       ..  ......$$$$$$..&&%...        ..  ......$$$$$$...... ..     ",
"  ..  ......$$$$$$........        ..  ......$$$$$$.......         ..  ......$$$$$$...#%% ..       ..  ......$$$$$$...&&%...       ..  ......$$$$$$..&&...         ..  ......$$$$$$...&&%..      ",
"  ..  ......$$$$$$.......         ..  ......$$$$$$.......         ..  ......$$$$$$...&&%...       ..  ......$$$$$$...&&...        ..  ......$$$$$$......          ..  ......$$$$$$...&&%..      ",
"  ..  ......$$$$$$......          ..  ......$$$$$$......          ..  ......$$$$$$...&&...        ..  ......$$$$$$......          ..  ......$$$$$$......          ..  ......$$$$$$......        ",
"  ..  ......$$$$$$......          ..  ......$$$$$$......          ..  ......$$$$$$......          ..  ......$$$$$$......          ..  ......$$$$$$......          ..  ......$$$$$$......        ",
"       ......$$$$.......               ......$$$$.......               ......$$$$......                ......$$$$......                ......$$$$......                ......$$$$......         ",
"        ......$$.......                 ......$$........                ......$$......                  ......$$......                  ......$$......                  ......$$......          ",
"        ..............                  ................                ..............                  ..............                  ..............                  ..............          ",
"        ..............                  ...............                 ..............                  ..............                  ..............                  ..............          ",
"        ..............                  ..............                  ..............                  ..............                  ..............                  ..............          ",
"       ####........####                ####........####                ####........####                ####........####                ####........####                ####........####         ",
"      ######......######              ######......######              ######......######              ######......######              ######......######              ######......######        ",
"      ######      ######              ######      ######              ######      ######              ######      ######              ######      ######              ######      ######        ",
"       ####        ####                ####        ####                ####        ####                ####        ####                ####        ####                ####        ####         ",
"            ......                          ......                          ......                          ......                          ......                          ......              ",
"           ........                        ........                        ........                        ........                        ........                        ........             ",
"          ..++..++..                      ..++..++..                      ..++..++..                      ..++..++..                      ..++..++..                      ..++..++..            ",
"          .+@@++@@+.                      .+@@++@@+.                      .+@@++@@+.                      .+@@++@@+.                      .+@@++@@+.                      .+@@++@@+.            ",
"          .+@@++@@+.                      .+@@++@@+.                      .+@@++@@+.                      .+@@++@@+.                      .+@@++@@+.                      .+@@++@@+.            ",
"          ..++..++..                      ..++..++..                      ..++..++..                      ..++..++..                      ..++..++..                      ..++..++..            ",
"          ....##....                      ....##....                      ....##....                      ....##....                      ....##....                      ....##....            ",
"           ...##...                        ...##...                        ...##...                        ...##...                        ..%%#...                        ...##...             ",
"            ..##..                          ..##..                          ..##..                          ..##..                          .%%#..                          ..##..              ",
"           .##.##..                        ....##..                        ....##..                        ....#%%.                        ....##..                        ....##..             ",
"        ....##..##....                  ........##....                  ........##....                  ........%%....                  ........##....                  .%%...####....          ",
"       ................                ................                ................                ................                ................                ..%%...##.......         ",
"      ..................              ..................              .............%%...              ..................              .....##...........              ..................        ",
"     ....................            .....##.............            ..............%%....            ....................            ......##............            ....................       ",
"    ..........$$..........          ......##..$$..........          ..........$$..........          ..........$$..........          ..........$$..........          ..........$$..........      ",
"   ..........$$$$.........         ..........$$$$....%%...         ..........$$$$..........        .....##...$$$$..........        ..........$$$$..........        ..........$$$$..........     ",
"   .. ......$$$$$$...... ..        .. ......$$$$$$...%%. ..        .. ......$$$$$$...... ..        .. ..##..$$$$$$...... ..        .. ......$$$$$$...... ..        .. ......$$$$$$...... ..     ",
"  ... ......$$$$$$...... ..       ... ......$$$$$$...... ..        .. ......$$$$$$...... ..        .. ......$$$$$$...... ..        .........$$$$$$...... ..        .........$$$$$$...... ..     ",
"  ..  ......$$$$$$...&&% ..       ..  ......$$$$$$..&&.. ..        .. .##...$$$$$$..&&.....        .. ......$$$$$$...&&....         ........$$$$$$........          ........$$$$$$........      ",
"  ..  ......$$$$$$...&&%..        ..  ......$$$$$$..&&....         ....##...$$$$$$..&&.....        .........$$$$$$...&&....          .......$$$$$$........           .......$$$$$$...&&...      ",
"  ... ......$$$$$$........        ... ......$$$$$$........           .......$$$$$$.......            .......$$$$$$.......             ......$$$$$$....&&.             ......$$$$$$...&&..       ",
"   .........$$$$$$.......          .........$$$$$$.......             ......$$$$$$......              ......$$$$$$......              ......$$$$$$....&&              ......$$$$$$......        ",
"      ......$$$$$$......              ......$$$$$$......              ......$$$$$$......              ......$$$$$$......              ......$$$$$$......              ......$$$$$$......        ",
"       ......$$$$......                ......$$$$......                ......$$$$......                ......$$$$......                ......$$$$......                ......$$$$......         ",
"        ......$$......                  ......$$......                  ......$$......                  ......$$......                  ......$$......                  ......$$......          ",
"        ..............                  ..............                  ..............                  ..............                  ..............                  ..............          ",
"        ..............                  ..............                  ..............                  ..............                  ..............                  ..............          ",
"        ..............                  ..............                  ..............                  ..............                  ..............                  ..............          ",
"       ####........####                ####........####                ####........####                ####........####                ####........####                ####........####         ",
"      ######......######              ######......######              ######......######              ######......######              ######......######              ######......######        ",
"      ######      ######              ######      ######              ######      ######              ######      ######              ######      ######              ######      ######        ",
"       ####        ####                ####        ####                ####        ####                ####        ####                ####        ####                ####        ####         ",
"            ......                          ......                          ......                          ......                          ......                          ......              ",
"           ........                        ........                        ........                        ........                        ........                        ........             ",
"          ..++..++..                      ..++..++..                      ..++..++..                      ..++..++..                      ..++..++..                      ..++..++..            ",
"          .+@@++@@+.                      .+@@++@@+.                      .+@@++@@+.                      .+@@++@@+.                      .+@@++@@+.                      .+@@++@@+.            ",
"          .+@@++@@+.                      .+@@++@@+.                      .+@@++@@+.                      .+@@++@@+.                      .+@@++@@+.                      .+@@++@@+.            ",
"          ..++..++..                      ..++..++..                      ..++..++..                      ..++..++..                      ..++..++..                      ..++..++..            ",
"          ....##....                      ....##....                      ....##....                      ....##....                      ....##....                      ....##....            ",
"           ...##...                        ...##...                        ...##...                        ...##...                        ...##...                        ...##...             ",
"            ..##..                          ..##..                          ..##..                          ..##..                          ..##..                          ..##..              ",
"           ....##..                        ....##..                        ...&&#..                        ....##..                        ....##..                        ....#%%.             ",
"        ........####..                  ........##....                  ......&&##....                  ........##....                  ........##....                  ........%%....          ",
"       ...........##...                ................                ................                ..&&............                ................                ................         ",
"      ..................              ...........&&..##.              ..................              ...&&.............              ......%%..........              ..................        ",
"     ....................            ............&&..##..            ....................            ....................            .......%%...........            ....................       ",
"    ..........$$..........          ..........$$..........          ..........$$..........          ..........$$..........          ..........$$..........          ..........$$....##....      ",
"   ..........$$$$..........        ..........$$$$..........        ..........$$$$....##....        .......%%.$$$$..........        ......&&..$$$$..........        ..........$$$$...##.....     ",
"   .. ..%%..$$$$$$.&&... ..        .. ......$$$$$$...... ..        .. ......$$$$$$...##. ..        .. ....%%$$$$$$...... ..        .. ...&&.$$$$$$...... ..        .. ......$$$$$$...... ..     ",
"   .. ..%%..$$$$$$.&&......        .. .%%...$$$$$$.........        .. ......$$$$$$...... ..        .. ......$$$$$$....## ..        .. ......$$$$$$...... ...       .. ..&&..$$$$$$...... ...    ",
"    ........$$$$$$........          ...%%...$$$$$$........          ........$$$$$$........          ........$$$$$$....##..         .........$$$$$$...... ...       .....&&..$$$$$$...... ...    ",
"     .......$$$$$$......             .......$$$$$$......            ...%%...$$$$$$........          ........$$$$$$........          ........$$$$$$....## ...        ........$$$$$$...... ...    ",
"      ......$$$$$$......              ......$$$$$$......             ..%%...$$$$$$......             .......$$$$$$......              ......$$$$$$....##...           ......$$$$$$.........     ",
"      ......$$$$$$......              ......$$$$$$......              ......$$$$$$......              ......$$$$$$......              ......$$$$$$........            ......$$$$$$........      ",
"      ......$$$$$$......              ......$$$$$$......              ......$$$$$$......              ......$$$$$$......              ......$$$$$$......              ......$$$$$$......        ",
"       ......$$$$......                ......$$$$......                ......$$$$......                ......$$$$......                ......$$$$......                ......$$$$......         ",
"        ......$$......                  ......$$......                  ......$$......                  ......$$......                  ......$$......                  ......$$......          ",
"        ..............                  ..............                  ..............                  ..............                  ..............                  ..............          ",
"        ..............                  ..............                  ..............                  ..............                  ..............                  ..............          ",
"        ..............                  ..............                  ..............                  ..............                  ..............                  ..............          ",
"       ####........####                ####........####                ####........####                ####........####                ####........####                ####........####         ",
"      ######......######              ######......######              ######......######              ######......######              ######......######              ######......######        ",
"      ######      ######              ######      ######              ######      ######              ######      ######              ######      ######              ######      ######        ",
"       ####        ####                ####        ####                ####        ####                ####        ####                ####        ####                ####        ####         ",
"            ......                          ......                          ......                          ......                          ......                          ......              ",
"           ........                        ........                        ........                        ........                        ........                        ........             ",
"          ..++..++..                      ..++..++..                      ..++..++..                      ..++..++..                      ..++..++..                      ..++..++..            ",
"          .+@@++@@+.                      .+@@++@@+.                      .+@@++@@+.                      .+@@++@@+.                      .+@@++@@+.                      .+@@++@@+.            ",
"          .+@@++@@+.                      .+@@++@@+.                      .+@@++@@+.                      .+@@++@@+.                      .+@@++@@+.                      .+@@++@@+.            ",
"          ..++..++..                      ..++..++..                      ..++..++..                      ..++..++..                      ..++..++..                      ..++..++..            ",
"          ....##....                      ....##....                      ....##....                      ....##....                      ....##....                      ....##....            ",
"           ...##...                        ...##...                        ...##...                        ...##...                        ...##...                        ...##...             ",
"            ..##..                          ..##..                          ..##..                          ..##..                          ..##..                          ..##..              ",
"           ....##..                        .##.##..                       ##...##..                        ....##..                        ....##..                        ....##..             ",
"        .......###.%%.                  ....##..##....                  ..##....##....                  ........##....                  ........##....                  ........##....          ",
"       ........##..%%..                ................                ................                ..##......&&....                ................                ...........%%...         ",
"      ..................              ..................              ..................              ...##......&&.....              ...............&&.              ............%%....        ",
"     ....................            ....................            ......&&............            ....................            ................&&..            ....................       ",
"    ..........$$..........          ..........$$....%%....          .......&&.$$..........          ..........$$..........          ...##.....$$..........          ..........$$..........      ",
"   ..........$$$$..........        ..........$$$$...%%.....        ..........$$$$..........        ..........$$$$..........         ...##....$$$$..%%......         .........$$$$..........     ",
"   .. ......$$$$$$...... ..        .. ..&&..$$$$$$...... ..        .. ......$$$$$$...... ..        .. ......$$$$$$...... ..         . ......$$$$$$.%%... ..         . .##...$$$$$$...... ..     ",
"   .. ......$$$$$$...... ..        .. ..&&..$$$$$$...... ..        .........$$$$$$...... ..        .........$$$$$$..%%.. ..         ........$$$$$$...... ..         ...##...$$$$$$...&&. ..     ",
"   .. ......$$$$$$........         .. ......$$$$$$........          ........$$$$$$.........         ........$$$$$$..%%.....         ........$$$$$$...... ..         ........$$$$$$...&&. ..     ",
"   ...&&....$$$$$$........         .........$$$$$$........           .......$$$$$$....%%..           .......$$$$$$........           .......$$$$$$.........          .......$$$$$$.........     ",
"    ..&&....$$$$$$......            ........$$$$$$......              ......$$$$$$....%%.             ......$$$$$$.......             ......$$$$$$........            ......$$$$$$........      ",
"     .......$$$$$$......             .......$$$$$$......              ......$$$$$$......              ......$$$$$$......              ......$$$$$$.......             ......$$$$$$.......       ",
"      ......$$$$$$......              ......$$$$$$......              ......$$$$$$......              ......$$$$$$......               .....$$$$$$......               .....$$$$$$......        ",
"       ......$$$$......                ......$$$$......                ......$$$$......                ......$$$$......                 .....$$$$......                 .....$$$$......         ",
"        ......$$......                  ......$$......                  ......$$......                  ......$$......                  ......$$......                  ......$$......          ",
"        ..............                  ..............                  ..............                  ..............                  ..............                  ..............          ",
"        ..............                  ..............                  ..............                  ..............                  ..............                  ..............          ",
"        ..............                  ..............                  ..............                  ..............                  ..............                  ..............          ",
"       ####........####                ####........####                ####........####                ####........####                ####........####                ####........####         ",
"      ######......######              ######......######              ######......######              ######......######              ######......######              ######......######        ",
"      ######      ######              ######      ######              ######      ######              ######      ######              ######      ######              ######      ######        ",
"       ####        ####                ####        ####                ####        ####                ####        ####                ####        ####                ####        ####         "};
