/* XPM */
static char * bpPingu_xpm[] = {
"128 128 6 1",
" 	c None",
".	c #0000FF",
"+	c #FF0000",
"@	c #FFFFFF",
"#	c #000000",
"$	c #FFCC00",
"            ......                     ++++                                                        .       ......               ",
"           ........                   ++++++                                                       .      ........              ",
"          ..@@..@@..                  ++++++..                                    ......           ..    ..@@..@@..             ",
"          .@##@@##@.                  .++++....                    ..            ........          ..    .@##@@##@.             ",
"          .@##@@##@.                  .............                 ....        ..@@..@@..         ...   .@##@@##@.             ",
"          ..@@..@@..                  ...............                .....      .@##@@##@.          ..   ..@@..@@..         .   ",
"          ....++....               ++.................                 .....    .@##@@##@.          ..   ....++....        ..   ",
"           ...++...               ++++................                   ....   ..@@..@@..          ..    ...++...        ..    ",
"            ..++..                ++++.....$$$$$.......                   ....  ....++....          ..     ..++..        ..     ",
"           ....++..               ++++....$$$$$$$......                    ....  ...++...           ..    ....++..       ..     ",
"        ........++....            ++++....$$$$$$$$.....                      ...  ..++..            .. ........++..     ..      ",
"       ................            ++......$$$$$$$......                     ........++.            ................    ..      ",
"      ..................              ......$$$$$$......         ++...................++            .................  ...      ",
"     ....................             ......$$$$$$......        ++++...................+           ......................       ",
"    ..........$$..........            ......$$$$$$......        ++++..........$$........           ........$$$...........       ",
"   ..........$$$$..........           ......$$$$$$......        ++++.......$$$$$$........          .......$$$$$$........        ",
"   .. ......$$$$$$...... ..           ......$$$$$$......        ++++...$$$$$$$$$$$........        ........$$$$$$........        ",
"  ... ......$$$$$$...... ...          .......$$$$........        ++...$$$$$$$$$$$$.........       .......$$$$$$$........        ",
"  ..  ......$$$$$$......  ..          ........$$..........        ....$$$$$$$$$$$$..........      .......$$$$$$$.......         ",
"  ..  ......$$$$$$......  ..          .....................       ....$$$$$$$$$$$............     ......$$$$$$$$.......         ",
"  ..  ......$$$$$$......  ..          ......++........  ......    ....$$$$$$$$$$........  ....   .......$$$$$$$$......          ",
"  ..  ......$$$$$$......  ..          .......++......    ......   .....$$$$$$$$.........   ..... .......$$$$$$$$......          ",
"  ..  ......$$$$$$......  ..          ...   ..++..          ....  +.....................    .... .......$$$$$$$......           ",
"       ......$$$$......              ...   ...++...          ... +++...................      ..+++......$$$$$$$......           ",
"        ......$$......              ....  ....++....          .+++++..................        +++++......$$$$$.......           ",
"        ..............              ...   ..@@..@@..          ++++++.................         +++++.......$$$.......            ",
"        ..............             ...    .@##@@##@.          ++++    ..........               +++..................            ",
"        ..............             ..     .@##@@##@.           ++      ........                     ...............             ",
"       ++++........++++           ..      ..@@..@@..                                                   ........+++              ",
"      ++++++......++++++          ..       ........                                                        ...+++++             ",
"      ++++++      ++++++          ..        ......                                                            +++++             ",
"       ++++        ++++            .         ....                                                              +++              ",
"                                                                                                                                ",
"                                                                                                                                ",
"            ......                  ..        ......                        ......                                      ....    ",
"           ........                 ..       ........                      ........                ..                  .@@...   ",
"....      ..@@..@@..        ....    ..      ..@@..@@..          ....      ..@@..@@..               ...                .@##@...  ",
"....      .@##@@##@.       ....     ..      .@##@@##@.           ....     .@##@@##@.                ...               .@##@.... ",
"  ..      .@##@@##@.      ....      ...     .@##@@##@.            ....    .@##@@##@.                 ...              ..@@..@@..",
"  ...     ..@@..@@..      ...       ...     ..@@..@@..             ...    ..@@..@@..                  ...            ......@##@.",
"  ....    ....++....      ..         ...    ....++....              ..    ....++....                  ....          ....++.@##@.",
"   ...     ...++...       ..         ....    ...++...               ..     ...++...                    ....        ....+++..@@..",
"    ..      ..++..        ..          ....    ..++..                ..      ..++..                      ....  ........+++.....  ",
"    ..     ....++..      ...           ....  ....++..               ...    ....++..                      .............++.....   ",
"    ..    ......++....  ....            ..........++...             ............++....                    ............+...      ",
"    ...  ..................             ................             ..................                   ............+..       ",
"    ..........$$..........              ......$$$.......              ........$$........                  ..............        ",
"     ........$$$$.........             ......$$$$$.......             .......$$$$........                ...............        ",
"      ......$$$$$$........            ......$$$$$$........            ......$$$$$$........              ......$$$$$.....        ",
"      ......$$$$$$.......             ......$$$$$$.........           ......$$$$$$.........            ......$$$$$$.....        ",
"      ......$$$$$$......         ++   ......$$$$$$..........          ......$$$$$$..........          ......$$$$$$......        ",
"      ......$$$$$$......        ++++ .......$$$$$$...........        .......$$$$$$...........        .......$$$$$$.......       ",
"      ......$$$$$$......        ++++........$$$$$$......  ....      ........$$$$$$......  ....      ........$$$$$$........      ",
"      ......$$$$$$......        ++++........$$$$$$......   ....    ........$$$$$$$......   ....    ........$$$$$$$.........     ",
"      ......$$$$$$......        ++++........$$$$$$......    ....  ........$$$$$$$$......    ....  ........$$$$$$$$....  ....    ",
"       ......$$$$......          ++..........$$$$......      ...  ........$$$$$$$......      ...  ........$$$$$$$.....   ....   ",
"        ......$$......                ........$$......        .++++.......$$$$$$......        .++++.......$$$$$$......    ....  ",
"        .............                  ..............         ++++++.......$$$$......         ++++++.......$$$$......      .... ",
"        ............                    ............          ++++++................          ++++++................        ... ",
"        ...........                      ..........            ++++................            ++++................          .. ",
"        .++++.....                        ........                      ..........                      ..........              ",
"        ++++++....                         ..++++.                       ....++++.                       ....++++.              ",
"        ++++++++..                          ++++++                          ++++++                          ++++++              ",
"         ++++++++                            +++++                           +++++                           +++++              ",
"        ....++++......                  ......++++                      ......++++                            ++++              ",
"       ......++........                ........++.                     ........++.                            .++..             ",
"      ....  ......  ....              ....  ......                    ....  ......                ..        ...........         ",
"      ...  ........ ....             ....  ........                  ....  ........               ...      .............        ",
"      ..  ..@@..@@..  ...            ...  ..@@..@@..                 ...  ..@@..@@..              ....    ..@@..@@..  ..        ",
"     ...  .@##@@##@.  ...            ...  .@##@@##@.                ....  .@##@@##@.               ....   .@##@@##@.  ...       ",
"    ....  .@##@@##@.  ...           ....  .@##@@##@.                ....  .@##@@##@.                ....  .@##@@##@.  ....      ",
"    ...   ..@@..@@..  ...           ....  ..@@..@@..                ....  ..@@..@@..                ....  ..@@..@@..   ...      ",
"    ..    ....++....  ...           ....  ....++....                ....  ....++....                ....  ....++....    ..      ",
"    ...    ...++...  ...             ....  ...++...                  ....  ...++...                  ....  ...++...     ..      ",
"    ....    ..++..  ....              ....  ..++..                    ....  ..++..                    ....  ..++..      ..      ",
"     ....  ..++........                ........++..                    .......++...                    ........++..    ...      ",
"      ......++........                  ........++....                  ......++......                  ........++........      ",
"      ................                  ...............                 ...............                 ..................      ",
"      ........$$......                  ......$$........                ......$$........                ......$$..........      ",
"      .......$$$$......                 .....$$$$........              ......$$$$........              ......$$$$........       ",
"      ......$$$$$$......                ....$$$$$$........            ......$$$$$$........            ......$$$$$$......        ",
"      ......$$$$$$......                ....$$$$$$.........           ......$$$$$$.........           ......$$$$$$......        ",
"      ......$$$$$$......                ....$$$$$$..........          ......$$$$$$..........          ......$$$$$$......        ",
"      ......$$$$$$......                ....$$$$$$...........        .......$$$$$$...........        .......$$$$$$......        ",
"      ......$$$$$$......                ....$$$$$$......  ....      ........$$$$$$......  ....      ........$$$$$$......        ",
"      ......$$$$$$......               .....$$$$$$......   ....    ........$$$$$$$......   ....    ........$$$$$$$......        ",
"      ......$$$$$$......              ......$$$$$$......    ....  ........$$$$$$$$......    ....  ........$$$$$$$$......        ",
"       ......$$$$.......              .......$$$$......      ...  ........$$$$$$$......      ...  ........$$$$$$$......         ",
"        ......$$........              ........$$......        .++++.......$$$$$$......        .++++.......$$$$$$......          ",
"         ...............              ...............         ++++++.......$$$$......         ++++++.......$$$$......           ",
"          ..............              ..............          ++++++................          ++++++................            ",
"           .............              .............            ++++................            ++++................             ",
"            .......++++.              .++++.......                      ..........                      ..........              ",
"            .++++.++++++              ++++++..+++.                       ....++++.                       ....++++.              ",
"            ++++++++++++              ++++++++++++                          ++++++                          ++++++              ",
"            ++++++ ++++                ++++.++++++                          ++++++                          ++++++              ",
"        ......++++....                  ......++++                      ......++++                      ......++++..            ",
"       ........++......                ........++.                     ........++.                     ........++....           ",
"      ....  ......  ....              ....  ......                    ....  ......                    ....  ..........          ",
"     ..... ........ .....            ....  ........                   ...  ........                   ...  ............         ",
"    ....  ..@@..@@..  ....           ...  ..@@..@@..                 ...  ..@@..@@..                 ...  ..@@..@@......        ",
"    ...   .@##@@##@.   ...          ....  .@##@@##@.        .        ...  .@##@@##@.                 ...  .@##@@##@. ....       ",
"    ...   .@##@@##@.   ...          ....  .@##@@##@.       ..        ...  .@##@@##@.                 ...  .@##@@##@.  ...       ",
"    ...   ..@@..@@..   ...          ....  ..@@..@@..       ..        ...  ..@@..@@..                 ...  ..@@..@@..   ...      ",
"    ....  ....++....  ....          ....  ....++....      ...        ...  ....++....                 ...  ....++....    ..      ",
"     ....  ...++...  ....            ....  ...++...       ..         ....  ...++...                  ....  ...++...     ...     ",
"      ....  ..++..  ....              ....  ..++..        ..          ....  ..++..                    ....  ..++..      ...     ",
"       ........++.......               ........++..      ...           ........++..                    ........++..     ...     ",
"        ........++......                ........++....  ...             ........++....                  ........++....  ...     ",
"       .................                ...................            ................                ....................     ",
"      ..................                ..................            ........$$...........          ......................     ",
"     ....................              ..................            ........$$$$............       ..........$$$.........      ",
"    .........$$$$.........            ......$$$$$.......             .......$$$$$$............      .........$$$$$........      ",
"    ........$$$$$$........            .....$$$$$$$......            ........$$$$$$............     .........$$$$$$$.......      ",
"    .......$$$$$$$$.......            .....$$$$$$$$.....            ........$$$$$$......   ...     ........$$$$$$$$$......      ",
"    .......$$$$$$$$.......            .....$$$$$$$$.....            ........$$$$$$......    ...   .........$$$$$$$$$......      ",
"    .......$$$$$$$$.......            .....$$$$$$$$$....            .......$$$$$$$......    ....  ........$$$$$$$$$$.....       ",
"    .......$$$$$$$$.......            ......$$$$$$$$$....          ........$$$$$$$......     ...  .......$$$$$$$$$$......       ",
"    .......$$$$$$$$.......            ......$$$$$$$$$$....        ........$$$$$$$$......      ..  .......$$$$$$$$$......        ",
"    .......$$$$$$$$.......            .......$$$$$$$$$.....       ........$$$$$$$......       ..  .......$$$$$$$$.......        ",
"    .......$$$$$$$$.......            ........$$$$$$$$......++++++........$$$$$$......        .++++.......$$$$$$........        ",
"     ......$$$$$$$$......              ........$$$$$$......++++++++........$$$$......         ++++++.......$$$$........         ",
"      ......$$$$$$......                ........$$$$.......++++++++.................          ++++++..................          ",
"      .......$$$$.......                ....................++++++..................           ++++...................          ",
"     ++++............++++               ++++..............        ............++++.                     .........++++.          ",
"    ++++++..........++++++             ++++++............           .........++++++                      .......++++++          ",
"    ++++++..........++++++             ++++++..........                ......++++++                             ++++++          ",
"     ++++............++++               ++++..........                    ....++++                               ++++           "};
