/* XPM */
static char *bxBaer136[] = {
/* columns rows colors chars-per-pixel */
"160 160 85 1",
"  c #000000",
". c #130e03",
"X c #191404",
"o c #171716",
"O c #271b02",
"+ c #211d15",
"@ c #311d00",
"# c #2c2204",
"$ c #3b2701",
"% c #322b15",
"& c #262626",
"* c #312e24",
"= c #3a3528",
"- c #373736",
"; c #412e04",
": c #483504",
"> c #453815",
", c #543c04",
"< c #553f10",
"1 c #463d2a",
"2 c #594506",
"3 c #564616",
"4 c #494436",
"5 c #544a2b",
"6 c #674a05",
"7 c #6b5609",
"8 c #695012",
"9 c #775604",
"0 c #785613",
"q c #685830",
"w c #77640d",
"e c #7c6b15",
"r c #7a652b",
"t c #4e4d47",
"y c #636156",
"u c #77756a",
"i c #825c07",
"p c #865d12",
"a c #896404",
"s c #876715",
"d c #89720e",
"f c #8a7611",
"g c #956b04",
"h c #986a14",
"j c #9c7203",
"k c #937c13",
"l c #88672b",
"z c #a87803",
"x c #a87515",
"c c #b17e02",
"v c #b37d16",
"b c #9a8413",
"n c #ae8007",
"m c #a48b14",
"M c #ac9316",
"N c #b88402",
"B c #bc8316",
"V c #b59b17",
"C c #bea218",
"Z c #c38c03",
"A c #c88a1a",
"S c #cb9201",
"D c #cf9019",
"F c #d08f1e",
"G c #d79b01",
"H c #da9819",
"J c #cd8e20",
"K c #d79421",
"L c #c8ab19",
"P c #ceb01a",
"I c #dea000",
"U c #d6b71b",
"Y c #e19f0e",
"T c #e09e10",
"R c #e9a800",
"E c #e0bf1c",
"W c #e9c71d",
"Q c #f1ce1f",
"! c #f6d21f",
"~ c #fed920",
"^ c #95948e",
"/ c #adaba8",
"( c #d7d7d7",
") c #f1f1f1",
"_ c None",
/* pixels */
"________________________________________________________________________________________________________________________________________________________________",
"________________________________________________________________________________________________________________________________________________________________",
"________________________________________________________________________________________________________________________________________________________________",
"________________________________________________________________________________________________________________________________________________________________",
"________________________________________________________________________________________________________________________________________________________________",
"________________________________________________________________________________________________________________________________________________________________",
"________________________________________________________________________________________________________________________________________________________________",
"________________________________________________________________________________________________________________________________________________________________",
"________________________________________________________________________________________________________________________________________________________________",
"________________________________________________________________________________________________________________________________________________________________",
"________________________________________________________________________________________________________________________________________________________________",
"________________________________________________________________________________________________________________________________________________________________",
"_______________________________________________________________   4455454X  ____________________________________________________________________________________",
"______________________________________________________________o.56gNNSZVca:%..__________________________________________________________________________________",
"_____________________________________________________________.19NRRRRRRRRRRc7O _________________________________________________________________________________",
"____________________________________________________________ >jYRRRRRRRRRRRRGg#-________________________________________________________________________________",
"___________________________________________________________ ;NRRRRRRRRRRRRRRRRN>________________________________________________________________________________",
"__________________________________________________________.>zHHRRRRTRGRGRIRRRRRN. ______________________________________________________________________________",
"_________________________________________________________ XpHHHHHHHD9$$2226nGRRR9o______________________________________________________________________________",
"_________________________________________________________ <FKKHHHHB67fbCPPb7gGRRG$._____________________________________________________________________________",
"_________________________________________________________+iKFHKFFJ9fQ~~~~~~WfaGRTao_____________________________________________________________________________",
"____________________________________________________ &  X$,676863,;m~~~~~~~~P6NRRzX_____________________________________________________________________________",
"________________________________________________o. $7jcNZZAAZvAvxxi:$sL~~~~~~egGHZ8o____________________________________________________________________________",
"___________________________  4XXXXX4-  _____  t$9ZIRRRRRRYRRYYTTHHKJA9O8L~~~QbgTTTso____________________________________________________________________________",
"_________________________ .#:zGRRRRNa:X. _ .#,gGRRRRRRRRRRRRYRRTYYYYHKD0$bW~~kgITH0 ____________________________________________________________________________",
"________________________ +8NRRRRRRRRRGa3. #7NRRRRRRRRRRRRRRRRRRRYRYTHHKKc2wUW7zHHH0 ____________________________________________________________________________",
"_______________________ X9GRRRRRRRRRRRG6O9cRRRRRRRRRRRRRRRRRRRRRRYRYYHHKKA0209GHHJpo____________________________________________________________________________",
"_______________________.aGRRRRRRRRRRRG92zGRRRRRRRRRRRRRRRQRRRRRRRRRRRTTHKKJs:cRHHA3 ____________________________________________________________________________",
"______________________*2RRRRRRRRRRRRS69SRRRRQRRRRRRRRRRRRRRRRRRRRRRRYYTTHKKJ90HHKxO_____________________________________________________________________________",
"_____________________ XGRRRRGg999aSN2nRRRRRRRRRRRRRRRRRRRRRRRRRRRRRRRRRTTKHKv2xFDh._____________________________________________________________________________",
"_____________________&gRRRRN:7bmme$6nRRRRRRRRRRRRRRRRRRRRRRRRRRRRRRRRRYYTHKKHi6AB1&_____________________________________________________________________________",
"_____________________#SRRRn2m~~!~Q7nRRRRRRRRRRRRRRRRRRRRRRRRRRRRRRRRRRRRTTHKKA:v8 ______________________________________________________________________________",
"____________________o8GRRI9m!~~~!bjRRWRRRRRRRRRRRRRRRRRRRRRRRRRRRRRRRRRRRTTKKK6, _______________________________________________________________________________",
"____________________osIRRn7E~~~!mgGRRRRRRRRRRRRRRRRRRRRRRRRRRRRRRRRRRRRRRYTKKKv=________________________________________________________________________________",
"____________________ gRRRzdQ~~~UdSRRRRRRRRRRRRRRRRRRRQRRRRRRRRS,:::gRRRRRYTHKKFO________________________________________________________________________________",
"____________________ gRRRgeQ~~!bjRRRRRRRRRRRRRRRRRRRRRRRRRRRRj.     ,RRRRYTHHKK:________________________________________________________________________________",
"____________________.dRRRz9E~~UaRRRRRRRRRNccNGRRRRRRRRRRRRRRZ$ to    NRRRRYHKKK,________________________________________________________________________________",
"____________________o7GRRS2M!QMaRRRRRRRRaOXX#2NRRRRRRRRRRRRRa.&(u    ,RRRYYHHKKi________________________________________________________________________________",
"_____________________$SRRRg2CQwNRRRRRRRgX     ;SRRRRRRRRRRRR9.4)^    $RRRRYTHKKa-_______________________________________________________________________________",
"_____________________ nRRRIg$w2RRRRRRRR$ &&   .wRRRRRRRRRRRR9 t/t    @RRRRYTKKKA-_______________________________________________________________________________",
"_____________________-8RRRRRG26RRRRRRRjXo)/.   $RRRRRQRRRRRRjO .    .9RRRYTHKKKK-_______________________________________________________________________________",
"______________________.NRRRRRg9RRRRRRRi.&)^    $GRRRRRRRRRRRG6      $GRRYYHHHKKH-_______________________________________________________________________________",
"______________________+>NRRRR9jRRRRRRRa.&/y    $GRRRRRRRRRRRRG6OX.%:NRRHYYHHKKKB-_______________________________________________________________________________",
"_______________________o2GRRR6nRRRRRRRZ+.oo    9RRRRRRRRRRRRRRRzgjNGRRYYTTKKKKKi&_______________________________________________________________________________",
"_______________________ X8cRR,ZRRRRRRRRz.     :GRRRRRRRQRRRRRRRRRRRRRRYTHHKKKKK9________________________________________________________________________________",
"________________________ &%9G:ZRRRRRRRRRz$  @6SRRRRRRRRRRRRRRRRRRRRRRYTTHKKKKKK,________________________________________________________________________________",
"___________________________oX#ZRRRRRRRRRRRRRRRRRRRRRRRRRRRRRRRRRRRRRYTHKKKKKKKK#________________________________________________________________________________",
"_____________________________1NRRRRRRRRRRRRWRRRRRRRRRRRRRRRRRRRRRRRRRTHKKKKKKKA1________________________________________________________________________________",
"_____________________________=jRRRRRRRRRRRRRRRRRRRRRRRRRRRRRRRRRRRRRYTHKKKKKKKg=________________________________________________________________________________",
"_____________________________.aRRRRRRRRRRRRRRRRRRRRRRRRRRRRRRRRRRRRRRTHKKKKKKK6 ________________________________________________________________________________",
"_____________________________ 6RRRRRRRRRRRRRRRRRRRRRRRGcg999,ijIRRRRYTHKKKKKKA> ________________________________________________________________________________",
"_____________________________ ;RRRRRRRRRRRRRRRRRRRRRN,OXO@@#@@@,RRRRRTHKKKKKKhO ________________________________________________________________________________",
"_____________________________ 5cRRRRRRRRRRRRRRRRRRS:.O$$$$$$$$$ORRRRYTHKKKKKF6._________________________________________________________________________________",
"______________________________.9RRRRRQRRRRRRRRRRRRi@;@$$$$$$$$$@RRRRYTHKKKKKv> _________________________________________________________________________________",
"______________________________o8GRRRRRRRRRRRRRRRRRg@$$$$$$$$$$@:RRRRYYKKKKKKh.__________________________________________________________________________________",
"______________________________.%cRRRRRRRRRRRRRRRRRN@$$$$$$$$$$XjRRRRYTKKKKKB,O..________________________________________________________________________________",
"_______________________________+fRRRRRRRRRRRRRRRRRR6@$$$$$$;@@OYRRRRYHKKKKKx,vvh#&&_____________________________________________________________________________",
"_______________________________ ONRRRRRRRRRRRRRRRRRG$@$@$$$$@OzRRRRRYTHKKKF6pKKKKv:&=-1t444444444=. .    . _____________________________________________________",
"_________________________________2RRRRRRRRRRRRRRRRRRZ$@@$$$$@gRRRRRYYTKKKKx:FHKKKHHx,#9BJDDZNNZNNNjggg665q%..   ________________________________________________",
"_________________________________ocRRRRRRRRRRRRRRRRRRZ6@@@@@iYRRRRYYTHKKKK:gKTTHTHTTHh,6hFHTRRRRRRRRRRRRSNNj963>X.o_____________________________________________",
"__________________________________OZRRRRRRRRRRRRRRRRRRRz0:,jYRRRRRYTHHKKKh2TTYRTYYYTTTKh66AHRRRHRRRRRRRRRRRRRRGNjw8#..__________________________________________",
"__________________________________ lSRRRRRRRRRRRRRRRRRRRYSGRRRRRRRTTHHKKx:ZYYYYRRRRRYTTTB9:gRRRRRRRRRRRRRRRRRRRRRRSSs:. ________________________________________",
"__________________________________ orGRRRRRRRRRRRRRRRRRRRRRRRRRRYTTHKKKK,xYYRRRRRRRRRRTTTGv;9RRRRRRRRRRRRRRRRRRRRRRRRGzO-_______________________________________",
"____________________________________.8SRRRRRRRRRRRRRRRRRRRRRRRYRTTHKKHF9gYYRRRRRRRRRRRRYYYRY6,NRRRRRRRRRRRRRRRRRRRRRRRRG2o _____________________________________",
"_____________________________________o3nRRRRRRRRRRRRRRRRRRRYRYYTTTKKKJs9SGRRRRRRRRRRRRRRRIRRRj8zIRRRRRRRRRQRRRRRRRRRRRRRGaOo ___________________________________",
"______________________________________X5zRRRRRRRRRRRYTYRRYRYYTTHKKKKHaiSRRRRRRRRRRRRRRRRRRRRRRN9aRRRRRRRRRRRRRRRRRRRRRRRRRj3- __________________________________",
"_______________________________________oX9SRRRRRRYTTTTTTYYTTTHHKKKKKpxDHRRRRRRRRRRRRRRRRRRRRRRRS9aGRRRRRRRRRRRRRRRRRRRRRRRRN3=__________________________________",
"_______________________________________-:9:aRRRRRYHHTKTTTTTHHKKKKKA6jHRRRRRRRRRRRRRRRRRRRRRRRRRRGgaIRRRRRRRRRRRRRRRRRRRRRRRRN=-_________________________________",
"_______________________________________.NRn::gGYYTKKKHKHHHKKKKKKJx,xHYGc92:2<,7dnIRRRRRRRRRRRRRRRRjaGRRRRRRRRRRRRRRRRRRRRRRRRNO ________________________________",
"______________________________________ $RRRRz,@9zZFHKKKKKKKKKKAx69SYSi:2bLPULPm0:2jSRRRRRRRRRRRRRRRj9GRRRRRRRRRRRRRRRRRRRRRRRRjX _______________________________",
"_____________________________________.oaRRRRRRS9,6phxvvvvvvxhh9,jTRN2wLQ!!~~!~!!!m76jIRRRRRRRRRRRRRRa9GRRRRRRRRRRRRRRRRRRRRRRRG0&.______________________________",
"____________________________________ >>7RRRRRRRRGzi6969999990icYTRN2f~~~~~~~~~~!~!QCf6zRRRRRRRRRRRRRGa6GRRRRRRRRRRRRRRRRRRRRRRRN>o______________________________",
"__________________________________ %6NN;zRRRRRRRRRRTSZZvZvZZHYYRII6f!~~~~~~~~~~~~~~~!CwaIRRRRRRRRRRRRT69GRRRRRRRRRRYRYYYRRRRRRHG91._____________________________",
"__________________________________%NGRRz$RRRRRRRRRRRRYYTYYYYRYYRRg9Q~~~~~~~~~~~~~~~~!!Wb9ZRRRRRRRRRRRRS99HHKTHHHYYTYTYYYHHHHHHYHB> _____________________________",
"_______________________________ .2GRRRRR29RRRRRRRRRRRRRRRRYRRRRRI7M!~~~~~~~~~~~~~~~~~~~!C7NRRRRRRRRRRRTZ6hHHKKHHHHHHHHHHHHHHHHKKK; _____________________________",
"______________________________ 1lGRRRRRRN$GRRRRRRRRRRRRRRRRRRRRRN7U!~~~~~~~~~~~~~~~~~~~~!EwnRRRRRRRRRHRTx,hKKKKKKKKKKKKKKKKKKKKKJ$ _____________________________",
"_____________________________ %hRRRRRRRRG6aRRRRRRRRRRRRRRRRQRRRRn7Q!~~~~~~~~~~~~~~~~~~~~~~WwzIIRRRRRRRTHKh2AJKKKKKKKKKKKKKKKKKKFpO _____________________________",
"_____________________________+fYRRRRRRRRRz,IRRRRRRRRRRRRRRRRRRRRjw~!~~~~~~~~~~~~~~~~~~~~~~~!bjIRRRRRRRITHK06JKKKKKKKKKKKKKKKKxs8% ______________________________",
"____________________________+pYRRRRRRRRRRZ,NRRRRRRRRRRRRRRRRRRRRjw~~~~~~~~~~~~~~~~~~~~~~~~~~WbnRRRRRRRRTHHA:pJKKKKKKKKKHAp6,5O..._______________________________",
"___________________________.9IRRRRRRRRRRRG6gRRRRRRRRRRRRRRRRRRRRje~~~~~~~~~~~~~~~~~~~~~~~~~~!WwNRRRRRRRHHHHA@AHKFHHBi6@*1.    __________________________________",
"_________________________ X9IRRRRRRRRRRRRYiiRRRRRRRRRRRRRRRRRRRRjw!~~~~~~~~~~~~~~~~~~~~~~~~~~~QwNRRRRRRRYHHFxX#   o&____________________________________________",
"________________________ o8SRRRRRRRRRRRRRRz9IRRRRRRRRRRRRRRRRRRRn7Q~~~~~~~~~~~~~~~~~~~~~~~~~~~!E7SRRRRRRRRHHD8o_________________________________________________",
"_______________________ +8SRRRRRRRRRRRRRRTB6BRRRRRQRRRRRRRRRRWRRNwE~~~~~~~~~~~~~~~~~~~~~~~~~~~~~L9GRRRRRRRHHHv# ________________________________________________",
"_______________________ 3NRRRRRRRRRRRRRRYHD6nTRRRRRRRRRRRRRRRRRRSwC!~~~~~~~~~~~~~~~~~~~~~~~~~~~~~maRRRRRRTRHHD0.________________________________________________",
"_______________________$cRRRRRRRRRRRRRRYTKF6hTRRRRRRRRRRRRRRRRRRR9M!~~~~~~~~~~~~~~~~~~~~~~~~~~~~~QkjRRRRRRRYTHA< _______________________________________________",
"_____________________ *SRRRRRRRRRRRRRRRTHKK6hKTRRRRRRQRRRRRRRRRRRjb!~~~~~~~~~~~~~~~~~~~~~~~~~~~~~~UfNRRRRRRRTHHp1.______________________________________________",
"____________________ =nRRRRRRRRRRRRRRYYTHKKixHTYRRRRRRRRRRRRRRRRRzwW~~~~~~~~~~~~~~~~~~~~~~~~~~~~~~~MaRRRRRRRRTTK,.______________________________________________",
"____________________*kRRRRRRRRRRRRRRRHTHKKKpxKHTTRRRRRRRRRRRRRRRRS2P~~~~~~~~~~~~~~~~~~~~~~~~~~~~~~~WwzRRRRRRYTTHx=______________________________________________",
"___________________ 6GRRRRRRQRRRRRRRRYHHKKJixKHHTRRRRRRRRRRRRRRRRR6b!!~~~~~~~~~~~~~~~~~~~~~~~~~~~~~~L2GRRRRRRRTTH,o_____________________________________________",
"__________________.:GRRRRRRRRRRRRRRRRYHKKKKpxKKHTRRRRRRRRRRRRRRRRRj2Q~~~~~~~~~~~~~~~~~~~~~~~~~~~~~~~!wgRRRRRRRRTHAo_____________________________________________",
"_________________ 4jRRRRRRRRRRRRRRRRRHKFKKKpxKKHHRRRRRRRRRRRRRRRRRI$P!~~~~~~~~~~~~~~~~~~~~~~~~~~~~~~~U$GRRRRRRRHTH:-____________________________________________",
"_________________ 9RRRRRRRRRRRRRRRRRYHKKKKJphKKKHHRRRRRRRRRRRRRRRRRa7~~~~~~~~~~~~~~~~~~~~~~~~~~~~~~~~~7gRRRRRRRRYTv ____________________________________________",
"________________.#GRRRRRRRRRRRRRRRRYTKKKKKKixKKKHHRRRRRRRRRRRRRRRRRR$P!~~~~~~~~~~~~~~~~~~~~~~~~~~~~~~~P:GRRRRRRRRRS$.___________________________________________",
"________________+gRRRRRRRRRRRRRRRRRYTKKKKKKpxKKKHTRRRRRRRRRRRRRRRRQRd2!!~~~~~~~~~~~~~~~~~~~~~~~~~~~~~~!2jRRRRRRRRRA9 ___________________________________________",
"_______________ 6RRRRRRRRRRRRRRRRRRTTKKKKKKpxKKKHTHRRRRRRRRRRRRRRRRRI$V!~~~~~~~~~~~~~~~~~~~~~~~~~~~~~~!M7RRRRRRRz662..& ________________________________________",
"______________o>NRRRRRRRRRRRRRRRRRYTKKKKKKK6hKKKFHRRRRRRRRRRRRRRRRRRRg7W~~~~~~~~~~~~~~~~~~~~~~~~~~~~~~~U7SRRRRGs$icNzd8.._______________________________________",
"______________.9IRRRRQRRRRRRRRRRRRTHKKKKKKK<hKKKKHRRRQRRRRRRRRRRRRRRRS2bQ~~~~~~~~~~~~~~~~~~~~~~~~~~~~~~QdzRRRGi,ZRRRRRGSg#*o____________________________________",
"_____________o3ZRRRRRRRRRRRRRRRRYTTHKKKKKKJpxKKKKHTHRRRRRRRRRRRRRRRRRRN2L~~~~~~~~~~~~~~~~~~~~~~~~~~~~~~!m9RRRj,ZRRRRRRRRRRj$t __________________________________",
"____________ oiRRRRRRRRRRRRRRRRRYTHKKKKKKKB6BKKKKHTRRRRRRRRRRRRRRRRRRRI9wU~~~~~~~~~~~~~~~~~~~~~~~~~~~~~~M9YRS;jRRRRRRRRRRRRRg$..________________________________",
"____________.5NRRRRRRRRRRRRRRRRYTTHKKKKKKKhiJKKKKFHRRRRRRRRRRRRRRRRRRRRG6b~~~~~~~~~~~~~~~~~~~~~~~~~~~~~!V9GR66RRRRRRRRRRRRRRRS7% ___ .X%$%#..___________________",
"____________ <YRRRRRRRRRRRRRRRTTTKKKKKKKKKpiKKKKKKHTRRRRRRRRRRRRRRRRRRRRN2L~~~~~~~~~~~~~~~~~~~~~~~~~~~~~M9GN$GRRRRRRRRRRRRRRRRGj$+. *eMLLPCb%.__________________",
"____________ 8YYYRRRRRRRRRRRRTTTKKKKKKKKKA6hKKKKKKHTRRRRRRRRRRRSa96666jZIj:L~~~~~~~~~~~~~~~~~~~~~~~~~~~!f9R2gRRRRRRRRRRRRRRRRRRRN7oobQ~~~~~QE$-_________________",
"____________^0TTYRRRRRRRRRRRTTTHKKKKKKKKKx6AKKKKKKKTYRRRRRRRIz:$9gzzzg6$$7w2U~~~~~~~~~~~~~~~~~~~~~~~~~~U:cN$GRRRRRRRWRRRRRRRRRRRRZ#VQ~~~~~~~~W> ________________",
"____________/6KKTTRRRRRRRYRYTHKKKKKKKKKKAihKKKKKKKKHTRRRRRRZ2:jRRRRRRRRIn6::2U~~~~~~~~~~~~~~~~~~~~~~~~E76G9aRRRRRRRRRRRRRRRRRRRRS2b~~~~~~~~~~~W+ _______________",
"____________/6HHHTTYYYRYTTHHKKKKKKKKKKKv9hKKKKKKKKKHTYRRRRz,wGRRRRRRRRRRRGj$X2L~~~~~~~~~~~~~~~~~~~~~~P72NG,NRRRRRRRRRRRRRRRRRRRR9wW~~~~~~~~~~~~bo_______________",
"____________/6KKHHTHTTTTHHHKKKKKKKKKKKv6hKKKKKKKKKKKHTRRRj,jRRRRRRRRRRRRRRRN2X2MW~~~~~~~~~~~~~~~~~~Ub26VRn6GRRRRRRRRRRRRRRRRRRRN2L~~~~~~~~~~~~~E7 ______________",
"____________16KKKKKHHHHKHKKKKKKKKKKKKh:hKKKKKKKKKKHFHYRRg;gYRRRRRRRRRRRRRRRRG7X$2mU!~~~~~~~~~~~~WVw27jGRRawIRRRRRRRRRRRRRRRRRRRaeW~~~~~~~~~~~~~~m.______________",
"____________ ;HKKKKKKKKKKKKKKKKKKKKFaX.xKKKKKKKKKKKKHTYc$jRRRRRRSnaagajNGRRRRG9Oj2%2bbbbbbbbbbb2;2wNSIRRI7jRRRRRRRRRRRRRRRRRRRS7M~~~~~~~~~~~~~~~P3._____________",
"____________ 1DHKKKKKKKKKKKKKKKKFKA<. osKKKKKKKKKKKKKTZ:aRRRRIn2#7efbfw:$7GRTTH9,GGcdiiaiiiaaaacIRRRRRRRS9NRRRRRRRRRRRRRRRRRRRSw~~~~~~~~~~~~~~~~~w _____________",
"____________.5hKKKKKKKKKKKKKKKKKAxO&___#FKKKKKKKKKKKKD66DRRRG92M~~~~~~~~Uw2nHKKH,iHRRRRRRRRRRRRRRRRRRRRRN9ZRRRRRRRRRRRRRRRRRRRad~~~~~~~~~~~~~~~~~V% ____________",
"_____________.0KKKKKKKKKKKKKKKJlqo ____.AKKKKKKKKKKKFh,vRRRN6wW~~~~~~~~~~~b7gAKKB:xTRRRRRRRRRRRRRRRRRRRRj9RRQRRRRRRRRRRRRRRRRR7L~~~~~~~~~~~~~~~~~W3.____________",
"_____________.<JKKKKKKKKKKKKKh8%o _____.iKKKKKKKKKKKA6iHTRN6fW!~~~~~~~~~~~~L9iJKKp6ZHRRRRRRRRRRRRRRRRRRRg9RRRRRRRRRRRRWRRRRRRG2!~~~~~~~~~~~~~~~~~~7.____________",
"_____________ OhKKKKKKKKKKKh>4. ________#FFHKKKKKKKFa,AHHD2fW~~~~~~~~~~~~~~~U0xKKA8hHRRRRRRRRRRRRRRRRRRRigRRRRRRRRRRRRRRRRRRRN2~~~~~~~~~~~~~~~~~~~by____________",
"______________.0DKKKKKKKJa$4..__________%AKKKKKKKKKF:pKKD6w!~~~~~~~~~~~~~~~~~V:BKKh2AGTRRRRRRRRRRRRRRRRYigRRRRRRRRRRRRRRRRRRRjw~~~~~~~~~~~~~~~~~~~Mu____________",
"_______________.hFKKKJv7.o______________ 6KKKKKKKKKx;KKDx:Q~~~~~~~~~~~~~~~~~~~k:KKK<hHHRRRRRRRRRRRRRRRRG0cRRRRRRRRRRRRRRRRRRR0b~~~~~~~~~~~~~~~~~~~Wt____________",
"_______________o+xJAx0.&________________ >AKKKKKKKK$xKKA;V~~~~~~~~~~~~~~~~~~~~~8aKKx:AHHYRRRRRRRRRRRRRRG9cRRRRQRRRRRRRRRRRRRR9V~~~~~~~~~~~~~~~~~~~~1____________",
"_________________O8:.&._________________ *0HKKKKKKv$KKH8e~~~~~~~~~~~~~~~~~~~~~~E#AFH:xHTTTRRRRRRRRRRRRRG9cRRRRRRRRRRRRRRRRRRI2Q!~~~~~~~~~~~~~~~~~~~#____________",
"_________________________________________.3AKKKKKK09KKv,U~~~~~~~~~~~~~~~~~~~~~~~w7KK06KFHTYRRRRRRRRRRRRG9cRRRRRRRRRRRRRRRRRRR2Q~~~~~~~~~~~~~~~~~~~~#____________",
"_________________________________________ OsKKKKKK:vKKik!!~~~~~~~~~~~~~~~~~~~~~~P:AKA$KKKTTYRRRRRRRRRRRS9cRRRRRRRRRRRRRRRQRRR2Q~~~~~~~~~~~~~~~~~~~~#____________",
"__________________________________________o<BKKKKK$JKF7V!~~~~~~~~~~~~~~~~~~~~~~~W7hKK@KKKHHTRRRRRRRRRRRG9zRYRRRRRRRRRRRQRRRRI2!~~~~~~~~~~~~~~~~~~~~#____________",
"___________________________________________.pHKKKK,AKx7U~~~~~~~~~~~~~~~~~~~~~~~~!k0HK6gKKKKTTRRRRRRRRRRG9zRTRRRRRRRRRRRRRRRRR2WQ~~~~~~~~~~~~~~~~~~Q%____________",
"___________________________________________o;AKKKK<JKh9Q~~~~~~~~~~~~~~~~~~~~~~~~~V6KKa6KKKKHHTYRRRRRRRRYigHTRRRRRRRRRRRRRRRRR7V!~~~~~~~~~~~~~~~~~~~1____________",
"____________________________________________ 0KKKK2JKsf~~~~~~~~~~~~~~~~~~~~~~~~~~L0BKA8KKKKKKTRRRRRRRRYTgiHHTTRRRRRRRRRRRRRRRwb!~~~~~~~~~~~~~~~~~~Uq____________",
"_____________________________________________XxKKK,JKhb~~~~~~~~~~~~~~~~~~~~~~~~~~U9vKF%KKKKKKHYRRRRRRYYTh8KHHTRRRRRRRRRRRRRRRjw!~~~~~~~~~~~~~~~~~~Mu____________",
"_____________________________________________.$FKK$JJiM~~~~~~~~~~~~~~~~~~~~~~~~~~WwjKJOKKKKKKKKYRRRRRRTThpHKKTTRRRRRRRRRRRRRRn2Q~~~~~~~~~~~~~~~~~~e+____________",
"______________________________________________.8FK:Av9C~~~~~~~~~~~~~~~~~~~~~~~~~~~bhKJOKKKKKKKHKTTYRRRYKv7vKKKHTTRRRRRRRRRRRRR2!~~~~~~~~~~~~~~~~~~3 ____________",
"______________________________________________ *hD6jA9C~~~~~~~~~~~~~~~~~~~~~~~~~!!mhKJOKKKKKKKKKHTTTYYTKD9hKKKHTTTTRRRRRRRRRRI6m~~~~~~~~~~~~~~~~~W5.____________",
"_______________________________________________ $vj2S0C~~~~~~~~~~~~~~~~~~~~~~~~~!!mhKJ;KKKKKKKKKKKKTTHTKK0sKKKKKKHTTIRRRRRRRRRaw~~~~~~~~~~~~~~~~~b1 ____________",
"________________________________________________ ;z#N9C~~~~~~~~~~~~~~~~~~~~~~~~~~~mhFB8KKKKKKKKKKKKKKKKKKh6AKKKKKKKYYYYRRRYRRRz7W~~~~~~~~~~~~~~~~f _____________",
"_________________________________________________*3XzwM~~~~~~~~~~~~~~~~~~~~~~~~~!QwxH90KKKKKKKKKKKKKKKKKKK<xKKKKKKKKHHTYTTRTYYZ6m~~~~~~~~~~~~~~~Pqo_____________",
"_________________________________________________.4.6ab~~~~~~~~~~~~~~~~~~~~~~~~~~UwxK:AKKKKKKKKKKKKKKKKHKK06KKKKKKKKKKKKHTHHHHHdwW~~~~~~~~~~~~~~b. _____________",
"___________________________________________________tO9d~~~~~~~~~~~~~~~~~~~~~~~~~~P7AJOKKKKKKKKKKKKKKKKKKKKK$vKKKKKKKKKKKKKKKKKKB2V~~~~~~~~~~~~~U5&______________",
"___________________________________________________ *$e~~~~~~~~~~~~~~~~~~~~~~~~~~V6Kw6HKKKKKKKKKKKKKKKKKKKFh>FFHKKKKKKKKKKKKKKKKh3W~~~~~~~~~~~~b _______________",
"____________________________________________________.+2U~~~~~~~~~~~~~~~~~~~~~~~~~x8A;vKKKKKKKKKKKKKKKKKKKKHAO0hvJKKKKKKKKKKKKKKKK7k~~~~~~~~~~~V+________________",
"____________________________________________________ .XV~~~~~~~~~~~~~~~~~~~~~~~~W7hh,JKKKKKKKKKKKKKKKKKKKFh3 .X1q60xFKKKKKKKKKKKKA2k~~~~~~~~~V%o________________",
"_____________________________________________________oowQ~~~~~~~~~~~~~~~~~~~~~~!U:c:hKKKKKKKKKKKKKKKKKKA0;X  __.. .%q1<6hzJKKKKKKKB,wP~~~~~~M>._________________",
"_____________________________________________________ oXP~~~~~~~~~~~~~~~~~~~~~~!w6iiJKKKKKKKKKKKKKKKJJ9+=  ________   . .+4=X..X..X .#fE~QL3.  _________________",
"_______________________________________________________.wQ~~~~~~~~~~~~~~~~~~~~~W@i,xKKKKKKKKKKKABvx0Oo _______________________________o.  o&____________________",
"_______________________________________________________&%P~~~~~~~~~~~~~~~~~~~~!w;:sKKKKKKAvxhhl<OXoo____________________________________________________________",
"________________________________________________________o3~~~~~~~~~~~~~~~~~~~~C.%*lllllll<$OX.oo________________________________________________________________",
"_________________________________________________________.M~~~~~~~~~~~~~~~~~!L%o.oooooooo ______________________________________________________________________",
"_________________________________________________________ #V~~~~~~~~~~~~~~~~W3=o________________________________________________________________________________",
"__________________________________________________________ #M~~~~~~~~~~~~~~U8   ________________________________________________________________________________",
"____________________________________________________________XbU~~~~~~~~~~QC%.___________________________________________________________________________________",
"_____________________________________________________________ 5bP!!!!!~WMeX&____________________________________________________________________________________",
"______________________________________________________________&.%ekbbmeqoo _____________________________________________________________________________________",
"________________________________________________________________.. u^u..._______________________________________________________________________________________",
"___________________________________________________________________o++__________________________________________________________________________________________",
"________________________________________________________________________________________________________________________________________________________________",
"________________________________________________________________________________________________________________________________________________________________",
"________________________________________________________________________________________________________________________________________________________________",
"________________________________________________________________________________________________________________________________________________________________",
"________________________________________________________________________________________________________________________________________________________________",
"________________________________________________________________________________________________________________________________________________________________",
"________________________________________________________________________________________________________________________________________________________________",
"________________________________________________________________________________________________________________________________________________________________",
"________________________________________________________________________________________________________________________________________________________________",
"________________________________________________________________________________________________________________________________________________________________",
"________________________________________________________________________________________________________________________________________________________________",
"________________________________________________________________________________________________________________________________________________________________"
};

