/* XPM */
static char *bxBall64[] = {
/* columns rows colors chars-per-pixel */
"96 96 85 1",
"  c #000000",
". c #15150d",
"X c #151b37",
"o c #163010",
"O c #2e2c0e",
"+ c #0e1859",
"@ c #191d62",
"# c #1b2a55",
"$ c #17276f",
"% c #2a3552",
"& c #273174",
"* c #0d5615",
"= c #176e17",
"- c #1e6f31",
"; c #354e10",
": c #285c35",
"> c #2f6b15",
", c #2e6c2f",
"< c #2e4a4b",
"1 c #593905",
"2 c #6b2c00",
"3 c #622018",
"4 c #575710",
"5 c #6c500d",
"6 c #655a2f",
"7 c #716b06",
"8 c #534e4e",
"9 c #474a71",
"0 c #031a9a",
"q c #141b99",
"w c #0219b0",
"e c #112392",
"r c #1a23b5",
"t c #2a1d9c",
"y c #2a308b",
"u c #262fb1",
"i c #0815cc",
"p c #0413da",
"a c #000fea",
"s c #000cfe",
"d c #0713ee",
"f c #1923c8",
"g c #1f29d1",
"h c #158c1d",
"j c #179b21",
"k c #11ae27",
"l c #2d9319",
"z c #2f9823",
"x c #24af23",
"c c #09c930",
"v c #00d233",
"b c #17c42a",
"n c #469315",
"m c #698c08",
"M c #8e1507",
"N c #993500",
"B c #b20f00",
"V c #8c5801",
"C c #927103",
"Z c #a86600",
"A c #b67300",
"S c #d10500",
"D c #e80100",
"F c #fe0000",
"G c #c96900",
"H c #cc7300",
"J c #d77600",
"K c #e67b00",
"L c #8f8d03",
"P c #91a605",
"I c #aa8e00",
"U c #a8a601",
"Y c #b4b400",
"T c #cc8500",
"R c #d88500",
"E c #c2ba00",
"W c #e98500",
"Q c #fe8b00",
"! c #cbc900",
"~ c #d1cb00",
"^ c #d9d700",
"/ c #e9e900",
"( c #edf100",
") c #fefe00",
"_ c None",
/* pixels */
"________________________________________________________________________________________________",
"________________________________________________________________________________________________",
"________________________________________________________________________________________________",
"________________________________________________________________________________________________",
"________________________________________________________________________________________________",
"________________________________________________________________________________________________",
"________________________________________________________________________________________________",
"________________________________________________________________________________________________",
"________________________________________________________________________________________________",
"________________________________________________________________________________________________",
"________________________________________________________________________________________________",
"________________________________________________________________________________________________",
"________________________________________________________________________________________________",
"________________________________________________________________________________________________",
"________________________________________________________________________________________________",
"________________________________________________________________________________________________",
"___________________________________________..       .___________________________________________",
"_______________________________________.O5VAJ6qiiiiit$@.._______________________________________",
"____________________________________.OZRQQQTysssssssssssrtX ____________________________________",
"__________________________________ 5HQQQQQR9ssssssssssssssdi+ __________________________________",
"________________________________.5RQQQQQQQ8dsssssssssssssssssp+.________________________________",
"______________________________ 1TQQQQQQQQZdssssssssssssssssssssfX ______________________________",
"_____________________________.VQQQQQQQQQTysssssssssssssssssssssssy._____________________________",
"____________________________OHQQQQQQQQQQ7dssssssssssssssssssrqqqtq$O____________________________",
"__________________________ OHQQQQQQQQQQR&sssssssssssssssiy,hxvvvvvbhO __________________________",
"__________________________4LQQQQQQQQQQQCdsssssssssssssr<lkvvvvvvvvvvv*__________________________",
"________________________ 6(!IQQQQQQQQQQ8ssssssssssssr<jvvvvvvvvvvvvvvvO ________________________",
"________________________4^)(CQQQQQQQQQTussssssssssi<jvvvvvvvvvvvvvvvvvko________________________",
"_______________________.^)))YGQQQQQQQQCissssssssdylvvvvvvvvvvvvvvvvvvvvj._______________________",
"______________________.U)))))CQQQQQQQQ6ssssssssp:kvvvvvvvvvvvvvvvvvvvvvvl.______________________",
"______________________7))))))~ZQQQQQQRtssssssdyzvvvvvvvvvvvvvvvvvvvvvvvvv>______________________",
"_____________________o/)))))))LWQQQQQZfsssssa<cvvvvvvvvvvvvvvvvvvvvvvvvvvcO_____________________",
"____________________ P))))))))(CQQQWWLfssssr-cvvvvvvvvvvvvvvvvvvvvvvvvvvvvh ____________________",
"____________________O()))))))))YAJMBBBM<iaunvvvvvvvvvvvvvvvvvvvvvvvvvvvvvvco____________________",
"___________________ U))))))))))/2SFFFFFD3%bvvvvvvvvvvvvvvvvvvvvvvvvvvvvvvvvj ___________________",
"___________________O())))))))))ZDFFFFFFFF2kvvvvvvvvvvvvvvvvvvvvvvvvvvvvvvvvvO___________________",
"__________________ m))))))))))ISFFFFFFFFFF4cvvvvvvvvvvvvvvvvvvvvvvvvvvvvvvvv= __________________",
"__________________.!))))))))))2FFFFFFFFFFFBxvvvvvvvvvvvvvvvvvvvvvvvvvvvvvvvvk.__________________",
"__________________O))))))))))/BFFFFFFFFFFFDnkbbbbkbbbbvvvvvvvvvvvvvvvvvvvvvvc*__________________",
"__________________L))))))))))~BFFFFFFFFFFFD7YYYYYYYYYYPPmmm>hjccvvvvvvvvvvvvv-__________________",
"_________________ E))))))))(!PBFFFFFFFFFFFDU)))))))))))))))))^YPLlzkcvvvvvvvvj _________________",
"_________________.()))))^PmnkcBFFFFFFFFFFFS~))))))))))))))))))))))/YPmhbvvvvvc._________________",
"_________________O)))/Pnkcvvvv7FFFFFFFFFFFN)))))))))))))))))))))))))))(UmjcvvvO_________________",
"_________________4)(LlbvvvvvvvbSFFFFFFFFFDE))))))))))))))))))))))))))))))^Lhvv=_________________",
"_________________7!>cvvvvvvvvvvnSFFFFFFFSA)))))))))))))))))))))))))))))))))/mk*_________________",
"_________________4jcvvvvvvvvvvvltMFFFFDMV!))))))))))))))))))))))))))))))))))(L>_________________",
"________________ >vvvvvvvvvvvvxrsst32NZWQT~)))))))))))))))))))))))))))))))))))4_________________",
"________________.zvvvvvvvvvvvc<ssssuAQQQQQT/))))))))))))))))))))))))))))))))))7_________________",
"________________.=vvvvvvvvvvv-gssssuZQQQQQQI()))))))))))))))))))))))))))))))))7_________________",
"_________________=vvvvvvvvvvxtsssssuZQQQQQQQI())))))))))))))))))))))))))))))))L_________________",
"_________________=vvvvvvvvvc<ssssssgZQQQQQQQQL()))))))))))))))))))))))))))))))7_________________",
"_________________*vvvvvvvvvlrssssssgAQQQQQQQQTL)))))))))))))))))))))))))))))))7_________________",
"_________________;vvvvvvvvc<sssssssgAQQQQQQQQQTU))))))))))))))))))))))))))))))4_________________",
"_________________.vvvvvvvvkissssssssIQQQQQQQQQQHY)))))))))))))))))))))))))))))._________________",
"_________________.bvvvvvvv<sssssssssAQQQQQQQQQQQA!)))))))))))))))))))))))))))^._________________",
"__________________jvvvvvvjrsssssssss7QQQQQQQQQQQQC^))))))))))))))))))))))))))U__________________",
"__________________>cvvvvv,dsssssssss6QQQQQQQQQQQQQC/)))))))))))))))))))))))(/7__________________",
"__________________ocvvvvbtssssssssss8QQQQQQQQQQQQQQC/))))))))))))))))))))))(^O__________________",
"__________________ xvvvvkpssssssssss9WQQQQQQQQQQQQQQC/))))))))))))))))))))(^U __________________",
"___________________*vvvvhdssssssssssyJQQQQQQQQQQQQQQQC())))))))))))))))))(/~4___________________",
"___________________.kvvv6sssssssssssgTQQQQQQQQQQQQQQQQL()))))))))))))))))(^Y.___________________",
"____________________=vvvysssssssssssgCQQQQQQQQQQQQQQQQWL())))))))))))))(/^~7____________________",
"____________________.kvvqsssssssssssd6QQQQQQQQQQQQQQQQQQI()))))))))))))(^~Y.____________________",
"____________________ ,vctssssssssssss8QQQQQQQQQQQQQQQQQQWC()))))))))))/^~~4 ____________________",
"_____________________ xcqssssssssssssyRQQQQQQQQQQQQQQQQQQQI/))))))))(/^~!U _____________________",
"______________________ok0ssssssssssssgAQQQQQQQQQQQQQQQQQQQWI/))))))(/^~~YO______________________",
"______________________.O8sssssssssssssCQQQQQQQQQQQQQQQQQQQQQI^)))((/~~~~4.______________________",
"_______________________ Opssssssssssss9RQQQQQQQQQQQQQQQQQQQQQJ~((/^~!!~7 _______________________",
"________________________ &passssssssssuAQQQQQQQQQQQQQQQQQQQQQQHU^~!!!!L.________________________",
"_________________________.yipaasssssssd6QQQQQQQQQQQQQQQQQQQQKKJACE!!!YO_________________________",
"__________________________.$wipasssssssyWQQQQQQQQQQQQQQQQQKKJJGGHVCULo__________________________",
"___________________________.+wwipaasssspZQQQQQQQQQQQQQKKKJJGGGGGGGA1 ___________________________",
"____________________________ %0wwiiaaads9WQQQQQQQQQKKKKGJGGGGGGGGG5 ____________________________",
"_____________________________ .$00wwipparZWWKWKWKJJJJGGGGGGGGGGHZO _____________________________",
"_______________________________.#e000wwii%GHJGGGGGGGGGGGGGGGGGA2._______________________________",
"________________________________ X%00000006GGGGGGGGGGGGGGGGGG5O ________________________________",
"__________________________________ O+$e000e7HGGGGGGGGGGGGGV2O __________________________________",
"_____________________________________ X&$e005HGGGGGJGGGV5O _____________________________________",
"________________________________________ .o+XO1VV1512O. ________________________________________",
"________________________________________________________________________________________________",
"________________________________________________________________________________________________",
"________________________________________________________________________________________________",
"________________________________________________________________________________________________",
"________________________________________________________________________________________________",
"________________________________________________________________________________________________",
"________________________________________________________________________________________________",
"________________________________________________________________________________________________",
"________________________________________________________________________________________________",
"________________________________________________________________________________________________",
"________________________________________________________________________________________________",
"________________________________________________________________________________________________",
"________________________________________________________________________________________________",
"________________________________________________________________________________________________",
"________________________________________________________________________________________________",
"________________________________________________________________________________________________",
"________________________________________________________________________________________________"
};

