/* XPM */
static char *bxBall112[] = {
/* columns rows colors chars-per-pixel */
"160 160 85 1",
"  c #000000",
". c #16160d",
"X c #152614",
"o c #302e0b",
"O c #30322a",
"+ c #111b61",
"@ c #192353",
"# c #2d334e",
"$ c #2d3476",
"% c #1b5019",
"& c #127017",
"* c #30500d",
"= c #2d7512",
"- c #34445e",
"; c #5b1106",
": c #4b3508",
"> c #6f3401",
", c #422456",
"< c #53520a",
"1 c #4d4f2f",
"2 c #4c6d0e",
"3 c #6f5202",
"4 c #6d6907",
"5 c #7b7b00",
"6 c #63632a",
"7 c #4d504d",
"8 c #474d71",
"9 c #001d9a",
"0 c #131d90",
"q c #0219ae",
"w c #12278b",
"e c #2c3490",
"r c #212cb4",
"t c #0516ca",
"y c #0113d8",
"u c #000ee9",
"i c #000cfe",
"p c #0713eb",
"a c #1824cc",
"s c #252ec6",
"d c #3c438d",
"f c #4b528c",
"g c #188f1d",
"h c #189127",
"j c #11af27",
"k c #2d9118",
"l c #38ab1c",
"z c #29b823",
"x c #0cc92e",
"c c #00d233",
"v c #27c426",
"b c #559812",
"n c #900a00",
"m c #993900",
"M c #ad0600",
"N c #8d5600",
"B c #916f00",
"V c #aa5c01",
"C c #b06e00",
"Z c #d60100",
"A c #ea0000",
"S c #fe0000",
"D c #ca6900",
"F c #ce7200",
"G c #d87400",
"H c #e57a00",
"J c #918e01",
"K c #ae8b00",
"L c #a7a601",
"P c #b8b700",
"I c #b9d306",
"U c #d18700",
"Y c #c2be00",
"T c #e98700",
"R c #ea9200",
"E c #fe8b00",
"W c #cbc800",
"Q c #d0ce00",
"! c #d8d700",
"~ c #dae100",
"^ c #e1de00",
"/ c #e9e800",
"( c #edf401",
") c #fefe00",
"_ c None",
/* pixels */
"________________________________________________________________________________________________________________________________________________________________",
"________________________________________________________________________________________________________________________________________________________________",
"________________________________________________________________________________________________________________________________________________________________",
"________________________________________________________________________________________________________________________________________________________________",
"________________________________________________________________________________________________________________________________________________________________",
"________________________________________________________________________________________________________________________________________________________________",
"________________________________________________________________________________________________________________________________________________________________",
"________________________________________________________________________________________________________________________________________________________________",
"________________________________________________________________________________________________________________________________________________________________",
"________________________________________________________________________________________________________________________________________________________________",
"________________________________________________________________________________________________________________________________________________________________",
"________________________________________________________________________________________________________________________________________________________________",
"________________________________________________________________________________________________________________________________________________________________",
"________________________________________________________________________________________________________________________________________________________________",
"________________________________________________________________________________________________________________________________________________________________",
"________________________________________________________________________________________________________________________________________________________________",
"________________________________________________________________________________________________________________________________________________________________",
"________________________________________________________________________________________________________________________________________________________________",
"________________________________________________________________________________________________________________________________________________________________",
"________________________________________________________________________________________________________________________________________________________________",
"________________________________________________________________________________________________________________________________________________________________",
"________________________________________________________________________________________________________________________________________________________________",
"________________________________________________________________________________________________________________________________________________________________",
"________________________________________________________________________________________________________________________________________________________________",
"________________________________________________________________________________________________________________________________________________________________",
"_______________________________________________________________________XOo:..      .. .O._______________________________________________________________________",
"________________________________________________________________.  1::3BUHGBOaupuuuuuuur7O.@1 . ________________________________________________________________",
"______________________________________________________________ .ONNKREEEEK7eiiiiiiiiiiiiiiipe0$o .______________________________________________________________",
"___________________________________________________________ Xo3FGREEEEEEC7piiiiiiiiiiiiiiiiiiiptrO.X ___________________________________________________________",
"_________________________________________________________ .3CEEEEEEEEEEK7iiiiiiiiiiiiiiiiiiiiiiiiip$+.._________________________________________________________",
"________________________________________________________.<CEEEEEEEEEEEU7piiiiiiiiiiiiiiiiiiiiiiiiiiiiq@ ________________________________________________________",
"_____________________________________________________ .3UEEEEEEEEEEEEU6iiiiiiiiiiiiiiiiiiiiiiiiiiiiiiiia@. _____________________________________________________",
"____________________________________________________O<CEEEEEEEEEEEEEECeiiiiiiiiiiiiiiiiiiiiiiiiiiiiiiiiiiq+.____________________________________________________",
"_________________________________________________ OOKEEEEEEEEEEEEEEEK$uiiiiiiiiiiiiiiiiiiiiiiiiiiiiiiiiiiiid#. _________________________________________________",
"_________________________________________________.NTEEEEEEEEEEEEEEER<siiiiiiiiiiiiiiiiiiiiiiiiiiiiiiiiiiiiiiy$..________________________________________________",
"_______________________________________________.:CEEEEEEEEEEEEEEEETB8iiiiiiiiiiiiiiiiiiiiiiiiiiiiiiiiiiiiiiiiirO._______________________________________________",
"______________________________________________ NUEEEEEEEEEEEEEEEEEU<piiiiiiiiiiiiiiiiiiiiiiiiiiiiiiiiiiiiiiiiiuu+ ______________________________________________",
"_____________________________________________1NTEEEEEEEEEEEEEEEEEEB$piiiiiiiiiiiiiiiiiiiiiiiiiiiiiiiir7@+#####@@#<O_____________________________________________",
"___________________________________________ O3REEEEEEEEEEEEEEEEEER<riiiiiiiiiiiiiiiiiiiiiiiiiiiirq12%=lcxcccxccclbXO ___________________________________________",
"__________________________________________ O4EEEEEEEEEEEEEEEEEEEEB#iiiiiiiiiiiiiiiiiiiiiiiiiii8+2ghzccccxcccccccccck* __________________________________________",
"_________________________________________ <L4EEEEEEEEEEEEEEEEEEER3piiiiiiiiiiiiiiiiiiiiiiiiye<*zxccccccccccccccccccccX _________________________________________",
"________________________________________ 6Q/<REEEEEEEEEEEEEEEEEEF4iiiiiiiiiiiiiiiiiiiiiiipw<&lcccccccccccccccccccccccx% ________________________________________",
"_______________________________________ 6W))L4EEEEEEEEEEEEEEEEEEBeiiiiiiiiiiiiiiiiiiiiiu$Xkjccccccccccccccccccccccccccl1 _______________________________________",
"______________________________________.1W)))/3UEEEEEEEEEEEEEEEET2riiiiiiiiiiiiiiiiiiit9<=cccccccccccccccccccccccccccccc&O.______________________________________",
"______________________________________.L)))))JVEEEEEEEEEEEEEEEEU#piiiiiiiiiiiiiiiiiidO&jcccccccccccccccccccccccccccccccx*.______________________________________",
"_____________________________________ J))))))Q<TEEEEEEEEEEEEEEE5$iiiiiiiiiiiiiiiiir#*xccccccccccccccccccccccccccccccccccz= _____________________________________",
"____________________________________.<())))))(JBEEEEEEEEEEEEEER3aiiiiiiiiiiiiiiiiq*hxccccccccccccccccccccccccccccccccccccc*.____________________________________",
"___________________________________ 6!))))))))/3GEEEEEEEEEEEEEF6iiiiiiiiiiiiiiiy*2xcccccccccccccccccccccccccccccccccccccccz6 ___________________________________",
"___________________________________.P))))))))))L3REEEEEEEEEEEEC8iiiiiiiiiiiiip$1hccccccccccccccccccccccccccccccccccccccccccj.___________________________________",
"__________________________________.5)))))))))))/4FEEEEEEEEEEER4tiiiiiiiiiiiip#&jcccccccccccccccccccccccccccccccccccccccccccc2X__________________________________",
"_________________________________ o/))))))))))))Q3REEEEEEEEEEG<aiiiiiiiiiiie#lccccccccccccccccccccccccccccccccccccccccccccccjX _________________________________",
"_________________________________OL))))))))))))))JNEEEEEEEEEEK#piiiiiiiiii02jcccccccccccccccccccccccccccccccccccccccccccccccck1_________________________________",
"________________________________.<)))))))))))))))(4FREEEEEEEEJ$iiiiiiiiia+bccccccccccccccccccccccccccccccccccccccccccccccccccc% ________________________________",
"________________________________.W))))))))))))))))P3EEEETUKKT<7friiiiiir6jccccccccccccccccccccccccccccccccccccccccccccccccccccl.________________________________",
"_______________________________ 5()))))))))))))))))JBETN;nnnMn;;:6aiiia6jcccccccccccccccccccccccccccccccccccccccccccccccccccccc= _______________________________",
"_______________________________oW))))))))))))))))))/33mMASSSSSSSM;O0urkzcccccccccccccccccccccccccccccccccccccccccccccccccccccccjX_______________________________",
"______________________________ 4)))))))))))))))))))/:nASSSSSSSSSSAn:Okxccccccccccccccccccccccccccccccccccccccccccccccccccccccccc= ______________________________",
"______________________________.~))))))))))))))))))/BMSSSSSSSSSSSSSSM.bxcccccccccccccccccccccccccccccccccccccccccccccccccccccccccx.______________________________",
"_____________________________.<))))))))))))))))))(JMSSSSSSSSSSSSSSSSMohcccccccccccccccccccccccccccccccccccccccccccccccccccccccccc<._____________________________",
"_____________________________ L))))))))))))))))))P;ASSSSSSSSSSSSSSSSSnoxccccccccccccccccccccccccccccccccccccccccccccccccccccccccch _____________________________",
"____________________________ :!)))))))))))))))))/3MSSSSSSSSSSSSSSSSSSANlcccccccccccccccccccccccccccccccccccccccccccccccccccccccccx* ____________________________",
"____________________________.5))))))))))))))))))P;SSSSSSSSSSSSSSSSSSSSMbcccccccccccccccccccccccccccccccccccccccccccccccccccccccccc&.____________________________",
"____________________________OY)))))))))))))))))(BMSSSSSSSSSSSSSSSSSSSSZ2cccccccccccccccccccccccccccccccccccccccccccccccccccccccccczO____________________________",
"____________________________o()))))))))))))))))(4ZSSSSSSSSSSSSSSSSSSSSANzxxxxxxxxxxxxxxxxxxcccccccccccccccccccccccccccccccccccccccc.____________________________",
"___________________________.4))))))))))))))))))/3ZSSSSSSSSSSSSSSSSSSSSS;5Bb5J5J5JbBbBBbB5Jbgggg&&ggglcccccccccccccccccccccccccccccc2.___________________________",
"___________________________ P))))))))))))))))))/3ZSSSSSSSSSSSSSSSSSSSSA>P!^!Q!Q!!^!Q!!!^!!WYWWPPLLL<*%%=lxcccxcccccccccccccccccccccj ___________________________",
"___________________________.!)))))))))))))))))(!>ZSSSSSSSSSSSSSSSSSSSSS>Q)))))))))))))))))))))))))))))/WL5<3bbhhzccccccccccccccccccj.___________________________",
"__________________________ 6/)))))))))))))))P44J*ZSSSSSSSSSSSSSSSSSSSSAN!))))))))))))))))))))))))))))))))))(QLJJ4%&lcccccccccccccccx2.__________________________",
"__________________________ 5()))))))))(~IJ2*bjxxkZSSSSSSSSSSSSSSSSSSSSZC())))))))))))))))))))))))))))))))))))))(/~W5<*ljxxcccccccccc& __________________________",
"__________________________ J))))))))/Pb4&gvcccccbnSSSSSSSSSSSSSSSSSSSSML)))))))))))))))))))))))))))))))))))))))))))))(J54&kxccccccccg __________________________",
"__________________________.P)))))(I5<bxxccccccccx3ASSSSSSSSSSSSSSSSSSSm!)))))))))))))))))))))))))))))))))))))))))))))))(!P5*kxccccccl.__________________________",
"__________________________6Q)))(L4*lccccccccccccclMSSSSSSSSSSSSSSSSSSML))))))))))))))))))))))))))))))))))))))))))))))))))))/L<=jccccv1__________________________",
"__________________________</))I<=jxccccccccccccccxBZSSSSSSSSSSSSSSSSZN/))))))))))))))))))))))))))))))))))))))))))))))))))))))/P2*cccc%__________________________",
"__________________________o)(J*vccccccccccccccccccz3ZSSSSSSSSSSSSSSZmQ))))))))))))))))))))))))))))))))))))))))))))))))))))))))))I<kccX__________________________",
"__________________________<~5=xcccccccccccccccccccxz;ZSSSSSSSSSSSSM>W))))))))))))))))))))))))))))))))))))))))))))))))))))))))))))W5gc*__________________________",
"__________________________*2jxccccccccccccccccccccx2r,MSSSSSSSSSZn>BW())))))))))))))))))))))))))))))))))))))))))))))))))))))))))))(J&*__________________________",
"__________________________.jcccccccccccccccccccccck7ii0,nZAZZZM;3VEEKW())))))))))))))))))))))))))))))))))))))))))))))))))))))))))))(b:__________________________",
"_________________________ *ccccccccccccccccccccccl#piiipr1:;>>BFTEEERJ!)))))))))))))))))))))))))))))))))))))))))))))))))))))))))))))^o__________________________",
"_________________________Xbcccccccccccccccccccccj*siiiiiiif3EEEEEEEEEUJ/)))))))))))))))))))))))))))))))))))))))))))))))))))))))))))))<__________________________",
"_________________________O4ccccccccccccccccccccx=0iiiiiiiid3EEEEEEEEEEFL())))))))))))))))))))))))))))))))))))))))))))))))))))))))))))4__________________________",
"_________________________.2cccccccccccccccccccch1piiiiiiiif3EEEEEEEEEEEUL))))))))))))))))))))))))))))))))))))))))))))))))))))))))))))o__________________________",
"__________________________%ccccccccccccccccccccOaiiiiiiiiid3EEEEEEEEEEEEKP())))))))))))))))))))))))))))))))))))))))))))))))))))))))))<__________________________",
"__________________________*ccccccccccccccccccx=7iiiiiiiiiif3EEEEEEEEEEEETJY))))))))))))))))))))))))))))))))))))))))))))))))))))))))))5__________________________",
"__________________________=ccccccccccccccccccjOiiiiiiiiiiif3EEEEEEEEEEEEETBW)))))))))))))))))))))))))))))))))))))))))))))))))))))))))4__________________________",
"__________________________*cccccccccccccccccx20iiiiiiiiiiif3EEEEEEEEEEEEEET3Y))))))))))))))))))))))))))))))))))))))))))))))))))))))))4__________________________",
"__________________________Xcccccccccccccccccl#iiiiiiiiiiiisNEEEEEEEEEEEEEEEK4Q)))))))))))))))))))))))))))))))))))))))))))))))))))))))o__________________________",
"__________________________Xccccccccccccccccz*aiiiiiiiiiiiis3EEEEEEEEEEEEEEEEB4())))))))))))))))))))))))))))))))))))))))))))))))))))))o__________________________",
"__________________________=vccccccccccccccck7iiiiiiiiiiiiisNEEEEEEEEEEEEEEEEEC5/))))))))))))))))))))))))))))))))))))))))))))))))))))!1__________________________",
"__________________________Olccccccccccccccj*aiiiiiiiiiiiiiaNEEEEEEEEEEEEEEEEEEBb))))))))))))))))))))))))))))))))))))))))))))))))))))PO__________________________",
"__________________________ hccccccccccccccx+iiiiiiiiiiiiiiiBREEEEEEEEEEEEEEEEEENJ())))))))))))))))))))))))))))))))))))))))))))))))))L __________________________",
"__________________________ &ccccccccccccxxhqiiiiiiiiiiiiiii5REEEEEEEEEEEEEEEEEEE4L))))))))))))))))))))))))))))))))))))))))))))))))))J __________________________",
"__________________________.2xcccccccccccck1iiiiiiiiiiiiiiiiJUEEEEEEEEEEEEEEEEEEEU4P))))))))))))))))))))))))))))))))))))))))))))))))/4 __________________________",
"___________________________ojcccccccccccx2tiiiiiiiiiiiiiiii4CEEEEEEEEEEEEEEEEEEEEU4W)))))))))))))))))))))))))))))))))))))))))))))))!o___________________________",
"___________________________.jcccccccccccj@piiiiiiiiiiiiiiii4CEEEEEEEEEEEEEEEEEEEEEU4~)))))))))))))))))))))))))))))))))))))))))))))(P ___________________________",
"___________________________.bccccccccccc2eiiiiiiiiiiiiiiiii7CEEEEEEEEEEEEEEEEEEEEEEU<^))))))))))))))))))))))))))))))))))))))))))(//J.___________________________",
"____________________________occcccccccccOaiiiiiiiiiiiiiiiii8CEEEEEEEEEEEEEEEEEEEEEEEF5/)))))))))))))))))))))))))))))))))))))))))(//:____________________________",
"____________________________Xxcccccccccl#iiiiiiiiiiiiiiiiiieFEEEEEEEEEEEEEEEEEEEEEEEEC4/)))))))))))))))))))))))))))))))))))))))//!Wo____________________________",
"____________________________Okccccccccc=piiiiiiiiiiiiiiiiiirJEEEEEEEEEEEEEEEEEEEEEEEEEC4/))))))))))))))))))))))))))))))))))))/)/^QJO____________________________",
"____________________________ *xcccccccx=uiiiiiiiiiiiiiiiiiir5TEEEEEEEEEEEEEEEEEEEEEEEEEC5/))))))))))))))))))))))))))))))))))))/^!W< ____________________________",
"_____________________________.jcccccccj6piiiiiiiiiiiiiiiiiis<TEEEEEEEEEEEEEEEEEEEEEEEEEEBJ/))))))))))))))))))))))))))))))))))/^^QL._____________________________",
"_____________________________.=cccccccj0iiiiiiiiiiiiiiiiiiia7REEEEEEEEEEEEEEEEEEEEEEEEEEEC5())))))))))))))))))))))))))))))))(/~!WJ._____________________________",
"______________________________.jccccccb0iiiiiiiiiiiiiiiiiiii-REEEEEEEEEEEEEEEEEEEEEEEEEEETCJ()))))))))))))))))))))))))))))()//!QW.______________________________",
"______________________________ =cccccc5eiiiiiiiiiiiiiiiiiiii8CEEEEEEEEEEEEEEEEEEEEEEEEEEEEEBJ()))))))))))))))))))))))))))))(/!QQJ ______________________________",
"_______________________________%vccccc#piiiiiiiiiiiiiiiiiiii84EEEEEEEEEEEEEEEEEEEEEEEEEEEEERBL))))))))))))))))))))))))))))//^QWP:_______________________________",
"_______________________________ =ccccx@iiiiiiiiiiiiiiiiiiiiis3EEEEEEEEEEEEEEEEEEEEEEEEEEEEEERBL()))))))))))))))))))))))))//^QQWB _______________________________",
"_______________________________ Xjcccx@iiiiiiiiiiiiiiiiiiiiii4REEEEEEEEEEEEEEEEEEEEEEEEEEEEEEEBL())))))))))))))))))))))()/^QQWPo _______________________________",
"________________________________.2cccx#iiiiiiiiiiiiiiiiiiiiii5CEEEEEEEEEEEEEEEEEEEEEEEEEEEEEEEECL^)))))))))))))))))))))//^!QWQ4.________________________________",
"_________________________________1jccj#iiiiiiiiiiiiiiiiiiiiii7CEEEEEEEEEEEEEEEEEEEEEEEEEEEEEEEEEC5()))))))))))))))))()(/^QQWWK1_________________________________",
"_________________________________ %ccx#iiiiiiiiiiiiiiiiiiiiiirBEEEEEEEEEEEEEEEEEEEEEEEEEEEEEEEEEEVJ()))))))))))))))))//^QQWWW< _________________________________",
"__________________________________Xbcc@iiiiiiiiiiiiiiiiiiiiiia4UEEEEEEEEEEEEEEEEEEEEEEEEEEEEEEEEEECL/)))))))))))))/)/^!QQWWWJX__________________________________",
"__________________________________ Xjx@iiiiiiiiiiiiiiiiiiiiiip1GEEEEEEEEEEEEEEEEEEEEEEEEEEEEEEEEEEEFJ/)))))))))))/)/^!QQWWWPo __________________________________",
"___________________________________ o&1aiiiiiiiiiiiiiiiiiiiiip8CEEEEEEEEEEEEEEEEEEEEEEEEEEEEEEEEEEEEFJ!))))))))))//^!QQWWWY6 ___________________________________",
"___________________________________ X64riiiiiiiiiiiiiiiiiiiiiid3EEEEEEEEEEEEEEEEEEEEEEEEEEEEEEEEEEEEEUJ/)))))))(//^QQWWWWWBX ___________________________________",
"_____________________________________ #$uiiiiiiiiiiiiiiiiiiiiip6REEEEEEEEEEEEEEEEEEEEEEEEEEEEEEEEEEEEEUCW())/)//^!QQWWWWWL _____________________________________",
"______________________________________.:yiuiiiiiiiiiiiiiiiiiiii6BEEEEEEEEEEEEEEEEEEEEEEEEEEEEEEEEEEEEEETBY)((/^!QQQWWWWWLo______________________________________",
"_______________________________________.0yuuuiiiiiiiiiiiiiiiiiir5REEEEEEEEEEEEEEEEEEEEEEEEEEEEEEEEEEEEEEENK^^^!QQWWWWWWPo_______________________________________",
"_______________________________________X1eyyuuuuiiiiiiiiiiiiiiip4FEEEEEEEEEEEEEEEEEEEEEEEEEEEEEEEEEEEEEETHB5QQWWWWWWWWYN._______________________________________",
"________________________________________.$wtyuuuuuiiiiiiiiiiiiip$CEEEEEEEEEEEEEEEEEEEEEEEEEEEEEEEEEHEEHHHGDD4LWWWWWWWYB.________________________________________",
"_________________________________________.1wqtyyuuiiiiiiiiiiiiiirXEEEEEEEEEEEEEEEEEEEEEEEEEEEEEEEEEHHHHGGGDDVNBLWWWWY6X_________________________________________",
"__________________________________________.Owqqtyyuuuuiiiiiiiiiii7TEEEEEEEEEEEEEEEEEEEEEEEEEEEEEEEHHHGGDDDDDDDN<4YYJ6X__________________________________________",
"___________________________________________..$qqqtyyuupuiiiiiiiii83EEEEEEEEEEEEEEEEEEEEEEEREEEHHHHGGDDDDDDDDDDDGN:o..___________________________________________",
"_____________________________________________.+qqqttytuupiiuiiiiip4FEEEEEEEEEEEEEEEEEEHEEEETHHHHGGGDDDDDDDDDDDDGGV._____________________________________________",
"______________________________________________.$w9qqttttyuuuuiiiii8NTEEEEEEEEEEEEEEEEEEHHHHHHGGDDDDDDDDDDDDDDDDDN.______________________________________________",
"_______________________________________________.1999qqqttyyyuuuuiua1TEEEEEEEEEHEEHEHEHHHHGGGDDDDDDDDDDDDDDDDDDV3._______________________________________________",
"_______________________________________________  .-99qqqqqqtyyyuuuu-3EHEHEHHHHTHHHHGGGGGDDGDDDDDDDDDDDDDDDDDDVo  _______________________________________________",
"_________________________________________________ O@-9999qqqqqttyyya4CHHHHHHHGGDGDGDDDDDDDDDDDDDDDDDDDDDDDDC3o _________________________________________________",
"__________________________________________________. #ww99999qqqqqqqtw4DDDGDGDDDDDDDDDDDDDDDDDDDDDDDDDDDDDDNO  __________________________________________________",
"_____________________________________________________ O+9999999q9qqq97NDDDDDDDDDDDDDDDDDDDDDDDDDDDDDDDDDN6 _____________________________________________________",
"______________________________________________________.OO@99999999999w4CDDDDDDDDDDDDDDDDDDDDDDDDDDDDDDV:O.______________________________________________________",
"________________________________________________________ O19+999999999w6CDDDDDDDDDDDDDDDDDDDDDDDDDCVN:O ________________________________________________________",
"__________________________________________________________X..@#w9999999w6VDDDDDDDDDDDDDDDDDDDDDDDN>..X__________________________________________________________",
"_____________________________________________________________ .+O$+w999994BFDDDDDDDDDDDDDDDDVVB:.. _____________________________________________________________",
"________________________________________________________________ @.1+@-w9w#3VDDDDDDDDDDDDV3>1...________________________________________________________________",
"___________________________________________________________________ . X@+.O<o:4BN3o:3<oo1.   ___________________________________________________________________",
"________________________________________________________________________________________________________________________________________________________________",
"________________________________________________________________________________________________________________________________________________________________",
"________________________________________________________________________________________________________________________________________________________________",
"________________________________________________________________________________________________________________________________________________________________",
"________________________________________________________________________________________________________________________________________________________________",
"________________________________________________________________________________________________________________________________________________________________",
"________________________________________________________________________________________________________________________________________________________________",
"________________________________________________________________________________________________________________________________________________________________",
"________________________________________________________________________________________________________________________________________________________________",
"________________________________________________________________________________________________________________________________________________________________",
"________________________________________________________________________________________________________________________________________________________________",
"________________________________________________________________________________________________________________________________________________________________",
"________________________________________________________________________________________________________________________________________________________________",
"________________________________________________________________________________________________________________________________________________________________",
"________________________________________________________________________________________________________________________________________________________________",
"________________________________________________________________________________________________________________________________________________________________",
"________________________________________________________________________________________________________________________________________________________________",
"________________________________________________________________________________________________________________________________________________________________",
"________________________________________________________________________________________________________________________________________________________________",
"________________________________________________________________________________________________________________________________________________________________",
"________________________________________________________________________________________________________________________________________________________________",
"________________________________________________________________________________________________________________________________________________________________",
"________________________________________________________________________________________________________________________________________________________________",
"________________________________________________________________________________________________________________________________________________________________",
"________________________________________________________________________________________________________________________________________________________________",
"________________________________________________________________________________________________________________________________________________________________"
};

