/* XPM */
static char *bxBaer160[] = {
/* columns rows colors chars-per-pixel */
"160 160 55 1",
"  c #000000",
". c #140b00",
"X c #1d1601",
"o c #1F1F1F",
"O c #2a1e00",
"+ c #321e00",
"@ c #2e2705",
"# c #2e2a1f",
"$ c #3b2800",
"% c #3e3507",
"& c #2f2f2f",
"* c #3e3a2f",
"= c #3f3f3f",
"- c #493400",
"; c #573f00",
": c #4f440a",
"> c #5f510c",
", c #664900",
"< c #6f5f0e",
"1 c #755400",
"2 c #7f6d10",
"3 c #4F4F4F",
"4 c #5f5f5f",
"5 c #6f6f6f",
"6 c #7F7F7F",
"7 c #835f00",
"8 c #8f7a12",
"9 c #926900",
"0 c #aa7a00",
"q c #b17d09",
"w c #9f8814",
"e c #af9516",
"r c #bc8702",
"t c #be8512",
"y c #b69b16",
"u c #bea217",
"i c #c18908",
"p c #ca8d15",
"a c #cc9300",
"s c #cf9018",
"d c #da9d00",
"f c #da981a",
"g c #d79521",
"h c #cfb11a",
"j c #dfbe1c",
"k c #e09e0e",
"l c #e09e10",
"z c #e9a800",
"x c #ecca1e",
"c c #fed920",
"v c #8F8F8F",
"b c #BFBFBF",
"n c #dfdfdf",
"m c #FFFFFF",
"M c None",
/* pixels */
"MMMMMMMMMMMMMMMMMMMMMMMMMMMMMMMMMMMMMMMMMMMMMMMMMMMMMMMMMMMMMMMM5=====&=MMMMMMMMMMMMMMMMMMMMMMMMMMMMMMMMMMMMMMMMMMMMMMMMMMMMMMMMMMMMMMMMMMMMMMMMMMMMMMMMMMMMMMMM",
"MMMMMMMMMMMMMMMMMMMMMMMMMMMMMMMMMMMMMMMMMMMMMMMMMMMMMMMMMMMMM=.-1rr0rr07: &MMMMMMMMMMMMMMMMMMMMMMMMMMMMMMMMMMMMMMMMMMMMMMMMMMMMMMMMMMMMMMMMMMMMMMMMMMMMMMMMMMMMM",
"MMMMMMMMMMMMMMMMMMMMMMMMMMMMMMMMMMMMMMMMMMMMMMMMMMMMMMMMMMM3X1dzzzzzzzzzzd9@&MMMMMMMMMMMMMMMMMMMMMMMMMMMMMMMMMMMMMMMMMMMMMMMMMMMMMMMMMMMMMMMMMMMMMMMMMMMMMMMMMMM",
"MMMMMMMMMMMMMMMMMMMMMMMMMMMMMMMMMMMMMMMMMMMMMMMMMMMMMMMMMMo-dzzzzzzzzzzzzzzz1.MMMMMMMMMMMMMMMMMMMMMMMMMMMMMMMMMMMMMMMMMMMMMMMMMMMMMMMMMMMMMMMMMMMMMMMMMMMMMMMMMM",
"MMMMMMMMMMMMMMMMMMMMMMMMMMMMMMMMMMMMMMMMMMMMMMMMMMMMMMMMM.9zzzzzzzzzzzzzzzzzzrX4MMMMMMMMMMMMMMMMMMMMMMMMMMMMMMMMMMMMMMMMMMMMMMMMMMMMMMMMMMMMMMMMMMMMMMMMMMMMMMMM",
"MMMMMMMMMMMMMMMMMMMMMMMMMMMMMMMMMMMMMMMMMMMMMMMMMMMMMMMMo9lzkzkzzzzzzzzzzzzzzzdOMMMMMMMMMMMMMMMMMMMMMMMMMMMMMMMMMMMMMMMMMMMMMMMMMMMMMMMMMMMMMMMMMMMMMMMMMMMMMMMM",
"MMMMMMMMMMMMMMMMMMMMMMMMMMMMMMMMMMMMMMMMMMMMMMMMMMMMMMM&1zkkfzzzzzzzzzzzzzzzzzzr.MMMMMMMMMMMMMMMMMMMMMMMMMMMMMMMMMMMMMMMMMMMMMMMMMMMMMMMMMMMMMMMMMMMMMMMMMMMMMMM",
"MMMMMMMMMMMMMMMMMMMMMMMMMMMMMMMMMMMMMMMMMMMMMMMMMMMMMMMOffffffflfz9$$$$$$1azzzzz1&MMMMMMMMMMMMMMMMMMMMMMMMMMMMMMMMMMMMMMMMMMMMMMMMMMMMMMMMMMMMMMMMMMMMMMMMMMMMMM",
"MMMMMMMMMMMMMMMMMMMMMMMMMMMMMMMMMMMMMMMMMMMMMMMMMMMMMM.gggfggffff:.%>2uuu<.1zzzzzXMMMMMMMMMMMMMMMMMMMMMMMMMMMMMMMMMMMMMMMMMMMMMMMMMMMMMMMMMMMMMMMMMMMMMMMMMMMMMM",
"MMMMMMMMMMMMMMMMMMMMMMMMMMMMMMMMMMMMMMMMMMMMMMMMMMMMMM:ggfggfggf-:xcccccccx2:zzzk9oMMMMMMMMMMMMMMMMMMMMMMMMMMMMMMMMMMMMMMMMMMMMMMMMMMMMMMMMMMMMMMMMMMMMMMMMMMMMM",
"MMMMMMMMMMMMMMMMMMMMMMMMMMMMMMMMMMMMMMMMMMMMMMMMMMMMM&1ssssssgfw@ccccccccccc%7zzzz.MMMMMMMMMMMMMMMMMMMMMMMMMMMMMMMMMMMMMMMMMMMMMMMMMMMMMMMMMMMMMMMMMMMMMMMMMMMMM",
"MMMMMMMMMMMMMMMMMMMMMMMMMMMMMMMMMMMMMMMMMMMMMMMM=.  $$$$$$$$$. X%eccccccccccu.zzzf;MMMMMMMMMMMMMMMMMMMMMMMMMMMMMMMMMMMMMMMMMMMMMMMMMMMMMMMMMMMMMMMMMMMMMMMMMMMMM",
"MMMMMMMMMMMMMMMMMMMMMMMMMMMMMMMMMMMMMMMMMMM&..:1qrzzzzfllflfffgs,O :wccccccccXrzlf93MMMMMMMMMMMMMMMMMMMMMMMMMMMMMMMMMMMMMMMMMMMMMMMMMMMMMMMMMMMMMMMMMMMMMMMMMMMM",
"MMMMMMMMMMMMMMMMMMMM3.     =4MMMMMMMMMMM4X;0zzzzzzzzzzzkkkkklffgffg1X.ecccccc%tzzff&MMMMMMMMMMMMMMMMMMMMMMMMMMMMMMMMMMMMMMMMMMMMMMMMMMMMMMMMMMMMMMMMMMMMMMMMMMMM",
"MMMMMMMMMMMMMMMMMM.X7izzzzzr7$.MMMMMMM.X,rzzzzzzzzzzzzzkzkkkzllffggggw.Xjcccc%rdlff MMMMMMMMMMMMMMMMMMMMMMMMMMMMMMMMMMMMMMMMMMMMMMMMMMMMMMMMMMMMMMMMMMMMMMMMMMMM",
"MMMMMMMMMMMMMMMM&$qzzzzzzzzzzz9@=MMMo$0zzzzzzzzzzzzzzzzzzzzzkzzllllffgg1.eccx.kfffg MMMMMMMMMMMMMMMMMMMMMMMMMMMMMMMMMMMMMMMMMMMMMMMMMMMMMMMMMMMMMMMMMMMMMMMMMMMM",
"MMMMMMMMMMMMMMMX1zzzzzzzzzzzzzzz,.o@rzzzzzzzzzzzzzzzzzzzzzzzzzzzzlllggggq.<c>,kzffg MMMMMMMMMMMMMMMMMMMMMMMMMMMMMMMMMMMMMMMMMMMMMMMMMMMMMMMMMMMMMMMMMMMMMMMMMMMM",
"MMMMMMMMMMMMMMo9zzzzzzzzzzzzzzzd$O0zzzzzzzzzzzzzzzzzzzzzzzzzzzzzzklllgggggX%@sllffs=MMMMMMMMMMMMMMMMMMMMMMMMMMMMMMMMMMMMMMMMMMMMMMMMMMMMMMMMMMMMMMMMMMMMMMMMMMMM",
"MMMMMMMMMMMMM.9zzzzzzzzzzzzzzz0X9zzzzzzzzzzzzzzzzzzzzzzzzzzzzzzzzzzlfffggggO1llfgg1MMMMMMMMMMMMMMMMMMMMMMMMMMMMMMMMMMMMMMMMMMMMMMMMMMMMMMMMMMMMMMMMMMMMMMMMMMMMM",
"MMMMMMMMMMMM=,zzzzzzzzzzzzzzz1Xrzzzzzzzzzzzzzzzzzzzzzzxzzzzzzzzzzzzlzllffggg.sfffg@MMMMMMMMMMMMMMMMMMMMMMMMMMMMMMMMMMMMMMMMMMMMMMMMMMMMMMMMMMMMMMMMMMMMMMMMMMMMM",
"MMMMMMMMMMMM.dzzzzzzr11110zz:,dzzzzzzzzzzzzzzzzxzzzzzzzzzzzzzzzzzzzzzllggggf1$ffgg.MMMMMMMMMMMMMMMMMMMMMMMMMMMMMMMMMMMMMMMMMMMMMMMMMMMMMMMMMMMMMMMMMMMMMMMMMMMMM",
"MMMMMMMMMMM=9zzzzzdX <222@X,,zzzzzzzzzzzzzzzzzzzzzzzzzzzzzzzzzzzzzzzzlllffggg.9gg:4MMMMMMMMMMMMMMMMMMMMMMMMMMMMMMMMMMMMMMMMMMMMMMMMMMMMMMMMMMMMMMMMMMMMMMMMMMMMM",
"MMMMMMMMMMMXzzzzzaO<cccccc<:zzzzzzzzzzzzzzzzzzzzxzzzzzzzzzzzzzzzzzzzzzzlffggg9Ogs.MMMMMMMMMMMMMMMMMMMMMMMMMMMMMMMMMMMMMMMMMMMMMMMMMMMMMMMMMMMMMMMMMMMMMMMMMMMMMM",
"MMMMMMMMMMM,zzzzz@8cccccch-zzzzzzzzzzxzzzzzzzzzzzzzzzzzzzzzzzzzzzzzzzzzffffggg.f.MMMMMMMMMMMMMMMMMMMMMMMMMMMMMMMMMMMMMMMMMMMMMMMMMMMMMMMMMMMMMMMMMMMMMMMMMMMMMMM",
"MMMMMMMMMM30zzzz9%ccccccx$dzzzzzzzzzzzzzzzzzzzxzzzzzzzzzzzzzzzzzzzzzzzzkllfggg; MMMMMMMMMMMMMMMMMMMMMMMMMMMMMMMMMMMMMMMMMMMMMMMMMMMMMMMMMMMMMMMMMMMMMMMMMMMMMMMM",
"MMMMMMMMMM&qzzzz-wcccccc%rzzzzzzzzzzzzzzzzzzzzzzzzzzzzzzzzzzzzzzzzzzzzzzkfffggt&MMMMMMMMMMMMMMMMMMMMMMMMMMMMMMMMMMMMMMMMMMMMMMMMMMMMMMMMMMMMMMMMMMMMMMMMMMMMMMMM",
"MMMMMMMMMM zzzzz$hccccce,zzzzzzzzzzzzzzzzzzzzzzzzzzzzzzzzzz0-$$$$rzzzzzzzlfgggg MMMMMMMMMMMMMMMMMMMMMMMMMMMMMMMMMMMMMMMMMMMMMMMMMMMMMMMMMMMMMMMMMMMMMMMMMMMMMMMM",
"MMMMMMMMMM zzzzz.jccccx@zzzzzzzzzzzzzzzzzzzzzzzzzzzzzzzzzz9       1zzzzzzkfggggOMMMMMMMMMMMMMMMMMMMMMMMMMMMMMMMMMMMMMMMMMMMMMMMMMMMMMMMMMMMMMMMMMMMMMMMMMMMMMMMM",
"MMMMMMMMMM.dzzzz@eccccw9zzzzzzzzzzzzzzzzzzzzzzzzzzzzzzzzza.        azzzzklfffgg-MMMMMMMMMMMMMMMMMMMMMMMMMMMMMMMMMMMMMMMMMMMMMMMMMMMMMMMMMMMMMMMMMMMMMMMMMMMMMMMM",
"MMMMMMMMMM=rzzzz,>cccc@dzzzzzzzzzd,$%-1rzzzzzzzzzzzzzzzzz:  b6     ;zzzzzkffggg,MMMMMMMMMMMMMMMMMMMMMMMMMMMMMMMMMMMMMMMMMMMMMMMMMMMMMMMMMMMMMMMMMMMMMMMMMMMMMMMM",
"MMMMMMMMMMM1zzzza hcce1zzzzzzzzzd$      9zzzzzzzzzzzzzzzz$ =mn      zzzzzzffggg1MMMMMMMMMMMMMMMMMMMMMMMMMMMMMMMMMMMMMMMMMMMMMMMMMMMMMMMMMMMMMMMMMMMMMMMMMMMMMMMM",
"MMMMMMMMMMM:zzzzz9.ec,wzzzzzzzzz-        rzzzzzzzzzzzzzxz. 3mb      zzzzzffffgg14MMMMMMMMMMMMMMMMMMMMMMMMMMMMMMMMMMMMMMMMMMMMMMMMMMMMMMMMMMMMMMMMMMMMMMMMMMMMMMM",
"MMMMMMMMMMM dzzzzz9.>Xdzzzzzzzzr  &=.    $zzzzzzzzzxzzzzzO 4b4      zzzzzlffsggg=MMMMMMMMMMMMMMMMMMMMMMMMMMMMMMMMMMMMMMMMMMMMMMMMMMMMMMMMMMMMMMMMMMMMMMMMMMMMMMM",
"MMMMMMMMMMM41zzzzzzz,@zzzzzzzzz1  nm&     rzzzzzzzzzzzzzz,         ;zzzzkzfggggg=MMMMMMMMMMMMMMMMMMMMMMMMMMMMMMMMMMMMMMMMMMMMMMMMMMMMMMMMMMMMMMMMMMMMMMMMMMMMMMM",
"MMMMMMMMMMMM.dzzzzzzr$zzzzzzzzz:  mm      qzzzzzzzzzzzzzza.       .azzkzklfggggg=MMMMMMMMMMMMMMMMMMMMMMMMMMMMMMMMMMMMMMMMMMMMMMMMMMMMMMMMMMMMMMMMMMMMMMMMMMMMMMM",
"MMMMMMMMMMMM=,zzzzzz,1zzzzzzzzz: &mn      qzzzzzzzzzzzzzzzr.      0zzzzzlffggggf=MMMMMMMMMMMMMMMMMMMMMMMMMMMMMMMMMMMMMMMMMMMMMMMMMMMMMMMMMMMMMMMMMMMMMMMMMMMMMMM",
"MMMMMMMMMMMMM&;zzzzz11zzzzzzzzz9 .=&     Xzzzzzzzzzzzzzzzzzz:$--9azzzkdkffggggg74MMMMMMMMMMMMMMMMMMMMMMMMMMMMMMMMMMMMMMMMMMMMMMMMMMMMMMMMMMMMMMMMMMMMMMMMMMMMMMM",
"MMMMMMMMMMMMMM.9zzzz-rzzzzzzzzzz.        1zzzzzzzzzzzzzzzzzzzzzzzzzzzkkfffggggg1MMMMMMMMMMMMMMMMMMMMMMMMMMMMMMMMMMMMMMMMMMMMMMMMMMMMMMMMMMMMMMMMMMMMMMMMMMMMMMMM",
"MMMMMMMMMMMMMMM&:dzz$rzzzzzzzzzzr.      -zzzzzzzzzzzzzzzzzzzzzzzzzzzzfffggggggg,MMMMMMMMMMMMMMMMMMMMMMMMMMMMMMMMMMMMMMMMMMMMMMMMMMMMMMMMMMMMMMMMMMMMMMMMMMMMMMMM",
"MMMMMMMMMMMMMMMM3.7z$0zzzzzzzzzzza$   -7dzzzzzzzzzzzzzzzzzzzzzzzzzzffffgggggggg$MMMMMMMMMMMMMMMMMMMMMMMMMMMMMMMMMMMMMMMMMMMMMMMMMMMMMMMMMMMMMMMMMMMMMMMMMMMMMMMM",
"MMMMMMMMMMMMMMMMMM&X.0zzzzzzzzzzzzzzzzzzzzzzzzzzzzzzzzzzzzzzzzzzzzzfffsgggggggg MMMMMMMMMMMMMMMMMMMMMMMMMMMMMMMMMMMMMMMMMMMMMMMMMMMMMMMMMMMMMMMMMMMMMMMMMMMMMMMM",
"MMMMMMMMMMMMMMMMMMMM#0zzzzzzzzzzzzzzzzzzzzzzzzzzzzzzzzzzzzzzzzzzzzzkffgggggggggoMMMMMMMMMMMMMMMMMMMMMMMMMMMMMMMMMMMMMMMMMMMMMMMMMMMMMMMMMMMMMMMMMMMMMMMMMMMMMMMM",
"MMMMMMMMMMMMMMMMMMMM41zzzzxzzzzzzzzzzzzzzzzzzzzzzzzzzzzzzzzzzzzzzzzkffgggggggf93MMMMMMMMMMMMMMMMMMMMMMMMMMMMMMMMMMMMMMMMMMMMMMMMMMMMMMMMMMMMMMMMMMMMMMMMMMMMMMMM",
"MMMMMMMMMMMMMMMMMMMMM1zzzzzzzzzzzzzxzzzzzzzzzzzzzzzzzzzzzzzzzzzzzdkffggggggggg;MMMMMMMMMMMMMMMMMMMMMMMMMMMMMMMMMMMMMMMMMMMMMMMMMMMMMMMMMMMMMMMMMMMMMMMMMMMMMMMMM",
"MMMMMMMMMMMMMMMMMMMMM-zzzzzzzzzzzzzzzzzzzzzzzzzzzzzzzzzzzzzzzzzzzzzlfggggggggg.MMMMMMMMMMMMMMMMMMMMMMMMMMMMMMMMMMMMMMMMMMMMMMMMMMMMMMMMMMMMMMMMMMMMMMMMMMMMMMMMM",
"MMMMMMMMMMMMMMMMMMMMMOzzzzzzzzzzzzzzzzzzzzzzzzzzzki97-$$--17kzzzzzdlffggggggg0oMMMMMMMMMMMMMMMMMMMMMMMMMMMMMMMMMMMMMMMMMMMMMMMMMMMMMMMMMMMMMMMMMMMMMMMMMMMMMMMMM",
"MMMMMMMMMMMMMMMMMMMMM dzzzzzzzzzzzzzzzzzzzzzzzzz,....+++O+X.+kzzzzzlfgggggggg;MMMMMMMMMMMMMMMMMMMMMMMMMMMMMMMMMMMMMMMMMMMMMMMMMMMMMMMMMMMMMMMMMMMMMMMMMMMMMMMMMM",
"MMMMMMMMMMMMMMMMMMMMM=0zzzzzzzzzzzzzzzzzzzzzzd> .+$$$++$+-+-.zzzzzzkffggggggg.MMMMMMMMMMMMMMMMMMMMMMMMMMMMMMMMMMMMMMMMMMMMMMMMMMMMMMMMMMMMMMMMMMMMMMMMMMMMMMMMMM",
"MMMMMMMMMMMMMMMMMMMMMM-zzzzzzzzzzzzzzzzzzzzzz1.+$$$+$$$$$$$$.zzzzzklfgggggggqoMMMMMMMMMMMMMMMMMMMMMMMMMMMMMMMMMMMMMMMMMMMMMMMMMMMMMMMMMMMMMMMMMMMMMMMMMMMMMMMMMM",
"MMMMMMMMMMMMMMMMMMMMMM dzzzzzzzzzzzxzzzzzzzzz1O+$$$$$$$$$$$+.zzzzzllgggggggg-MMMMMMMMMMMMMMMMMMMMMMMMMMMMMMMMMMMMMMMMMMMMMMMMMMMMMMMMMMMMMMMMMMMMMMMMMMMMMMMMMMM",
"MMMMMMMMMMMMMMMMMMMMMM49zzzzzzzzzzzzzzzzzzzzz7O-$$$$$$$$$$$O;zzzzzklfggggggf MMMMMMMMMMMMMMMMMMMMMMMMMMMMMMMMMMMMMMMMMMMMMMMMMMMMMMMMMMMMMMMMMMMMMMMMMMMMMMMMMMM",
"MMMMMMMMMMMMMMMMMMMMMMMOzzzzzzzzzzzzzzzzzzzzzd.$$$$$-$$-+$$ qzzzzzkfgfggggg;O-.oMMMMMMMMMMMMMMMMMMMMMMMMMMMMMMMMMMMMMMMMMMMMMMMMMMMMMMMMMMMMMMMMMMMMMMMMMMMMMMMM",
"MMMMMMMMMMMMMMMMMMMMMMM3rzzzzzzzzzzzzzzzzzzzzz,+$$$$$$-$$$.+zzzzzzzfggggggg.sggq-.4MMMMMMMMMMMMMMMMMMMMMMMMMMMMMMMMMMMMMMMMMMMMMMMMMMMMMMMMMMMMMMMMMMMMMMMMMMMMM",
"MMMMMMMMMMMMMMMMMMMMMMMM%zzzzzzzzxzzzzzzzzzzzzd++$$$$$$$$X.azzzzzkkffggggg1$gggggg,.&================MMMMMMMMMMMMMMMMMMMMMMMMMMMMMMMMMMMMMMMMMMMMMMMMMMMMMMMMMMM",
"MMMMMMMMMMMMMMMMMMMMMMMMM9zzzzzzzzzzzzzzzzzzzzzz+.$$$$$-O.azzzzzzzllfggggg.sggfggffg1..1gpppirrq000rr11111$$*=3MMMMMMMMMMMMMMMMMMMMMMMMMMMMMMMMMMMMMMMMMMMMMMMMM",
"MMMMMMMMMMMMMMMMMMMMMMMMM#zzzzzzzzzzzzzzzzzzzzzzd$.+$$++ 9zzzzzzzdffggggg;-fffffffffff1 ;gggffzzzzzzzzzzzzzzrr99$$. =MMMMMMMMMMMMMMMMMMMMMMMMMMMMMMMMMMMMMMMMMMM",
"MMMMMMMMMMMMMMMMMMMMMMMMMM;zzzzzzzzzzzzzzzzzzzzzzz0.....qzzzzzzzzzfffgggs.fffffdlllflfff;.7gglllzzzzzzzzzzzzzzzzzzza0:@#=MMMMMMMMMMMMMMMMMMMMMMMMMMMMMMMMMMMMMMM",
"MMMMMMMMMMMMMMMMMMMMMMMMMMM9zzzzzzzzzzzzzzzzzzzzzzzza71kzzzzzzzkflfggggf%1fkzzlzkkzllzlffsOOffzzzzzzzzzzzzzzzzzzzzzzzzzz0;.&MMMMMMMMMMMMMMMMMMMMMMMMMMMMMMMMMMMM",
"MMMMMMMMMMMMMMMMMMMMMMMMMMM40zzzzzzzzzzzzzzzzzzzzzzzzzzzzzzzzzkklfgfggf1$fzklzzzzzzzzlklfff1.1zzzzzzzzzzzzzzzzzzzzzzzzzzzzz9$.MMMMMMMMMMMMMMMMMMMMMMMMMMMMMMMMMM",
"MMMMMMMMMMMMMMMMMMMMMMMMMMMM*rzzzzzzzzzzzzzzzzzzzzzzzzzzzzzzzzklffgsggs.fzzdzzzzzzzzzzzkzkllpO@dzzzzzzzzzzxzzzzzzzzzzzzzzzzzz0X3MMMMMMMMMMMMMMMMMMMMMMMMMMMMMMMM",
"MMMMMMMMMMMMMMMMMMMMMMMMMMMMM*0zzzzzzzzzzzzzzzzzzzzzzzzzzzzzkklgfggggfXpkzzzzzzzzzzzzzzzzzfzzd1.rzzzzzzzzzzzzzzzzzzzzzzzzzzzzzd-oMMMMMMMMMMMMMMMMMMMMMMMMMMMMMMM",
"MMMMMMMMMMMMMMMMMMMMMMMMMMMMMM&0zzzzzzzzzzzzzzzzzzzzzzzzzzkkkklggggggO9fzzzzzzzzzzzzzzzzzlzzzzzrX7zzzzzzzzzzzzzzzzzzzzzzzzzzzzzz9.MMMMMMMMMMMMMMMMMMMMMMMMMMMMMM",
"MMMMMMMMMMMMMMMMMMMMMMMMMMMMMMM&1zzzzzzzzzzzzzzzzzzzzzzzkkkllgglgggf,9llzzzzzzzzzzzzzzzzzzzzzzzzd;:dzzzzzzzzzzzzzzzzzzzzzzzzzzzzzrX4MMMMMMMMMMMMMMMMMMMMMMMMMMMM",
"MMMMMMMMMMMMMMMMMMMMMMMMMMMMMMMM4-zzzzzzzzzzzzljkkkkzkkkkllllgggggg-9fzdzzzzzzzzzzzzzzzzdzzzzzzzzz1-zzzzzzzzzzzzzzzzzzzzzzzzzzzzzzdO4MMMMMMMMMMMMMMMMMMMMMMMMMMM",
"MMMMMMMMMMMMMMMMMMMMMMMMMMMMMMMMM .7zzzzzzzzzlfflllkfzllffgfgggggs$slkzzzzzzzzzzzzzzzzzzzzzzzzzzzzzw-azzzzzzzzzzzzzzzzzzzzzzzzzzzzzd@4MMMMMMMMMMMMMMMMMMMMMMMMMM",
"MMMMMMMMMMMMMMMMMMMMMMMMMMMMMMMM4:rOO0zzzzzkffffgfffffffffgggggfqXsllzzzzzzzzzzzzzzzzzzzzzzzzzzzzzzzr$dzzzzzzzzzzzzzzzzzzzzzzzzzzzzzdO4MMMMMMMMMMMMMMMMMMMMMMMMM",
"MMMMMMMMMMMMMMMMMMMMMMMMMMMMMMMM azz1.$0azzlfggfggfgfffgggggggf,@szlzd7:$$$%$$,90zzzzzzzzzzzzzzzzzzzzr$azzzzzzzzzzzzzzzzzzzzzzzzzzzzzdXMMMMMMMMMMMMMMMMMMMMMMMMM",
"MMMMMMMMMMMMMMMMMMMMMMMMMMMMMMMM$zzzzd1@ ;pzffggggggggggggggf1X0kkk0- ,8uuuuuu2:OX9zzzzzzzzzzzzzzzzzzzaXrzzzzzzzzzzzzzzzzzzzzzzzzzzzzzr.MMMMMMMMMMMMMMMMMMMMMMMM",
"MMMMMMMMMMMMMMMMMMMMMMMMMMMMMMMo9zzzzzzzp: $1sggfgggggggggg1.:ffkz,X8xcccccccccccwXX9zzzzzzzzzzzzzzzzzzaXrzzzzzdzzzzzzzzzzzzzzzzzzzzzzz1oMMMMMMMMMMMMMMMMMMMMMMM",
"MMMMMMMMMMMMMMMMMMMMMMMMMMMMMM4 azzzzzzzzza0-O $-1111111-O@1ffzzd;@jcccccccccccccccu%X0zzzzzzzzzzzzzzzzzrXrzzzzzzzzzzzzzzzzzzzzzzzzzzzzz$4MMMMMMMMMMMMMMMMMMMMMM",
"MMMMMMMMMMMMMMMMMMMMMMMMMMMMMO1,$zzzzzzzzzzzllls91111111qskkkzzz;@xcccccccccccccccccch@:zzzzzzzzzzzzzzzzzr.azkzzzzzzzzzzzzzzzzzzzzzzzzzza MMMMMMMMMMMMMMMMMMMMMM",
"MMMMMMMMMMMMMMMMMMMMMMMMMMM*1zzdX9zzzzzzzzzzzzzzzklllkflkkkzzzz9.xcccccccccccccccccccccw@0zzzzzzzzzzzzzzzz9Xikzdzzlkkzllkzkzkzzzklzfzlklf,4MMMMMMMMMMMMMMMMMMMMM",
"MMMMMMMMMMMMMMMMMMMMMMMMMM%azzzz0.dzzzzzzzzzzzzzzklzllkzzzzzzzkXucccccccccccccccccccccccx:,zzzzzzzzzzzzzzzz9OffffffflfkfllllllllffkfkffffqoMMMMMMMMMMMMMMMMMMMMM",
"MMMMMMMMMMMMMMMMMMMMMMMMM1zzzzzzz-:zzzzzxzzzzzzzzzzzzzzzzzzzzz0@cccccccccccccccccccccccccc2-dzzzzzzzzzzzzzzl,:fffffffffffgglgflgfffffffggs MMMMMMMMMMMMMMMMMMMMM",
"MMMMMMMMMMMMMMMMMMMMMMM40zzzzzzzza dzzzzzzzzzzzzzzzzzzzzzzzzzz,8cccccccccccccccccccccccccccu%dzzzzzzzzzzzllff@,gffgggfgggggggggggggffggggg MMMMMMMMMMMMMMMMMMMMM",
"MMMMMMMMMMMMMMMMMMMMMM40zzzzzzzzzz$1zzzzzzzzzzzzzzzzzzzzzzzzzzOucccccccccccccccccccccccccccch@azzzzzzzzzzzzfgg.9ggggggggggggggggggggggggg9.MMMMMMMMMMMMMMMMMMMMM",
"MMMMMMMMMMMMMMMMMMMMM*9zzzzzzzzzzz0.zzzzzzzzzzzzzzzzzzzzzzzzzz ccccccccccccccccccccccccccccccj%rzzzzzzzzzkklfgg gggggggggggggggggggggggg9.MMMMMMMMMMMMMMMMMMMMMM",
"MMMMMMMMMMMMMMMMMMMM#9zzzzzzzzzzzzzXrzzzzzzzzzzzzzzzzzzzzzzzzz cccccccccccccccccccccccccccccccx%azzzzzzzzzkkffg1Xgggggggggggggggggggg1-.3MMMMMMMMMMMMMMMMMMMMMMM",
"MMMMMMMMMMMMMMMMMMM&9zzzzzzzzzzzzzz;,zzzzzzzzzzzzzzzzzzzzzzzzz ccccccccccccccccccccccccccccccccj:dzzzzzzzkkkfffg$;gggggggggggggg1;@ &MMMMMMMMMMMMMMMMMMMMMMMMMMM",
"MMMMMMMMMMMMMMMMMM.9zzzzzzzzzzzzzzz0@zzzzzzzzzzzzzzzzzzzzzzzzz cccccccccccccccccccccccccccccccccj%dzzzzzzzzklffgg.qffggffs7,$ o=MMMMMMMMMMMMMMMMMMMMMMMMMMMMMMMM",
"MMMMMMMMMMMMMMMMM.8zzzzzzzzzzzzzzzzd dzzzzzzzzzzzzzzzzzzzzzzzz cccccccccccccccccccccccccccccccccch-dzzzzzzzkkzffgt $.   .=MMMMMMMMMMMMMMMMMMMMMMMMMMMMMMMMMMMMMM",
"MMMMMMMMMMMMMMMM&,zzzzzzzzzzzzzzzzzz$0zzzzzzzzzzzzzzzzzzzzzzzzXhcccccccccccccccccccccccccccccccccce-zzzzzzzzkkffsg-&MMMMMMMMMMMMMMMMMMMMMMMMMMMMMMMMMMMMMMMMMMMM",
"MMMMMMMMMMMMMMM&1zzzzzzzzzzzzzzzzzlk,1lzzzzzzzzzzzzzzzxzzzzzzz%uccccccccccccccccccccccccccccccccccc81zzzzzzzzzlfffg.MMMMMMMMMMMMMMMMMMMMMMMMMMMMMMMMMMMMMMMMMMMM",
"MMMMMMMMMMMMMM=;zzzzzzzzzzzzzzzzkzlf9-fzzzzkzzzzzzzzzzzzzzzzzz,2cccccccccccccccccccccccccccccccccccc:rzzzzzzzzzlffg7oMMMMMMMMMMMMMMMMMMMMMMMMMMMMMMMMMMMMMMMMMMM",
"MMMMMMMMMMMMMMOdzzzzzzzzzzzzzzzzklffsOflkzzzzzzzzzzzzzzzzzzzzz7,ccccccccccccccccccccccccccccccccccccx@dzzzzzzzzzlffg@MMMMMMMMMMMMMMMMMMMMMMMMMMMMMMMMMMMMMMMMMMM",
"MMMMMMMMMMMMM%rzzzzzzzzzzzzzzzzzzffgg flkzzzzzzzzzzzxzzzzzzzzziOccccccccccccccccccccccccccccccccccccch$zzzzzzzzkzlffg.MMMMMMMMMMMMMMMMMMMMMMMMMMMMMMMMMMMMMMMMMM",
"MMMMMMMMMMMM*dzzzzzzzzzzzzzzzzzjfffgg ffkzzzzzzzzzzzzzzzzzzzxzz.jcccccccccccccccccccccccccccccccccccccw1zzzzzzzzllffg;3MMMMMMMMMMMMMMMMMMMMMMMMMMMMMMMMMMMMMMMMM",
"MMMMMMMMMMM*izzzzzzzzzzzzzzzzzzzfffgg$sglkzzzzzzzzzzzzzzzzzzzzz;wcccccccccccccccccccccccccccccccccccccc@azzzzzzzzklffg.MMMMMMMMMMMMMMMMMMMMMMMMMMMMMMMMMMMMMMMMM",
"MMMMMMMMMM49zzzzzzzzzzzzzzzzkzklffggf$sgflzzzzzzzzzzzzzzzzzzzzz9:ccccccccccccccccccccccccccccccccccccccu$zzzzzzzzkzfff,=MMMMMMMMMMMMMMMMMMMMMMMMMMMMMMMMMMMMMMMM",
"MMMMMMMMMM,zzzzzzzzzzzxzzzzzzzzfggggg@ggglkzzzzzzzzzzzzzzzzzzzzz xcccccccccccccccccccccccccccccccccccccc:9zzzzzzzzzlfff.MMMMMMMMMMMMMMMMMMMMMMMMMMMMMMMMMMMMMMMM",
"MMMMMMMMMOzzzzzzzzzzzzzzzzzzzklfggggg@gggflkzzzzzzzzzzzzzzzzzzzz@wccccccccccccccccccccccccccccccccccccccj.dzzzzzzzzlzff1=MMMMMMMMMMMMMMMMMMMMMMMMMMMMMMMMMMMMMMM",
"MMMMMMMM#azzzzzzzzzzzzzzzzzzzkfffgggg$ggggllzzzzzzzzzzzzzzzzzzzz9Occccccccccccccccccccccccccccccccccccccc>1zzzzzzzzzzlff MMMMMMMMMMMMMMMMMMMMMMMMMMMMMMMMMMMMMMM",
"MMMMMMM30zzzzzzzzzzzzzzzzzzzzfffggggg$fgggfkkzzzzzzxzzzzzxzzzzzzz hccccccccccccccccccccccccccccccccccccccj.dzzzzzzzzkkff;4MMMMMMMMMMMMMMMMMMMMMMMMMMMMMMMMMMMMMM",
"MMMMMMM-zzzzzzzzzzzzzzzzzzzzzffgggggg$fgggflzzzzzzzzzzzzzzzzzzzzz:>ccccccccccccccccccccccccccccccccccccccc:2zzzzzzzzzzzfg MMMMMMMMMMMMMMMMMMMMMMMMMMMMMMMMMMMMMM",
"MMMMMM.dzzzzzzzzzzzzzzzzzzzzzfggggggg$ggggglkzzzzzzzzzzzzzzzzzzzza jccccccccccccccccccccccccccccccccccccccuXzzzzzzzzzkzff-MMMMMMMMMMMMMMMMMMMMMMMMMMMMMMMMMMMMMM",
"MMMMM&1zzzzzzzzzzzzzzzzzzzzzffggggggg$ggggffkzzzzzzzzzzzzzzzzzzzzz,>cccccccccccccccccccccccccccccccccccccccX0zzzzzzzzzzzk9oMMMMMMMMMMMMMMMMMMMMMMMMMMMMMMMMMMMMM",
"MMMMMOzzzzzzzzzzzzzzzzzzzzkklgggggggg$gggggfkzzzzzzzzzzzzzzzzzzzzza jccccccccccccccccccccccccccccccccccccccw-zzzzzzzzzzdrq MMMMMMMMMMMMMMMMMMMMMMMMMMMMMMMMMMMMM",
"MMMM rzzzzzzzzzzzzzzzzzzzzkllggggggggOggggfffzzzzzzzzzzzxzzzzzzzzzz::ccccccccccccccccccccccccccccccccccccccx.dzzzzzzzd: O$$ .3MMMMMMMMMMMMMMMMMMMMMMMMMMMMMMMMMM",
"MMM3,zzzzzzzzzzxzzzzzzzzzkklggggggggg gggggfdzzzzzzzzzzzzzzzzzzzzzzd.ucccccccccccccccccccccccccccccccccccccc>9zzzzzzw.$dzzzzr1.oMMMMMMMMMMMMMMMMMMMMMMMMMMMMMMMM",
"MMM.azzzzzzzzzzzzzzzzzzzzzklggggggggg gggggfffzzzzzzzzzzzzzzzzzzzzzz1@xccccccccccccccccccccccccccccccccccccce%zzzzzr.9zzzzzzzzz0- 4MMMMMMMMMMMMMMMMMMMMMMMMMMMMM",
"MM31zzzzzzzzzzzzzzzzzzzzzklgggggggggg$gggggffkzzzzzzzzzzzzzzzzzzzzzzz$8cccccccccccccccccccccccccccccccccccccx.zzzzdX7zzzzzzzzzzzzd; 4MMMMMMMMMMMMMMMMMMMMMMMMMMM",
"MMXdzzzzzzzzzzzzzzzzzzzzklglgggggggg1;ggggggflfzzzzzzzzzzzzzzzzzzzzzzi hccccccccccccccccccccccccccccccccccccc.dzzz-@zzzzzzzzzzzzzzza:.MMMMMMMMMMMMMMMMMMMMMMMMMM",
"M31zzzzzzzzzzzzzzzzzzzzzllgggggggggg,1ggggggffzzzzzzzzzzzzzzzzzzzzzzzz7@xcccccccccccccccccccccccccccccccccccc%0zz0.dzzzzzzzzzzzzzzzzzqO=MMMMMMMMMMMMMMMMMMMMMMMM",
"MoazzzzzzzzzzzzzzzzzzzzjlggggggggfggXgggggggffzzzzzzzzzzzzzzzzzzzzzzzzz-:cccccccccccccccccccccccccccccccccccc@rzzX9zzzzzzzzzzzzzzzzzzzz1.MMMMM&.:222<@oMMMMMMMMM",
"M zzzzzzzzzzzzzzzzzzkkllgggggggggggg.gggggfgfffzzzzzzzzzzzzzzzzzzzzzzzzdXwccccccccccccccccccccccccccccccccccc dz7@zzzzzzzzzzzzzzzzzzzzxz0X=MM&2cccccccy@MMMMMMMM",
"M$lflzzzzzzzzzzzzzkzkllfggggggggggg1;ggggggggflkzzzzzzzzzzzza1-$$-$$,0azr eccccccccccccccccccccccccccccccccceXzzXazzzzzzzzzzzzzzzzzzzzzzzd>..2ccccccccccX4MMMMMM",
"b$ffkzzzzzzzzzzzzzkkklfggggggggggggOtgggggggggfzzzzzzzzzzd9@X,9rrr091$ $10.hcccccccccccccccccccccccccccccccc@1z9Xzzzzzzxzzzzzzzzzzzzzzzzzzr.ucccccccccccc@MMMMMM",
"b$ffflfzzzzzzzzzkkllffgggggggggggg9;ggggggggggfkzzzzzzzzrX$9zzzzzzzzzza9$@,Ohccccccccccccccccccccccccccccccw.dz-9zzzzzzzzzzzzzzzzzzzzzzzzdXwcccccccccccccc.MMMMM",
"b$gffflkfzzzzlllkllgggggggggggggg9;gggggggggggffzzzzzzz1 7zzzzzzzzzzzzzzd1 O.hccccccccccccccccccccccccccccw 9zd dzzzzzzzzzzzzzzzzzzzzzzzz-:cccccccccccccccwoMMMM",
"b$gggfffzfklkflllggggggggggggggg,-gggggggggggggflzzzzz1@rzzzzzzzzzzzzzzzzzr@ .ucccccccccccccccccccccccccx> 9zz9-zzzzzzzzzzzzzzzxzzzzzzzzr.ccccccccccccccccc%MMMM",
"b$fgggffffffffffggggggggggggggg,;ggggggggggggggglzzzz;.rzzzzzzzzzzzzzzzzzzzd:  <jcccccccccccccccccccccj< @rzzz-9zzzzzzzzzzzzzzzzzzzzzzzz@2cccccccccccccccccx.MMM",
"M@fggggggfffffggggggggggggggggO+ggggggggggggggggfkzz,Xrzzzzzzzzzzzzzzzzzzzzzz:.$ >eccccccccccccccccjw% :0zzzzz.azzzzzzzzzzzzzzzzzzzzzzza ccccccccccccccccccc@MMM",
"M fgggggggggggggggggggggggggq.M ggggggggggggggggfzz1.rzzzzzzzar1211119rzzzzzzz,Oa,X :222222282222>X.:9zzzzzzzrXzzzzzzzzzzzzzzzzzzzzzzzz>>cccccccccccccccccccw&MM",
"Mofgggggggggggggggggggggggg,oMMoqgggggggggggggggflr 0zzzzzz0- %>82222%.@1zdkfff;$lzd01111111111117rzzzzzzzzzz9,zzzzzzzzzzzzzzzzzzzzzzzz.ccccccccccccccccccccc.MM",
"M37ggggggggggggggggggggggg.=MMMM;gggggggggggggggff.1zzzzzz1X2ccccccccccu@:dfffgfO1fzlzzzzzzzzzzzzzzzzzzzzzzzz,1zzzzzzzzzzzzzzzzzzzzzzzaXccccccccccccccccccccc>MM",
"MM-ggggggggggggggggggggg;.MMMMMM.ggggfggggggggggf,@kdzzkd$@cccccccccccccc:Xpggggf slzzkzzzzzzzzzzzzzzzzzzzzzz$rzzzzzzzzzzzzzzzzxzzzzzz12cccccccccccccccccccccy=M",
"MM ggggggggggggggggggg1.=MMMMMMMotsgggggggggggggs pfzzld@>ccccccccccccccccu.9gggg7Xffzkzzzzzzzzzzzzzzzzzzzzzz zzzzzzzzxzzzzzzzzzzzzzzz$xcccccccccccccccccccccc M",
"MM&9gggggggggggggggg,.=MMMMMMMMMM;gggggggggggggg$:fflla.<ccccccccccccccccccc.9gggg$1ffzzzzzzzzzzzzzzzzzzzzzzaXzzzzzzzzzzzzzzzzzzzzzzzz ccccccccccccccccccccccc%M",
"MMMOgggggggggggggg; 4MMMMMMMMMMMM.sgggggggggggg9.gffffO2ccccccccccccccccccccc.ggggs ffzzzzzzzzzzzzzzzzzzzzzzr$zzzzzzzzzzzzzzzzzzzzzzzr@ccccccccccccccccccccccc<v",
"MMM.qggggggggggq$ 4MMMMMMMMMMMMMMotggggggggggggO1gfff-:cccccccccccccccccccccc8Xgggg;,ffzzzzzzzzzzzzzzzzzzzzz9,zzzzzzzzzzzzzzzzzzzzzzz0:ccccccccccccccccccccccc85",
"MMMM.gggggggg7.oMMMMMMMMMMMMMMMMMM;gggggggggggt.ggggq.cccccccccccccccccccccccc%;gggg gflkzzzzzzzzzzzzzzzzzzz71zzzzzzzzzzzzzzzzzzzzzzz22cccccccccccccccccccccccx=",
"MMMM=Oggggg: =MMMMMMMMMMMMMMMMMMMM ggggggggggg@1ggggXwccccccccccccccccccccccccc qggg;;gglkkzzzzzzzzzzzzzzzzz11zzzzzzzzzzzzzzzzzzzzzzz12cccccccccccccccccccccccx=",
"MMMMMM-gq$.4MMMMMMMMMMMMMMMMMMMMMM31gggggggggg gggg,%ccccccccccccccccccccccccccu.gggg gglllzzzzzzzzxzzzzzzzz11zzzzzzzzzzzxzzzzzzzzzzz$xcccccccccccccccccccccccc ",
"MMMMMMMMMMMMMMMMMMMMMMMMMMMMMMMMMMM.fgggggggg1-ggsf cccccccccccccccccccccccccccc@9gggO9ggglzzzzzzzzzzzzzzzzz11zzzzxzzzzzzzzzzzzzzzzzz$xcccccccccccccccccccccccc ",
"MMMMMMMMMMMMMMMMMMMMMMMMMMMMMMMMMMM&9gggggggg@9ggg1%ccccccccccccccccccccccccccccwXggg7-gggllkzzzzxzzzzzzzzzz11zzzzzzzzzzzzzzzzzzzzzzz$xcccccccccccccccccccccccc ",
"MMMMMMMMMMMMMMMMMMMMMMMMMMMMMMMMMMMMOlggggggg.gggg.ccccccccccccccccccccccccccccccXqggg.ggggllkzzzzzzzzzzzzzz17zzzzzzzzzzzzzzzzzzzzzzz@xcccccccccccccccccccccccc ",
"MMMMMMMMMMMMMMMMMMMMMMMMMMMMMMMMMMMM&1ggggggg gggqXcccccccccccccccccccccccccccccc<,ggg.gggggllzzzzzzzzzzzzzz11zzzzzzzzzzzzzxzzzzzzzzz$xcccccccccccccccccccccccc ",
"MMMMMMMMMMMMMMMMMMMMMMMMMMMMMMMMMMMMM.fggggggOggg,<ccccccccccccccccccccccccccccccuOggg-9gggggflzzzzzzzzzzzzz11zzzzzzzzzzzzzzzzzzzzzzz$xcccccccccccccccccccccccc ",
"MMMMMMMMMMMMMMMMMMMMMMMMMMMMMMMMMMMMM=1fggggg$ggf@yccccccccccccccccccccccccccccccc ggg1,ggggggllkzzzzzzzzzzzq-llkzzzzzzzzzzzzzzzzzzzz;8cccccccccccccccccccccccco",
"MMMMMMMMMMMMMMMMMMMMMMMMMMMMMMMMMMMMMM.sggggg$ggf cccccccccccccccccccccccccccccccc@fggt$gggggggfkzzzzzzzzzzzt$lffllzzzzzzzzzzzzzzzzzz12cccccccccccccccccccccccx=",
"MMMMMMMMMMMMMMMMMMMMMMMMMMMMMMMMMMMMMMMOfgggg$gggXcccccccccccccccccccccccccccccccc>7ggs@gggggggglkzzzzzzzzzkf.gggllkkzzzzzzzzzzzzzzzz2>cccccccccccccccccccccccw3",
"MMMMMMMMMMMMMMMMMMMMMMMMMMMMMMMMMMMMMMMo1ggggXggs%cccccccccccccccccccccccccccccccc21ggg gggggggglkkkzzzzzzklf ggggllzzzzzzzzzzzzzzzzzr%ccccccccccccccccccccccc26",
"MMMMMMMMMMMMMMMMMMMMMMMMMMMMMMMMMMMMMMMM.gggg gg7>ccccccccccccccccccccccccccccccccw-ggg ggggggggfllkzzzzzzzlf@sgggflkzzzzzzzzzzzzzzzzz ccccccccccccccccccccccc%M",
"MMMMMMMMMMMMMMMMMMMMMMMMMMMMMMMMMMMMMMMMM$gggXgg12ccccccccccccccccccccccccccccccccc$ggg ggggggggggllkkzzzzfff,1ggggllkkzzzzzzzzzzzzzzzXccccccccccccccccccccccc.M",
"MMMMMMMMMMMMMMMMMMMMMMMMMMMMMMMMMMMMMMMMM&1ff$qf12ccccccccccccccccccccccccccccccccc@ggg ggggggggggffllzkzflfst-gggggllkzzzzzzzzzzzzzzz,2cccccccccccccccccccccxoM",
"MMMMMMMMMMMMMMMMMMMMMMMMMMMMMMMMMMMMMMMMMM.pf1,f12ccccccccccccccccccccccccccccccccc$ggg gggggggggggffffllffffg ggggggggglzlzzzzzzzzzzz9@ccccccccccccccccccccc<4M",
"MMMMMMMMMMMMMMMMMMMMMMMMMMMMMMMMMMMMMMMMMMM.p0Ol12ccccccccccccccccccccccccccccccccx$ggg$ggggggggggggggggffgggg@qggggggggflfzzzzzzzzzzzd cccccccccccccccccccccXMM",
"MMMMMMMMMMMMMMMMMMMMMMMMMMMMMMMMMMMMMMMMMMMMXa d12ccccccccccccccccccccccccccccccccc$gg9-gggggggggggggggggggggg7-gggggggggglfflkzzkzzzzz-8cccccccccccccccccccc.MM",
"MMMMMMMMMMMMMMMMMMMMMMMMMMMMMMMMMMMMMMMMMMMM4OX99:cccccccccccccccccccccccccccccccc8;gg,1ggggggggggggggggggggggg ggggggggggfgffffflzlfkk9Xccccccccccccccccccc>4MM",
"MMMMMMMMMMMMMMMMMMMMMMMMMMMMMMMMMMMMMMMMMMMMM4 -r%cccccccccccccccccccccccccccccccc21ggOsggggggggggggggggggggggf:;ggggggggggggggggfffffffXycccccccccccccccccc MMM",
"MMMMMMMMMMMMMMMMMMMMMMMMMMMMMMMMMMMMMMMMMMMMMM4 0.cccccccccccccccccccccccccccccccc:9gg ggggggggggggggggggggggggg ggggggggggggggggggfgggg1@ccccccccccccccccc<3MMM",
"MMMMMMMMMMMMMMMMMMMMMMMMMMMMMMMMMMMMMMMMMMMMMMM=1 ccccccccccccccccccccccccccccccccXsg7-ggggggggggggggggggggggggg;@ggggggggggggggggggggggg@2cccccccccccccccc MMMM",
"MMMMMMMMMMMMMMMMMMMMMMMMMMMMMMMMMMMMMMMMMMMMMMMMX@wccccccccccccccccccccccccccccccc ggXtggggggggggggggggggggggggggOqggggggggggggggggggggggg.ccccccccccccccc@MMMMM",
"MMMMMMMMMMMMMMMMMMMMMMMMMMMMMMMMMMMMMMMMMMMMMMMM&.>ccccccccccccccccccccccccccccccw$gt ggggggggggggggggggggggggggq .%;9gggggggggggggggggggg7@ccccccccccccc<=MMMMM",
"MMMMMMMMMMMMMMMMMMMMMMMMMMMMMMMMMMMMMMMMMMMMMMMMM .cccccccccccccccccccccccccccccc:7g@1gggggggggggggggggggggggg0$.MMMM4oX$,qsggggggggggggggg;@ccccccccccc<oMMMMMM",
"MMMMMMMMMMMMMMMMMMMMMMMMMMMMMMMMMMMMMMMMMMMMMMMMM3 8ccccccccccccccccccccccccccccc a1Xggggggggggggggggggggggg1XoMMMMMMMMMMM3=.$%17ggggggggggg:X8cccccccc:oMMMMMMM",
"MMMMMMMMMMMMMMMMMMMMMMMMMMMMMMMMMMMMMMMMMMMMMMMMMM.Xcccccccccccccccccccccccccccc2$d.gggggggggggggggggggggg,.3MMMMMMMMMMMMMMMMMMMM==o           -ycccc< MMMMMMMMM",
"MMMMMMMMMMMMMMMMMMMMMMMMMMMMMMMMMMMMMMMMMMMMMMMMMMM wccccccccccccccccccccccccccc r$;ggggggggggggggggggq;.oMMMMMMMMMMMMMMMMMMMMMMMMMMMMMMMMMMMMMM&   .4MMMMMMMMMM",
"MMMMMMMMMMMMMMMMMMMMMMMMMMMMMMMMMMMMMMMMMMMMMMMMMMM4Xcccccccccccccccccccccccccc2$,@fggggggggggggg9,$#o3MMMMMMMMMMMMMMMMMMMMMMMMMMMMMMMMMMMMMMMMMMMMMMMMMMMMMMMMM",
"MMMMMMMMMMMMMMMMMMMMMMMMMMMMMMMMMMMMMMMMMMMMMMMMMMMM&2ccccccccccccccccccccccccc : qssggsgsg11-$Xo4MMMMMMMMMMMMMMMMMMMMMMMMMMMMMMMMMMMMMMMMMMMMMMMMMMMMMMMMMMMMMM",
"MMMMMMMMMMMMMMMMMMMMMMMMMMMMMMMMMMMMMMMMMMMMMMMMMMMMM cccccccccccccccccccccccc# o==========MMMMMMMMMMMMMMMMMMMMMMMMMMMMMMMMMMMMMMMMMMMMMMMMMMMMMMMMMMMMMMMMMMMMM",
"MMMMMMMMMMMMMMMMMMMMMMMMMMMMMMMMMMMMMMMMMMMMMMMMMMMMMM>cccccccccccccccccccccc> &MMMMMMMMMMMMMMMMMMMMMMMMMMMMMMMMMMMMMMMMMMMMMMMMMMMMMMMMMMMMMMMMMMMMMMMMMMMMMMMM",
"MMMMMMMMMMMMMMMMMMMMMMMMMMMMMMMMMMMMMMMMMMMMMMMMMMMMMMM>ccccccccccccccccccccw 3MMMMMMMMMMMMMMMMMMMMMMMMMMMMMMMMMMMMMMMMMMMMMMMMMMMMMMMMMMMMMMMMMMMMMMMMMMMMMMMMM",
"MMMMMMMMMMMMMMMMMMMMMMMMMMMMMMMMMMMMMMMMMMMMMMMMMMMMMMMM>ccccccccccccccccccw.MMMMMMMMMMMMMMMMMMMMMMMMMMMMMMMMMMMMMMMMMMMMMMMMMMMMMMMMMMMMMMMMMMMMMMMMMMMMMMMMMMM",
"MMMMMMMMMMMMMMMMMMMMMMMMMMMMMMMMMMMMMMMMMMMMMMMMMMMMMMMMM%cccccccccccccccc:oMMMMMMMMMMMMMMMMMMMMMMMMMMMMMMMMMMMMMMMMMMMMMMMMMMMMMMMMMMMMMMMMMMMMMMMMMMMMMMMMMMMM",
"MMMMMMMMMMMMMMMMMMMMMMMMMMMMMMMMMMMMMMMMMMMMMMMMMMMMMMMMMMo2ccccccccccccw.3MMMMMMMMMMMMMMMMMMMMMMMMMMMMMMMMMMMMMMMMMMMMMMMMMMMMMMMMMMMMMMMMMMMMMMMMMMMMMMMMMMMMM",
"MMMMMMMMMMMMMMMMMMMMMMMMMMMMMMMMMMMMMMMMMMMMMMMMMMMMMMMMMMM3 :cccccccc2.&MMMMMMMMMMMMMMMMMMMMMMMMMMMMMMMMMMMMMMMMMMMMMMMMMMMMMMMMMMMMMMMMMMMMMMMMMMMMMMMMMMMMMMM",
"MMMMMMMMMMMMMMMMMMMMMMMMMMMMMMMMMMMMMMMMMMMMMMMMMMMMMMMMMMMMMMo %%%%X.3MMMMMMMMMMMMMMMMMMMMMMMMMMMMMMMMMMMMMMMMMMMMMMMMMMMMMMMMMMMMMMMMMMMMMMMMMMMMMMMMMMMMMMMMM",
"MMMMMMMMMMMMMMMMMMMMMMMMMMMMMMMMMMMMMMMMMMMMMMMMMMMMMMMMMMMMMMMMMbbbMMMMMMMMMMMMMMMMMMMMMMMMMMMMMMMMMMMMMMMMMMMMMMMMMMMMMMMMMMMMMMMMMMMMMMMMMMMMMMMMMMMMMMMMMMMM",
"MMMMMMMMMMMMMMMMMMMMMMMMMMMMMMMMMMMMMMMMMMMMMMMMMMMMMMMMMMMMMMMMMMMMMMMMMMMMMMMMMMMMMMMMMMMMMMMMMMMMMMMMMMMMMMMMMMMMMMMMMMMMMMMMMMMMMMMMMMMMMMMMMMMMMMMMMMMMMMMM"
};

