/* XPM */
static char *bxBall96[] = {
/* columns rows colors chars-per-pixel */
"96 96 84 1",
"  c #000000",
". c #161604",
"X c #151515",
"o c #0a0d2d",
"O c #1d291d",
"+ c #302f0b",
"@ c #2d2f2c",
"# c #1e2557",
"$ c #1a246d",
"% c #293069",
"& c #0f5314",
"* c #275e17",
"= c #2c6e14",
"- c #334451",
"; c #3a446c",
": c #4d3805",
"> c #720900",
", c #61210a",
"< c #504e0e",
"1 c #4d4e2c",
"2 c #536d0a",
"3 c #5e6b2b",
"4 c #705204",
"5 c #716c05",
"6 c #4b4e4e",
"7 c #474c6a",
"8 c #031a9a",
"9 c #0319b0",
"0 c #0d238e",
"q c #1924b3",
"w c #2b319c",
"e c #0615cf",
"r c #000cfe",
"t c #0411e9",
"y c #1824cc",
"u c #1620e0",
"i c #232cc9",
"p c #41489c",
"a c #128e1e",
"s c #1a9024",
"d c #0eb128",
"f c #328d16",
"g c #2da91e",
"h c #25b223",
"j c #00d233",
"k c #10c72d",
"l c #24c627",
"z c #4f8a1a",
"x c #678e09",
"c c #920c00",
"v c #983101",
"b c #b40700",
"n c #8a5702",
"m c #926f00",
"M c #a75900",
"N c #af6e00",
"B c #cf0100",
"V c #e70000",
"C c #fe0000",
"Z c #ca6800",
"A c #c97600",
"S c #d26e00",
"D c #d87500",
"F c #e77b00",
"G c #8b8807",
"H c #989701",
"J c #9aa200",
"K c #ac8800",
"L c #a9a700",
"P c #b7b600",
"I c #bfcb01",
"U c #d38500",
"Y c #c0ba00",
"T c #e98600",
"R c #ec9100",
"E c #fe8b00",
"W c #cbc800",
"Q c #d1cd00",
"! c #d8d700",
"~ c #dae001",
"^ c #e7e600",
"/ c #eef100",
"( c #fefe00",
") c None",
/* pixels */
"))))))))))))))))))))))))))))))))))))))))))))))))))))))))))))))))))))))))))))))))))))))))))))))))",
")))))))))))))))))))))))))))))))))))))X  +14:+Xooooo@oo-X. X)))))))))))))))))))))))))))))))))))))",
"))))))))))))))))))))))))))))))))))XOO5MNUREN6yrrrrrrrruw886.XX))))))))))))))))))))))))))))))))))",
")))))))))))))))))))))))))))))))X.44UEEEEED3trrrrrrrrrrrrrrrri#6 X)))))))))))))))))))))))))))))))",
"))))))))))))))))))))))))))))  :mDREEEEEET3trrrrrrrrrrrrrrrrrrrte;o  ))))))))))))))))))))))))))))",
"))))))))))))))))))))))))))) +NREEEEEEEER5urrrrrrrrrrrrrrrrrrrrrrrt8O )))))))))))))))))))))))))))",
")))))))))))))))))))))))))X:NEEEEEEEEEEEmyrrrrrrrrrrrrrrrrrrrrrrrrrrrwo )))))))))))))))))))))))))",
")))))))))))))))))))))) X:NTEEEEEEEEEEET%trrrrrrrrrrrrrrrrrrrrrrrrrrrrr9@  ))))))))))))))))))))))",
"))))))))))))))))))))))XnREEEEEEEEEEEET5rrrrrrrrrrrrrrrrrrrrrrrrrrrrrrrru%X))))))))))))))))))))))",
")))))))))))))))))))).+UEEEEEEEEEEEEEE5wrrrrrrrrrrrrrrrrrrrrrrrrrrrrrrrrrre7 ))))))))))))))))))))",
"))))))))))))))))))).4TEEEEEEEEEEEEEEU1trrrrrrrrrrrrrrrrrrrrrrrrrrrrrrrrrrrt$X)))))))))))))))))))",
"))))))))))))))))))@MEEEEEEEEEEEEEEEEnwrrrrrrrrrrrrrrrrrrrrrrrrrrrrw%$$#%#%$$<+))))))))))))))))))",
")))))))))))))))) @mREEEEEEEEEEEEEEEU1urrrrrrrrrrrrrrrrrrrrrrrtw%2&fljjjjjjjlf&@ ))))))))))))))))",
"))))))))))))))) +5EEEEEEEEEEEEEEEEEmwrrrrrrrrrrrrrrrrrrrrrty1@fdkjjjjjjjjjjjjjh& )))))))))))))))",
")))))))))))))))<W5EEEEEEEEEEEEEEEER5trrrrrrrrrrrrrrrrrrrrq#2sjjjjjjjjjjjjjjjjjjj&)))))))))))))))",
"))))))))))))).1^(JKEEEEEEEEEEEEEEEU6rrrrrrrrrrrrrrrrrrrq@*kjjjjjjjjjjjjjjjjjjjjjj: )))))))))))))",
")))))))))))).1Q((!4EEEEEEEEEEEEEEEmwrrrrrrrrrrrrrrrrte@=djjjjjjjjjjjjjjjjjjjjjjjjg@ ))))))))))))",
"))))))))))))OP((((5AEEEEEEEEEEEEET1trrrrrrrrrrrrrrry#=kjjjjjjjjjjjjjjjjjjjjjjjjjjj=X))))))))))))",
"))))))))))) P(((((Q4EEEEEEEEEEEEEN6rrrrrrrrrrrrrrt8<hjjjjjjjjjjjjjjjjjjjjjjjjjjjjjk=X)))))))))))",
"))))))))))X5(((((((GNEEEEEEEEEEEEmqrrrrrrrrrrrrre-ajjjjjjjjjjjjjjjjjjjjjjjjjjjjjjjjj=.))))))))))",
"))))))))))1^(((((((Q5EEEEEEEEEEEE5yrrrrrrrrrrrr8*gjjjjjjjjjjjjjjjjjjjjjjjjjjjjjjjjjjk*))))))))))",
")))))))))+Q(((((((((JmEEEEEEEEEER%rrrrrrrrrrru1fjkjjjjjjjjjjjjjjjjjjjjjjjjjjjjjjjjjjjd+)))))))))",
")))))))) G((((((((((^5UEEEEEEEEEm;rrrrrrrrrtq=hjjjjjjjjjjjjjjjjjjjjjjjjjjjjjjjjjjjjjjj= ))))))))",
"))))))) </(((((((((((WnEEEEEEEEE4irrrrrrrrr%=jjjjjjjjjjjjjjjjjjjjjjjjjjjjjjjjjjjjjjjjjj< )))))))",
"))))))).P(((((((((((((HNEEEEEEET5rrrrrrrri%gjjjjjjjjjjjjjjjjjjjjjjjjjjjjjjjjjjjjjjjjjjjs.)))))))",
")))))) <((((((((((((((!5TEESNmmM:67yrrrrq2jjjjjjjjjjjjjjjjjjjjjjjjjjjjjjjjjjjjjjjjjjjjjj* ))))))",
")))))).P(((((((((((((((WnTM>bBBBBb>+wrry3kjjjjjjjjjjjjjjjjjjjjjjjjjjjjjjjjjjjjjjjjjjjjjjd.))))))",
"))))))5/(((((((((((((((/<>VCCCCCCCCB.<whjjjjjjjjjjjjjjjjjjjjjjjjjjjjjjjjjjjjjjjjjjjjjjjjj*))))))",
"))))).W((((((((((((((((LcVCCCCCCCCCCC><kjjjjjjjjjjjjjjjjjjjjjjjjjjjjjjjjjjjjjjjjjjjjjjjjjh.)))))",
")))) <((((((((((((((((WcCCCCCCCCCCCCCV>=jjjjjjjjjjjjjjjjjjjjjjjjjjjjjjjjjjjjjjjjjjjjjjjjjj< ))))",
")))) J(((((((((((((((!,VCCCCCCCCCCCCCCB+gjjjjjjjjjjjjjjjjjjjjjjjjjjjjjjjjjjjjjjjjjjjjjjjjja ))))",
"))))+!(((((((((((((((GbCCCCCCCCCCCCCCCCbxjjjjjjjjjjjjjjjjjjjjjjjjjjjjjjjjjjjjjjjjjjjjjjjjjkO))))",
")))O5(((((((((((((((/,VCCCCCCCCCCCCCCCCV5jjjjjjjjjjjjjjjjjjjjjjjjjjjjjjjjjjjjjjjjjjjjjjjjjj=X)))",
"))) P(((((((((((((((^>CCCCCCCCCCCCCCCCCCvkjjjjjjjjjjjjjjjjjjjjjjjjjjjjjjjjjjjjjjjjjjjjjjjjjd.)))",
")))+!(((((((((((((((W>CCCCCCCCCCCCCCCCCCcxxxxxxxxxxxxxxxxhdddddddkjjjjjjjjjjjjjjjjjjjjjjjjjd+)))",
")))2/(((((((((((((((YcCCCCCCCCCCCCCCCCCCcJWQQQWWIQQQWWWQWPPPHHJG2<&*fljjjjjjjjjjjjjjjjjjjjjj&)))",
")))G(((((((((((((((/LcCCCCCCCCCCCCCCCCCCbW(((((((((((((((((((((((((^IH555fahkjjjjjjjjjjjjjjj=)))",
"))OW(((((((((((!QL=2gcCCCCCCCCCCCCCCCCCVv!((((((((((((((((((((((((((((((^!YG2*fddjjjjjjjjjjjhO))",
")) (((((((((!H52agkjjvCCCCCCCCCCCCCCCCCVM/(((((((((((((((((((((((((((((((((((/PJ5&fljjjjjjjjj.))",
"))+((((((WH2dgjjjjjjj3BCCCCCCCCCCCCCCCCBH(((((((((((((((((((((((((((((((((((((((((L52akjjjjjj+))",
")X5(((/Wx2dkjjjjjjjjjhvCCCCCCCCCCCCCCCVM!(((((((((((((((((((((((((((((((((((((((((((^L2fdjjjj3.)",
") G((~2=hjjjjjjjjjjjjj5BCCCCCCCCCCCCCCbP(((((((((((((((((((((((((((((((((((((((((((((((P2=jjja )",
") J(L*ljjjjjjjjjjjjjjjk5BCCCCCCCCCCCCBm((((((((((((((((((((((((((((((((((((((((((((((((((Q2sja )",
") Lxzjjjjjjjjjjjjjjjjjjh,bCCCCCCCCCVc5/(((((((((((((((((((((((((((((((((((((((((((((((((((^xss )",
") +djjjjjjjjjjjjjjjjjjk2uwcVCCCCCVc,NUW((((((((((((((((((((((((((((((((((((((((((((((((((((/G=.)",
") fjjjjjjjjjjjjjjjjjjk<yrrr#,c>cc4NEETN!(((((((((((((((((((((((((((((((((((((((((((((((((((((< )",
")@gjjjjjjjjjjjjjjjjjjs;rrrrrup4DUREEEERG!((((((((((((((((((((((((((((((((((((((((((((((((((((H )",
")1gjjjjjjjjjjjjjjjjjl@trrrrrrp4EEEEEEEETH/(((((((((((((((((((((((((((((((((((((((((((((((((((P.)",
")+hjjjjjjjjjjjjjjjjk=wrrrrrrrpnEEEEEEEEERH/((((((((((((((((((((((((((((((((((((((((((((((((((J )",
") ajjjjjjjjjjjjjjjja$rrrrrrrrpnEEEEEEEEEEUL((((((((((((((((((((((((((((((((((((((((((((((((((L )",
") sjjjjjjjjjjjjjjjd1urrrrrrrrpnEEEEEEEEEEEKP(((((((((((((((((((((((((((((((((((((((((((((((((W.)",
").sjjjjjjjjjjjjjjj=yrrrrrrrrrp4EEEEEEEEEEEENJ((((((((((((((((((((((((((((((((((((((((((((((((L.)",
") ajjjjjjjjjjjjjjh-trrrrrrrrrinEEEEEEEEEEEER5P(((((((((((((((((((((((((((((((((((((((((((((((J )",
") ajjjjjjjjjjjjjk=qrrrrrrrrrrimEEEEEEEEEEEEER4Q((((((((((((((((((((((((((((((((((((((((((((((G )",
")Xzjjjjjjjjjjjjjh-rrrrrrrrrrrumEEEEEEEEEEEEEEU5!(((((((((((((((((((((((((((((((((((((((((((((GX)",
") <jjjjjjjjjjjjj=yrrrrrrrrrrrumEEEEEEEEEEEEEEEA5/((((((((((((((((((((((((((((((((((((((((((((< )",
")).jjjjjjjjjjjjj#trrrrrrrrrrrrGREEEEEEEEEEEEEEEU5/(((((((((((((((((((((((((((((((((((((((((((.))",
")).kjjjjjjjjjjj2yrrrrrrrrrrrrrmREEEEEEEEEEEEEEEEKG/(((((((((((((((((((((((((((((((((((((((((!X))",
"))Xfjjjjjjjjjjh#trrrrrrrrrrrrr5UEEEEEEEEEEEEEEEEEmH(((((((((((((((((((((((((((((((((((((((((L ))",
")))*jjjjjjjjjj=irrrrrrrrrrrrrr4AEEEEEEEEEEEEEEEEERmP(((((((((((((((((((((((((((((((((((((((/5)))",
")))<kjjjjjjjjd5rrrrrrrrrrrrrrr6DEEEEEEEEEEEEEEEEEEEnP((((((((((((((((((((((((((((((((((((//!<)))",
"))).djjjjjjjjd$rrrrrrrrrrrrrrr7UEEEEEEEEEEEEEEEEEEERmP(((((((((((((((((((((((((((((((((((/^Y.)))",
")))Xgjjjjjjjj=trrrrrrrrrrrrrrrwUEEEEEEEEEEEEEEEEEEEET4W(((((((((((((((((((((((((((((((((/^!HX)))",
"))))Ojjjjjjjj@rrrrrrrrrrrrrrrtwHEEEEEEEEEEEEEEEEEEEEEE4W(((((((((((((((((((((((((((((((/^!!+))))",
")))).hjjjjjjh6rrrrrrrrrrrrrrrrp4EEEEEEEEEEEEEEEEEEEEEER5Q(((((((((((((((((((((((((((((//^QLX))))",
")))) =jjjjjjayrrrrrrrrrrrrrrrry3EEEEEEEEEEEEEEEEEEEEEEER5!(((((((((((((((((((((((((((//^!QG ))))",
")))))Xdjjjjjzerrrrrrrrrrrrrrrrr3REEEEEEEEEEEEEEEEEEEEEEER5!((((((((((((((((((((((((((/^!QY.)))))",
"))))) =jjjjj5urrrrrrrrrrrrrrrrr3UEEEEEEEEEEEEEEEEEEEEEEEEUm!((((((((((((((((((((((((/^^QWm )))))",
"))))))Okjjjj$rrrrrrrrrrrrrrrrrr6NEEEEEEEEEEEEEEEEEEEEEEEEEU5^((((((((((((((((((((((/^^!QP+))))))",
")))))) =jjjj$rrrrrrrrrrrrrrrrrriNEEEEEEEEEEEEEEEEEEEEEEEEEER5!(((((((((((((((((((/(^^!QW5 ))))))",
")))))))+hjjk#rrrrrrrrrrrrrrrrrri5EEEEEEEEEEEEEEEEEEEEEEEEEEERK!((((((((((((((((((//^QQWL+)))))))",
")))))))X=jjd%rrrrrrrrrrrrrrrrrri<EEEEEEEEEEEEEEEEEEEEEEEEEEEET4^((((((((((((((((//^!QWW5.)))))))",
")))))))) djk#rrrrrrrrrrrrrrrrrrt-FEEEEEEEEEEEEEEEEEEEEEEEEEEEEE5!(((((((((((((///~QQWWJ.))))))))",
")))))))))1kj$rrrrrrrrrrrrrrrrrrr7mEEEEEEEEEEEEEEEEEEEEEEEEEEEEERKW((((((((((((/^!QQWWY<)))))))))",
"))))))))) &d$rrrrrrrrrrrrrrrrrrrimEEEEEEEEEEEEEEEEEEEEEEEEEEEEEERm!((((((((((/^!!WWWW4 )))))))))",
"))))))))))@<5yrrrrrrrrrrrrrrrrrrr5UEEEEEEEEEEEEEEEEEEEEEEEEEEEEEEEmP((((((//^^!QWWWQH@))))))))))",
")))))))))) .1yrrrrrrrrrrrrrrrrrrr6DEEEEEEEEEEEEEEEEEEEEEEEEEEEEEEETKP((((//^!!WWWWWY. ))))))))))",
")))))))))))).-ttrrrrrrrrrrrrrrrrrw5EEEEEEEEEEEEEEEEEEEEEEEEEEEEEEEEEDH///^^!QQWWWWY+))))))))))))",
")))))))))))))@ettttrrrrrrrrrrrrrru1REEEEEEEEEEEEEEEEEEEEEEEEEEEEEEEEEDGQ^!QWQWWWWP4)))))))))))))",
")))))))))))))X1eettttrrrrrrrrrrrrr6NEEEEEEEEEEEEEEEEEEEEEEEEEEEEEEETFFNmPQQWWWWWWGX)))))))))))))",
"))))))))))))))X68eettrrrrrrrrrrrrrq4FEEEEEEEEEEEEEEEEEEEEEEEEEEEEEFFFDZZ4mWWWWWWHX))))))))))))))",
")))))))))))))))X@89eettttrrrrrrrrrr-EEEEEEEEEEEEEEEEEEEEEEEEEEEFFFFDSZZZAN<GYWP5o)))))))))))))))",
"))))))))))))))))X@8q9eetttrrrrrrrrr;MEEEEEEEEEEEEEEEEEEEEEEEFFFFDSZSZZZZZZZn<4+X))))))))))))))))",
"))))))))))))))))))X0999eetttttrrrrrt4TEEEEEEEEEEEEEEEEEEEFFFFFSSSZZZZZZZZZZDA.))))))))))))))))))",
")))))))))))))))))))X%9999eettttrrrrr;NEEEEEEEEEEEEEEEFEFFFDSSSZZZZZZZZZZZZZm+)))))))))))))))))))",
"))))))))))))))))))) O#0899999eettttty1REEEEEEEEFFFFFFFDDSSSSZZZZZZZZZZZZZZ4@ )))))))))))))))))))",
"))))))))))))))))))))) @$8889999eutttt%NUTTTFFFFFFDFSSSZSZZZZZZZZZZZZZZZZN: )))))))))))))))))))))",
"))))))))))))))))))))))XO-88888999999eq<USSSSZSZZZZSZZZZZZZZZZZZZZZZZZZZnX.))))))))))))))))))))))",
")))))))))))))))))))))))) o$08888898999w5ZZZZZZZZZZZZZZZZZZZZZZZZZZZZZn+ ))))))))))))))))))))))))",
"))))))))))))))))))))))))).X@-88888888801mZZZZZZZZZZZZZZZZZZZZZZZZZZn1..)))))))))))))))))))))))))",
"))))))))))))))))))))))))))))@+$$888888886NZZZZNZZZZZZZZZZZZZZZZZMn@X))))))))))))))))))))))))))))",
"))))))))))))))))))))))))))))) o X;0088880-mZZZZZZZZZZZZZZZZZZMn+. X)))))))))))))))))))))))))))))",
")))))))))))))))))))))))))))))))))o.%#-888814ZZZZZZZZZZZZSSN4<.X)))))))))))))))))))))))))))))))))",
")))))))))))))))))))))))))))))))))))))Xo+-$$-<nMNNM4Mnvn4+ X)))))))))))))))))))))))))))))))))))))",
"))))))))))))))))))))))))))))))))))))))))o   . .... ..  X))))))))))))))))))))))))))))))))))))))))",
"))))))))))))))))))))))))))))))))))))))))))))))))))))))))))))))))))))))))))))))))))))))))))))))))"
};

