/* XPM */
static char *bxBall128[] = {
/* columns rows colors chars-per-pixel */
"160 160 84 1",
"  c #000000",
". c #171604",
"X c #141817",
"o c #323108",
"O c #2e2f2c",
"+ c #1b245b",
"@ c #19286f",
"# c #2d366f",
"$ c #104c10",
"% c #196c15",
"& c #32500a",
"* c #334a2e",
"= c #2d7412",
"- c #3b4362",
"; c #550600",
": c #4d3202",
"> c #51282c",
", c #6d0900",
"< c #6f3400",
"1 c #514e06",
"2 c #4e502d",
"3 c #586f1a",
"4 c #6f5501",
"5 c #696802",
"6 c #736a07",
"7 c #797900",
"8 c #4f524f",
"9 c #4f5573",
"0 c #040f97",
"q c #001c9a",
"w c #0119ae",
"e c #16279c",
"r c #2c3393",
"t c #2a33ab",
"y c #0515d0",
"u c #000eeb",
"i c #000cfe",
"p c #0613e9",
"a c #1823d1",
"s c #232ccc",
"d c #3a429e",
"f c #474d8a",
"g c #138c1e",
"h c #179821",
"j c #0bb229",
"k c #338c16",
"l c #32ae1e",
"z c #2cb222",
"x c #0fc92f",
"c c #00d233",
"v c #26c326",
"b c #4c9d16",
"n c #44c11f",
"m c #920b00",
"M c #933200",
"N c #ae0800",
"B c #8e5600",
"V c #907101",
"C c #a65901",
"Z c #b46e00",
"A c #d10200",
"S c #e60000",
"D c #fe0000",
"F c #ca6800",
"G c #ce7000",
"H c #d97400",
"J c #e77c00",
"K c #908e01",
"L c #99af05",
"P c #b08700",
"I c #b0af01",
"U c #a5cd09",
"Y c #d38900",
"T c #c0b600",
"R c #e88600",
"E c #eb9200",
"W c #fe8b00",
"Q c #cbc800",
"! c #d1cd00",
"~ c #d8d700",
"^ c #dee200",
"/ c #ebeb00",
"( c #fefe00",
") c None",
/* pixels */
"))))))))))))))))))))))))))))))))))))))))))))))))))))))))))))))))))))))))))))))))))))))))))))))))))))))))))))))))))))))))))))))))))))))))))))))))))))))))))))))))",
"))))))))))))))))))))))))))))))))))))))))))))))))))))))))))))))))))))))))))))))))))))))))))))))))))))))))))))))))))))))))))))))))))))))))))))))))))))))))))))))))",
"))))))))))))))))))))))))))))))))))))))))))))))))))))))))))))))))))))))))))))))))))))))))))))))))))))))))))))))))))))))))))))))))))))))))))))))))))))))))))))))))",
"))))))))))))))))))))))))))))))))))))))))))))))))))))))))))))))))))))))))))))))))))))))))))))))))))))))))))))))))))))))))))))))))))))))))))))))))))))))))))))))))",
"))))))))))))))))))))))))))))))))))))))))))))))))))))))))))))))))))))))))))))))))))))))))))))))))))))))))))))))))))))))))))))))))))))))))))))))))))))))))))))))))",
"))))))))))))))))))))))))))))))))))))))))))))))))))))))))))))))))))))))))))))))))))))))))))))))))))))))))))))))))))))))))))))))))))))))))))))))))))))))))))))))))",
"))))))))))))))))))))))))))))))))))))))))))))))))))))))))))))))))))))))))))))))))))))))))))))))))))))))))))))))))))))))))))))))))))))))))))))))))))))))))))))))))",
"))))))))))))))))))))))))))))))))))))))))))))))))))))))))))))))))))))))))))))))))))))))))))))))))))))))))))))))))))))))))))))))))))))))))))))))))))))))))))))))))",
"))))))))))))))))))))))))))))))))))))))))))))))))))))))))))))))))))))))))))))))))))))))))))))))))))))))))))))))))))))))))))))))))))))))))))))))))))))))))))))))))",
"))))))))))))))))))))))))))))))))))))))))))))))))))))))))))))))))))))))))))))))))))))))))))))))))))))))))))))))))))))))))))))))))))))))))))))))))))))))))))))))))",
"))))))))))))))))))))))))))))))))))))))))))))))))))))))))))))))))))))))))))))))))))))))))))))))))))))))))))))))))))))))))))))))))))))))))))))))))))))))))))))))))",
"))))))))))))))))))))))))))))))))))))))))))))))))))))))))))))))))))))))))))))))))))))))))))))))))))))))))))))))))))))))))))))))))))))))))))))))))))))))))))))))))",
"))))))))))))))))))))))))))))))))))))))))))))))))))))))))))))))))))))))))))))))))))))))))))))))))))))))))))))))))))))))))))))))))))))))))))))))))))))))))))))))))",
"))))))))))))))))))))))))))))))))))))))))))))))))))))))))))))))))))))))))))))))))))))))))))))))))))))))))))))))))))))))))))))))))))))))))))))))))))))))))))))))))",
"))))))))))))))))))))))))))))))))))))))))))))))))))))))))))))))))))))))))))))))))))))))))))))))))))))))))))))))))))))))))))))))))))))))))))))))))))))))))))))))))",
"))))))))))))))))))))))))))))))))))))))))))))))))))))))))))))))))))))))))))))))))))))))))))))))))))))))))))))))))))))))))))))))))))))))))))))))))))))))))))))))))",
"))))))))))))))))))))))))))))))))))))))))))))))))))))))))))))))))))))))))))))))))))))))))))))))))))))))))))))))))))))))))))))))))))))))))))))))))))))))))))))))))",
"))))))))))))))))))))))))))))))))))))))))))))))))))))))))))))))))))))))XX.:..        .  .XX))))))))))))))))))))))))))))))))))))))))))))))))))))))))))))))))))))))",
")))))))))))))))))))))))))))))))))))))))))))))))))))))))))))))))))XXXX:6VZHV:O0000000e000r3:. OX)))))))))))))))))))))))))))))))))))))))))))))))))))))))))))))))))",
"))))))))))))))))))))))))))))))))))))))))))))))))))))))))))))))OO.5PHGREWWZ6eaiiiiiiiiiiiiaayyr1.OO))))))))))))))))))))))))))))))))))))))))))))))))))))))))))))))",
")))))))))))))))))))))))))))))))))))))))))))))))))))))))))  .2:4YWWWWWWWE7riiiiiiiiiiiiiiiiiiiiiia2X>   )))))))))))))))))))))))))))))))))))))))))))))))))))))))))",
")))))))))))))))))))))))))))))))))))))))))))))))))))))))).o44YWWWWWWWWWYVriiiiiiiiiiiiiiiiiiiiiiiiiit++O ))))))))))))))))))))))))))))))))))))))))))))))))))))))))",
"))))))))))))))))))))))))))))))))))))))))))))))))))))))..BZEWWWWWWWWWWEKfiiiiiiiiiiiiiiiiiiiiiiiiiiiiiae@. ))))))))))))))))))))))))))))))))))))))))))))))))))))))",
")))))))))))))))))))))))))))))))))))))))))))))))))))) .6GEWWWWWWWWWWWEV#uiiiiiiiiiiiiiiiiiiiiiiiiiiiiiiiiy@. ))))))))))))))))))))))))))))))))))))))))))))))))))))",
"))))))))))))))))))))))))))))))))))))))))))))))))) .oBWWWWWWWWWWWWWWWP#iiiiiiiiiiiiiiiiiiiiiiiiiiiiiiiiiiiii#X  )))))))))))))))))))))))))))))))))))))))))))))))))",
"))))))))))))))))))))))))))))))))))))))))))))))))XO4RWWWWWWWWWWWWWWWW1tiiiiiiiiiiiiiiiiiiiiiiiiiiiiiiiiiiiiiip@XX))))))))))))))))))))))))))))))))))))))))))))))))",
"))))))))))))))))))))))))))))))))))))))))))))))XXVZWWWWWWWWWWWWWWWWEVeiiiiiiiiiiiiiiiiiiiiiiiiiiiiiiiiiiiiiiiiiy8XX))))))))))))))))))))))))))))))))))))))))))))))",
")))))))))))))))))))))))))))))))))))))))))))))X:ZEWWWWWWWWWWWWWWWWWV7iiiiiiiiiiiiiiiiiiiiiiiiiiiiiiiiiiiiiiiiiiipe1 )))))))))))))))))))))))))))))))))))))))))))))",
"))))))))))))))))))))))))))))))))))))))))))) .4EWWWWWWWWWWWWWWWWWWY1aiiiiiiiiiiiiiiiiiiiiiiiiiiiiiiiiiiiiiiiiiiiiii@8 )))))))))))))))))))))))))))))))))))))))))))",
")))))))))))))))))))))))))))))))))))))))))).2ZWWWWWWWWWWWWWWWWWWWRV8piiiiiiiiiiiiiiiiiiiiiiiiiiiiiiiiiiiiiiiiiiiiiiir+ ))))))))))))))))))))))))))))))))))))))))))",
"))))))))))))))))))))))))))))))))))))))))) 4GWWWWWWWWWWWWWWWWWWWWY5tiiiiiiiiiiiiiiiiiiiiiiiiiiiiiiiiiiiiiiiiiiiiiiiiia+ )))))))))))))))))))))))))))))))))))))))))",
"))))))))))))))))))))))))))))))))))))))))84RWWWWWWWWWWWWWWWWWWWWWV+piiiiiiiiiiiiiiiiiiiiiiiiiiiiiiiiiiiiit2OXOO*OOOOXO212))))))))))))))))))))))))))))))))))))))))",
"))))))))))))))))))))))))))))))))))))))XO1YWWWWWWWWWWWWWWWWWWWWWE1fiiiiiiiiiiiiiiiiiiiiiiiiiiiiiiiiyye6&X=bxcccccccccxb&XO ))))))))))))))))))))))))))))))))))))))",
"))))))))))))))))))))))))))))))))))))) O1WWWWWWWWWWWWWWWWWWWWWWWKOiiiiiiiiiiiiiiiiiiiiiiiiiiiiiiidq2=$bvccccccccccccccccc=& )))))))))))))))))))))))))))))))))))))",
")))))))))))))))))))))))))))))))))))).&K5WWWWWWWWWWWWWWWWWWWWWWW4tiiiiiiiiiiiiiiiiiiiiiiiiiiiiit+:3hxccccccccccccccccccccxz$ ))))))))))))))))))))))))))))))))))))",
"))))))))))))))))))))))))))))))))))))2I~1WWWWWWWWWWWWWWWWWWWWWWZ1iiiiiiiiiiiiiiiiiiiiiiiiiiiiyO:bjxccccccccccccccccccccccccj*))))))))))))))))))))))))))))))))))))",
"))))))))))))))))))))))))))))))))))X2!(/6PWWWWWWWWWWWWWWWWWWWWWV3iiiiiiiiiiiiiiiiiiiiiiiiiuy2$lccccccccccccccccccccccccccccccoX))))))))))))))))))))))))))))))))))",
")))))))))))))))))))))))))))))))))X2Q(((I1WWWWWWWWWWWWWWWWWWWWY4yiiiiiiiiiiiiiiiiiiiiiiiie+&kccccccccccccccccccccccccccccccccbO )))))))))))))))))))))))))))))))))",
")))))))))))))))))))))))))))))))).2I/(((/5ZWWWWWWWWWWWWWWWWWWWP3aiiiiiiiiiiiiiiiiiiiiiit+1hjcccccccccccccccccccccccccccccccccc%O.))))))))))))))))))))))))))))))))",
")))))))))))))))))))))))))))))))) K/(((((K4WWWWWWWWWWWWWWWWWWEVriiiiiiiiiiiiiiiiiiiiip#ogjccccccccccccccccccccccccccccccccccccz& ))))))))))))))))))))))))))))))))",
"))))))))))))))))))))))))))))))) 7(((((((~5ZWWWWWWWWWWWWWWWWWR1tiiiiiiiiiiiiiiiiiiipy1%xcccccccccccccccccccccccccccccccccccccccl& )))))))))))))))))))))))))))))))",
")))))))))))))))))))))))))))))) 1/(((((((/IBRWWWWWWWWWWWWWWWWY2aiiiiiiiiiiiiiiiiiiy*&lccccccccccccccccccccccccccccccccccccccccccc& ))))))))))))))))))))))))))))))",
")))))))))))))))))))))))))))))X2Q(((((((((/5ZWWWWWWWWWWWWWWWWV#iiiiiiiiiiiiiiiiii#O=xccccccccccccccccccccccccccccccccccccccccccccl2X)))))))))))))))))))))))))))))",
"))))))))))))))))))))))))))))).K((((((((((/I1WWWWWWWWWWWWWWWW59iiiiiiiiiiiiiiiii+&jxxccccccccccccccccccccccccccccccccccccccccccccck.)))))))))))))))))))))))))))))",
")))))))))))))))))))))))))))).7/(((((((((((/7VWWWWWWWWWWWWWWEOiiiiiiiiiiiiiiii-&bcccccccccccccccccccccccccccccccccccccccccccccccccc%.))))))))))))))))))))))))))))",
"))))))))))))))))))))))))))))2~(((((((((((((~1GWWWWWWWWWWWWWK2iiiiiiiiiiiiiip@&hcccccccccccccccccccccccccccccccccccccccccccccccccccz2))))))))))))))))))))))))))))",
"))))))))))))))))))))))))))) L/(((((((((((((/I4EWWWWWWWWWWWE12iiiiiiiiiiiiie-hzccccccccccccccccccccccccccccccccccccccccccccccccccccch.)))))))))))))))))))))))))))",
"))))))))))))))))))))))))))O5((((((((((((((((/4ZWWWWWWWWWWWE:aiiiiiiiiiiiiw1hcccccccccccccccccccccccccccccccccccccccccccccccccccccccc1O))))))))))))))))))))))))))",
"))))))))))))))))))))))))) .Q(((((((((((((((((Q5YWWWWWWWWWWY1iiiiiiiiiiiae3vcccccccccccccccccccccccccccccccccccccccccccccccccccccccccj. )))))))))))))))))))))))))",
")))))))))))))))))))))))))XK/(((((((((((((((((/7BWWWWWEYYYYV5tdaiiiiiiis3%cccccccccccccccccccccccccccccccccccccccccccccccccccccccccccx3X)))))))))))))))))))))))))",
")))))))))))))))))))))))) oQ(((((((((((((((((((^5ZWWW<<M<<M<,>&89iiiiia2kcccccccccccccccccccccccccccccccccccccccccccccccccccccccccccccj$ ))))))))))))))))))))))))",
")))))))))))))))))))))))) 7(((((((((((((((((((((Q1EW<mASSSSSSAN;o9iiia3bxcccccccccccccccccccccccccccccccccccccccccccccccccccccccccccccx%.))))))))))))))))))))))))",
"))))))))))))))))))))))))o~(((((((((((((((((((((/7 ,SDDDDDDDDDDDN.o#wkcccccccccccccccccccccccccccccccccccccccccccccccccccccccccccccccccv$))))))))))))))))))))))))",
"))))))))))))))))))))))) b((((((((((((((((((((((I:NDDDDDDDDDDDDDDA,:5ccccccccccccccccccccccccccccccccccccccccccccccccccccccccccccccccccck )))))))))))))))))))))))",
")))))))))))))))))))))))./(((((((((((((((((((((!BNDDDDDDDDDDDDDDDDA,obccccccccccccccccccccccccccccccccccccccccccccccccccccccccccccccccccx.)))))))))))))))))))))))",
"))))))))))))))))))))))O5(((((((((((((((((((((/6NDDDDDDDDDDDDDDDDDDA;$ccccccccccccccccccccccccccccccccccccccccccccccccccccccccccccccccccc5O))))))))))))))))))))))",
")))))))))))))))))))))).I((((((((((((((((((((/VmSDDDDDDDDDDDDDDDDDDDA;%xcccccccccccccccccccccccccccccccccccccccccccccccccccccccccccccccccj ))))))))))))))))))))))",
"))))))))))))))))))))) 1/(((/((((((((((((((((Q:ADDDDDDDDDDDDDDDDDDDDDm5lcccccccccccccccccccccccccccccccccccccccccccccccccccccccccccccccccx& )))))))))))))))))))))",
"))))))))))))))))))))) K((((((((((((((((((((/K,DDDDDDDDDDDDDDDDDDDDDDSBlcccccccccccccccccccccccccccccccccccccccccccccccccccccccccccccccccc% )))))))))))))))))))))",
"))))))))))))))))))))X2I((((((((((((((((((((/:NDDDDDDDDDDDDDDDDDDDDDDSMlxcccccccccccccccccccccccccccccccccccccccccccccccccccccccccccccccccl2X))))))))))))))))))))",
")))))))))))))))))))) 5/((((((((((((((((((((/;SDDDDDDDDDDDDDDDDDDDDDDDAkcccccccccccccccccxccccccccccccccccccccccccccccccccccccccccccccccccc% ))))))))))))))))))))",
")))))))))))))))))))) K(((((((((((((((((((((I;DDDDDDDDDDDDDDDDDDDDDDDDABllzlllblllllllllzlbllxccccccccccccccccccccccccccccccccccccccccccccc% ))))))))))))))))))))",
"))))))))))))))))))))OI(((((((((((((((((((((I,DDDDDDDDDDDDDDDDDDDDDDDDA:7VVKbbVK7Kb77VVKb7b7Kk=g=%$$$%=%bxcccccccccccccccccccccccccccccccccl&))))))))))))))))))))",
"))))))))))))))))))))o/((((((((((((((((((((/L,DDDDDDDDDDDDDDDDDDDDDDDDA<T//////~//^/^///^/^//~~~~!QQ!IK11$$&3nccccccccccccccccccccccccccccccX))))))))))))))))))))",
"))))))))))))))))))))1(((((((((((((((((((/(/P,DDDDDDDDDDDDDDDDDDDDDDDDA4~((((((((/((((((((((((((((((((((((/QI75o16bjjjjccccccccccccccccccccc&))))))))))))))))))))",
")))))))))))))))))))XK((((((((((((((((((~LKIk,DDDDDDDDDDDDDDDDDDDDDDDDAB/((((((((/(((((((((((((((((((((((((((((//IK557b%gzccccccccccccccccccbX)))))))))))))))))))",
")))))))))))))))))))X~((((((((((((((^L6bVgglc,DDDDDDDDDDDDDDDDDDDDDDDSAK/(((((((((((((((((((((((((((((((((((((((((((/QIL75%$kcccccccccccccccvX)))))))))))))))))))",
"))))))))))))))))))).((((((((((((~K1&5zjzccccBADDDDDDDDDDDDDDDDDDDDDDDNT((((((((((((((((((((((((((((((((((((((((((((((((//!Q5$&bxcccccccccccc.)))))))))))))))))))",
")))))))))))))))))))&((((((((/^K1jkzcccccccccKmDDDDDDDDDDDDDDDDDDDDDDSBQ((((((((((((((((((((((((((((((((((((((((((((((((((((((I7o1bjccccccccco)))))))))))))))))))",
"))))))))))))))))))X6((((((^I3&=lccccccccccccjMSDDDDDDDDDDDDDDDDDDDDDNP/((((((((((((((((((((((((((((((((((((((((((((((((((((((((/I65%jccccccc6X))))))))))))))))))",
"))))))))))))))))))OK((((/K53hvccccccccccccccx3NDDDDDDDDDDDDDDDDDDDDSB!(((((((((((((((((((((((((((((((((((((((((((((((((((((((((((/~K5%hccccclO))))))))))))))))))",
")))))))))))))))))).I(((U1=jxcccccccccccccccccnBSDDDDDDDDDDDDDDDDDDDmL(((((((((((((((((((((((((((((((((((((((((((((((((((((((((((((((/I&&ccccj.))))))))))))))))))",
")))))))))))))))))) !(^K$ncccccccccccccccccccccb<SDDDDDDDDDDDDDDDDSNK(((((((((((((((((((((((((((((((((((((((((((((((((((((((((((((((((((Iolccj ))))))))))))))))))",
")))))))))))))))))).~Q7=xcccccccccccccccccccccccl;ADDDDDDDDDDDDDDAmV/((((((((((((((((((((((((((((((((((((((((((((((((((((((((((((((((((((T5=xj ))))))))))))))))))",
")))))))))))))))))).L&hxcccccccccccccccccccccccxk#>NDDDDDDDDDDDDN,1I((((((((((((((((((((((((((((((((((((((((((((((((((((((((((((((((((((((/K=j.))))))))))))))))))",
")))))))))))))))))).ojccccccccccccccccccccccccck6py-;ADDDDDDDSN;:YYPQ((((((((((((((((((((((((((((((((((((((((((((((((((((((((((((((((((((((/7&o))))))))))))))))))",
")))))))))))))))))) lccccccccccccccccccccccccxl2yiiii>>mNmNNm:1YWWWE7~(((((((((((((((((((((((((((((((((((((((((((((((((((((((((((((((((((((((5.))))))))))))))))))",
"))))))))))))))))).1jccccccccccccccccccccccccj=eiiiiiiaf2oBBVEWWWWWWYK^((((((((((((((((((((((((((((((((((((((((((((((((((((((((((((((((((((((I ))))))))))))))))))",
")))))))))))))))))X3xcccccccccccccccccccccccckOpiiiiiiii91WWWWWWWWWWWZK/(((((((((((((((((((((((((((((((((((((((((((((((((((((((((((((((((((((~.))))))))))))))))))",
")))))))))))))))))X6zcccccccccccccccccccccccnOyiiiiiiiii9:WWWWWWWWWWWWPI/((((((((((((((((((((((((((((((((((((((((((((((((((((((((((((((((((((~o))))))))))))))))))",
")))))))))))))))))X3jccccccccccccccccccccccx&fiiiiiiiippf1WWWWWWWWWWWWWZI((((((((((((((((((((((((((((((((((((((((((((((((((((((((((((((((((((!.))))))))))))))))))",
")))))))))))))))))).jcccccccccccccccccccccc%#iiiiiiiiipp91WWWWWWWWWWWWWEVI(((((((((((((((((((((((((((((((((((((((((((((((((((((((((((((((((((! ))))))))))))))))))",
")))))))))))))))))).jccccccccccccccccccccch1aiiiiiiiiiii9<WWWWWWWWWWWWWWEKQ((((((((((((((((((((((((((((((((((((((((((((((((((((((((((((((((((^o))))))))))))))))))",
"))))))))))))))))))ojccccccccccccccccccccx3#piiiiiiiiiiif1WWWWWWWWWWWWWWWYK~(((((((((((((((((((((((((((((((((((((((((((((((((((((((((((((((((~o))))))))))))))))))",
")))))))))))))))))).jcccccccccccccccccccch+piiiiiiiiiiii9:WWWWWWWWWWWWWWWWG7Q((((((((((((((((((((((((((((((((((((((((((((((((((((((((((((((((~o))))))))))))))))))",
")))))))))))))))))).jcccccccccccccccccccxoeiiiiiiiiiiiiif4WWWWWWWWWWWWWWWWWV5/(((((((((((((((((((((((((((((((((((((((((((((((((((((((((((((((~.))))))))))))))))))",
")))))))))))))))))).jccccccccccccccccccxk2iiiiiiiiiiiiiit4WWWWWWWWWWWWWWWWWR65/((((((((((((((((((((((((((((((((((((((((((((((((((((((((((((((! ))))))))))))))))))",
")))))))))))))))))) jccccccccccccccccccl&aiiiiiiiiiiiiiis4WWWWWWWWWWWWWWWWWWE5K/(((((((((((((((((((((((((((((((((((((((((((((((((((((((((((((Q ))))))))))))))))))",
"))))))))))))))))))Obcccccccccccccccccx=8iiiiiiiiiiiiiiit4WWWWWWWWWWWWWWWWWWWE5K/((((((((((((((((((((((((((((((((((((((((((((((((((((((((((((LO))))))))))))))))))",
"))))))))))))))))))X5cccccccccccccccccl&aiiiiiiiiiiiiiiis4WWWWWWWWWWWWWWWWWWWWY4I((((((((((((((((((((((((((((((((((((((((((((((((((((((((((((6O))))))))))))))))))",
")))))))))))))))))))1ccccccccccccccccch#piiiiiiiiiiiiiiip7EWWWWWWWWWWWWWWWWWWWWY1I(((((((((((((((((((((((((((((((((((((((((((((((((((((((((((1)))))))))))))))))))",
"))))))))))))))))))).cccccccccccccccccgqiiiiiiiiiiiiiiiii7EWWWWWWWWWWWWWWWWWWWWWY1Q((((((((((((((((((((((((((((((((((((((((((((((((((((((((((.)))))))))))))))))))",
"))))))))))))))))))).xcccccccccccccccb@iiiiiiiiiiiiiiiiii7YWWWWWWWWWWWWWWWWWWWWWWP5!((((((((((((((((((((((((((((((((((((((((((((((((((((((((~ )))))))))))))))))))",
")))))))))))))))))))XbccccccccccccccxotiiiiiiiiiiiiiiiiiiVZWWWWWWWWWWWWWWWWEWWWWWWV7~(((((((((((((((((((((((((((((((((((((((((((((((((((((((IX)))))))))))))))))))",
"))))))))))))))))))))3ccccccccccccccb>iiiiiiiiiiiiiiiiiiibCWWWWWWWWWWWWWWWWWWWWWWWRV7/((((((((((((((((((((((((((((((((((((((((((((((((((((/(6))))))))))))))))))))",
"))))))))))))))))))))$cccccccccccccc$aiiiiiiiiiiiiiiiiiii74WWWWWWWWWWWWWWWWWWWWWWWWEV7(((((((((((((((((((((((((((((((((((((((((((((((((((/(/o))))))))))))))))))))",
"))))))))))))))))))))2zccccccccccccb1iiiiiiiiiiiiiiiiiiii8VWWWWWWWWWWWWWWWWWWWWWWWWWWV5/(((((((((((((((((((((((((((((((((((((((((((((((((//I2))))))))))))))))))))",
")))))))))))))))))))).gcccccccccccc%9iiiiiiiiiiiiiiiiiiii9VWWWWWWWWWWWWWWWWWWWWWWWWWWRVL/(((((((((((((((((((((((((((((((((((((((((((((((///V.))))))))))))))))))))",
")))))))))))))))))))) $cccccccccccz1yiiiiiiiiiiiiiiiiiiiitCWWWWWWWWWWWWWWWWWWWWWWWWWWWR4K(((((((((((((((((((((((((((((((((((((((((((((////~4 ))))))))))))))))))))",
"))))))))))))))))))))X3zccccccccccz#piiiiiiiiiiiiiiiiiiiisVEWWWWWWWWWWWWWWWWEWEWWWWWWWWJ1K(((((((((((((((((((((((((((((((((((((((((((////~I3X))))))))))))))))))))",
"))))))))))))))))))))).hxccccccccch0iiiiiiiiiiiiiiiiiiiiiaVYWWWWWWWWWWWWWWWWWWWWWWWWWWWWW1K(((((((((((((((((((((((((((((((((((((((((/(//~QK.)))))))))))))))))))))",
"))))))))))))))))))))) &xccccccccxkeiiiiiiiiiiiiiiiiiiiiia7PWWWWWWWWWWWWWWWWWWWWWWWWWWWWWR4I/((((((((((((((((((((((((((((((((((((((((//~~Q5 )))))))))))))))))))))",
")))))))))))))))))))))).jccccccccj2siiiiiiiiiiiiiiiiiiiiia3ZWWWWWWWWWWWWWWWWWWWWWWWWWWWWWWY4I((((((((((((((((((((((((((((((((((((((////~!I.))))))))))))))))))))))",
"))))))))))))))))))))))Xkcccccccch+iiiiiiiiiiiiiiiiiiiiiip-ZWWWWWWWWWWWWWWWWWWWWWWWWWWWWWWWY1Q((((((((((((((((((((((((((((((((((((((/~~!!LX))))))))))))))))))))))",
"))))))))))))))))))))))).jcccccccb#iiiiiiiiiiiiiiiiiiiiiiirZWWWWWWWWWWWWWWWWWWWWWWWWWWWWWWWWE1I((((((((((((((((((((((((((((((((((((//~~QQ.)))))))))))))))))))))))",
")))))))))))))))))))))))X=ccccccc69iiiiiiiiiiiiiiiiiiiiiiirVEWWWWWWWWWWWWWWWWWWWWWWWWWWWWWWWEY5Q/((((((((((((((((((((((((((((((((////~!QK.)))))))))))))))))))))))",
"))))))))))))))))))))))))&xcccccc2tiiiiiiiiiiiiiiiiiiiiiiid6JWWWWWWWWWWWWWWWWWWWWWWWWWWWWWWWWWY7Q((((((((((((((((((((((((((((((/(///~!!Q:))))))))))))))))))))))))",
"))))))))))))))))))))))))X%ccccccXiiiiiiiiiiiiiiiiiiiiiiiit2YWWWWWWWWWWWWWWWWWWWWWWWWWWWWWWWWWEP5~((((((((((((((((((((((((((((((///~!!Q7.))))))))))))))))))))))))",
")))))))))))))))))))))))) ozcccccXiiiiiiiiiiiiiiiiiiiiiiiip8RWWWWWWWWWWWWWWWWWWWWWWWWWWWWWWWWWWWE5Q(((((((((((((((((((((((((((////~~!!T< ))))))))))))))))))))))))",
")))))))))))))))))))))))))X=xccccOiiiiiiiiiiiiiiiiiiiiiiiii#KWWWWWWWWWWWWWWWWWWWWWWWWWWWWWWWWWWWWPVT/(((((((((((((((((((((((((///~~QQ!b.)))))))))))))))))))))))))",
")))))))))))))))))))))))))Xojcccx*iiiiiiiiiiiiiiiiiiiiiiiii95WWWWWWWWWWWWWWWWWWWWWWWWWWWWWWWWWWWWWRVL((((((((((((((((((((((((////~!QQIo )))))))))))))))))))))))))",
"))))))))))))))))))))))))))O3cccx*iiiiiiiiiiiiiiiiiiiiiiiiid1WWWWWWWWWWWWWWWWWWWWWWWWWWWWWWWWWWWWWWR1Q(((((((((((((((((((((////~!!QQ!6O))))))))))))))))))))))))))",
"))))))))))))))))))))))))))).jccxOiiiiiiiiiiiiiiiiiiiiiiiiia2RWWWWWWWWWWWWWWWWWWWWWWWWWWWWWWWWWWWWWWW1Q/((((((((((((((((((////!!!QQQP.)))))))))))))))))))))))))))",
"))))))))))))))))))))))))))))*vcxOiiiiiiiiiiiiiiiiiiiiiiiiii2VWWWWWWWWWWWWWWWWWWWWWWWWWWWWWWWWWWWWWWWRVQ(((((((((((((((((////~Q!!QQI1))))))))))))))))))))))))))))",
"))))))))))))))))))))))))))))o%ccXiiiiiiiiiiiiiiiiiiiiiiiiii94WWWWWWWWWWWWWWWWWWWWWWWWWWWWWWWWWWWWWWWWHVI((((((((((((((/////~!QQQ~~VX))))))))))))))))))))))))))))",
")))))))))))))))))))))))))))) .$jOiiiiiiiiiiiiiiiiiiiiiiiiiis5WWWWWWWWWWWWWWWWWWWWWWWWWWWWWWWWWWWWWWWWWR6I((((((((((((/(///Q!!QQQQK. ))))))))))))))))))))))))))))",
")))))))))))))))))))))))))))))O2o3fiiiiiiiiiiiiiiiiiiiiiiiiii6ZWWWWWWWWWWWWWWWWWWWWWWWWWWWWWWWWWWWWWWWWWW6L/(((((((((///^~~!QQQQQI2O)))))))))))))))))))))))))))))",
"))))))))))))))))))))))))))))))X18+iiiiiiiiiiiiiiiiiiiiiiiiii3BWWWWWWWWWWWWWWWWWWWWWWWWWWWWWWWWWWWWWWWWWWWPI~((((((////^~!!QQQQQQ5X))))))))))))))))))))))))))))))",
"))))))))))))))))))))))))))))))) >*piuiiiiiiiiiiiiiiiiiiiiiiit6RWWWWWWWWWWWWWWWWWWWWWWWWWWWWWWWWWWWWWWWWWWEGK^(((/////~~!QQQQQQQ7 )))))))))))))))))))))))))))))))",
")))))))))))))))))))))))))))))))).oriuiiuiiiiiiiiiiiiiiiiiiiia5ZWWWWWWWWWWWWWWWWWWWWWWWWWWWWWWWWWWWWWWWWWWWWH7~(////~~~QQQQQQQQK.))))))))))))))))))))))))))))))))",
"))))))))))))))))))))))))))))))))).@yuuuuiiiiiiiiiiiiiiiiiiiip-VWWWWWWWWWWWWWWWWWWWWWWWWWWWWWWWWWWWWWWWWWWWWWH6I^//~!!QQQQQQQQPo)))))))))))))))))))))))))))))))))",
")))))))))))))))))))))))))))))))))XO#yyuuuuiiiiiiiiiiiiiiiiiiir4RWWWWWWWWWWWWWWWWWWWWWWWWWWWWWWWWWWWWWWWWWWWJJGVK~!!QQQQQQQQQI2X)))))))))))))))))))))))))))))))))",
"))))))))))))))))))))))))))))))))))X2eyyuuuuuuiiiiiiiiiiiiiiiis2HWWWWWWWWWWWWWWWWWWWWWWWWWWWWWWWWWWWWWWWWWJJJJHFBKIQQQQQQQQ!Q3X))))))))))))))))))))))))))))))))))",
"))))))))))))))))))))))))))))))))))) 8-wyyyuuuiuiiiiiiiiiiiiiii-:WWWWWWWWWWWWWWWWWWWWWWWWWWWWWWWWWWWWWWWRWJJHHHFFB1PQQQQQQQIVX)))))))))))))))))))))))))))))))))))",
"))))))))))))))))))))))))))))))))))))X2+wwyyuuuuiiiiiiiiiiiiiiiaOWWWWWWWWWWWWWWWWWWWWWWWWWWWWWWWWWWWJRJJJJHGHGFFFFG4:IIQQQL3X))))))))))))))))))))))))))))))))))))",
")))))))))))))))))))))))))))))))))))))XO+wwwwyyuuuiuiiiiiiiiiiii2ZWWWWWWWWWWWWWWWWWWWWWWWWWWJWWWWWJWJJJJJHHFFFFFFFFFV:5KK3>X)))))))))))))))))))))))))))))))))))))",
"))))))))))))))))))))))))))))))))))))))X.+ewwyyyyuuuuuiiiiiiiiiif4WWWWWWWWWWWWWWWWWWWWWWWWWWWWJWJJJJJHHGFFFFFFFFFFFFGFB4o X))))))))))))))))))))))))))))))))))))))",
")))))))))))))))))))))))))))))))))))))))).+w0wwwyyyuuuuuipiiiiiiu5VWWWWWWWWWWWWWWWWWWWWWWWWWWJWJJJJHHFHFFFFFFFFFFFFFFHJB ))))))))))))))))))))))))))))))))))))))))",
"))))))))))))))))))))))))))))))))))))))))) @@wqwwyyyyyppuuuuiiiii9BRWWWWWWWWWWWWWWEWWWWWWJJJJJJHHHFFFFFFFFFFFFFFFFFFFF4 )))))))))))))))))))))))))))))))))))))))))",
")))))))))))))))))))))))))))))))))))))))))).2@qqwwwwwyyyuuuuuuuiuy2ZWWWWWWWWWJWWWWWWRJJJJJJJHHFFFFFFFFFFFFFFFFFFFFFFC3.))))))))))))))))))))))))))))))))))))))))))",
")))))))))))))))))))))))))))))))))))))))))))X.+eqqqwwwwwyyyyuuuuup#4RWJWWJWJWJWJJJJJJJHJHHHFHHFFFFFFFFFFFFFFFFFFFFFBoX)))))))))))))))))))))))))))))))))))))))))))",
")))))))))))))))))))))))))))))))))))))))))))) Xoeqqqqwwwwwwyyuyyuus2HJJJJJJJJJJJJHHHHHHFGHFFFFFFFFFFFFFFFFFFFFFFFZ:. ))))))))))))))))))))))))))))))))))))))))))))",
"))))))))))))))))))))))))))))))))))))))))))))))OX2qqqqqqqwwwwwyyyyy-1GHHHHHHHFFFGFHFFFFFFFFFFFFFFFFFFFFFFFFFFFFZVXO))))))))))))))))))))))))))))))))))))))))))))))",
"))))))))))))))))))))))))))))))))))))))))))))))))X++qqqqqqwqwwwwwwww-6GFFFFFFFFFFFFFFFFFFFFFFFFFFFFFFFFFFFFFFFB:X))))))))))))))))))))))))))))))))))))))))))))))))",
"))))))))))))))))))))))))))))))))))))))))))))))))) O++qqqqqqqqwqqqwwe5BFFFFFFFFFFFFFFFFFFFFFFFFFFFFFFFFFFFFFV>O )))))))))))))))))))))))))))))))))))))))))))))))))",
")))))))))))))))))))))))))))))))))))))))))))))))))). 2O@wqqqqqqqqqqqq-VCGFFFFFFFFFFFFFFFFFFFFFFFFFFFFFFFGFC:2 .))))))))))))))))))))))))))))))))))))))))))))))))))",
")))))))))))))))))))))))))))))))))))))))))))))))))))))XO1e@qqqqqqqqqqq#VZFFFFFFFFFFFFFFFFFFFFFFFFZFFFFZCC1XX)))))))))))))))))))))))))))))))))))))))))))))))))))))",
")))))))))))))))))))))))))))))))))))))))))))))))))))))))OX.++#qqqqqqqqq#5ZZFFFFFFFFFFFFFFFFFFFFFFFFFF4<.XO)))))))))))))))))))))))))))))))))))))))))))))))))))))))",
")))))))))))))))))))))))))))))))))))))))))))))))))))))))))) .-@*eqqqqqqq#5ZFFFFFFFFFFFFFFFFFFFFFFFV<2  ))))))))))))))))))))))))))))))))))))))))))))))))))))))))))",
"))))))))))))))))))))))))))))))))))))))))))))))))))))))))))))  oeX2#qqqqq#5CFFFFFFFFFFFFFFFFFFZ6;:O  ))))))))))))))))))))))))))))))))))))))))))))))))))))))))))))",
")))))))))))))))))))))))))))))))))))))))))))))))))))))))))))))))))X+X&2@q@w*1CCGZCZCCZZCCCZ6: XX)))))))))))))))))))))))))))))))))))))))))))))))))))))))))))))))))",
")))))))))))))))))))))))))))))))))))))))))))))))))))))))))))))))))))))XX+ ooo o1111. o:o  XX)))))))))))))))))))))))))))))))))))))))))))))))))))))))))))))))))))))",
"))))))))))))))))))))))))))))))))))))))))))))))))))))))))))))))))))))))))))))))))))))))))))))))))))))))))))))))))))))))))))))))))))))))))))))))))))))))))))))))))",
"))))))))))))))))))))))))))))))))))))))))))))))))))))))))))))))))))))))))))))))))))))))))))))))))))))))))))))))))))))))))))))))))))))))))))))))))))))))))))))))))",
"))))))))))))))))))))))))))))))))))))))))))))))))))))))))))))))))))))))))))))))))))))))))))))))))))))))))))))))))))))))))))))))))))))))))))))))))))))))))))))))))",
"))))))))))))))))))))))))))))))))))))))))))))))))))))))))))))))))))))))))))))))))))))))))))))))))))))))))))))))))))))))))))))))))))))))))))))))))))))))))))))))))",
"))))))))))))))))))))))))))))))))))))))))))))))))))))))))))))))))))))))))))))))))))))))))))))))))))))))))))))))))))))))))))))))))))))))))))))))))))))))))))))))))",
"))))))))))))))))))))))))))))))))))))))))))))))))))))))))))))))))))))))))))))))))))))))))))))))))))))))))))))))))))))))))))))))))))))))))))))))))))))))))))))))))",
"))))))))))))))))))))))))))))))))))))))))))))))))))))))))))))))))))))))))))))))))))))))))))))))))))))))))))))))))))))))))))))))))))))))))))))))))))))))))))))))))",
"))))))))))))))))))))))))))))))))))))))))))))))))))))))))))))))))))))))))))))))))))))))))))))))))))))))))))))))))))))))))))))))))))))))))))))))))))))))))))))))))",
"))))))))))))))))))))))))))))))))))))))))))))))))))))))))))))))))))))))))))))))))))))))))))))))))))))))))))))))))))))))))))))))))))))))))))))))))))))))))))))))))",
"))))))))))))))))))))))))))))))))))))))))))))))))))))))))))))))))))))))))))))))))))))))))))))))))))))))))))))))))))))))))))))))))))))))))))))))))))))))))))))))))",
"))))))))))))))))))))))))))))))))))))))))))))))))))))))))))))))))))))))))))))))))))))))))))))))))))))))))))))))))))))))))))))))))))))))))))))))))))))))))))))))))",
"))))))))))))))))))))))))))))))))))))))))))))))))))))))))))))))))))))))))))))))))))))))))))))))))))))))))))))))))))))))))))))))))))))))))))))))))))))))))))))))))",
"))))))))))))))))))))))))))))))))))))))))))))))))))))))))))))))))))))))))))))))))))))))))))))))))))))))))))))))))))))))))))))))))))))))))))))))))))))))))))))))))",
"))))))))))))))))))))))))))))))))))))))))))))))))))))))))))))))))))))))))))))))))))))))))))))))))))))))))))))))))))))))))))))))))))))))))))))))))))))))))))))))))",
"))))))))))))))))))))))))))))))))))))))))))))))))))))))))))))))))))))))))))))))))))))))))))))))))))))))))))))))))))))))))))))))))))))))))))))))))))))))))))))))))",
"))))))))))))))))))))))))))))))))))))))))))))))))))))))))))))))))))))))))))))))))))))))))))))))))))))))))))))))))))))))))))))))))))))))))))))))))))))))))))))))))",
"))))))))))))))))))))))))))))))))))))))))))))))))))))))))))))))))))))))))))))))))))))))))))))))))))))))))))))))))))))))))))))))))))))))))))))))))))))))))))))))))",
"))))))))))))))))))))))))))))))))))))))))))))))))))))))))))))))))))))))))))))))))))))))))))))))))))))))))))))))))))))))))))))))))))))))))))))))))))))))))))))))))"
};

