/* XPM */
static char *bxBaer64[] = {
/* columns rows colors chars-per-pixel */
"96 96 85 1",
"  c #000000",
". c #110e05",
"X c #191407",
"o c #181714",
"O c #251c06",
"+ c #221f12",
"@ c #341f00",
"# c #2c2107",
"$ c #252218",
"% c #392603",
"& c #342a13",
"* c #3d330a",
"= c #3c3410",
"- c #2B2B2B",
"; c #383837",
": c #452e00",
"> c #4a3606",
", c #423512",
"< c #543c08",
"1 c #4e420b",
"2 c #4d4417",
"3 c #5b430a",
"4 c #5c4715",
"5 c #5a4824",
"6 c #654907",
"7 c #654c17",
"8 c #6f5102",
"9 c #675915",
"0 c #714f0c",
"q c #795705",
"w c #7a5d11",
"e c #674f21",
"r c #715d32",
"t c #7c6309",
"y c #7d6c16",
"u c #59574e",
"i c #575757",
"p c #835e08",
"a c #865d13",
"s c #896505",
"d c #8c6416",
"f c #8b710c",
"g c #897512",
"h c #966b07",
"j c #966913",
"k c #9a7405",
"l c #9a7613",
"z c #887931",
"x c #a06f16",
"c c #a77a02",
"v c #a97616",
"b c #b27f07",
"n c #b47d18",
"m c #8e7b52",
"M c #9b8312",
"N c #a7840b",
"B c #a58a12",
"V c #ae9314",
"C c #b88503",
"Z c #bc8319",
"A c #b49916",
"S c #a69127",
"D c #bea016",
"F c #bda320",
"G c #c48d02",
"H c #c88b1b",
"J c #cc9300",
"K c #d08f1f",
"L c #d69a00",
"P c #da971a",
"I c #d79421",
"U c #c7a919",
"Y c #ceb01b",
"T c #dfa100",
"R c #d8b91c",
"E c #e19f0e",
"W c #e09e10",
"Q c #e9a801",
"! c #e0bf1c",
"~ c #e7c51d",
"^ c #f1ce1f",
"/ c #f5d11f",
"( c #fed920",
") c #aaaaaa",
"_ c None",
/* pixels */
"________________________________________________________________________________________________",
"________________________________________________________________________________________________",
"________________________________________________________________________________________________",
"________________________________________________________________________________________________",
"________________________________________________________________________________________________",
"________________________________________________________________________________________________",
"________________________________________________________________________________________________",
"________________________________________________________________________________________________",
"________________________________________________________________________________________________",
"________________________________________________________________________________________________",
"________________________________________________________________________________________________",
"________________________________________________________________________________________________",
"________________________________________________________________________________________________",
"________________________________________________________________________________________________",
"________________________________________________________________________________________________",
"________________________________________________________________________________________________",
"_______________________________________ +7jgw% _________________________________________________",
"______________________________________ <JQQQQQk$________________________________________________",
"______________________________________1PEQLGGLQG._______________________________________________",
"_____________________________________.KPPHtMAMCQq ______________________________________________",
"_________________________________ .##4jja6U^((VGG.______________________________________________",
"_______________________ 136, __ 6NGTQQTQWKvsB(RNP&______________________________________________",
"_____________________ 3JQQQQkO8LQQQQQQQQQQPPndMGP#______________________________________________",
"____________________ 3QQQQQLpGQQQQQQQQQQQQQPIHqPHX______________________________________________",
"____________________OJQcfkssQQQQQQQQQQQQQQQQWPvxd.______________________________________________",
"____________________6QGV((kQQQQQQQQQQQQQQQQQEPI0X_______________________________________________",
"____________________fQk^(BQQQQQQQQQQQQQJqqGQQWIa________________________________________________",
"____________________fQh^~CQQQJcJQQQQQQQ%; OLQWPx________________________________________________",
"____________________>QJfBTQQLX  sQQQQQG$)  CQWPno_______________________________________________",
"____________________+JQJqQQQsui OQQQQQJOo XJQWKIo_______________________________________________",
"____________________ 1QQsQQQh;- %QQQQQQG><CQWPKHo_______________________________________________",
"_____________________ 4JsQQQT> #CQQQQQQQQQQEPIIv________________________________________________",
"_______________________.tQQQQQQQQQQQQQQQQQQPPIId________________________________________________",
"________________________3QQQQQQQQQQQQQQQQQEPIII>________________________________________________",
"________________________%QQQQQQQQQTs<%%:CQQPIIHX________________________________________________",
"________________________.CQQQQQQQQ3%%%:%sQQIIId ________________________________________________",
"________________________.dQQQQQQQQ6%:%%@GQEIII<%. ______________________________________________",
"_________________________XTQQQQQQQG%@%@8QQQIIvvKv4$e7774>#Oo.___________________________________",
"__________________________6QQQQQQQQJ<@8EQQPIIqPPWPZwbPQQQQQLCcp>X ______________________________",
"__________________________.cQQQQQQQQQEQQQQPIjGQQQQQPxpQQQQQQQQQQJk#.____________________________",
"___________________________.sQQQQQQQQQQEEPInbQQQQQQQQLsJQQQQQQQQQQT3.___________________________",
"____________________________.6LQQQEEEEEWIInbQQQQQQQQQQQkGQQQQQQQQQQQdo__________________________",
"____________________________.kshGWWIPPIIKjCGkkkcCQQQQQQQbGQQQQQQQQQQQd _________________________",
"____________________________&LQJhpavnnxjhJsZ~^^~AsCQQQQQQcCQQQQQQQQQQQ>.________________________",
"__________________________.8ccQQQQEGCZJWQsR(((((((DNQQQQQQkCPQWQQQQWQPC+________________________",
"_________________________+CQQ8QQQQQQQEQQLB(((((((///lLQQQQEpHIPPPPPIPII#________________________",
"________________________&JQQQGcQQQQQQQQQCU/(((((((((/VLQQQWPqKIIIIIIIHj.________________________",
"_______________________OGQQQQQqQQQQQQQQQCY(((((((((///VTQQQPZsPKKvd4%X _________________________",
"______________________OJQQQQQQsLQQQQQQQQCD(((((((((((((BQQQQPj. ._______________________________",
"_____________________.GQQQQQQEvHQQQQQQQQTA(((((((((((((/kQQQQP>_________________________________",
"____________________.cQQQQQQEWnnQQQQQQQQQg((((((((((((((RCQQQPZo________________________________",
"____________________dQQQQQQQWPZn!QQQQQQQQs(((((((((((((((BTQQPQ7________________________________",
"__________________ <QQQQQQQQWInnWEQQQQQQQCA(((((((((((((((sQQQQHo_______________________________",
"__________________XJQQQQQQQQIInnIWQQQQQQQQf/((((((((((((((BJQQQE4_______________________________",
"_________________ kQQQQQQQQIIInnIWQQQQQQQQNU((((((((((((((~kQQQGp ._____________________________",
"_________________=QQQQQQQQQIIIvvIWQQQQQQQQQt(((((((((((((((kQQksGCq..___________________________",
"________________.CQQQQQQQQPIIIvHIIEQQQQQQQQGB/(((((((((((((BQCkQQQQQf# _________________________",
"________________&LQQQQQQQWIIIIaIIIEQQQQQQQQQkR(/((((((((((/BLqQQQQQQQT3.X9Mg#___________________",
"________________rPQQQQQQPPIIIKpPIIWEQQQcpssss6R/(((((((/(((tNCQQQQQQQQQ8D(((^2__________________",
"________________mIWQEQWIIIIIKdKIIIIEQLqGQQQQLs:!(((((((/(/gCsQQQQQQQQQGB(((((R._________________",
"________________5IIIIPIIIIIH<KIIIIIWJ8EQQLJLQQb%MY~~~~~YBtJQsQQQQQQQQQs/((((((y ________________",
"________________&KIIIIIIIIvOOKIIIIIW8LQbfBVVsCWvtCckckNCLQQCCQQQQQQQQQM(((((((U.________________",
"________________ nIIIIIIn4 _ xIIIIKaGEhU(((((AlIhZQQQQQQQQQkTQQQQQQQQc~(((((((/=________________",
"________________ 0IIIIv4o ___7IIIIHqPhY/((((((UlKqQQQQQQQQQsQQQQQQQQQs(((((((((z________________",
"_________________.jHd& ______XIIIIdHnB(((((((((MHxnWQQQQQQQsQQQQQQQQQf/((((((((S________________",
"__________________.X.________ dIIIqIa(((((((((((wI0WEQQQQQQsQQQQQQQQQN/((((((((M________________",
"______________________________OHIIaHB(((((((((((vHaPWWQQQQQsQQQQQQQQQN(((((((((M________________",
"______________________________ wPPjd~(((((((((((UnxZIIEQQQQsWQQQQQQQQh(((((((((S________________",
"_______________________________.ZIdd((((((((((((~jnnIIWWQQQdPPQQQ^QQQh(((((((((M________________",
"________________________________>Kah(((((((((((((lvvIIIWQQEnvIPQQQQQQk~((((((((=________________",
"________________________________ 7pf(((((((((((((xvnIIIIPIWIaIIIQEQQQLB(((((((Yo________________",
"_________________________________.,q((((((((((((^jjKIIIIIIIIaIIIIPWWWWa((((((/M.________________",
"__________________________________o%((((((((((((YvqIIIIIIIIIHdIIIIIIIInA(((((^o_________________",
"___________________________________.A(((((((((((VljIIIIIIIIIvO<dvIIIIIId!(((^e__________________",
"___________________________________.1(((((((((((qqIIIIIIPnd& ___ oX,7<<<ogYF* __________________",
"____________________________________oU(((((((((U>ZIIZxd<&X ______________  .____________________",
"_____________________________________*^(((((((!$ooooo___________________________________________",
"______________________________________1^(((((~=.________________________________________________",
"_______________________________________$gRRYyo__________________________________________________",
"________________________________________  uo.___________________________________________________",
"________________________________________________________________________________________________",
"________________________________________________________________________________________________",
"________________________________________________________________________________________________",
"________________________________________________________________________________________________",
"________________________________________________________________________________________________",
"________________________________________________________________________________________________",
"________________________________________________________________________________________________",
"________________________________________________________________________________________________",
"________________________________________________________________________________________________",
"________________________________________________________________________________________________",
"________________________________________________________________________________________________",
"________________________________________________________________________________________________",
"________________________________________________________________________________________________",
"________________________________________________________________________________________________",
"________________________________________________________________________________________________",
"________________________________________________________________________________________________"
};

