/* XPM */
static char *bxBaer32[] = {
/* columns rows colors chars-per-pixel */
"32 32 55 1",
"  c #000000",
". c #181305",
"X c #191919",
"o c #261d07",
"O c #2c2209",
"+ c #362507",
"@ c #303030",
"# c #422c03",
"$ c #473609",
"% c #4a3611",
"& c #5a460d",
"* c #554a10",
"= c #664804",
"- c #6d5108",
"; c #635612",
": c #795807",
"> c #785612",
", c #815e03",
"< c #865d12",
"1 c #8a6505",
"2 c #8c6416",
"3 c #946b02",
"4 c #9c6c16",
"5 c #9e7204",
"6 c #867625",
"7 c #aa7b03",
"8 c #a87517",
"9 c #b37e0f",
"0 c #b37c18",
"q c #ac840b",
"w c #b98703",
"e c #b78517",
"r c #be950c",
"t c #b59419",
"y c #ae832d",
"u c #af9721",
"i c #bfa318",
"p c #c38c04",
"a c #c78a1b",
"s c #c59406",
"d c #c49f12",
"f c #d69b03",
"g c #db9917",
"h c #d79521",
"j c #c8a717",
"k c #cfb11e",
"l c #dea000",
"z c #d1b21a",
"x c #e19f0b",
"c c #e09e10",
"v c #e8a701",
"b c #e9c61d",
"n c #f6d21f",
"m c #fed920",
"M c None",
/* pixels */
"MMMMMMMMMMM.1w5OMMMMMMMMMMMMMMMM",
"MMMMMMMMMM egqrfoMMMMMMMMMMMMMMM",
"MMM Oo  #:5p8tbr:MMMMMMMMMMMMMMM",
"MM.wvv,pvvvvvce9>MMMMMMMMMMMMMMM",
"MM3rj7vvvvvvvvc4oMMMMMMMMMMMMMMM",
"MMwrjvvfvvv7$7c0MMMMMMMMMMMMMMMM",
"MM1rwv>X7vv:@-ch.MMMMMMMMMMMMMMM",
"MM.wwv>.7vvx5fga MMMMMMMMMMMMMMM",
"MMM 7vvvvvvvvch8MMMMMMMMMMMMMMMM",
"MMMM:vvvv,##pch&MMMMMMMMMMMMMMMM",
"MMMMOvvvv=##fca<%XOO.. MMMMMMMMM",
"MMMMM:vvvx3pvg8vcp7vvvp7= MMMMMM",
"MMMMM :vvvvxg0fvvvv7vvvvvpOMMMMM",
"MMMMMM-w90a099djwvvvwvvvvvf.MMMM",
"MMMM 17vvxfxwnmmmzfvv7gggcc>MMMM",
"MMM qvvwvvvvsmmmmmbfvg8ga8>oMMMM",
"MM 7vvv9vvvvrmmmmmmblva. MMMMMMM",
"MM1vvvg0vvvvwmmmmmmnjvv2MMMMMMMM",
"M$vvvvh0cvvvlkmmmmmmnsvf.MMMMMMM",
".fvvvch0hvvvvqmmmmmmnjvw,o MMMMM",
":vvvvhh0hvvvvvrmmmmmmzwfvv5.o$.M",
"yxvvhheahcvwww3immnnmqwvvvvqbmj ",
"2hhhh4<hhg5lrrp5qdddrlwvvvvjmmm*",
"%hh8% $hh8wjmmbt8vvvvwvvvvwmmmmu",
" &+ MM ah8tnmmmb0evvvwvvvvpmmmmk",
"MMMMMMM&h4bnmmmme8gvvwvvvvrmmmmk",
"MMMMMMM 82mmmmmmd0hgvphcvvsmmmmu",
"MMMMMMMM.:mmmmmmj0hhhh8hcvvimmm;",
"MMMMMMMMM.bmmmmme0hhhh<8ahhemmk ",
"MMMMMMMMM 6mmmmb>he8>+ M .OoO;.M",
"MMMMMMMMMM.jmmm* X MMMMMMMMMMMMM",
"MMMMMMMMMMM.*6OMMMMMMMMMMMMMMMMM"
};

