/* XPM */
static char *bxBaer96[] = {
/* columns rows colors chars-per-pixel */
"96 96 82 1",
"  c #000000",
". c #120e04",
"X c #191407",
"o c #181816",
"O c #271b04",
"+ c #2d2307",
"@ c #282518",
"# c #3a2601",
"$ c #383212",
"% c #272726",
"& c #3b3322",
"* c #383733",
"= c #402e00",
"- c #473404",
"; c #463a18",
": c #553d06",
"> c #463e28",
", c #5c4406",
"< c #5a4515",
"1 c #5e5213",
"2 c #544725",
"3 c #664a04",
"4 c #654b15",
"5 c #6a5409",
"6 c #6a5916",
"7 c #714f0b",
"8 c #714f11",
"9 c #765606",
"0 c #7b5913",
"q c #675424",
"w c #79640c",
"e c #786713",
"r c #7b6e2c",
"t c #55534e",
"y c #797149",
"u c #6d6d6d",
"i c #835d06",
"p c #835b14",
"a c #8b6504",
"s c #866616",
"d c #8a720e",
"f c #8a7512",
"g c #956b07",
"h c #986b13",
"j c #9d7203",
"k c #957d11",
"l c #8f6e28",
"z c #a06f12",
"x c #a77902",
"c c #a97615",
"v c #b17e05",
"b c #b47d17",
"n c #9b8312",
"m c #a58c14",
"M c #ac9215",
"N c #b98501",
"B c #bb8217",
"V c #b69b17",
"C c #bda118",
"Z c #898372",
"A c #c38d01",
"S c #c78a1a",
"D c #cb9200",
"F c #cf9018",
"G c #d79b01",
"H c #da9819",
"J c #d79421",
"K c #c7aa19",
"L c #cfb01a",
"P c #dea000",
"I c #d6b71b",
"U c #e09f0e",
"Y c #e09e10",
"T c #e9a800",
"R c #e8c71d",
"E c #f2cf1f",
"W c #f7d31f",
"Q c #fed920",
"! c #8d8d8d",
"~ c #a0a0a0",
"^ c #EDEDED",
"/ c None",
/* pixels */
"////////////////////////////////////..2qqqqO.///////////////////////////////////////////////////",
"////////////////////////////////// %:vDGGTPDj$./////////////////////////////////////////////////",
"//////////////////////////////////XaTTTTTTTTTG9@////////////////////////////////////////////////",
"/////////////////////////////////OhTYTTTTTTTTTTg ///////////////////////////////////////////////",
"//////////////////////////////// 0FHHYYN33wwjPTT, //////////////////////////////////////////////",
"////////////////////////////////OJHJJHz5VKRImaPTNo//////////////////////////////////////////////",
"//////////////////////////// o X-hhgs0,RWQQQQK9TT-//////////////////////////////////////////////",
"////////////.   . //////.X+-9xNAABNSBca4eVEQQQ5GPho/////////////////////////////////////////////",
"////////// .6aaas- /// .eNTTTTTTTTPYJHHHB95IQQwDHb /////////////////////////////////////////////",
"/////////OaGTTTTTTj;.+aTTTTTTTTTTTTTTYTHHJB3nR9HHb /////////////////////////////////////////////",
"/////// XxTTTTTTTTD,9DTTTTTTTTTTTTTTTTTTYHJS8,BYJc./////////////////////////////////////////////",
"///////ogTTTTTTTTA3NTTTTTTTTTTTTTTTTTTTTTYJJH3BHJ,//////////////////////////////////////////////",
"//////.,PTTN999axwTTTTTTTTTTTTTTTTTTTTTTTYYJJS3SS&//////////////////////////////////////////////",
"//////.NTPN5IRInaTTTTTTTTTTTTTTTTTTTTTTTTTYHJJah8o//////////////////////////////////////////////",
"//////2PTP5WQWWgTTTTTTTTTTTTTTTTTTTTTTTTTTTYHJB- ///////////////////////////////////////////////",
"//////1PPNmQQWdPTTTTTTTTTTTTTTTTTTTTxxxPTTTYHJJ<////////////////////////////////////////////////",
"//////,TTjVWQLjTTTTTTTTTTTTTTTTTTTG-. .-DTTTHJJ8////////////////////////////////////////////////",
"//////4TTvfWQdPTTTTPNwgNTTTTTTTTTT9 u.  aTTYPHJp////////////////////////////////////////////////",
"//////ODTT3VIaTTTTTj.   iHTTTTTTTT-%^%  OTTTYJJjo///////////////////////////////////////////////",
"//////.NTTD53NTTTTP+**  ODTTTTTTTT=%!.  #TTYYJJS%///////////////////////////////////////////////",
"//////.:TTTT5ATTTTN.!~   jTTTTTTTTx     aTTYHHJJ%///////////////////////////////////////////////",
"///////%sTTT9GTTTTNXuu   xTTTTTTTTTaXo+iTTYYHJJS%///////////////////////////////////////////////",
"/////// .xTT5GTTTTP=..  #GTTTTTTTTTTDDDTTPYHJJJh.///////////////////////////////////////////////",
"/////////@5D3TTTTTTD=  =DTTTTTTTTTTTTTTTYHHJJJJp////////////////////////////////////////////////",
"////////// X,PTTTTTTTTTTTTTTTTTTTTTTTTTTYHJJJJJ4////////////////////////////////////////////////",
"////////////2PTTTTTTTTTTTTTTTTTTTTTTTTTTYJJJJJS4////////////////////////////////////////////////",
"////////////ODTTTTTTETTTTTTTTTTTTTTTTTTTYHJJJJB.////////////////////////////////////////////////",
"//////////// NTTTTTTTTTTTTTTGx3-###,NTTTYHJJJJp ////////////////////////////////////////////////",
"////////////.sTTTTTTTTTTTTTj#+#####O3TTTYJJJJJ$/////////////////////////////////////////////////",
"/////////////#TTTTTTTTTTTTT,########3TTTPJJJJbX/////////////////////////////////////////////////",
"/////////////&NTTTTTTTTTTTT9#=#####OxTTTHJJJJ3..////////////////////////////////////////////////",
"/////////////.0TTTTTTTTTTTTD#######+TTTGHJJJF:bc-* .o o....o ///////////////////////////////////",
"//////////////.DTTTTTTTTTTTT0O####OvTTTYHHJJ9BHHJc8o4lllspse8--#O%o/////////////////////////////",
"///////////////,TTTTTTTTTTTTTx#O+OvTTTTYHJJB,HHHHYHS39SHYTTTTTTTTTNa5,OX.///////////////////////",
"/////////////// gTTTTTTTTTTTTTGv0DTTTTUYHJF9BHHPYYTYFb5hGTTTTTTTTTTTTTDNa#o ////////////////////",
"////////////////%xTTTTTTTTTTTTTTTTTTTUYHJJhgTTTTTTTTTHFp3TTTTTTTTTTTTTTTTTN-o///////////////////",
"/////////////////ojTTTTTTTTTTYTTTTTUYYJJJc9HTTTTTTTTTTTTN3NTTTTTTTTTTTTTTTTThO//////////////////",
"//////////////////owYTTTTTTTTTTTTTUYHHJJBaGTTTTTTTTTTTTTTDaxTTTTTTTTTTTTTTTTTN$o////////////////",
"///////////////////o#ATTTTTPPYTYYYHHJJJbhGTTTTTTTTTTTTTTTTTajTTTTTTTTTTTTTTTTTN2o///////////////",
"///////////////////;v30AYTYJJJJHHHJJJSggYPNjNjNNGTTTTTTTTTTTxxTTTTTTTTTTTTTTTTTG2///////////////",
"////////////////// :TPN53vSHJJJJJJJSh9vGz3fMCMMf5aGTTTTTTTTTTNaTTTTTTTTTTTTTTTTTA. /////////////",
"//////////////////%jTTTTDg3,8gjhzg77gGT7fRWWQQWWEm5aTTTTTTTTTTjaTTTTTTTTTTTTTTTTTa%/////////////",
"////////////////X,j3GTTTTTTTDhzzzvHUUU9MQQWWQQQQQQQVwNTTTTTTTTTgiPHTYYTYTTTTTTTTTG-o////////////",
"///////////////+xTTaaTTTTTTTTTTPUUTTTAwWQQQQQQQQQQQQRnjGTTTTTTTTahPHYYYYYJYPHHHHJHh ////////////",
"/////////////.;GTTTG:TTTTTTTTTTTTTTTTgKQQQQQQQQQQQQQQQVjTTTTTTTTF3NJJJHJJHJHJJJJJJc ////////////",
"////////////.qPTTTTTjaTTTTTTTTTTTTTTT3RQQQQQQQQQQQQQQQQIaTTTTTTGHH:SJJJJJJJJJJJJJF3 ////////////",
"/////////// <DTTTTTTT,GTTTTTTTTTTTTTT3WQQQQQQQQQQQQQQQQERdGTTTTTJJb3FJJJJJJJJBBc3$./////////////",
"////////// ;GTTTTTTTT3DTTTTTTTTTTTTTT3WQQQQQQQQQQQQQQQQQELgTTTTTPHJhpJHJHcp,qO .////////////////",
"///////// -GTTTTTTTTTgxHTTTTTTTTTTTTT5WQQQQQQQQQQQQQQQQQQQIaTGTTTHHF3O  o //////////////////////",
"////////.;ATTTTTTTTTYvaPTTTTTTTTTTTTTwIQQQQQQQQQQQQQQQQQQQQCNTTTTTYHSo /////////////////////////",
"////////oATTTTTTTTTYYF7YTTTTTTTTTTTTTaKQQQQQQQQQQQQQQQQQQQQQfDTTTTTJH0 /////////////////////////",
"///////@vTTTTTTTTTTYYH:HYTTTTTTTTTTTUNnQQQQQQQQQQQQQQQQQQQQQEdPTTTTPHH;.////////////////////////",
"//////@xTTTTTTTTTTHYHJ7JYTTTTTTTTTTTTDwQQQQQQQQQQQQQQQQQQQQQQIaTTTTTYHhX////////////////////////",
"//////sTTTTTTTTTTTYYJJ7JYYTTTTTTTTTTTP,QQQQQQQQQQQQQQQQQQQQQQWdDTTTTTYF<////////////////////////",
"//// -TTTTTTTTTTTYYJJJ0JJYTTTTTTTTTTTTjnQQQQQQQQQQQQQQQQQQQQQQW,UTTTTTHBo///////////////////////",
"////;ATTTTTTTTTTTYHJJJ9JJYHTTTTTTRTTTPP5WQQQQQQQQQQQQQQQQQQQQQQfNTTTTTTH;.//////////////////////",
"/// xTTTTTTTTTTTHYJJJJ7JJJYTTTTTTTTTTTTaLQQQQQQQQQQQQQQQQQQQQQQI9TTTTTTHh //////////////////////",
"///<TTTTTTETTTTTYYJJJJ0JJJYTTTTTTTTTTTTD5WQQQQQQQQQQQQQQQQQQQQQQwATTTTTTA+//////////////////////",
"/ .DTTTTTTTTTTTTTJJJJJ8JJJYTTTTTTTTTTTTT9VQWQQQQQQQQQQQQQQQQQQQQCaTTTTN,7:+@ ///////////////////",
"/.9TTTTTTTTTTTTTHJJJJJ:JJJYTTTTTTTTTTTTTD5WWQQQQQQQQQQQQQQQQQQQQRwTTTj3NTTTx3.%/////////////////",
"/$DTTTTTTTTTTTTYHJJJJF9JJJHTTTTTTTTTTTTTTjfWQQQQQQQQQQQQQQQQQQQQQwTTN,TTTTTTTT92 ///////////////",
"o0TTTTTTTTTTTTYJYJJJJhsJJJJYTTTTTTTTTTTTTT5KQQQQQQQQQQQQQQQQQQQQQeDG,GTTTTTTTTTD3@ // .X.. /////",
" NTTTTTTTTTTTYYJJJJJJpbJJJJYTTTTTTTTTTTTTTD5RQQQQQQQQQQQQQQQQQQQEwGjaTTTTTTTTTTTTg+..1MKKV<.////",
">BPTTTTTTTTYYYJJJJJJJ3SJJJJHTTTTTTUv935935aa5WQQQQQQQQQQQQQQQQQQR,G3GTTTTTTTTTTTTTD$eEQQQQQfo///",
"ZBHTPTTTTTYYJJJJJJJJcgJYJJJJHHTTTN5aDGPPPDj5-wRQQQQQQQQQQQQQQQWWfaxgTTTTTTTTTTTTTTAwWQQQQQQWw //",
"ZbJJYYYYYYHJJJJJJJJhiJJJJJJJYTTTN,NTTTTTTTTPaX5EQQQWQQQQQQQQQQWe5P9ATTTTTRTTTTTTTT3RQQQQQQQQRX//",
"tBJJHHJHJJJJJJJJJJ7aJJJJJJJJJTTx-PTTTTTTTTTTTN##nRWWWWQQWWQWLd,jTT3GTTTTTTTTTTTTTgmWQQQQQQQQQn./",
" bJJJJJJJJJJJJJJB:.cJJJJJJJJHYv3ATTTNxaaagNGTTN-95wnnknnkkd3wNDTTD5TTTTTTTTTTTTTT5RQQQQQQQQQQI$/",
"ohJJJJJJJJJJJJJc;  0JJJJJJJJHH-NTTT9wMKLLCn,NHHB3FDNNNNAGADTTTTTTxNTTTTTTTTTTTTTPwQQQQQQQQQQQQ1/",
"/-JJJJJJJJJJJb4 ///$JJJJJJJJJ9jYTN5KQQQQQQQRwhHJhaHTTTTTTTTTTTTTT9PTTTTTTTTTTTTTgCQQQQQQQQQQQQV.",
"/@BJJJJJJJJb<@.////XhJJJJJJJb:HHA1IQQQQQQQQQWndHF7bTTTTTTTTTTTTTT,TTTTTTTTTTTTTT3WQQQQQQQQQQQQI@",
"/ sJJJJJJz<@o////// pJJJJJJJ3hHF,IQQQQQQQQQQWQwcJb5HTTTTTTTTTTTTP3TTTTTTTTTTTTTP5WQQQQQQQQQQQQRy",
"//XbJJSp+o//////////OJJJJJJb3JJiCQQQQQQQQQQQQQR1FJ4bYUTTTTTTTTTTG5TTTTTTTTTTTTTPeQQQQQQQQQQQQQQr",
"// Os7&. ///////////ozJJJJJpcJc0EQQQQQQQQQQQQQQK7JS3JHTTTTTTTTTTG9TTTTTTTTTTTTTDnQQQQQQQQQQQQQQ6",
"/////////////////////<FJJJJ3FJ7LQQQQQQQQQQQQQQQQ5bJ3SJYUTTTTTTTTD9TTTTTTTTTTTTTDmQQQQQQQQQQQQQQ6",
"/////////////////////.hJJJJ<JFwWQQQQQQQQQQQQQQQQMaJ0bJHYTTTTTTTTG9TTTTTTTTTTTTTDmQQQQQQQQQQQQQQ6",
"///////////////////// ;FJJJ7JhmQQQQQQQQQQQQQQQQQR8JhgJJJYUUTTTTTG9UTTTTTTTTTTTTDnQQQQQQQQQQQQQQ6",
"//////////////////////ohFJJ0J3RQQQQQQQQQQQQQQQQQW8JB9JJJHYTTTTTTG3YYTUTTTTTTTTTPwWQQQQQQQQQQQQQr",
"///////////////////////XSJJ8J8QQQQQQQQQQQQQQQQQQQfBH4JJJJHUTTTTTU:JJYUTTTTTTTTTT5QQQQQQQQQQQQQRr",
"/////////////////////// :FJ:S9QQQQQQQQQQQQQQQQQQQmhH:JJJJHYYTTTTY9FJJYTTTTTTTTTT,QQQQQQQQQQQQQI@",
"////////////////////////XhH3SwQQQQQQQQQQQQQQQQQQQLzJ;JJJJJJHYTTYPbpJJHYTTTTTTTTTaLQQQQQQQQQQQQL.",
"/////////////////////////Xb9x9QQQQQQQQQQQQQQQQQQQLhJ4JJJJJJJJHHJJJ:JJJJHJYTTTTTTDwQQQQQQQQQQQQ6o",
"///////////////////////// +3gwQQQQQQQQQQQQQQQQQQQKzb9JJJJJJJJJJJJJ8BJJJJJHYTTYPTT5RQQQQQQQQQQE$/",
"//////////////////////////o%35QQQQQQQQQQQQQQQQQQQkczzJJJJJJJJJJJJJhpJJJJJJJJJYYHH9VQQQQQQQQQQm@/",
"///////////////////////////o$#WWQQQQQQQQQQQQQQQQQwS9bJJJJJJJJJJJJJJ4SJJJJJJJJJJJJB4RQQQQQQQQQ$./",
"////////////////////////////.OLQQQQQQQQQQQQQQQQQW4J:JJJJJJJJJJJJJJJh3BSJJJJJJJJJJJznQQQQQQQQn //",
"//////////////////////////// XfWQQQQQQQQQQQQQQQQKigpJJJJJJJJJJJJJJc- Xq4pBJJJJJJJJF9VWQQQQQm%///",
"/////////////////////////////o+IQQQQQQQQQQQQQQQQsg,JJJJJJJJJJJJSp$ //////%oO=0lp0pp0O1LQQI6X////",
"//////////////////////////////.nQQQQQQQQQQQQQQWE:,zJJJJJJJSBbh-+. /////////// .       @+$2 /////",
"//////////////////////////////o&IQQQQQQQQQQQQQQe#9JHJJBg04qX.o//////////////////////////////////",
"/////////////////////////////// eQQQQQQQQQQQQQMoo%%%%%o/////////////////////////////////////////",
"//////////////////////////////// nQQQQQQQQQQQK$o////////////////////////////////////////////////",
"/////////////////////////////////.fQQQQQQQQQC+ /////////////////////////////////////////////////",
"////////////////////////////////// 2MRQWQQC6@///////////////////////////////////////////////////",
"///////////////////////////////////. $,rr$@.////////////////////////////////////////////////////",
"///////////////////////////////////////t*///////////////////////////////////////////////////////"
};

