/* XPM */
static char *bxBuch32[] = {
/* columns rows colors chars-per-pixel */
"32 32 85 1",
"  c #000000",
". c #0f140c",
"X c #08340c",
"o c #201a21",
"O c #2d2d0c",
"+ c #293b4e",
"@ c #124c13",
"# c #0a7407",
"$ c #2e5728",
"% c #2e730f",
"& c #344d68",
"* c #513208",
"= c #661202",
"- c #673002",
"; c #4e374f",
": c #515611",
"> c #6c550a",
", c #6f6e12",
"< c #757726",
"1 c #595964",
"2 c #5b6887",
"3 c #0e8810",
"4 c #0f9726",
"5 c #0db12f",
"6 c #308c16",
"7 c #279636",
"8 c #32a21c",
"9 c #2cbc24",
"0 c #13b150",
"q c #1eb164",
"w c #26b172",
"e c #38c122",
"r c #499213",
"t c #5ba126",
"y c #72b113",
"u c #6ca049",
"i c #54c81d",
"p c #43c521",
"a c #6dd019",
"s c #35b18e",
"d c #3eb2a0",
"f c #558ea6",
"g c #49afb2",
"h c #5d98cc",
"j c #58b0ce",
"k c #61b0dd",
"l c #67a6e7",
"z c #66b1e8",
"x c #6db1f4",
"c c #a12b2a",
"v c #835500",
"b c #976405",
"n c #987328",
"m c #a1555c",
"M c #cb110e",
"N c #e80101",
"B c #fe0000",
"V c #c64526",
"C c #c67943",
"Z c #885188",
"A c #9baa1d",
"S c #82ae52",
"D c #89b06e",
"F c #aca754",
"G c #adb86a",
"H c #8fd812",
"J c #9ae011",
"K c #adcb08",
"L c #b5c334",
"P c #afe50e",
"I c #b8c56a",
"U c #c5a95e",
"Y c #cacd07",
"T c #d1ef08",
"R c #edf802",
"E c #d6d577",
"W c #98a38a",
"Q c #a3aa94",
"! c #b0b1b0",
"~ c #c3c3af",
"^ c #e9e781",
"/ c #fefe8b",
"( c #c1c1c2",
") c #f3f2f3",
"_ c None",
/* pixels */
"________________________________",
"________________________________",
"________________________________",
"___________________________.o& _",
" >O __________________ o+2hlxx$_",
"ORRRKA:O ________.o+2hlxxxzxxxu;",
"=RRRRRRRTK,*..+2flxxlxxzxzzkzl<Z",
"=TRRRLALRRRRAhxxxxlx2mzhzzkkkk<Z",
"=TTTTGQQFRRRYllzzzkhMB2*jjjjjjtZ",
"=YTTA!!(~TTTYkkkkkkcBBB-jjjjjjn1",
"=PPTA)W!QLTTKjkkjk2BBBBNfgjgjg<1",
"=PPJ!!mc)FYTKjjjjgMBBBBBNfggghn1",
"-JJPG!cM(LPPJjjjj;BBBBBBBMsgdd<1",
"-HJJA)mm!QPPKggg2NBBBBBNMc1gdd,1",
"-HtHu(!Q)AJJHggdMBNMVCG^/Idsdd,1",
"-HryHD(!!uJJydg&nUE//////Gssss,;",
"-ay%HSQQGarHydddD^FnE////Gswss:;",
"-ai#yauuua%HydssD>v>E////Gssww<$",
"-ii33a%aa%6aysssW>vvE^FFFGwwwq,;",
">ii63r%i8#ratwswD>vvEFvvnGqqqq,$",
"-pp8##%p##iitwwwD:>n^GvvAGq0q0>$",
">9ee##%63#ii8wwwD////Fvv<G0000>$",
">99e#3X#36pp8qq0D////FvvnG0000:$",
">5994#X##9996q00u////FvvnG0550>@",
">5959#X339994000D////Fvv<u0555>@",
">555554359998000u//^Gu%4404r,bb@",
"rYAr355555554500uu7444%,>bbv::@O",
" .OO,,,6345545555#$:*-OO.. .____",
"________o .@X@X...._____________",
"________________________________",
"________________________________",
"________________________________"
};

