/* XPM */
static char *bxBuch56[] = {
/* columns rows colors chars-per-pixel */
"96 96 86 1",
"  c #000000",
". c #141612",
"X c #102a0e",
"o c #240f0d",
"O c #2f2f11",
"+ c #2d2a30",
"@ c #293948",
"# c #0b5208",
"$ c #0c6c0c",
"% c #2c6b0f",
"& c #236314",
"* c #2b7330",
"= c #385a60",
"- c #357950",
"; c #4c1202",
": c #4f3304",
"> c #643e03",
", c #682622",
"< c #462a46",
"1 c #504b09",
"2 c #5b6924",
"3 c #6f4b05",
"4 c #73730c",
"5 c #535d5d",
"6 c #6e6b70",
"7 c #517496",
"8 c #048405",
"9 c #0d8f2c",
"0 c #0db32e",
"q c #338b20",
"w c #29bc25",
"e c #12b14f",
"r c #1db163",
"t c #26885e",
"y c #26b273",
"u c #38c122",
"i c #60991f",
"p c #708b47",
"a c #55ca1d",
"s c #44c620",
"d c #6ed118",
"f c #3c9f94",
"g c #35b18f",
"h c #448e94",
"j c #4e8eac",
"k c #49b1b3",
"l c #5e95cd",
"z c #58b0ce",
"x c #61b1dd",
"c c #6badf0",
"v c #66b1e8",
"b c #6db1f5",
"n c #a11e19",
"m c #845600",
"M c #964a03",
"N c #916311",
"B c #b06e02",
"V c #8e7071",
"C c #d20504",
"Z c #e80100",
"A c #fe0000",
"S c #d97802",
"D c #a065a3",
"F c #919b1c",
"G c #b08f02",
"H c #b0ae06",
"J c #a1a15f",
"K c #8ed913",
"L c #a5db0e",
"P c #afe60e",
"I c #d69f35",
"U c #d0d106",
"Y c #d0f008",
"T c #ecf702",
"R c #d6d578",
"E c #e2e17d",
"W c #929390",
"Q c #a1a69a",
"! c #adadac",
"~ c #dcdc82",
"^ c #e9e984",
"/ c #fdfd8b",
"( c #d4d4d5",
") c #e0dfe1",
"_ c #f6f6f6",
"` c None",
/* pixels */
"````````````````````````````````````````````````````````````````````````````````````````````````",
"````````````````````````````````````````````````````````````````````````````````````````````````",
"````````````````````````````````````````````````````````````````````````````````````````````````",
"````````````````````````````````````````````````````````````````````````````````````````````````",
"````````````````````````````````````````````````````````````````````````````````````````````````",
"````````````````````````````````````````````````````````````````````````````````````````````````",
"````````````````````````````````````````````````````````````````````````````````````````````````",
"````````````````````````````````````````````````````````````````````````````````````````````````",
"````````````````````````````````````````````````````````````````````````````````````````````````",
"````````````````````````````````````````````````````````````````````````````````````````````````",
"````````````````````````````````````````````````````````````````````````````````````````````````",
"````````````````````````````````````````````````````````````````````````````````````````````````",
"````````````````````````````````````````````````````````````````````````````````````````````````",
"````````````````````````````````````````````````````````````````````````````````````````````````",
"````````````````````````````````````````````````````````````````````````````````````````````````",
"````````````````````````````````````````````````````````````````````````````````````````````````",
"````````````````````````````````````````````````````````````````````````````````````````````````",
"````````````````````````````````````````````````````````````````````````````````````````````````",
"````````````````````````````````````````````````````````````````````````````````````````````````",
"````````````````````````````````````````````````````````````````````````````````````````````````",
"````````````````````````````````````````````````````````````````````````````````````````````````",
"````````````````````````````````````````````````````````````````````````````````````````````````",
"````````````````````````````````````````````````````````````````````````````````````````````````",
"````````````````````````````````````````````````````````````````````````````````````````````````",
"````````````````````````````````````````````````````````````````````````````````````````````````",
"``````````````````````````````````````````````````````````````````````   ```````````````````````",
"```````````````````````````````````````````````````````````````````..@=7=```````````````````````",
"````````````````````` ..``````````````````````````````````````..@=7lbbccl.``````````````````````",
"`````````````````````OUUF3O. ````````````````````````````..@=7lxbbbbbbbblG `````````````````````",
"````````````````````o3TTTTTUHi1O.o``````````````````..@=7llccbbbbbbbbcccjH5o````````````````````",
"````````````````````;MTTTTTTTTTTUF2:O.`````````..+=7jlcbcbbbccbbbbvvvvvvjHD<````````````````````",
"````````````````````;MTTTTTTTTTTTTTTUHN2+. .+@=jlcccbbbbccbcccvvvvxvvxvxlID<````````````````````",
"````````````````````;nTYTTTTTTUYHTTTTTTTTH.7vbbbcbbbcccb5lvccvvvvxvxxxxxjHD<````````````````````",
"````````````````````;MYTTYYTTFJH!HTTTTTTTT2bbbbbbbccccv7Cnlcl7zxxxxxxxzxjHD<````````````````````",
"````````````````````;MUYYYYTTJ)5)H2HTTTTTTpcccccvccvcxxnZAnc@:zxxzzxzzzzjFD+````````````````````",
"````````````````````;MYYYYYYF2)W_5)JTTTTYTFvvvvvvxvxxc=ZAAA,2>zzxzzxzzzzhHD<````````````````````",
"````````````````````;MPYPYYLQ!!Q_W_FYYYTTTicxvxvxxxxxjCAAAAA,>jxzzzzzzzkhHD+````````````````````",
"````````````````````;MPYYUYPJ_!h_Q_FYYYYYYFcxxxxxxxxl,AAAAAAA;kzkzzkzkzzhGD+````````````````````",
"````````````````````;MYPPPPY2__6_WW!pYYYYYFxxxxxzzzz5ZAAAAAAAZ6zzzzkkkzkhGD+````````````````````",
"````````````````````;NPPPPLpW!_,n<__JPYYYYpxzzzzzzzjnAAAAAAAAAC5kkkkkkkkhGD+````````````````````",
"````````````````````;mPPPPK(_!VCZV__pYYPYY2zzzzzzzz,AAAAAAAAAAAC7kkkkkkkhGD+````````````````````",
"````````````````````;NLLKPPJ_(5CZn_QHPYPPPizzzzzzz=CAAAAAAAAAAAAChkkkkkkhG6+````````````````````",
"````````````````````:mLLPPLK5!(nAn6)QLLPPYizkkzkkfnAAAAAAAAAAAAAAnhkkkgktGV+````````````````````",
"````````````````````;NKKKLKKJ__nCDW)(KLPPPizzkkzk<AAAAAAAAAAAAZCn,-kgkgghG6+````````````````````",
"````````````````````:mKKKLKd(_(5D(_VpKPPLLijkkkk=CAAAAAAAZCnnNJRRhggggggfG7+````````````````````",
"````````````````````:mKK%KKFW!Q!(p_(dPKPLKpkkkkfnZAAAZCnNJR^////RtkgkgggtG6+````````````````````",
"````````````````````;mKK%iKKdp)!)7(_iLLKKPikkkk,CCnNJJE/////////RtggggggtB6O````````````````````",
"````````````````````:4ddi%Kddp)!)!W!pKKKKKikkkg==~//////////////~tggggggtG5+````````````````````",
"````````````````````:mddi#idKp)W)Q(idK2dKKikgkgk-////~J~////////E-gggggytB6+````````````````````",
"````````````````````:4dda#%ddiiJ(2(iKdXKdKqkkgkg-^J2133J////////EtggygygyS5X````````````````````",
"````````````````````:4ddd$$addd2Wi5dK%#KKKqgggkg-~,mmmNJ////////~tygyyyytG5+````````````````````",
"````````````````````:mdad%$&ddd%idddd#%dddpggggg-~>mmmmJ//////^/^tyyyyyytB5X````````````````````",
"````````````````````:4aaai$$udd%iddd$$qdddqfgggg-~13mmmJ//RJ43:~~-yyyyrrtB-.````````````````````",
"````````````````````:4aaas$8#aa&aadq$$idddqgyggy-~,NmmNJER:3mN:RE-yyrrryeB5+````````````````````",
"````````````````````:masaa$8#qd&aaa#8$adddqyygyy-~>NmNmJ/R3mmm>R~9rrrrrrtB-.````````````````````",
"````````````````````:4ssss%88&a%ia#$$%aadaqyygyy-~>3m33J/R3mmm>~~trrrrrr9B*.````````````````````",
"````````````````````:iusssq$8$q&uq$8$qaaaaqyyyyytE2NJJE//R3mmm>R~9rrrere-B*.````````````````````",
"````````````````````:4uuuuu#88%&q#88#saaaa*yyyyyqE///////R3mm3>RRteeeeee9B*X````````````````````",
"````````````````````:Nuuuuu$88##$$88$ssssa%ryyrr-////////R>mmm>R~9eeeeee9N*.````````````````````",
"````````````````````:iwwwwuq$8$X#88$qsssssqryrrr-////////R>3mm>~~*eeeeee9B*X````````````````````",
"````````````````````:iwwwwww#88 #88$uuuuus*rrrrr-///////ER3mmm1RR*eeee0e9B&.````````````````````",
"````````````````````:i0ww0ww8$8X$88$wuuuuu%reree-////////R3mmm:RE9e00ee09B$X````````````````````",
"````````````````````1iw00ww0w#8 $8#wwwwwwu8eeere*^///////R3mmm>RR900e000$B&X````````````````````",
"````````````````````140000w009#X#$$wwwwwww9eeeee9///////ER3mm3:p*9e00009%S$.````````````````````",
"````````````````````140000000w09$9w0wwwwww$eeeee*//////^RJO#$9900009%24BSS#X````````````````````",
"````````````````````1H$99000000w00w00000009ee0e09^^~JJqq9900e09$%2NBSSSSB18X````````````````````",
"````````````````````OYTUHiq8800000000w0000$eee0e*p*990e0099%2mBSSSM31%####X.````````````````````",
"```````````````````` O13FHHUHiq88000000w00$00000000099&2NMBM31:X#XXXO  .````````````````````````",
"``````````````````````````..o214F2%&990000$eee009$&::>>,...  X.`````````````````````````````````",
"``````````````````````````````````.O .X#*9X$$#X.+o...```````````````````````````````````````````",
"``````````````````````````````````````` .  ..  `````````````````````````````````````````````````",
"````````````````````````````````````````````````````````````````````````````````````````````````",
"````````````````````````````````````````````````````````````````````````````````````````````````",
"````````````````````````````````````````````````````````````````````````````````````````````````",
"````````````````````````````````````````````````````````````````````````````````````````````````",
"````````````````````````````````````````````````````````````````````````````````````````````````",
"````````````````````````````````````````````````````````````````````````````````````````````````",
"````````````````````````````````````````````````````````````````````````````````````````````````",
"````````````````````````````````````````````````````````````````````````````````````````````````",
"````````````````````````````````````````````````````````````````````````````````````````````````",
"````````````````````````````````````````````````````````````````````````````````````````````````",
"````````````````````````````````````````````````````````````````````````````````````````````````",
"````````````````````````````````````````````````````````````````````````````````````````````````",
"````````````````````````````````````````````````````````````````````````````````````````````````",
"````````````````````````````````````````````````````````````````````````````````````````````````",
"````````````````````````````````````````````````````````````````````````````````````````````````",
"````````````````````````````````````````````````````````````````````````````````````````````````",
"````````````````````````````````````````````````````````````````````````````````````````````````",
"````````````````````````````````````````````````````````````````````````````````````````````````",
"````````````````````````````````````````````````````````````````````````````````````````````````",
"````````````````````````````````````````````````````````````````````````````````````````````````",
"````````````````````````````````````````````````````````````````````````````````````````````````",
"````````````````````````````````````````````````````````````````````````````````````````````````",
"````````````````````````````````````````````````````````````````````````````````````````````````",
"````````````````````````````````````````````````````````````````````````````````````````````````",
"````````````````````````````````````````````````````````````````````````````````````````````````"
};

