/* XPM */
static char *bxBuch96[] = {
/* columns rows colors chars-per-pixel */
"96 96 84 1",
"  c #000000",
". c #11150e",
"X c #0e3108",
"o c #2a2616",
"O c #2d2f2d",
"+ c #2d3947",
"@ c #0c5009",
"# c #09710b",
"$ c #245e1f",
"% c #2a5031",
"& c #2f6b0f",
"* c #325860",
"= c #4f3408",
"- c #55241f",
"; c #6d1105",
": c #6b3305",
"> c #574e0b",
", c #5e691d",
"< c #704c02",
"1 c #525756",
"2 c #737948",
"3 c #717071",
"4 c #517294",
"5 c #038504",
"6 c #06922a",
"7 c #0cb32e",
"8 c #348e23",
"9 c #28bb25",
"0 c #1c965f",
"q c #12b24f",
"w c #1eb263",
"e c #26b273",
"r c #38c123",
"t c #5ba614",
"y c #6d8255",
"u c #56cb1e",
"i c #46c820",
"p c #6fd118",
"a c #3aa295",
"s c #35b28f",
"d c #4e92ae",
"f c #49b1b2",
"g c #5c99d2",
"h c #55b1c8",
"j c #5db2d6",
"k c #61b1de",
"l c #6eaff4",
"z c #66b2e8",
"x c #6db2f4",
"c c #a00b09",
"v c #845600",
"b c #915002",
"n c #ad6109",
"m c #8c7b5f",
"M c #ce0602",
"N c #ca2f02",
"B c #e80101",
"V c #fe0000",
"C c #cc7402",
"Z c #d56302",
"A c #a16da1",
"S c #99a10b",
"D c #9d9b5d",
"F c #8dda13",
"G c #a2dc0e",
"H c #afe60e",
"J c #ca9202",
"K c #dca002",
"L c #c1bb6d",
"P c #cecc02",
"I c #d0ef08",
"U c #eef802",
"Y c #d7d679",
"T c #e2e37d",
"R c #a19ea0",
"E c #bebfc1",
"W c #d889d8",
"Q c #dbdb85",
"! c #fcfd8c",
"~ c #cfcfd0",
"^ c #dfdee0",
"/ c #e8e7e8",
"( c #FCFCFC",
") c None",
/* pixels */
"))))))))))))))))))))))))))))))))))))))))))))))))))))))))))))))))))))))))))))))))))))))))))))))))",
"))))))))))))))))))))))))))))))))))))))))))))))))))))))))))))))))))))))))))))))))))))))))))))))))",
"))))))))))))))))))))))))))))))))))))))))))))))))))))))))))))))))))))))))))))))))))))))))))))))))",
"))))))))))))))))))))))))))))))))))))))))))))))))))))))))))))))))))))))))))))))))))))))))))))))))",
"))))))))))))))))))))))))))))))))))))))))))))))))))))))))))))))))))))))))))))))))))))))))))))))))",
"))))))))))))))))))))))))))))))))))))))))))))))))))))))))))))))))))))))))))))))))))))))))))))))))",
"))))))))))))))))))))))))))))))))))))))))))))))))))))))))))))))))))))))))))))))))))))))))))))))))",
"))))))))))))))))))))))))))))))))))))))))))))))))))))))))))))))))))))))))))))))))))))))))))))))))",
"))))))))))))))))))))))))))))))))))))))))))))))))))))))))))))))))))))))))))))))))))))))))))))))))",
"))))))))))))))))))))))))))))))))))))))))))))))))))))))))))))))))))))))))))))))))))))))))))))))))",
"))))))))))))))))))))))))))))))))))))))))))))))))))))))))))))))))))))))))))))))))))))  .*OO.)))))",
"))))))))))))))))))))))))))))))))))))))))))))))))))))))))))))))))))))))))))))))))).oO*44glg+)))))",
")))))))))))))))))))))))))))))))))))))))))))))))))))))))))))))))))))))))))))..o+*44glllxxll4 ))))",
")).o1-.. )))))))))))))))))))))))))))))))))))))))))))))))))))))))))))))..O++44ggllxxlllxxll4%o)))",
")).PUPSS,ooo))))))))))))))))))))))))))))))))))))))))))))))))))))))oOO+*4ggglxxxxxxlxlxxxlx*S,)))",
")o.UUUUUUUPS2,>oo))))))))))))))))))))))))))))))))))))))))))))oo+4*4dglllllllxxxxxxxxxllxzl*P<o.)",
" ;;IUUUUUUUUUUPPS,,-...))))))))))))))))))))))))))))))))...++*44gzlllllxxxxxxxxxxxzxxlzlzll*P>W+ ",
" M;IUUUUUUUUUUUUUUPPSS,OO.))))))))))))))))))))))))))OO+*44ggllllxxllxlxxxxxxxxzxzxzzzzzzzl*P>WA.",
" M;UUUUUUUUUUUUUUUUUUUUPPSn2oOo))))))))))))))).OO1144gzxllllllllllllxxxlxxxxxzzzzzzzzzzkzz4P>WW ",
" M;IUUUUUUUUUUUUUUUUUUUUUUIUPSS,,O... )) o.o1**4dgxllllxllllllllxxlxxxzzzzzzzzzzzzzkzzzzkz1P,WA ",
" M;IUUUIUUUUUUUUUUUUUUUUUUUUUUUUPPSm>o).+*4ggklxlllxxxxxxxxxxlzzxxzzxzxzzzzzzzzzzkzkzkkkkk*P<WW ",
" M;IUIIUIUUIIUUUUPUUISUUUUUUUUUUUUUUUS.+gxllxxllllxlxxxxxxzxxz+1zxzzzzzzzzkzkzkzkzkkkkkkkk*P,WW ",
" M;IIUUIIUUUUUUIS3SP2mSUUUUUUUUUUUUUUPo4xxllxxxxllllxxzlzxxzx4cM4gzzzzzzzkzkkkkkkkkkkjjjkz*P<WA ",
" N;IIIUIUIIIUIUI2~,Sm^2UUUUUUUUUUUUUUU,xxlllxxxxlllzxxzzzzzzg-BVM1kzkd*+gkkkkkkkkjkjkjjjjz*P,WA ",
" M;HIIIIIUIIIUIP2/R=R/yPS<PUUUUUUUUUUU,jxxzxzxxxzxzzzzzzzzzz+MVVVM4jz.:ogjkjjjjjjjjjjjjjjj*P>WA.",
" N;IIIIUIIUIIIII2//1E(Dt1R,UUIIUUUUUUU<gxxxzxzzzzzzzzzzzzzl4;VVVVVcdzov=dkjjjjjjjjhjjhjhhj*P,WA ",
" N;HIIIIIIIIIISS,~(RE(Ro~^2UUUIUUIUUUUSgxzzzzzzzzzkzzkzzkzdOBVVVVVV;do<ofjjjjjjhhjjjhjhhhh*P>WA ",
" N;PHIIIIIIIIS23%E(3~(R3(^2UIIUUUUUIUU,gzzzzkzzkkzzzkkkkjj*cVVVVVVVVcov=djjhjhjhhhhhhhhhhj*K>WA ",
" N;HIIIHIHIIItR(E3^RE(ER(^2UIUUIIIIUIU,fzzkzzzzzkzkkkkkkz4;VVVVVVVVVB;:=ghjhhhhjhhhhhhfhhf*P>WA ",
" N;HIHIIIIIIItR((R3AE(RR(~tIIIIIUUIIIU,gzzkkjkjkkjkjkjjjhOBVVVVVVVVVVB;.dhhhhhhhhhhfhhhhhh*P>WA ",
" N;HHIHHHHIHPG1(((31E(ER(R,SPIIIIIUIIUvfkkkkkjkjjkjjjjjg*cVVVVVVVVVVVVB;dhhhhfhfhhhhfhfhhf*P>WA ",
" N;HHHIHHIHIIH,~((^OE(RRR3Ry,IIIIIIIIU,hkkjkkjjkjjjjjjj4-VVVVVVVVVVVVVBM*fhhhhhhhfhfhhffff*P>AA ",
".N;GHHHHHIHHIG,3/((31RR14(((,PIIIIIIIItdjjjjjjjjjjjjjjhOMVVVVVVVVVVVVVVVM1hhhhffhfhfhhfffh*P>AA ",
" N;GHHHHHHHH,3R1E(/1cc.3(((/1GHIIIIIII,gjjjjjjhjjhhhhh*cVVVVVVVVVVVVVVVVVc*hfhfhfhfhffffff*P>WA ",
" N:GHHHHHHHSD/(~3~EcVVcR(((~,HIIHIIIII,djjjjhjhjhjhhhd;BVVVVVVVVVVVVVVVVVVc*ffffffffffffff*J>WA ",
".N:GHHHHHHItR(((E11MVVMR(((3tIHIIHHIII,fjhhhhhhhhhhhh+MVVVVVVVVVVVVVVVVVVVVcaffffffffffffs*P>R3 ",
" N:FFHHHHHHGm/((~3.BVVM-((~>HHIHHIIHHI,fhhhhhhhhhhhf*cVVVVVVVVVVVVVVVVVVVVVVbdffffffffffff*J>A3 ",
" Z;FHHFHHGGHtD^~3E3MVVB1(E3DSHHHHHHHIH,dhhhhhhhfhhhd-MVVVVVVVVVVVVVVVVVVVVVVB-afffsffffafs*P<RA ",
" Z:GHFHHHHGGGp11~(RcVVB-md^(DGHHHIHIHItdfhhhhfhhfhf+MVVVVVVVVVVVVVVVVVVVVVVVVB-dfssfffafff*P>RA ",
" N:FFFFFFFGGGF>~((~;BVM11R((~tHHHHHHHH,dhhfhfhhffh0cBVVVVVVVVVVVVVVVVVVVVVVVVVM+ffffssfssa*K>A3 ",
" Z:pGFGFFGFGGty((((2cM-E~3~(E,HHHHHHHH,dffhffhfhha-BVVVVVVVVVVVVVVVVVVBVBBMcc-10asfssfssff*K>R3 ",
" N;FFGFFGFGFGtE(((/-3-A((R3~2tGGHHHHHHtafffhhffff+cVVVVVVVVVVVVVVVVVVBcc:<DDL%sssfsffssfss%P>A3 ",
" Z=FFFFppGGFF,^(((11/R3(((A$pGGGGGGGHH,afhffffff*;VVVVVVVVVVVVVBMcc:,2DY!!!!Q%sfsssfsffsss*J>R3 ",
" Z;FFFG&tFFFF,R/~3R4(^%~((/>GGGGGGHGHH,afffffffa-BVVVVVVVVBMMc-bmDLT!!!!!!!!Q%ffffsssssass+P=R3 ",
" N:pFFF&=pFFFt,1OR~R(^OR(((3pGHFFHHFHH,affffffh*cVVVVVVc;c:2DLY!!!!!!!!!!!!!Q%fssssfssssss*P>R3 ",
" Z:FpFFt.pFFFFFF2^~3(^33R((EtFFGFFFHFF,affffsf*;VMMc::2DYY!!!!!!!!!!!!!!!!!!Q%ssssssssssss%J<43 ",
" Z:ppFptX8FpFFFpy/~3(^3^3E(~,GFGHGFFFFtaffaffaO---DDYT!Q!!!!!!!!!!!!!!!!!!!!Q%sssssssssess*K>R1 ",
" n:pFpFt@otFFpppy(~3(^R/E133tFFGpFFHHF&afffsfs*a02!!!!!!!!!!!!!!!!!!!!!!!!!!Q%ssssssssssss%S>m1 ",
" Z:ppppp@@tppFpt2/E4(/3/(3&tFFFt&FFFFG>affsfffffa2!!!!!!!!!QQ!!!!!!!!!!!!T!!Y%ssesssssesse%K:D3 ",
" C:ppppp&#XpFppF2~31(/1~(RtGpFp>&pFFFG&assfsssssa2!!!!QYD22:D!!!!!!!!!!!!!!!Q%sssseseesses%J<d1 ",
" C:ppppp&#@&pFpFt,,2/~Oy(RtFFFpX&FFFFF,efssfsffsa2!QD2>=:<<<2!!!!!!!!!!!!!!!T%seseessesese%J>33 ",
" C:pppppt@#Xppppppp8~E,&EDtFpF&@&FFpFF&afsfssssa02Q,=<<b<vv<2!!!!!!!!!!!!!!!T%ssseeseseeee*J=D1 ",
" C:pppppt@5@&pppppptE4tp%,pFptX@tFFpFF&asfssssssa2!,>bvvvvb<2!!!!!!!!!!!!!!!Q%seeseeeeeses*S>y1 ",
" C:upuupp@55opppppp8+,pppuppp&#@tppFpF&sssssssss*2!1<vvvvvv<,!!!!!!!!!!!!!!!Q%seeeeeeeeeee$J=y3 ",
" C:tupuup&#5@&puppp&.ppupppp,X5@pppppp>esssssssas2!,<vvvvvv<2!!!!!!T!!!YYL!!T%seeeeseeeeee%J>y1 ",
" J<iuuupu8@55Xupppp&oppppppt@##&pppFpp$assssssse02!1<bvvvvb<2!!!!!TLDD2>==Y!Y%eeeeeeeeweee$J>yy ",
" C<iuuuupi@55@&upup&Xpppppu&@5#8pppppp&esessesss02!1<vvbvvv<2!!!Y,->=:<vv>Y!Q%eeeeeweewewe%J>y$.",
" J:tuuuuuu@#55Xuupu&XpupuutX5#@tpppppp&0ssssesse02!,<vvvvvb<2!!!Y=<vvvvvvoT!Q%eeewewwwwwww%S=y1 ",
" J<riuuuuu&#55@&uup&Xpuupt@#55Xtpppppp&eesesssesa2!1<bvvvvv<2!!!Y=vvvvvvv=Q!Q%ewwwwewwwwww%J=y* ",
" J<tiiiuiu8@555@ruu8Xpupu&@555&utpuppp,0sesseese02!,<vvvvvv<2!!!Y=v<<vvvbOQ!Q%wwwwwwewwwww$J>y$.",
" J:riiiiiut@555@&iu&Xuuu8X555@8upupuup$0seseesee*2!,<vvvvvv:2!!!Y=<vvvvvv=Q!Q$wwwwwwwwqwqw%C:01 ",
" J<rriiiiir##555@ru&Xuui@#555@tuuuupup&eeeeeeeee03!1<<<<::>,D!!!Y=vvvvvvv>Q!Q%wwwqwwqwqwww%S=y8 ",
" J<iiiiiiii&@555@&u&.uu8@555#Xuuuuuuuu$0seeeeeee02!2=o>DDLY!!!!!Yovvvvvvv=Q!Q%wwwqwqwqwqqq%J:8%.",
" J<rrrrrrrr8@555#@i&Xu8X5555@$iuuuuuup&0eeeeeeee02!YQ!!!!!!!!!!!Y=vvvv<vv=Q!Q$qwqwwqqwqqqq$J=y$ ",
" J<9rrrrrrri@#555@8#.i&@5555@8uuuuuuiu&0eeweweee0m!!!!!!!!!!!!!!Y=vvv<bvv>Q!Q%wqqwqqqqqqqq@J-0%.",
" J<rrrrrrrrr#@555#@&Xi@#555#@iiiiiiuuu&0eeeweeww02!!!!!!!!!!!!!!Y=vvvvvvvOQ!T$wqqqqqqqqqqq$J=8$ ",
" J,999rrrrrr8@#555@&.#@5555@&iiiiiiiii&0wewewwww6,!!!!!!!!!!!!!!L=vv<vvvv=T!Y$qqqqqqqqqqqq@n=y$.",
" K<999999r999@#55#@XX@#5555Xrriiiiiiii@0wwwwwwww0m!!!!!!!!!!!T!!Yovvvvvvv=Y!T%qqqqqqqq7q6q%J=8$ ",
" J<999999999r#@555#. @5555#@rrririiiri&0wwwwwwww6D!!!!!!!!!!!!!!Y=vvvvvvb>Q!Q$qqq77qqqqqqq@C:8$ ",
" P<799999999r9X#55#  #555#@8rrrrrrrrrr&0wwwwwqqw62!!!!!!!!!!!!!!Y=vvvvvvvOQ!Q$7qqqqqq77q7q$C=8$ ",
" K<97999999999#@55#X #555#X9rrrrrrrrri@qwwwwqwqw02!!!!!!!!!!!!!!Yovvvvvvv=Q!Q$7q7q777q77q7$J>8$ ",
" P<799979979977X555X.5555@&99r9rrrrrrr$0wqqqwqqq62!!!!!!!!!!!!!!Y=vvvvvvv=T!Q$qqq7qq7q7qq7@C:6$ ",
" K>797999999997#@55X.555#@99999999rrrr@qqqqqqqqq02!!!!!!!!!!!!!!L=<<vvvvvoQ!Q%77q777777777$Z:8@ ",
" P<9777777779797X##  #55@#999999999999$6qqqqqqqq62!!!!!!!!!!!!!!Y=vvvvvvv>T!L%7q77qq7q7777>Z:6& ",
" J<77977779779795XXX #5@@979999999999r50qqqqqqqq6y!!!!!!!!!!!!!!Y=vv<vvvbo2$$#777777q7777#<K=8# ",
" P,7777779777979776#X@@@79997999999999#qqqqqqqqq62!!!!!!!!!!!!!!Y=v::>oX@6677q7qq777666$$=ZK:## ",
" P<77777777777777977755779999979997979@0qqqq7qqq6D!!!!!!!!!!QTQL,.X$$6677777777766$@><bZZZKK=5& ",
" PS@77777777777777797999977779799799r7@6qq7qqq7q62!!!!!!!YLDy%%#6677777q77q76#%>><nCZKKKKKZnX5# ",
".PU<&&##577777777777777777977979799779@q7qq77q7q62!QQYD2%$#66777777q7766#$o<<ZZKZKKKJZCCnb=@##X.",
" SUUUPSSt&##57777777777777777777977977@6qq7qq7q761m,$$66777q7777766#$@><bnKZCKZCZbb:>o@@@@@##@O)",
")>SPUUUUUPPS>&$#5677777777777777777977#6qqq77q7qq#67q7777777766#@=<bCZZKCnnv><o@o@@@X@@$O  ...))",
"))oOoo>nSPSPIUPSS&&#667777777777777777@777777q77q777777666#$><bZCCCnb:=ooXXXXO@.XoOO))))))))))))",
")))))).....O,<>SSSJSS,&&##777777777777#6q77q777777766#$&>bbbbb:=-oo..XO%o  ...))))))))))))))))))",
")))))))))))))))OooX>ySv,>&o@#557777777X677777766##>oo:::;o-O+   .o.)))))))))))))))))))))))))))))",
"))))))))))))))))))))))))O-%o..oX@@6766o#676#@@XoOO-oOoOO))))))))))))))))))))))))))))))))))))))))",
")))))))))))))))))))))))))))))... O+O@@O.OX.o+O ... )))))))))))))))))))))))))))))))))))))))))))))",
"))))))))))))))))))))))))))))))))))))))))oO))))))))))))))))))))))))))))))))))))))))))))))))))))))",
"))))))))))))))))))))))))))))))))))))))))))))))))))))))))))))))))))))))))))))))))))))))))))))))))",
"))))))))))))))))))))))))))))))))))))))))))))))))))))))))))))))))))))))))))))))))))))))))))))))))",
"))))))))))))))))))))))))))))))))))))))))))))))))))))))))))))))))))))))))))))))))))))))))))))))))",
"))))))))))))))))))))))))))))))))))))))))))))))))))))))))))))))))))))))))))))))))))))))))))))))))",
"))))))))))))))))))))))))))))))))))))))))))))))))))))))))))))))))))))))))))))))))))))))))))))))))",
"))))))))))))))))))))))))))))))))))))))))))))))))))))))))))))))))))))))))))))))))))))))))))))))))",
"))))))))))))))))))))))))))))))))))))))))))))))))))))))))))))))))))))))))))))))))))))))))))))))))",
"))))))))))))))))))))))))))))))))))))))))))))))))))))))))))))))))))))))))))))))))))))))))))))))))",
"))))))))))))))))))))))))))))))))))))))))))))))))))))))))))))))))))))))))))))))))))))))))))))))))"
};

