/* XPM */
static char *bxKlotz88[] = {
/* columns rows colors chars-per-pixel */
"96 96 84 1",
"  c #000000",
". c #120c0d",
"X c #191403",
"o c #131417",
"O c #181b25",
"+ c #300d0d",
"@ c #322e0c",
"# c #313129",
"$ c #1d0f4c",
"% c #0a1075",
"& c #11197d",
"* c #37376b",
"= c #045e11",
"- c #12560d",
"; c #066415",
": c #0b7514",
"> c #315714",
", c #384545",
"< c #530b0b",
"1 c #522a0a",
"2 c #5a2929",
"3 c #6a0606",
"4 c #6c1217",
"5 c #740101",
"6 c #651631",
"7 c #6e3001",
"8 c #504f0a",
"9 c #4a6607",
"0 c #6b5a01",
"q c #686303",
"w c #776900",
"e c #777600",
"r c #4e634f",
"t c #090b8b",
"y c #0102ae",
"u c #1a29aa",
"i c #293196",
"p c #0a0dc9",
"a c #0000fe",
"s c #0c13fb",
"d c #1926ca",
"f c #1a29fa",
"g c #212ccd",
"h c #2337f2",
"j c #2a40db",
"k c #2940e7",
"l c #2d47ff",
"z c #314dfe",
"x c #08901c",
"c c #07aa1e",
"v c #05b222",
"b c #07c926",
"n c #03d929",
"m c #00e52c",
"M c #870000",
"N c #841208",
"B c #980101",
"V c #8d0125",
"C c #a60001",
"Z c #a21212",
"A c #b40000",
"S c #837703",
"D c #946200",
"F c #c80101",
"G c #d40000",
"H c #e60000",
"J c #fe0000",
"K c #888601",
"L c #9b9200",
"P c #af9400",
"I c #acac06",
"U c #b6aa00",
"Y c #c9b600",
"T c #e2bd00",
"R c #d1c800",
"E c #d5d400",
"W c #e5c500",
"Q c #eddd00",
"! c #fecc00",
"~ c #fed800",
"^ c #e7e700",
"/ c #fee800",
"( c #fefb00",
") c None",
/* pixels */
"))))))))))))))))))))))))))))))))))))))))))))))))))))))))))))))))))))))))))))))))))))))))))))))))",
"))))))))))))))))))))))))))))))))))))))))))))))))))))))))))))))))))))))))))))))))))))))))))))))))",
"))))))))))))))))))))))))))))))))))))))))))))))))))))))))))))))))))))))))))))))))))))))))))))))))",
"))))))))))))))))))))))))))))))))))))))))))))))))))))))))))))))))))))))))))))))))))))))))))))))))",
")))))))))))))))))))))))))))))))))))))))))))))))))))) +X)))))))))))))))))))))))))))))))))))))))))",
"))))))))))))))))))))))))))))))))))))))))))))))))))).4HG+))))))))))))))))))))))))))))))))))))))))",
")))))))))))))))))))))))))))))))))))))))))))))))))).NHJJF+)))))))))))))))))))))))))))))))))))))))",
")))))))))))))))))))))))))))))))))))))))))))))))) .BHJJJJF1.)))))))))))))))))))))))))))))))))))))",
"))))))))))))))))))))))))))))))))))))))))))))))) #AJJJJJJJG2.))))))))))))))))))))))))))))))))))))",
")))))))))))))))))))))))))))))))))))))))))))))) +GJJJJJJJJJH2 )))))))))))))))))))))))))))))))))))",
"))))))))))))))))))))))))))))))))))))))))))))) <GJJJJJJJJJJJG2.))))))))))))))))))))))))))))))))))",
"))))))))))))))))))))))))))))))))))))))))))))o4HJJJJJJJJJJJJJG2.)))))))))))))))))))))))))))))))))",
")))))))))))))))))))))))))))))))))))))))))))O5JJJJJJJJJJJJJJJJG2.))))))))))))))))))))))))))))))))",
"))))))))))))))))))))))))))))))))))))))))) OZCFJJJJJJJJJJJJJJJJG2 )))))))))))))))))))))))))))))))",
")))))))))))))))))))))))))))))))))))))))))+AJJCAJJJJJJJJJJJJJJJJH2 ))))))))))))))))))))))))))))))",
"))))))))))))))))))))))))))))))))))))))))+FJJJJACJJJJJJJJJJJJJJJJH4 )))))))))))))))))))))))))))))",
")))))))))))))))))))))))))))))))))))))))+FJJJJJJACJJJJJJJJJJJJJJJJH4.))))))))))))))))))))))))))))",
"))))))))))))))))))))))))))))))))))))))<FJJJJJJJJFCHJJJJJJJJJJJJJJJG4.)))))))))))))))))))))))))))",
")))))))))))))))))))))))))))))))))))))+GJJJJJJJJJJACJJJJJJJJJJJJJJJJG4 ))))))))))))))))))))))))))",
"))))))))))))))))))))))))))))))))))) +GJJJJJJJJJJJJGBHJJJJJJJJJJJJJJJH6 )))))))))))))))))))))))))",
")))))))))))))))))))))))))))))))))))+GJJJJJJJJJJJJJJGBHJJJJJJJJJJJJJJJH4 ))))))))))))))))))))))))",
"))))))))))))))))))))))))))))))))).<GJJJJJJJJJJJJJJJJHBHJJJJJJJJJJJJJJJJ3.)))))))))))))))))))))))",
")))))))))))))))))))))))))))))))).4HJJJJJJJJJJJJJJJJJJHBGJJJJJJJJJJJJJJJH4X...o..... ))))))))))))",
"))))))))))))))))))))))))))))))).4HJJJJJJJJJJJJJJJJJJJJHBGJJJJJJJJJJJJJJJH4SILIILII9.))))))))))))",
")))))))))))))))))) .  .   . . .4HJJJJJJJJJJJJJJJJJJJJJJHCFJJJJJJJJJJJJJJG7E((((((LKo))))))))))))",
"))))))))))))))))))Ogi*iiii*ii$4JJJJJJJJJJJJJJJJJJJJJJJJJHCFJJJJJJJJJJJJF0R((((((KL/@))))))))))))",
"))))))))))))))))oOuzzzzzzzzzg6JJJJJJJJJJJJJJJJJJJJJJJJJJJJCAJJJJJJJJJJCwW~((((^eI//@))))))))))))",
"))))))))))))))).$jzzzzzzzzzuVHJJJJJJJJJJJJJJJJJJJJJJJJJJJJJACJJJJJJJJML!//(((EeI//~@))))))))))))",
")))))))))))))) &jzzzzzzzzzuVJJJJJJJJJJJJJJJJJJJJJJJJJJJJJJJJAAHJJJJHNP~~/(((ReR//~~@))))))))))))",
"))))))))))))) o%&&&&&&&&&%VJJJJJJJJJJJJJJJJJJJJJJJJJJJJJJJJJJFCJJJH7P!~//((IeE(///~@))))))))))))",
")))))))))))))ohhghhhhjhht3JJJJJJJJJJJJJJJJJJJJJJJJJJJJJJJJJJJJFCJG7Y!~//((Ie^((//~/@))))))))))))",
")))))))))))))ozzzzlzlzzt<CCBCCCCCCCBCCCCCCCBBBBBBBBBBMBBZBBBBMB530W!~//(/Le(((///~~@))))))))))))",
")))))))))))))ozzzzzzzzzkggdddpppppppp%tpppp$.          #KIYUYUYUTW~~//(^KL((((//~~Q@))))))))))))",
")))))))))))))ozzzzlzzzlzzzzlllhffssaayyaaaa*.))))))))))#qewwewewwwweeew8I^((///~~Qq.))))))))))))",
")))))))))))))ozzzzzzzlzzzlzlzllhffssayyaaaa*o))))))))))@U^^^^^^^^^^^^^^eR(((//~/W9#>#,o ))))))))",
")))))))))))))ozzzzzzzzzzzzzzzlzllhffsyyaaaa*o)))))))))).E((((((((((((((KR(////~W9cvvcx. ))))))))",
")))))))))))))ozzzzzzzzzzzzzzzzzllllffyyaaaa*o))))))))))XR((((((((((((((KR////~U>vbbbx:; ))))))))",
")))))))))))))ozzzzzzzzzzzzzzlzzzlzllhuyaaaa*o))))))))))XE((((((((((((((KR/~/~Lxbbbv:xb; ))))))))",
")))))))))))))Ozzzzzzzzzzzlzzzzzllzlzzyyaaaa*o))))))))))XE((((((((((((((KY/~~Kxbbbc=cbb- ))))))))",
")))))))))))))ozzzzzzzzzzzzzzzzzzlllzluyaaaa*o))))))))) 8^((((((((((((((KY~Wq:xccc;cbbb; ))))))))",
")))))))))))))ozzzzzzzzzzzzzzzzzzzzzlzuyaaaa*X))))))))),>Q((((((((((((((KYRq:::::-cbbbb; ))))))))",
")))))))))))))ozzzzzzzzzzzzzzzzzzzzzzzuyaaaa*o)))))))))r:E((((((((((((((KU9cbbbbb=vbbbb; ))))))))",
")))))))))))))ozzzzzzzzzzzzzzzzzzzzzzzuyaaaa*o)))))))))r;LUUUUUUUUUIUUUUq-cbbbbbb=bbbbb; ))))))))",
")))))))))))))ozzzzzzzzzzzzzzzzzzzzzzzuyaaaa*o)))))))))rbcccxcxxxxxxxxxxxvbbbbbbb=bbbbb; ))))))))",
")))))))))))))Ozzzzzzzzzzzzzzzzzzzzzzzuyaaaa*o)))))))))rmmmmmnbbbbbbbbbbbbbbbbbbb-bbbbb> ))))))))",
")))))))))))))ozzzzzzzzzzzzzzzzzzzzzzzuyaaaa*o)))))))))rnmmmmnnbnnbnbbnnbbnnbnnnb=bbbbb: ))))))))",
")))))))))))))ozzzzzzzzzzzzzzzzzzzzzzzuyaaaa*o)))))))))rnmmmmmnnnnnnnnnnmmnmnnnmm=bbbbb; ))))))))",
")))))))))))))ozzzzzzzzzzzzzzzzzzzzzzzuyaaaa$,,,,,,,,,,#mmmmmmmmmmmmmmmmmmmmmmmmm=bbbbb; ))))))))",
"))))))))))))OOzzzzzzzzzzzzzzzzzzzzzzzuyaaaa$CACCACCCCC1nmmmmmmmmmmmmmmmmmmmmmmmm;bbbbb: ))))))))",
"))))))))))).N4zzzzzzzzzzzzzzzzzzzzzzzuyaaap$HJJJJJJJJJ1mmmmmmmmmmmmmmmmmmmmmmmmm=bbbbb-O.)))))))",
"))))))))))+BJ4zzzzzzzzzzzzzzzzzzzzzzzuyaap$FJJJJJJJJJJ1nmmmmmmmmmmmmmmmmmmmmmmmm=bbvv:PYKq@)))))",
")))))))).<AJJ4zzzzzzzzzzzzzzzzzzzzzzzuyay$HJJJJJJJJJJJ1nmmmmmmmmmmmmmmmmmmmmmmmm;bbc9U~//^UX))))",
"))))))) <FJJJ4lllllllzzlzzzzzzzzzzzzzuyy4HJJJJJJJJJJJJ1nmmmmmmmmmmmmmmmmmmmmmmmm=bc9Y~//(^I ))))",
")))))) <HJJJJ<pppppdpddddddddddddddddt$5HJJJJJJJJJJJJJ1mmmmmmmmmmmmmmmmmmmmmmmmm=c>YYRYIeeS ))))",
"))))).MHJJJJJFCCCBBCCCBCBCBCCCCBCCBCCCFJJJJJJJJJJJJJJJ4vbbbbbbbbbbbbbbbbbnbnbbbb=KLLLLLU/QW ))))",
")))).<MMMMMMMMMMMMMMMMMMMMMMMMMMMMMMMMMMMMMMMMMMMMMMMM<XXXXXXXXXXXX.<N5N5N5N1SSeP!!~~~/(//W ))))",
")))) FGFGGGGGFGGGGFGGGFGGFGGFGGGFGGGFGGFGGFGGGFGGGFGFGGGGGGGGGGGGGGBAJJJJJJHD!!!!!!~~/(((/W ))))",
")))) HJJJJJJJJJJJJJJJJJJJJJJJJJJJJJJJJJJJJJJJJJJJJJJJJJJJJJJJJJJJJJCAJJJJJJJD!!!!!~~///(//T ))))",
")))) HJJJJJJJJJJJJJJJJJJJJJJJJJJJJJJJJJJJJJJJJJJJJJJJJJJJJJJJJJJJJJCAJJJJJJHD!!!!!~~//(((/W ))))",
")))) HJJJJJJJJJJJJJJJJJJJJJJJJJJJJJJJJJJJJJJJJJJJJJJJJJJJJJJJJJJJJJCAJJJJJJHD!!!!~~///(///W ))))",
")))) HJJJJJJJJJJJJJJJJJJJJJJJJJJJJJJJJJJJJJJJJJJJJJJJJJJJJJJJJJJJJJCCJJJJJJHD!!!~~~////((/W ))))",
")))) HJJJJJJJJJJJJJJJJJJJJJJJJJJJJJJJJJJJJJJJJJJJJJJJJJJJJJJJJJJJJJCAJJJJJJJD!!!~~~///((//W ))))",
")))) HJJJJJJJJJJJJJJJJJJJJJJJJJJJJJJJJJJJJJJJJJJJJJJJJJJJJJJJJJJJJJCAJJJJJJHD!!!~~//(/((//W ))))",
")))) HJJJJJJJJJJJJJJJJJJJJJJJJJJJJJJJJJJJJJJJJJJJJJJJJJJJJJJJJJJJJJCAJJJJJJHD!!~~////((((/W ))))",
")))) HJJJJJJJJJJJJJJJJJJJJJJJJJJJJJJJJJJJJJJJJJJJJJJJJJJJJJJJJJJJJJCAJJJJJJJD!!~~////(((//W ))))",
")))) HJJJJJJJJJJJJJJJJJJJJJJJJJJJJJJJJJJJJJJJJJJJJJJJJJJJJJJJJJJJJJCAJJJJJJHD!!!//(((((((/W ))))",
")))) HJJJJJJJJJJJJJJJJJJJJJJJJJJJJJJJJJJJJJJJJJJJJJJJJJJJJJJJJJJJJJCAJJJJJJHD!!~//(/(((((/W ))))",
")))) HJJJJJJJJJJJJJJJJJJJJJJJJJJJJJJJJJJJJJJJJJJJJJJJJJJJJJJJJJJJJJCAJJJJJJHD!~~///(((((//W ))))",
")))) HJJJJJJJJJJJJJJJJJJJJJJJJJJJJJJJJJJJJJJJJJJJJJJJJJJJJJJJJJJJJJCAJJJJJJHS!!~//((((((//W ))))",
")))) HJJJJJJJJJJJJJJJJJJJJJJJJJJJJJJJJJJJJJJJJJJJJJJJJJJJJJJJJJJJJJCAJJJJJJHw!!~/((((((((/W ))))",
")))) HJJJJJJJJJJJJJJJJJJJJJJJJJJJJJJJJJJJJJJJJJJJJJJJJJJJJJJJJJJJJJCAJJJJJJHw!!//((((((((/W ))))",
")))) HJJJJJJJJJJJJJJJJJJJJJJJJJJJJHJHJJJJJJJJJJJJJJJJJJJJJJJJJJJJJJCAJJJJJJHw!~~/((((((((/W ))))",
")))) HJJJJJJJJJJJJJJJJJJJJJJJJJHFB3333ZFHJJJJJJJJJJJJJJJJJJJJJJJJJJCAJJJJJJHw!!~/((((((((/W ))))",
")))) HJJJJJJJJJJJJJJJJJJJJJJJHBMC< )))oX3FJJJJJJJJJJJJJJJJJJJJJJJJJCAJJJJJJHw!!~/((((((((/W ))))",
")))) HJJJJJJJJJJJJJJJJJJJJJJG5BHF+)))))) #BJJJJJJJJJJJJJJJJJJJJJJJJCAJJJJJJHw!~~/((((((((/W ))))",
")))) HJJJJJJJJJJJJJJJJJJJJJF5FHHB )))))))).5HJJJJJJJJJJJJJJJJJJJJJJCAJJJJJJHw!~~/(((((((//W ))))",
")))) HJJJJJJJJJJJJJJJJJJJJF5GHHH4 ))))))))).3JJJJJJJJJJJJJJJJJJJJJJCAJJJJJJHw!!~/((((((((/W ))))",
")))) HJJJJJJJJJJJJJJJJJJJH3GHHHH+)))))))))))XZJJJJJJJJJJJJJJJJJJJJJCAJJJJJJHw!~~/((((((((/W ))))",
")))) HJJJJJJJJJJJJJJJJJJJMAHHHHG+))))))))))).+GJJJJJJJJJJJJJJJJJJJJCAJJJJJJHw!!~/((((((((/W ))))",
")))) HJJJJJJJJJJJJJJJJJJG5GHGHHA2)))))))))))).4JJJJJJJJJJJJJJJJJJJJCCJJJJJJHw!~~/((((((((/W ))))",
")))) HJJJJJJJJJJJJJJJJJJMAHHHHHC )))))))))))))+GJJJJJJJJJJJJJJJJJJJCAJJJJJJHw!!~/(((((((//W ))))",
")))) HJJJJJJJJJJJJJJJJJH5HHHHHHC ))))))))))))).NJJJJJJJJJJJJJJJJJJJCAJJJJJJHw!~~/((((((((/W ))))",
")))) HJJJJJJJJJJJJJJJJJABHHHHHJM ))))))))))))).2JJJJJJJJJJJJJJJJJJJCAJJJJJJHw!!~/((((((((/W ))))",
")))) HJJJJJJJJJJJJJJJJJ5FHHHHHH4 ))))))))))))))OFJJJJJJJJJJJJJJJJJJCAJJJJJJHw!!~/((((((((/W ))))",
")))) HJJJJJJJJJJJJJJJJH5HHHHHGN. )))))))))))))).ZJJJJJJJJJJJJJJJJJJCAJJJJJJCw!~~/((((((((/W ))))",
")))) HJJJJJJJJJJJJJJJJFBHHGHG3 )))))))))))))))))4JJJJJJJJJJJJJJJJJJCAJJJJJB#w!!~/((((((((/W ))))",
")))) HJJJJJJJJJJJJJJJJCAHHHG< ))))))))))))))))))2JJJJJJJJJJJJJJJJJJCAJJJH3 )0!~~/((((((((/W ))))",
")))) HJJJJJJJJJJJJJJJJBFHHA+.)))))))))))))))))))2HJJJJJJJJJJJJJJJJJCAJJG<.))0!!~/((((((((/W ))))",
")))) HJJJJJJJJJJJJJJJJBFHCX ))))))))))))))))))))+HJJJJJJJJJJJJJJJJJCAJF@o)))#P~~/((((((((^K.))))",
")))) HJJJJJJJJJJJJJJJJMFM.))))))))))))))))))))))+FJJJJJJJJJJJJJJJJJCCC+ )))) X1eIREEEEEYe@ )))))",
")))) HJJJJJJJJJJJJJJJJ53O)))))))))))))))))))))))+FJJJJJJJJJJJJJJJJJC<O))))))))) o XXXXXo )))))))",
")))) 35555555555555555+ ))))))))))))))))))))))))O355555555555555555< )))))))))))))))))))))))))))",
"))))))))))))))))))))))))))))))))))))))))))))))))))))))))))))))))))))))))))))))))))))))))))))))))",
"))))))))))))))))))))))))))))))))))))))))))))))))))))))))))))))))))))))))))))))))))))))))))))))))",
"))))))))))))))))))))))))))))))))))))))))))))))))))))))))))))))))))))))))))))))))))))))))))))))))",
"))))))))))))))))))))))))))))))))))))))))))))))))))))))))))))))))))))))))))))))))))))))))))))))))"
};

