/* XPM */
static char *bxKlotz128[] = {
/* columns rows colors chars-per-pixel */
"160 160 85 1",
"  c #000000",
". c #161111",
"X c #130f2b",
"o c #043009",
"O c #1e2226",
"+ c #250303",
"@ c #2f1518",
"# c #340101",
"$ c #3b0126",
"% c #2f2d0b",
"& c #32302c",
"* c #0f0a52",
"= c #010262",
"- c #160073",
"; c #28105d",
": c #383965",
"> c #05530d",
", c #066e13",
"< c #355909",
"1 c #3a4544",
"2 c #4a0d0b",
"3 c #540000",
"4 c #502803",
"5 c #482b2b",
"6 c #660100",
"7 c #6d1512",
"8 c #7b0000",
"9 c #632021",
"0 c #433f42",
"q c #555603",
"w c #506106",
"e c #665600",
"r c #705500",
"t c #6f6f01",
"y c #726a00",
"u c #53625a",
"i c #161992",
"p c #080bb1",
"a c #25359a",
"s c #222fba",
"d c #0000d6",
"f c #0a10d2",
"g c #0000fe",
"h c #0c14fa",
"j c #1928da",
"k c #1b2bf9",
"l c #273dd7",
"z c #2337f4",
"x c #2a41ed",
"c c #2d47fe",
"v c #314dff",
"b c #04921c",
"n c #019e20",
"m c #03a71c",
"M c #02b423",
"N c #08c926",
"B c #03d729",
"V c #00e62c",
"C c #00f12f",
"Z c #7a8204",
"A c #870201",
"S c #8e1117",
"D c #970000",
"F c #8f2226",
"G c #a80200",
"H c #a51313",
"J c #b80201",
"K c #896f00",
"L c #c80101",
"P c #d80000",
"I c #e60000",
"U c #fe0000",
"Y c #8e8b00",
"T c #af9a00",
"R c #b4ae02",
"E c #ceba00",
"W c #daae00",
"Q c #d0cd00",
"! c #e8ce00",
"~ c #fecd00",
"^ c #fed900",
"/ c #e5e400",
"( c #fee700",
") c #fefb00",
"_ c None",
/* pixels */
"________________________________________________________________________________________________________________________________________________________________",
"________________________________________________________________________________________________________________________________________________________________",
"________________________________________________________________________________________________________________________________________________________________",
"________________________________________________________________________________________________________________________________________________________________",
"________________________________________________________________________________________________________________________________________________________________",
"________________________________________________________________________________________________________________________________________________________________",
"________________________________________________________________________________________________________________________________________________________________",
"________________________________________________________________________________________________________________________________________________________________",
"________________________________________________________________________________________________________________________________________________________________",
"________________________________________________________________________________________________________________________________________________________________",
"________________________________________________________________________________________________________________________________________________________________",
"________________________________________________________________________________________________________________________________________________________________",
"________________________________________________________________________________________________________________________________________________________________",
"________________________________________________________________________________________________________________________________________________________________",
"________________________________________________________________________________________________________________________________________________________________",
"________________________________________________________________________________________________________________________________________________________________",
"_______________________________________________________________________________________ # ______________________________________________________________________",
"_____________________________________________________________________________________..3PA+_____________________________________________________________________",
"____________________________________________________________________________________ &SPUI8 ____________________________________________________________________",
"____________________________________________________________________________________@DIUUUIA____________________________________________________________________",
"__________________________________________________________________________________ +JUUUUUUUA. _________________________________________________________________",
"________________________________________________________________________________..#JUUUUUUUUIH5 ________________________________________________________________",
"________________________________________________________________________________&9PUUUUUUUUUUIH5________________________________________________________________",
"_______________________________________________________________________________O6PUUUUUUUUUUUUIH&_______________________________________________________________",
"_____________________________________________________________________________ @AUUUUUUUUUUUUUUUUH5._____________________________________________________________",
"____________________________________________________________________________ #DIUUUUUUUUUUUUUUUUIH5 ____________________________________________________________",
"___________________________________________________________________________O+GUUUUUUUUUUUUUUUUUUUIF5____________________________________________________________",
"__________________________________________________________________________O2LUUUUUUUUUUUUUUUUUUUUUUH1___________________________________________________________",
"________________________________________________________________________ O2PUUUUUUUUUUUUUUUUUUUUUUUUH5 _________________________________________________________",
"________________________________________________________________________@FADIUUUUUUUUUUUUUUUUUUUUUUUIH5 ________________________________________________________",
"_______________________________________________________________________@HIIGDIUUUUUUUUUUUUUUUUUUUUUUUIH5________________________________________________________",
"______________________________________________________________________@HUUUUGDIUUUUUUUUUUUUUUUUUUUUUUUUJ&_______________________________________________________",
"____________________________________________________________________ 2HUUUUUUGAPUUUUUUUUUUUUUUUUUUUUUUUUJ5 _____________________________________________________",
"____________________________________________________________________@HUUUUUUUUJAPUUUUUUUUUUUUUUUUUUUUUUUUH5 ____________________________________________________",
"___________________________________________________________________#JUUUUUUUUUULALUUUUUUUUUUUUUUUUUUUUUUUUJ5____________________________________________________",
"__________________________________________________________________@JUUUUUUUUUUUULAPUUUUUUUUUUUUUUUUUUUUUUUUH&___________________________________________________",
"________________________________________________________________ 2LUUUUUUUUUUUUUUL8LUUUUUUUUUUUUUUUUUUUUUUUUJ9 _________________________________________________",
"________________________________________________________________2LUUUUUUUUUUUUUUUUPAJUUUUUUUUUUUUUUUUUUUUUUUUH9 ________________________________________________",
"_______________________________________________________________#LUUUUUUUUUUUUUUUUUUPAGIUUUUUUUUUUUUUUUUUUUUUUIH5________________________________________________",
"______________________________________________________________2LUUUUUUUUUUUUUUUUUUUUPDGUUUUUUUUUUUUUUUUUUUUUUUUJ5_______________________________________________",
"____________________________________________________________ 2PUUUUUUUUUUUUUUUUUUUUUUPDDUUUUUUUUUUUUUUUUUUUUUUUUL2 _____________________________________________",
"___________________________________________________________.3LUUUUUUUUUUUUUUUUUUUUUUUUIGDPUUUUUUUUUUUUUUUUUUUUUUUL2 ____________________________________________",
"__________________________________________________________&FIUUUUUUUUUUUUUUUUUUUUUUUUUUUGDIUUUUUUUUUUUUUUUUUUUUUUUL9____________________________________________",
"_________________________________________________________O9PUUUUUUUUUUUUUUUUUUUUUUUUUUUUIGAIUUUUUUUUUUUUUUUUUUUUUUUL9OOXXXOXXOXXXXO ____________________________",
"________________________________________________________@FPUUUUUUUUUUUUUUUUUUUUUUUUUUUUUUUGAIUUUUUUUUUUUUUUUUUUUUUUUL4RQQQQQQQQQQRq.____________________________",
"_______________________________________________________+FPUUUUUUUUUUUUUUUUUUUUUUUUUUUUUUUUUJAPUUUUUUUUUUUUUUUUUUUUUUD4Q)))))))))QZt%____________________________",
"_____________________________________X;.O%.%%O%..O%%%OOSIUUUUUUUUUUUUUUUUUUUUUUUUUUUUUUUUUUUJALUUUUUUUUUUUUUUUUUUUUDqR)))))))))QqYQ%____________________________",
"____________________________________ :lssssssssssssss*AIUUUUUUUUUUUUUUUUUUUUUUUUUUUUUUUUUUUUULALUUUUUUUUUUUUUUUUUIA4W(()))))))E<T((%____________________________",
"__________________________________..*jvvvvvvvvvvvvvxiSUUUUUUUUUUUUUUUUUUUUUUUUUUUUUUUUUUUUUUUUPAGUUUUUUUUUUUUUUUP7y!^())))))/RqR((^%____________________________",
"_________________________________.&-xvvvvvvvvvvvvvx-DIUUUUUUUUUUUUUUUUUUUUUUUUUUUUUUUUUUUUUUUUUPAGUUUUUUUUUUUUUP7Y!^(())))))YqR((((%____________________________",
"________________________________ &axvvvvvvvvvvvvcl;HUUUUUUUUUUUUUUUUUUUUUUUUUUUUUUUUUUUUUUUUUUUUPDGIUUUUUUUUUUJ4T!^^()))))/ZtQ((((^%____________________________",
"________________________________OaxvvvvvvvvvvvvvziSUUUUUUUUUUUUUUUUUUUUUUUUUUUUUUUUUUUUUUUUUUUUUUPDDUUUUUUUUUG4T~^^((()))/tyQ)((^^(%____________________________",
"______________________________ Xpllllllllllllljl;LUUUUUUUUUUUUUUUUUUUUUUUUUUUUUUUUUUUUUUUUUUUUUUUUIGAUUUUUUUAqW~^^(())))QeZ/)(((^(^%____________________________",
"_____________________________ X*====*=========XXGUUUUUUUUUUUUUUUUUUUUUUUUUUUUUUUUUUUUUUUUUUUUUUUUUUUGDIUUUP8rE~~^((()))QqY/))(((^^(%____________________________",
"_____________________________ ixlzzlxzjzxlzlxsXAUUUUUUUUUUUUUUUUUUUUUUUUUUUUUUUUUUUUUUUUUUUUUUUUUUUUIGDIUP6yE~^^^())))RqY)))(((^(^(&____________________________",
"_____________________________ avvvcvcvvcvvvcsXGUUUUUUUUUUUUUUUUUUUUUUUUUUUUUUUUUUUUUUUUUUUUUPUUUUUUUUUJGG7K!~~^^(())/TqT)))))(((^^^%____________________________",
"_____________________________ avvvvvvvvvcvvv*X$5$$$$$$$$$$$$$$$$$#$$$$$$@2#++++++++++++++++95%%4%44%44%+qT~~^^(()))/YqQ))))(((^^^^(%____________________________",
"_____________________________.avvvvvvvvcvvcczzlljjjjjjfffdddddddp*pdddpdp*.________________uKEEEEEEQEEEQ^^~^^(()))/tqQ)))))((((^((^%____________________________",
"_____________________________oavvvvvvvvvvvvvccvvvvcczzkkkhhhhgggd=dgggggd;O_______________O5KyKKKyKyyKKKKKKKKtYKYYyt/)))))(((^^^^!K%____________________________",
"_____________________________ avvvvvvvvvvvvcvvvvvvcccczzkkhhhghgd=dgggggd:&_______________0%YYYYYYYYYYYYYZYYYYYYYt%Q)))))()(((^^!t. ____________________________",
"_____________________________.avvvvvvvvvvvcvvvvvvvvcvccczzkkhhhgd=dgggggd:&________________q)))))))))))))))))))))/qQ)))((((^^(^!qO110011 _______________________",
"_____________________________ avvvvvvvvvvvvvvvvvvvvvvvccczzzkhhhd=dgggggd:1________________%)))))))))))))))))))))/qQ)))(((((^^E<,MmMmmbo _______________________",
"_____________________________ avvvvvvvvvvvvvvvvvvvvvvcvvvcczzkkhf=dgggggd:&________________<)))))))))))))))))))))/wQ()((((^^^T<bNNNNNn,,._______________________",
"_____________________________ avvvvvvvvvvvvvvvvvcvvcvvcvvcccczkkf=dgggggd:0________________%)))))))))))))))))))))/qQ(((((^(^Y<bNNNNNm>bN _______________________",
"_____________________________ avvvvvvvvvvvvvvvvvvvcvvcvvvvcvczzzj=dgggggd:&________________%)))))))))))))))))))))/qQ(((^^^~K>NNNNNNb%mNN._______________________",
"_____________________________.avvvvvvvvvvvvvvvvvvvvvvvvccvvcvvczj=dgggggd:0________________%)))))))))))))))))))))/qE(^^(^Qt,NNMNNM,>mNNN _______________________",
"_____________________________.avvvvvvvvvvvvvvvvvcvvvvvvvccccccvcj=dgggggd:&________________q)))))))))))))))))))))/eE^^^^Qe,NNNNNM>,MNNNN._______________________",
"_____________________________ avvvvvvvvvvvvvvvvvvvvvvvcvvcccvvvcl=dgggggd:0_______________Ot)))))))))))))))))))))/qE^((RwbNNNNNN>,NNNNNN _______________________",
"_____________________________ avvvvvvvvvvvvvvvvvvvvvvvvvccccvvvvl=dgggggg:&_____________ Oot)))))))))))))))))))))/qE(!T%o>>>>>>obNNNNNNN _______________________",
"_____________________________.avvvvvvvvvvvvvvvvvvvvvvvvvvvcvvvvvl=dgggggd:0_____________Ou>q)))))))))))))))))))))/qE!Y>bnnbbbbboNNNNNNNN._______________________",
"_____________________________.avvvvvvvvvvvvvvvvvvvvvvvvvvvvvvvvvl=dgggggd:&_____________.ubq)))))))))))))))))))))/qEY<mNNNNNNNNoNNNNNNNN _______________________",
"_____________________________ avvvvvvvvvvvvvvvvvvvvvvvvvvvvvvvvvl=dgggggd:1_____________%u,w)))))))))))))))))))))/qy>MNNNNNNNNNoNNNNNNNN._______________________",
"_____________________________ avvvvvvvvvvvvvvvvvvvvvvvvvvvvvvvvvl=dgggggd:&_____________Ouboeqqwqeqqqqewweqeqqqeqqo,NNNNNNNNNNNoNNNNNNNN _______________________",
"_____________________________.avvvvvvvvvvvvvvvvvvvvvvvvvvvvvvvvvl=dgggggd:&_____________OumMMmmmmmnnbnbnbbnnnbbmbbnNNNNNNNNNNNNoNNNNNNNN._______________________",
"_____________________________ avvvvvvvvvvvvvvvvvvvvvvvvvvvvvvvvvl=dgggggf:0_____________OuNCCCCCVVBNNNNNNNNNNNNNNNNNNNNNNNNNNNNoNNNNNNNN _______________________",
"_____________________________.avvvvvvvvvvvvvvvvvvvvvvvvvvvvvvvvvl=dgggggd:&_____________.uMCVVVVVVBNNNNNNNNNNNNNNNNNNNNNNNNNNNNoNNNNNNNN _______________________",
"_____________________________ avvvvvvvvvvvvvvvvvvvvvvvvvvvvvvvvvl=pgggggd:&_____________OuMVVVVBVVBBBBBNBNBNNBNNNBBNBBBBBBBBBBNoNNNNNNNN _______________________",
"_____________________________ avvvvvvvvvvvvvvvvvvvvvvvvvvvvvvvvvl=dgggggd:1_____________.uMCVVVVVBVBBBBBBBBBBNVBBBBBBBBBVBBVBBBoNNNNNNNN._______________________",
"_____________________________.avvvvvvvvvvvvvvvvvvvvvvvvvvvvvvvvvl=dgggggg*%_____________.&MVVVVVVVVVVBBVBBVVBVVBVVVVVVVVBVVVVVBoNNNNNNNN _______________________",
"_____________________________ avvvvvvvvvvvvvvvvvvvvvvvvvvvvvvvvvl=dgggggd*1uuuuuuuuuuuuuu>MCVVVVVVVVVVVVVVVVVVVVVVBVVVVVVVVVVVN%NNNNNNNN._______________________",
"____________________________.&avvvvvvvvvvvvvvvvvvvvvvvvvvvvvvvvvl=dgggggd*6AAAAAS8AAAAAA8%MCVVVVVVVVVVVVVVVVVVVVVVVVVVVVVVVVVVBoNNNNNNNN._______________________",
"___________________________.96avvvvvvvvvvvvvvvvvvvvvvvvvvvvvvvvvl=dgggggg$PUUUUUUUUUUUUUI4NVVVVVVVVVVVVVVVVVVVVVBVVVVVVVVVVVVVBoNNNNNNNN _______________________",
"__________________________.2LGavvvvvvvvvvvvvvvvvvvvvvvvvvvvvvvvvl=dgggggp$PUUUUUUUUUUUUUI9NCVVVVVVVVVVVBVVVVVVVVVVVVVVVVVVVVVVBoNNNNNNMb%&._____________________",
"_________________________ 3LUDavvvvvvvvvvvvvvvvvvvvvvvvvvvvvvvvvl=dggggp2JUUUUUUUUUUUUUUI4MVVVVVVVVVVVVVVVVVVVVVVVVVVVVVVVVVVVBoNNNNNN,wWRYqq&__________________",
"_______________________.+AIUUGavvvvvvvvvvvvvvvvvvvvvvvvvvvvvvvvvl=dggd=2PUUUUUUUUUUUUUUUI4MCVVVVVVVVVVVVVVVVVVVVVVVVVVVVVVVVVVBoNNNNn,e!^(((QY% ________________",
"______________________.&DIUUUDazvvvvcvvvvvvvvvvvvvvvvvvvvvvvvvvvl=dgd;6IUUUUUUUUUUUUUUUUI4NVVVVVVVVVVVVVVVVVVVVVVVVVVVVVVVVVVVBoNNNn<K!~^())))t ________________",
"_____________________.2HUUUUUGazzcccccccccvvvvvvvvvvvvvvvvvvvvvvl=dp*DIUUUUUUUUUUUUUUUUUI4MCBVVVVVVVVVVVVVVVVVVVVVVVVVVVVVVVVVBoNNb<T!~^((()/Qq ________________",
"____________________ @JIUUUUUGikkzkzzzzzzccvccvvvvvvvvvvvvvvvvvvl=iXJIUUUUUUUUUUUUUUUUUUI9NCVVVVVVVVVVVVVVVVVVVVVVVVVVVVVVVVVVBoNbwR~^^((/QYYq% ________________",
"___________________ 6PUUUUUUUGX---------------------------------*X3JUUUUUUUUUUUUUUUUUUUUI4NCVVCVCVVCVCVCCCVCCCCVVVVVCVCVCCVVVCBom.eTYYYYttttT!e ________________",
"_________________.@6PUUUUUUUUPGGGGGGGGGGGGGGGGGGGJGGGGGGGGGGGGGGGGPUUUUUUUUUUUUUUUUUUUUUI7nNNNNNNBNNNNNBNNNNNMMBNNNNNBNNNMNNNMMoZYTYTYTYYQ((/^e ________________",
"________________ O2GJJJJJJJJJJJJJJJJJJJJJJJJJJJJJJJJJJJJJJJJJJJJJJJJJJJJJJJJJJJJJJJJJJJJG2ooooooooooooooooooo%%44%%&%%%q%%<<<wqK~~~!^^^()()((^e ________________",
"________________ +333333333333333333333333333333333333333333333333333333333333333333333333333323333333333333#6PPPPIIIIPPJrWWWWW~~~^^^((()))((^e ________________",
"________________ 6UUUUUUUUUUUUUUUUUUUUUUUUUUUUUUUUUUUUUUUUUUUUUUUUUUUUUUUUUUUUUUUUUUUUUUUUUUUUUUUUUUUUUUUUUUG8UUUUUUUUUUJK~~~~~~~~^^^(())()((^e ________________",
"________________ 6UUUUUUUUUUUUUUUUUUUUUUUUUUUUUUUUUUUUUUUUUUUUUUUUUUUUUUUUUUUUUUUUUUUUUUUUUUUUUUUUUUUUUUUUUUD8UUUUUUUUUULK~~~~~~~^^^^((())))^^e ________________",
"________________ 6UUUUUUUUUUUUUUUUUUUUUUUUUUUUUUUUUUUUUUUUUUUUUUUUUUUUUUUUUUUUUUUUUUUUUUUUUUUUUUUUUUUUUUUUUUD8UUUUUUUUUUJK~~~~~~~~^^((())()((^e ________________",
"________________ 6UUUUUUUUUUUUUUUUUUUUUUUUUUUUUUUUUUUUUUUUUUUUUUUUUUUUUUUUUUUUUUUUUUUUUUUUUUUUUUUUUUUUUUUUUUD8UUUUUUUUUUJK~~~~~~^^^^^((()))((^e ________________",
"________________ 6UUUUUUUUUUUUUUUUUUUUUUUUUUUUUUUUUUUUUUUUUUUUUUUUUUUUUUUUUUUUUUUUUUUUUUUUUUUUUUUUUUUUUUUUUUD8UUUUUUUUUULK~~~~~~~^^(((())))((^e ________________",
"________________ 6UUUUUUUUUUUUUUUUUUUUUUUUUUUUUUUUUUUUUUUUUUUUUUUUUUUUUUUUUUUUUUUUUUUUUUUUUUUUUUUUUUUUUUUUUUD8UUUUUUUUUUJK~~~~^~^^^^(()()))((^e ________________",
"________________ 6UUUUUUUUUUUUUUUUUUUUUUUUUUUUUUUUUUUUUUUUUUUUUUUUUUUUUUUUUUUUUUUUUUUUUUUUUUUUUUUUUUUUUUUUUUD8UUUUUUUUUUJK~~~~^~^^((((()()))(^e ________________",
"________________ 6UUUUUUUUUUUUUUUUUUUUUUUUUUUUUUUUUUUUUUUUUUUUUUUUUUUUUUUUUUUUUUUUUUUUUUUUUUUUUUUUUUUUUUUUUUD8UUUUUUUUUULK~~~~~~^^^((((())(((^e ________________",
"________________ 6UUUUUUUUUUUUUUUUUUUUUUUUUUUUUUUUUUUUUUUUUUUUUUUUUUUUUUUUUUUUUUUUUUUUUUUUUUUUUUUUUUUUUUUUUUD8UUUUUUUUUUJK~~~~^^(^((((())))((^e ________________",
"________________ 6UUUUUUUUUUUUUUUUUUUUUUUUUUUUUUUUUUUUUUUUUUUUUUUUUUUUUUUUUUUUUUUUUUUUUUUUUUUUUUUUUUUUUUUUUUD8UUUUUUUUUULK~~~~^^^((((())))))(^e ________________",
"________________ 6UUUUUUUUUUUUUUUUUUUUUUUUUUUUUUUUUUUUUUUUUUUUUUUUUUUUUUUUUUUUUUUUUUUUUUUUUUUUUUUUUUUUUUUUUUD8UUUUUUUUUULK~~~~^^((())()()))((^e ________________",
"________________ 6UUUUUUUUUUUUUUUUUUUUUUUUUUUUUUUUUUUUUUUUUUUUUUUUUUUUUUUUUUUUUUUUUUUUUUUUUUUUUUUUUUUUUUUUUUD8UUUUUUUUUUJK~~~~^(((((())))()((^e ________________",
"________________ 6UUUUUUUUUUUUUUUUUUUUUUUUUUUUUUUUUUUUUUUUUUUUUUUUUUUUUUUUUUUUUUUUUUUUUUUUUUUUUUUUUUUUUUUUUUD8UUUUUUUUUULK~~~~^^((((())))))((^e ________________",
"________________ 6UUUUUUUUUUUUUUUUUUUUUUUUUUUUUUUUUUUUUUUUUUUUUUUUUUUUUUUUUUUUUUUUUUUUUUUUUUUUUUUUUUUUUUUUUUD8UUUUUUUUUULK~~~~^((()))()))))((^e ________________",
"________________ 6UUUUUUUUUUUUUUUUUUUUUUUUUUUUUUUUUUUUUUUUUUUUUUUUUUUUUUUUUUUUUUUUUUUUUUUUUUUUUUUUUUUUUUUUUUD8UUUUUUUUUUJK~~~^^(()()))))))))(^e ________________",
"________________ 6UUUUUUUUUUUUUUUUUUUUUUUUUUUUUUUUUUUUUUUUUUUUUUUUUUUUUUUUUUUUUUUUUUUUUUUUUUUUUUUUUUUUUUUUUUD8UUUUUUUUUUJK~~~^^()()()))))))((^e ________________",
"________________ 6UUUUUUUUUUUUUUUUUUUUUUUUUUUUUUUUUUUUUUUUUUUUUUUUUUUUUUUUUUUUUUUUUUUUUUUUUUUUUUUUUUUUUUUUUUD8UUUUUUUUUUJK~~~^((()))))))))))((e ________________",
"________________ 6UUUUUUUUUUUUUUUUUUUUUUUUUUUUUUUUUUUUUUUUUUUUUUUUUUUUUUUUUUUUUUUUUUUUUUUUUUUUUUUUUUUUUUUUUUD8UUUUUUUUUUJy~~~~(()()))))))))((^e ________________",
"________________ 6UUUUUUUUUUUUUUUUUUUUUUUUUUUUUUUUUUUUUUUUUUUUUUUUUUUUUUUUUUUUUUUUUUUUUUUUUUUUUUUUUUUUUUUUUUD8UUUUUUUUUUGt~~^^^())))))))))))((e ________________",
"________________ 6UUUUUUUUUUUUUUUUUUUUUUUUUUUUUUUUUUUUUUUUUUUUUUUUUUUUUUUUUUUUUUUUUUUUUUUUUUUUUUUUUUUUUUUUUUD8UUUUUUUUUUGy~~~^(((()))))))))((^e ________________",
"________________ 6UUUUUUUUUUUUUUUUUUUUUUUUUUUUUUUUUUUUUUUUUUUUUUUUUUUUUUUUUUUUUUUUUUUUUUUUUUUUUUUUUUUUUUUUUUD8UUUUUUUUUUGt^~^^(()))))))))))((^e ________________",
"________________ 6UUUUUUUUUUUUUUUUUUUUUUUUUUUUUUUUUUUUUUUUUUUUUUUUUUUUUUUUUUUUUUUUUUUUUUUUUUUUUUUUUUUUUUUUUUD8UUUUUUUUUUGt~~~^^)))))))))))))(^e ________________",
"________________ 6UUUUUUUUUUUUUUUUUUUUUUUUUUUUUUUUUUUUUUUUUUUIIUUUUUUUUUUUUUUUUUUUUUUUUUUUUUUUUUUUUUUUUUUUUUD8UUUUUUUUUUGt~~^^(()))))))))))((^e ________________",
"________________ 6UUUUUUUUUUUUUUUUUUUUUUUUUUUUUUUUUUUUUUUIPD7SSS8HLPUUUUUUUUUUUUUUUUUUUUUUUUUUUUUUUUUUUUUUUUD8UUUUUUUUUUGy~~~^(())))))))))))((e ________________",
"________________ 6UUUUUUUUUUUUUUUUUUUUUUUUUUUUUUUUUUUUPJDA#O_____OO2APUUUUUUUUUUUUUUUUUUUUUUUUUUUUUUUUUUUUUUD8UUUUUUUUUUGt^~~^()()))))))))))(^e ________________",
"________________ 6UUUUUUUUUUUUUUUUUUUUUUUUUUUUUUUUUUIJ68DLA ________.2DIUUUUUUUUUUUUUUUUUUUUUUUUUUUUUUUUUUUUD8UUUUUUUUUUGy~~^^^()))))))))))((^e ________________",
"________________ 6UUUUUUUUUUUUUUUUUUUUUUUUUUUUUUUUUIA6DPIL3 _________ &7PUUUUUUUUUUUUUUUUUUUUUUUUUUUUUUUUUUUD8UUUUUUUUUUGt~~~^(()))))))))))((^e ________________",
"________________ 6UUUUUUUUUUUUUUUUUUUUUUUUUUUUUUUUI86LPIIG+___________. 2LUUUUUUUUUUUUUUUUUUUUUUUUUUUUUUUUUUD8UUUUUUUUUUGy~~^^^)))))))))))))((e ________________",
"________________ 6UUUUUUUUUUUUUUUUUUUUUUUUUUUUUUUP68IPIIPD._____________ @GUUUUUUUUUUUUUUUUUUUUUUUUUUUUUUUUUD8UUUUUUUUUUGt~~~^(()))))))))))((^e ________________",
"________________ 6UUUUUUUUUUUUUUUUUUUUUUUUUUUUUUI88PIIIPL7.______________.@JUUUUUUUUUUUUUUUUUUUUUUUUUUUUUUUUD8UUUUUUUUUUGt~~^^(())))))))))))(^e ________________",
"________________ 6UUUUUUUUUUUUUUUUUUUUUUUUUUUUUUA6PIIIIIL+________________ 3IUUUUUUUUUUUUUUUUUUUUUUUUUUUUUUUD8UUUUUUUUUUGy~~~^(()))))))))))((^e ________________",
"________________ 6UUUUUUUUUUUUUUUUUUUUUUUUUUUUUJ3LIIIIIIJ+_________________1AUUUUUUUUUUUUUUUUUUUUUUUUUUUUUUUD8UUUUUUUUUUGy~~~^(())))))))))))((e ________________",
"________________ 6UUUUUUUUUUUUUUUUUUUUUUUUUUUUP3JIIIIIIIJ@__________________&GUUUUUUUUUUUUUUUUUUUUUUUUUUUUUUD8UUUUUUUUUUGt~~~^((())))))))))((^e ________________",
"________________ 6UUUUUUUUUUUUUUUUUUUUUUUUUUUUA8IIPIIPIIS&__________________.7PUUUUUUUUUUUUUUUUUUUUUUUUUUUUUD8UUUUUUUUUUGt~^^^(())))))))))))(^e ________________",
"________________ 6UUUUUUUUUUUUUUUUUUUUUUUUUUUP6JIIIIIIII7O__________________ @JUUUUUUUUUUUUUUUUUUUUUUUUUUUUUD8UUUUUUUUUUGt~~~^(()))))))))))((^e ________________",
"________________ 6UUUUUUUUUUUUUUUUUUUUUUUUUUUG6PIIPIIIII3____________________.7IUUUUUUUUUUUUUUUUUUUUUUUUUUUUD8UUUUUUUUUUHt~~~^(())))))))))))((e ________________",
"________________ 6UUUUUUUUUUUUUUUUUUUUUUUUUUI8DPIIIIIIIU3_____________________+JUUUUUUUUUUUUUUUUUUUUUUUUUUUUD8UUUUUUUUUUGy~~~^(()))))))))))((^e ________________",
"________________ 6UUUUUUUUUUUUUUUUUUUUUUUUUUP6LIIIIIPIII#_____________________&7UUUUUUUUUUUUUUUUUUUUUUUUUUUUD8UUUUUUUUUUGt~~~^((()))))))))))(^e ________________",
"________________ 6UUUUUUUUUUUUUUUUUUUUUUUUUUAAIIPIIIIIUU+_____________________.2IUUUUUUUUUUUUUUUUUUUUUUUUUUUD8UUUUUUUUUUHy~~^^(()))))))))))((^e ________________",
"________________ 6UUUUUUUUUUUUUUUUUUUUUUUUUU2GIIIIIIIIII+______________________5JUUUUUUUUUUUUUUUUUUUUUUUUUUUD8UUUUUUUUUUGy~~~^(())))))))))))((e ________________",
"________________ 6UUUUUUUUUUUUUUUUUUUUUUUUUP3IIIIPIIIPP2O______________________1AUUUUUUUUUUUUUUUUUUUUUUUUUUUD8UUUUUUUUUUDt~~~^(())))))))))))(^e ________________",
"________________ 6UUUUUUUUUUUUUUUUUUUUUUUUUD8PIIIIIIIJ2 ________________________6IUUUUUUUUUUUUUUUUUUUUUUUUUUD8UUUUUUUUUJ2t~~~^((())))))))))((^e ________________",
"________________ 6UUUUUUUUUUUUUUUUUUUUUUUUU6DIPIIIIPD# _________________________9PUUUUUUUUUUUUUUUUUUUUUUUUUUD8UUUUUUUUH9 y~~~^(()))))))))))((^e ________________",
"________________ 6UUUUUUUUUUUUUUUUUUUUUUUUU3PIIIIIID@ __________________________uPUUUUUUUUUUUUUUUUUUUUUUUUUUD8UUUUUUIA+. y~~~^(())))))))))))((e ________________",
"________________ 6UUUUUUUUUUUUUUUUUUUUUUUUI3PIIIIP8&____________________________uGUUUUUUUUUUUUUUUUUUUUUUUUUUD8UUUUUP6.__ y~~~^(()))))))))))(((e ________________",
"________________ 6UUUUUUUUUUUUUUUUUUUUUUUUL6IIIIL6O.____________________________5DUUUUUUUUUUUUUUUUUUUUUUUUUUD8UUUUJ7.___ r~~^^()))))))))))))(^r ________________",
"________________ 6UUUUUUUUUUUUUUUUUUUUUUUUL8IIIP3 ______________________________.DIUUUUUUUUUUUUUUUUUUUUUUUUUD8UUIG9O____.wW~~^(()))))))))))((!q ________________",
"________________ 6UUUUUUUUUUUUUUUUUUUUUUUUJ6PIG2 _______________________________.DUUUUUUUUUUUUUUUUUUUUUUUUUUD8UUD@. ____ .%Y^^((/)))))))))))Qq. ________________",
"________________ 6UUUUUUUUUUUUUUUUUUUUUUUUDDID@ ________________________________.7IUUUUUUUUUUUUUUUUUUUUUUUUUD8IA.__________..qtRQQQQQQQQQRt% ___________________",
"________________ 6UUUUUUUUUUUUUUUUUUUUUUUUDAA&._________________________________+SIUUUUUUUUUUUUUUUUUUUUUUUUUD67O______________OO .%%%%%%.O._____________________",
"________________ 6UUUUUUUUUUUUUUUUUUUUUUUUG#..__________________________________ FIUUUUUUUUUUUUUUUUUUUUUUUUUD . ________________________________________________",
"________________ .########################+ ____________________________________.5+#########################@ __________________________________________________",
"________________________________________________________________________________________________________________________________________________________________",
"________________________________________________________________________________________________________________________________________________________________",
"________________________________________________________________________________________________________________________________________________________________",
"________________________________________________________________________________________________________________________________________________________________",
"________________________________________________________________________________________________________________________________________________________________",
"________________________________________________________________________________________________________________________________________________________________",
"________________________________________________________________________________________________________________________________________________________________",
"________________________________________________________________________________________________________________________________________________________________",
"________________________________________________________________________________________________________________________________________________________________",
"________________________________________________________________________________________________________________________________________________________________",
"________________________________________________________________________________________________________________________________________________________________",
"________________________________________________________________________________________________________________________________________________________________",
"________________________________________________________________________________________________________________________________________________________________",
"________________________________________________________________________________________________________________________________________________________________",
"________________________________________________________________________________________________________________________________________________________________",
"________________________________________________________________________________________________________________________________________________________________"
};

