/* XPM */
static char *bxKlotz144[] = {
/* columns rows colors chars-per-pixel */
"160 160 85 1",
"  c #000000",
". c #0f150c",
"X c #180101",
"o c #161b22",
"O c #270101",
"+ c #340202",
"@ c #32130c",
"# c #2e2e0f",
"$ c #322b00",
"% c #312d2b",
"& c #010051",
"* c #1a1759",
"= c #10167a",
"- c #2d1c58",
"; c #0b5810",
": c #076e12",
"> c #2a6015",
", c #490810",
"< c #5b0101",
"1 c #473404",
"2 c #4d2a2a",
"3 c #6d0101",
"4 c #770101",
"5 c #70130c",
"6 c #651f22",
"7 c #4c0045",
"8 c #434900",
"9 c #534e06",
"0 c #5e5d00",
"q c #5b6320",
"w c #644f01",
"e c #716e07",
"r c #5d7171",
"t c #646458",
"y c #0a0082",
"u c #0a1093",
"i c #0000ad",
"p c #0000b3",
"a c #1f2ab0",
"s c #0508c8",
"d c #0000ed",
"f c #0000fe",
"g c #0e17fc",
"h c #1d2bcf",
"j c #1a29fd",
"k c #283acd",
"l c #2439f9",
"z c #2b42cc",
"x c #2c45eb",
"c c #2d47fd",
"v c #314dfe",
"b c #02871b",
"n c #04951c",
"m c #06ad1f",
"M c #07b121",
"N c #09c926",
"B c #03d729",
"V c #00e52c",
"C c #00f42f",
"Z c #890101",
"A c #980101",
"S c #9d1b1b",
"D c #a50000",
"F c #a31214",
"G c #b90201",
"H c #887901",
"J c #a27f00",
"K c #c90101",
"L c #d90000",
"P c #e60000",
"I c #fe0000",
"U c #918b03",
"Y c #a99500",
"T c #b2ae00",
"R c #c29f00",
"E c #c6b000",
"W c #ccca00",
"Q c #d6cf00",
"! c #e7d100",
"~ c #fecd00",
"^ c #fed900",
"/ c #e8e700",
"( c #fee700",
") c #fefb00",
"_ c None",
/* pixels */
"________________________________________________________________________________________________________________________________________________________________",
"________________________________________________________________________________________________________________________________________________________________",
"________________________________________________________________________________________________________________________________________________________________",
"________________________________________________________________________________________________________________________________________________________________",
"________________________________________________________________________________________________________________________________________________________________",
"________________________________________________________________________________________________________________________________________________________________",
"________________________________________________________________________________________________________________________________________________________________",
"________________________________________________________________________________________________________________________________________________________________",
"________________________________________________________________________________________ O _____________________________________________________________________",
"______________________________________________________________________________________. +KZX____________________________________________________________________",
"_____________________________________________________________________________________ %<LIP4X___________________________________________________________________",
"____________________________________________________________________________________.%ZPIIIP4X__________________________________________________________________",
"___________________________________________________________________________________ @APIIIIIP4X_________________________________________________________________",
"__________________________________________________________________________________ +APIIIIIIIP42._______________________________________________________________",
"________________________________________________________________________________ 2,GPIIIIIIIIIPS2 ______________________________________________________________",
"________________________________________________________________________________%6KIIIIIIIIIIIIPFt______________________________________________________________",
"_______________________________________________________________________________o5LIIIIIIIIIIIIIIPA2_____________________________________________________________",
"_____________________________________________________________________________ o4IIIIIIIIIIIIIIIIIISt.___________________________________________________________",
"____________________________________________________________________________ +DIIIIIIIIIIIIIIIIIIIIF2.__________________________________________________________",
"__________________________________________________________________________..+GPIIIIIIIIIIIIIIIIIIIIPS2._________________________________________________________",
"_________________________________________________________________________ %6GPIIIIIIIIIIIIIIIIIIIIIIPS2.________________________________________________________",
"________________________________________________________________________ %5KIIIIIIIIIIIIIIIIIIIIIIIIIPF2._______________________________________________________",
"_______________________________________________________________________ 2,APIIIIIIIIIIIIIIIIIIIIIIIIIIPF2.______________________________________________________",
"_______________________________________________________________________2SGADPIIIIIIIIIIIIIIIIIIIIIIIIIIPF2 _____________________________________________________",
"______________________________________________________________________2FPIKZDIIIIIIIIIIIIIIIIIIIIIIIIIIIIF2_____________________________________________________",
"_____________________________________________________________________2GPIIILZDPIIIIIIIIIIIIIIIIIIIIIIIIIIIF2____________________________________________________",
"___________________________________________________________________ 6GIIIIIIPZZPIIIIIIIIIIIIIIIIIIIIIIIIIIIG2 __________________________________________________",
"__________________________________________________________________ 2GIIIIIIIIPAAPIIIIIIIIIIIIIIIIIIIIIIIIIIIK2._________________________________________________",
"_________________________________________________________________X,GIIIIIIIIIIPDZPIIIIIIIIIIIIIIIIIIIIIIIIIIIF6 ________________________________________________",
"________________________________________________________________X<KIIIIIIIIIIIIIDALIIIIIIIIIIIIIIIIIIIIIIIIIIPF6._______________________________________________",
"_______________________________________________________________X6KIIIIIIIIIIIIIIPDZKIIIIIIIIIIIIIIIIIIIIIIIIIIIF2X______________________________________________",
"______________________________________________________________ ,KIIIIIIIIIIIIIIIIPGZKIIIIIIIIIIIIIIIIIIIIIIIIIIIG2 _____________________________________________",
"______________________________________________________________5KIIIIIIIIIIIIIIIIIIPKZKIIIIIIIIIIIIIIIIIIIIIIIIIIPF6X____________________________________________",
"_____________________________________________________________3KIIIIIIIIIIIIIIIIIIIIPGZGPIIIIIIIIIIIIIIIIIIIIIIIIIPF2____________________________________________",
"____________________________________________________________5LIIIIIIIIIIIIIIIIIIIIIIPKZDIIIIIIIIIIIIIIIIIIIIIIIIIIIK2___________________________________________",
"__________________________________________________________ 4LIIIIIIIIIIIIIIIIIIIIIIIIILZAIIIIIIIIIIIIIIIIIIIIIIIIIIIL6 _________________________________________",
"________________________________________________________..3LIIIIIIIIIIIIIIIIIIIIIIIIIIILZAPIIIIIIIIIIIIIIIIIIIIIIIIIIK5 ________________________________________",
"_______________________________________________________.2SLIIIIIIIIIIIIIIIIIIIIIIIIIIIIIPZAPIIIIIIIIIIIIIIIIIIIIIIIIIPK6._______________________________________",
"______________________________________________________ 2SLIIIIIIIIIIIIIIIIIIIIIIIIIIIIIIIPZAPIIIIIIIIIIIIIIIIIIIIIIIIIIK5...oo.ooXo.Xo....______________________",
"_____________________________________________________ 2SLIIIIIIIIIIIIIIIIIIIIIIIIIIIIIIIIIPAZPIIIIIIIIIIIIIIIIIIIIIIIIIIK52qHqeqeqqeqqeq9o _____________________",
"_____________________________________________________%SPIIIIIIIIIIIIIIIIIIIIIIIIIIIIIIIIIIIPDALIIIIIIIIIIIIIIIIIIIIIIIIIIA8W///////////T9# _____________________",
"____________________________________________________2APIIIIIIIIIIIIIIIIIIIIIIIIIIIIIIIIIIIIIPDZLIIIIIIIIIIIIIIIIIIIIIIIIG<H/))))))))))W0Uq _____________________",
"________________________________=-%#####%#%#%#####o2FIIIIIIIIIIIIIIIIIIIIIIIIIIIIIIIIIIIIIIIIPGZLIIIIIIIIIIIIIIIIIIIIIID,U/))))))))))W8U!U._____________________",
"_______________________________.zkhhhkhzhhhhhhhhxaoGPIIIIIIIIIIIIIIIIIIIIIIIIIIIIIIIIIIIIIIIIIPD3KIIIIIIIIIIIIIIIIIIIIA1U^(())))))))Y$Y/^H._____________________",
"____________________________...=xvvvvvvvvvvvvvvvh-DIIIIIIIIIIIIIIIIIIIIIIIIIIIIIIIIIIIIIIIIIIIIIK4DIIIIIIIIIIIIIIIIIPZ1T(())))))))/U8E)(^Uo_____________________",
"___________________________ o-uxvvvvvvvvvvvvvvxh7DIIIIIIIIIIIIIIIIIIIIIIIIIIIIIIIIIIIIIIIIIIIIIIIK4GIIIIIIIIIIIIIIILZ9E^((())))))/e0W/(^^U _____________________",
"__________________________.o-avvvvvvvvvvvvvvvva7FIIIIIIIIIIIIIIIIIIIIIIIIIIIIIIIIIIIIIIIIIIIIIIIIIKZDPIIIIIIIIIIIIK3e!~^^())))))WeeE(((^^U _____________________",
"__________________________.-avvvvvvvvvvvvvvvva7GIIIIIIIIIIIIIIIIIIIIIIIIIIIIIIIIIIIIIIIIIIIIIIIIIIILZDPIIIIIIIIIIG<H~~^(()())))EeeW(((^(^H._____________________",
"_________________________.=hvvvvvvvcvvvvvvvva7GIIIIIIIIIIIIIIIIIIIIIIIIIIIIIIIIIIIIIIIIIIIIIIIIIIIIILADPIIIIIIIPD<J!~^^(/)))))T0UQ()(^(^^Uo_____________________",
"________________________. =====u=======u==uu7KIIIIIIIIIIIIIIIIIIIIIIIIIIIIIIIIIIIIIIIIIIIIIIIIIIIIIIILAAPIIIIIPZwY~~^^(()))))T0U/))((((^^U._____________________",
"_______________________.&auuuuuuuuuuuuuua*&+GIIIIIIIIIIIIIIIIIIIIIIIIIIIIIIIIIIIIIIIIIIIIIIIIIIIIIIIIILAAPIIIPZwY!~~^((())))Y8Y/))/(((^^^U._____________________",
"_______________________ accxxxlxxccxxvxxl=+DPIIIIIIIIIIIIIIIIIIIIIIIIIIIIIIIIIIIIIIIIIIIIIIIIIIIIIIIIIIPAZPIL3wR~~~^^())))/U8T)))))((^(^^U _____________________",
"_______________________.zvvvvvvvvvcvvvvh=7LIIIIIIIIIIIIIIIIIIIIIIIIIIIIIIIIIIIIIIIIIIIIIIIIIIPIIIIIIIIIIIGAD<e!~~^^((()))/e8T))))(((^(^^^U._____________________",
"_______________________XzvvvvvvvvvcvvvvaoX,+,,@,@,,,,,,,+,,,,,+,,+,,,+,,,+OOOOOOOOOOOOOOOOOO@,@@@@@@@@@1@@X1U~~~^^((()))Q00Q))))))(((^(^^U _____________________",
"_______________________.zvvvvvvvvvvvvvvvhhhghhshssssssssspssssp&yssssssp&%__________________%tHTTWETETTTTTQ~~~^^^(()))/T0eQ))))((((^(^^^(U _____________________",
"_______________________.zvvvvvcvvvvvvvvvvvvvvvccclljjggfgfffffd&pffffffd&#_________________.%URRRRERRERERRRRREREEEETEWT0U/)))))))(((^(^^E0o_____________________",
"_______________________.kvvvvvvvvvvvvvvvcvvcvvcccccljjjgggffgfd&pffffffd*t_________________o280000000000000000000000008e/)))))(((((^^^^T9 ______________________",
"_______________________.zvvvvvvvvvvvvvvvvvvcvvvvvcclcljjgggfffd&pffffffd*t_________________.%UWWWWWWWWQWQWWWQWQWQWWWWWee))))())((((^^(Y1o-%o%%%_________________",
"_______________________Xzvvvvvvvvvvvvvvvvcvvvvcvvcccclljjjgggdd&pffffffd*t__________________#T)))))))))))))))))))))))/Ue)))()(((((^(^J>:>>b>>>% ________________",
"_______________________.zvvvvvvvvvvvvvvvvvvvccvvvvvccccllljjggg&pffffffd-t__________________.T)))))))))))))))))))))))/Ue)))(((((^^^^H>mMNMMMM:o.________________",
"_______________________.zvvvvvvvvvvvvvvvvvvvvvvvvcvvvvccclljjjg&pffffffd*t__________________.Y))))))))))))))))))))))))Ue(((((((^(^Ee;mNNNNNN:;b ________________",
"_______________________Xzvvvvvvvvvvvvvvvvvvvvvvvvvvvvcvccclljjg&pffffffd*t__________________.T)))))))))))))))))))))))/He)((((^^(^E0>mNNNNNN:;MBo________________",
"_______________________.zvvvvvvvvvvvvvvvcvvcvvcvvcvvcvcvccclcjh&pffffffd*t__________________$Y))))))))))))))))))))))))Ue((((^^^(T8bNNNNNNn;;MNN ________________",
"_______________________.zvvvvvvvvvvvvvvvvvvcvvvvvvvvcvvvvccccxj&pffffffd*r__________________.T)))))))))))))))))))))))/Ue((^^^(!Y>bNNNNNNn;:MBMNX________________",
"_______________________Xzvvvvvvvvvvvvvvvvvvvvvvvvvvvvcvcccvvccl&iffffffd*t__________________.T))))))))))))))))))))))))U0(^^^^!Y;nNNNNNNb;:NNNNN.________________",
"_______________________.zvvvvvvvvvvvvvvvvccvvvvvvvvvcvcccvcvvcl&idfffffd*t_________________.1T)))))))))))))))))))))))/Ue^^((QU>nNNNNNN:;nNNNNNN ________________",
"_______________________.zvvvvvvvvvvvvvvvvvvvvvvvvvvvvcvccccvvcl&pffffffd*t________________ oqW)))))))))))))))))))))))/Ue(^^E0.:bbbbbn:;nNNNNNNNo________________",
"_______________________ zvvvvvvvvvvvvvvvvvvvvvvvvvvvvvcccccvcxx&pffffffd*t_______________ t.8T))))))))))))))))))))))))Ue^(T9;;::;:;:;.mNNNNNNNNX________________",
"_______________________.zvvvvvvvvvvvvvvvvvvvvvvvvvvvvvvccvvvcvx&pffffffd-t_______________.r:>T))))))))))))))))))))))))Ue^T9bMMMMmmmmm.NNNNMNNNN ________________",
"_______________________.zvvvvvvvvvvvvvvvvvvvvvvvvvvvvvvvcvcvvvx&pffffffd*t_______________.r>>T)))))))))))))))))))))))/UeT8nMNNNNNNNNN.NNNNNNNNN.________________",
"_______________________Xzvvvvvvvvvvvvvvvvvvvvvvvvvvvvvvvvvvvvvx&pffffffd*t_______________.r:bE)))))))))))))))))))))))/Y$8bNNNNNNNNNNB.NNNNNNNNNX________________",
"_______________________.zvvvvvvvvvvvvvvvvvvvvvvvvvvvvvvvvvvvvcx&pffffffd*t_______________.r:>10w00w00w0w00w00w00w00000$.mNNNNNNNNNNNN.NNNNNNNNN ________________",
"_______________________.zvvvvvvvvvvvvvvvvvvvvvvvvvvvvvvvvvvvvvx&pffffffd-t_______________.r:Nnbbbbbbb:bb:bb:b:bbb:bbbbbMNNNNNNNNNNNNN.NNNNNNNNN.________________",
"_______________________ zvvvvvvvvvvvvvvvvvvvvvvvvvvvvvvvvvvvvvx&pffffffd*r_______________.r:CCCCCCCCVBBNNNNNBNNBNNNNNNNNNNNNNNNNNNNNN.NNNNNNNNN ________________",
"_______________________.zvvvvvvvvvvvvvvvvvvvvvvvvvvvvvvvvvvvvvx&pffffffd-t_______________.rbCVVVVVVBBNNNBNNNNNNNNNNNNNNNNNNNNNNNNNNNB.NNNNNNNNN.________________",
"_______________________.zvvvvvvvvvvvvvvvvvvvvvvvvvvvvvvvvvvvvvx&pffffffd*t_______________@rbCCVVVVVVBBBNNNBNNBNNNBNNNBNBNBNNNNBNBBBNN.NNNNNNNNNX________________",
"_______________________Xzvvvvvvvvvvvvvvvvvvvvvvvvvvvvvvvvvvvvvx&pffffffd*t_______________or:CVVVVVVVBBBBBBBNBBNBBBBBBBBBBBBBBBBBBBBBN.NNNNNNNNN.________________",
"_______________________.zvvvvvvvvvvvvvvvvvvvvvvvvvvvvvvvvvvvvvx&pffffffd*t_______________.r:CVVVVVVVVVVBBBBBBBBBBBBBBBBBBVBBBVVBVVVVB.NNNMNNNNNX________________",
"_______________________Xzvvvvvvvvvvvvvvvvvvvvvvvvvvvvvvvvvvvvvx&pffffffd&._______________ .:CVVVVVVVVVBVVVBVVBVVVBBVVVVVVVVVVVVVVVVVB.NNNNNNNNN ________________",
"_______________________.zvvvvvvvvvvvvvvvvvvvvvvvvvvvvvvvvvvvvvx&pffffffd*trrrrrrrrrrrrrrrr>nCVVVVVVVVVVVVVVVVVVVVVVVVVVVVVVVVVVVVVVVB.NNNNNNNNN ________________",
"_____________________ %ozvvvvvvvvvvvvvvvvvvvvvvvvvvvvvvvvvvvvvx&pffffffd&<4444444444444433@nCVCVVVVVVVVVVVVVVVVVVVVVVVVVVCVVVVVVVVVVB.BNNNNNNNNX________________",
"____________________ %6Ozvvvvvvvvvvvvvvvvvvvvvvvvvvvvvvvvvvvvvx&pfffffff*GIIIIIIIIIIIIIIIIZnCVVVVVVCVVVVVVVVVVVVVVCVCVVVVVVVVVVVVVVVB.NNNNNNNNN.________________",
"___________________ o5L<zvvvvvvvvvvvvvvvvvvvvvvvvvvvvvvvvvvvvvx&pffffffs*GIIIIIIIIIIIIIIIP4nCVVVVVVVVVVVVVVVVVVCVVVVVVVVVVVVVVVCVVVVB.NNNNNNNNmX..______________",
"__________________ @5LI<zvvvvvvvvvvvvvvvvvvvvvvvvvvvvvvvvvvvvvx&pffffds&3PIIIIIIIIIIIIIIII5nCVVVVVVVVVVVVVVVVVVVVVVVVVVVVVVVVVVVVVVVB.NNNNNNMn>HUe$.#.__________",
"_________________ OZLII<zvvvvvvvvvvvvvvvvvvvvvvvvvvvvvvvvvvvvvx&pfffdp*ZLIIIIIIIIIIIIIIIIP5bCVVVVVVVVVVVVVVVVVVVVVVVVVVVVVVVVVVVVVVVB.BNNNNN:>Y^^WTYU8 _________",
"________________%+APIII<kvvvvvvvvvvvvvvvvvvvvvvvvvvvvvvvvvvvvvx&pffduoAPIIIIIIIIIIIIIIIIII5nCVCVVVVVVVVVVVVVVVVVVVVVVVVVVVVVVVVVVVVVN.NNNNm>qY~^(())/T# ________",
"_______________o,GIIIII<kcvcvvvvccvvvvvvvvvvvvvvvvvvvvvvvvvvvvx&pfdy,GPIIIIIIIIIIIIIIIIIIP5nCVVVVVVVVVVVVVVVVVVVVVVVVVVVVVVVVVVVVVVVB.NNNm>eT^^^(())))9 ________",
"______________.6GIIIIII3hllccvvvcccccvvvvvvvvvvvvvvvvvvvvvvvvvx&ps=,GIIIIIIIIIIIIIIIIIIIII5nCVVVVVVVVVVVVVVVVVVVVVVVVVVVVVVVVVVVVVVVB.NNm;eE~^^(())(QY$ ________",
"_____________X<LIIIIIII<hjjljlljlllllcccvvvvvvvvvvvvvvvvvvvvvvl&=&4LIIIIIIIIIIIIIIIIIIIIII5nCVVVVVVVVVVVVVVVVVVVVVVVVVVVVVVVVVVVVVVCB.Bm>U~^^^(((WYU09. ________",
"___________ XZPIIIIIIII<&yyyyyyyyyyyyyyy-u=uyyyyyyyyyyyyyyyyyy=oXZPIIIIIIIIIIIIIIIIIIIIIIP5bCVVVVVVVCVVVVVVVVVVVVVVVVCVVVCVVVVVCVVVVB M.8YUYYUUHe000T~$ ________",
"_________ .+ZPIIIIIIIIIGZZZZZZZZZZZZZZZZZZAAZZZZZZZZZZZZZZZZZZZZGIIIIIIIIIIIIIIIIIIIIIIIIP5:VVVVBVBVVVVVVVVVVVVVVNBVVBBVVBVVBVBBBBBVB.0eHeeeeeeeU/)((^$ ________",
"________ .2ZLLLLLLLLLLLLLPLLPLLPPLLLLPLLPLLLLPLLLPLLLLLPLPLLLLPLLLLLLLLLLLLLLLLLLLLLLLLLLL4;:;;;:;;;;;;;;;;;;;;;;;;>;>;>>>;>>;;>>:>:>0!^~^^~/(())))(^^$ ________",
"________Xo+4433333333333333333333333333333333333333333343333333353333333333333333333333333,OOOOOOOOOOOOOXOOOOOOOO4ADDDDAADDADZ,HJJJJU~~~^^^(^(()))(((^$ ________",
"________ ODDDDDDDDDDDDDDDDDDDDDDDDDDDDDDDDDDDDDDDDDDDDDDDDDDDDDDADDDDDDDDDDDDDDDDDDDDDDDDDDGDGDGGDGDGGDGGDGGDGGA<GIIIIIIIIIIILw~~~~~~~~~~^^^((())()(^^$ ________",
"________ +IIIIIIIIIIIIIIIIIIIIIIIIIIIIIIIIIIIIIIIIIIIIIIIIIIIIIIIIIIIIIIIIIIIIIIIIIIIIIIIIIIIIIIIIIIIIIIIIIIIIIL<KIIIIIIIIIIIKw~~~~~~~~~^^^^^(())()((~$ ________",
"________ +IIIIIIIIIIIIIIIIIIIIIIIIIIIIIIIIIIIIIIIIIIIIIIIIIIIIIIIIIIIIIIIIIIIIIIIIIIIIIIIIIIIIIIIIIIIIIIIIIIIIIL<GIIIIIIIIIIIKw~~~~~~~~~^^^(((()))(((^$ ________",
"________ +IIIIIIIIIIIIIIIIIIIIIIIIIIIIIIIIIIIIIIIIIIIIIIIIIIIIIIIIIIIIIIIIIIIIIIIIIIIIIIIIIIIIIIIIIIIIIIIIIIIIIL<GIIIIIIIIIIIKw~~~~~~~~~~^((((())))((^$ ________",
"________ +IIIIIIIIIIIIIIIIIIIIIIIIIIIIIIIIIIIIIIIIIIIIIIIIIIIIIIIIIIIIIIIIIIIIIIIIIIIIIIIIIIIIIIIIIIIIIIIIIIIIIL<KIIIIIIIIIIIKw~~~~~~~~~^(^(((()())(^^$ ________",
"________ +IIIIIIIIIIIIIIIIIIIIIIIIIIIIIIIIIIIIIIIIIIIIIIIIIIIIIIIIIIIIIIIIIIIIIIIIIIIIIIIIIIIIIIIIIIIIIIIIIIIIIL<GIIIIIIIIIIIK5~~~~~~~~~^^^(()()))(((^$ ________",
"________ +IIIIIIIIIIIIIIIIIIIIIIIIIIIIIIIIIIIIIIIIIIIIIIIIIIIIIIIIIIIIIIIIIIIIIIIIIIIIIIIIIIIIIIIIIIIIIIIIIIIIIL<GIIIIIIIIIIILw~~~~~~~~^^^(((()))))(^^$ ________",
"________ +IIIIIIIIIIIIIIIIIIIIIIIIIIIIIIIIIIIIIIIIIIIIIIIIIIIIIIIIIIIIIIIIIIIIIIIIIIIIIIIIIIIIIIIIIIIIIIIIIIIIIL<KIIIIIIIIIIIKw~~~~~^~^^^(((((()))((^^$ ________",
"________ +IIIIIIIIIIIIIIIIIIIIIIIIIIIIIIIIIIIIIIIIIIIIIIIIIIIIIIIIIIIIIIIIIIIIIIIIIIIIIIIIIIIIIIIIIIIIIIIIIIIIIL<GIIIIIIIIIIIKw~~~~~~^^^^((((())())((^$ ________",
"________ +IIIIIIIIIIIIIIIIIIIIIIIIIIIIIIIIIIIIIIIIIIIIIIIIIIIIIIIIIIIIIIIIIIIIIIIIIIIIIIIIIIIIIIIIIIIIIIIIIIIIIL<GIIIIIIIIIIIKw~~~~~~^^((((()(())))(^^$ ________",
"________ +IIIIIIIIIIIIIIIIIIIIIIIIIIIIIIIIIIIIIIIIIIIIIIIIIIIIIIIIIIIIIIIIIIIIIIIIIIIIIIIIIIIIIIIIIIIIIIIIIIIIIL3GIIIIIIIIIIILw~~~~~^^^(((((()))))(((^$ ________",
"________ +IIIIIIIIIIIIIIIIIIIIIIIIIIIIIIIIIIIIIIIIIIIIIIIIIIIIIIIIIIIIIIIIIIIIIIIIIIIIIIIIIIIIIIIIIIIIIIIIIIIIIL<GIIIIIIIIIIIKw~~~~~^^^((())())))))(^^$ ________",
"________ +IIIIIIIIIIIIIIIIIIIIIIIIIIIIIIIIIIIIIIIIIIIIIIIIIIIIIIIIIIIIIIIIIIIIIIIIIIIIIIIIIIIIIIIIIIIIIIIIIIIIIL<KIIIIIIIIIIILw~~~~~^^^((((()()))((((^$ ________",
"________ +IIIIIIIIIIIIIIIIIIIIIIIIIIIIIIIIIIIIIIIIIIIIIIIIIIIIIIIIIIIIIIIIIIIIIIIIIIIIIIIIIIIIIIIIIIIIIIIIIIIIIL<GIIIIIIIIIIIKw~~~~~^^(((()(())))))(^^$ ________",
"________ +IIIIIIIIIIIIIIIIIIIIIIIIIIIIIIIIIIIIIIIIIIIIIIIIIIIIIIIIIIIIIIIIIIIIIIIIIIIIIIIIIIIIIIIIIIIIIIIIIIIIIL<GIIIIIIIIIIIKw~~~~~^((()(()))())))((^$ ________",
"________ +IIIIIIIIIIIIIIIIIIIIIIIIIIIIIIIIIIIIIIIIIIIIIIIIIIIIIIIIIIIIIIIIIIIIIIIIIIIIIIIIIIIIIIIIIIIIIIIIIIIIIL<KIIIIIIIIIIIK5~~~~^^(((()(()))))()(^^$ ________",
"________ +IIIIIIIIIIIIIIIIIIIIIIIIIIIIIIIIIIIIIIIIIIIIIIIIIIIIIIIIIIIIIIIIIIIIIIIIIIIIIIIIIIIIIIIIIIIIIIIIIIIIIL<GIIIIIIIIIIILw~~~~^^(())()))))))))((^$ ________",
"________ +IIIIIIIIIIIIIIIIIIIIIIIIIIIIIIIIIIIIIIIIIIIIIIIIIIIIIIIIIIIIIIIIIIIIIIIIIIIIIIIIIIIIIIIIIIIIIIIIIIIIIL<GIIIIIIIIIIIKw~~^~^^((()))())))))(((^$ ________",
"________ +IIIIIIIIIIIIIIIIIIIIIIIIIIIIIIIIIIIIIIIIIIIIIIIIIIIIIIIIIIIIIIIIIIIIIIIIIIIIIIIIIIIIIIIIIIIIIIIIIIIIIL3GIIIIIIIIIIIKw~~~~^((()())))))))))(^^$ ________",
"________ +IIIIIIIIIIIIIIIIIIIIIIIIIIIIIIIIIIIIIIIIIIIIIIIIIIIIIIIIIIIIIIIIIIIIIIIIIIIIIIIIIIIIIIIIIIIIIIIIIIIIIL<GIIIIIIIIIIIK9~~~^^^()()))))))))))((^$ ________",
"________ +IIIIIIIIIIIIIIIIIIIIIIIIIIIIIIIIIIIIIIIIIIIIIIIIIIIIIIIIIIIIIIIIIIIIIIIIIIIIIIIIIIIIIIIIIIIIIIIIIIIIIL<GIIIIIIIIIIIK8~~~~^((()))))))))))))(^$ ________",
"________ +IIIIIIIIIIIIIIIIIIIIIIIIIIIIIIIIIIIIIIIIIIIIIIIIIIIIIIIIIIIIIIIIIIIIIIIIIIIIIIIIIIIIIIIIIIIIIIIIIIIIIL<KIIIIIIIIIIIG8~~~^^(())))))))))))(((^$ ________",
"________ +IIIIIIIIIIIIIIIIIIIIIIIIIIIIIIIIIIIIIIIIIIIIIIIIIIIIIIIIIIIIIIIIIIIIIIIIIIIIIIIIIIIIIIIIIIIIIIIIIIIIIL<GIIIIIIIIIIIG8~~~^^((())))))))))()((^$ ________",
"________ +IIIIIIIIIIIIIIIIIIIIIIIIIIIIIIIIIIIIIIIIIIIIIIIIIIIIIIIIIIIIIIIIIIIIIIIIIIIIIIIIIIIIIIIIIIIIIIIIIIIIIL<GIIIIIIIIIIIG8~~~^^(()))))))))))))((^$ ________",
"________ +IIIIIIIIIIIIIIIIIIIIIIIIIIIIIIIIIIIIIIIIIIIIIIIIIIIIIIIIIIIIIIIIIIIIIIIIIIIIIIIIIIIIIIIIIIIIIIIIIIIIIL3GIIIIIIIIIIIG8^~~~^((())))))))))))((^$ ________",
"________ +IIIIIIIIIIIIIIIIIIIIIIIIIIIIIIIIIIIIIIIIIIIIIIIIPIIIIIIIIIIIIIIIIIIIIIIIIIIIIIIIIIIIIIIIIIIIIIIIIIIIIL<GIIIIIIIIIIIG8~~~^^(()))))))))))))((^$ ________",
"________ +IIIIIIIIIIIIIIIIIIIIIIIIIIIIIIIIIIIIIIIIIIIIPPLGGGFGFKLPIIIIIIIIIIIIIIIIIIIIIIIIIIIIIIIIIIIIIIIIIIIIIL<GIIIIIIIIIIIG8~~^~^(()))))))))))))((^$ ________",
"________ +IIIIIIIIIIIIIIIIIIIIIIIIIIIIIIIIIIIIIIIIIPPLGZ3@,@@@@,6ZGLIIIIIIIIIIIIIIIIIIIIIIIIIIIIIIIIIIIIIIIIIIIL<KIIIIIIIIIIIG8~~^^^(()))))))))))))((^$ ________",
"________ +IIIIIIIIIIIIIIIIIIIIIIIIIIIIIIIIIIIIIIIIPD3ZAZO._____ o.@5GPIIIIIIIIIIIIIIIIIIIIIIIIIIIIIIIIIIIIIIIIIL<GIIIIIIIIIIIG8^~~^^(()))))))))))))((^$ ________",
"________ +IIIIIIIIIIIIIIIIIIIIIIIIIIIIIIIIIIIIIIPK4<DGLG@_________ .@ZLIIIIIIIIIIIIIIIIIIIIIIIIIIIIIIIIIIIIIIIIL<GIIIIIIIIIIIG8~~~^^(()))))))))))))((^$ ________",
"________ +IIIIIIIIIIIIIIIIIIIIIIIIIIIIIIIIIIIIIIG<4GLPK3 ___________.26KIIIIIIIIIIIIIIIIIIIIIIIIIIIIIIIIIIIIIIIL3GIIIIIIIIIIIG8~~~^^(()))))))))))))((^$ ________",
"________ +IIIIIIIIIIIIIIIIIIIIIIIIIIIIIIIIIIIIPA,ALLPPKX_____________  ,DIIIIIIIIIIIIIIIIIIIIIIIIIIIIIIIIIIIIIIL<GIIIIIIIIIIIG8~~~^^()))))))))))))(((^$ ________",
"________ +IIIIIIIIIIIIIIIIIIIIIIIIIIIIIIIIIIIIA,GPPPPPG@_______________ @APIIIIIIIIIIIIIIIIIIIIIIIIIIIIIIIIIIIIL<GIIIIIIIIIIIG8~~~~^^(())))))))))))((^$ ________",
"________ +IIIIIIIIIIIIIIIIIIIIIIIIIIIIIIIIIIIA<DPPPPPL5%________________ @AIIIIIIIIIIIIIIIIIIIIIIIIIIIIIIIIIIIIL<KIIIIIIIIIIIG8~~^^^(())))))))))))))(^$ ________",
"________ +IIIIIIIIIIIIIIIIIIIIIIIIIIIIIIIIIIG,DLLPPPPL+__________________.@GIIIIIIIIIIIIIIIIIIIIIIIIIIIIIIIIIIIL<GIIIIIIIIIIIG8^~~~^(())))))))))))(((^$ ________",
"________ +IIIIIIIIIIIIIIIIIIIIIIIIIIIIIIIIIL<ZPPPPPPLLO___________________o5KIIIIIIIIIIIIIIIIIIIIIIIIIIIIIIIIIIL<GIIIIIIIIIIIG8~~~^^(()))))))))))))((^$ ________",
"________ +IIIIIIIIIIIIIIIIIIIIIIIIIIIIIIIII33PPPPPLPPL@___________________.%FPIIIIIIIIIIIIIIIIIIIIIIIIIIIIIIIIIL<KIIIIIIIIIIIG8~~~~^(()))))))))))))((^$ ________",
"________ +IIIIIIIIIIIIIIIIIIIIIIIIIIIIIIIID,KLPPPPPPPD2____________________.@GIIIIIIIIIIIIIIIIIIIIIIIIIIIIIIIIIL<GIIIIIIIIIIIG8~~~^^(()))))))))))))((^$ ________",
"________ +IIIIIIIIIIIIIIIIIIIIIIIIIIIIIIIP<DPPPPPPPPPZt_____________________%5PIIIIIIIIIIIIIIIIIIIIIIIIIIIIIIIIL<GIIIIIIIIIIIG8~~~^^((())))))))))))((^$ ________",
"________ +IIIIIIIIIIIIIIIIIIIIIIIIIIIIIIID<LLPPPLPPPP3._____________________.@GIIIIIIIIIIIIIIIIIIIIIIIIIIIIIIIIL<KIIIIIIIIIIIG8~~~^^(())))))))))))(((^$ ________",
"________ +IIIIIIIIIIIIIIIIIIIIIIIIIIIIIII34LPPPPPPPPP<_______________________%5IIIIIIIIIIIIIIIIIIIIIIIIIIIIIIIIL<GIIIIIIIIIIIG8^~~~^(()))))))))))))((^$ ________",
"________ +IIIIIIIIIIIIIIIIIIIIIIIIIIIIIIK<GPPPLPPPPPP3________________________@KIIIIIIIIIIIIIIIIIIIIIIIIIIIIIIIL<GIIIIIIIIIIIG8~~~~^((())))))))))))((^$ ________",
"________ +IIIIIIIIIIIIIIIIIIIIIIIIIIIIIIZ4KPPPPPPPPPP,________________________%ZIIIIIIIIIIIIIIIIIIIIIIIIIIIIIIIL3GIIIIIIIIIIIG8~~^~^(()))))))))))))((^$ ________",
"________ +IIIIIIIIIIIIIIIIIIIIIIIIIIIIIL3DLPPPPPPPPPIO________________________%,IIIIIIIIIIIIIIIIIIIIIIIIIIIIIIIL<GIIIIIIIIIIIG8^~~^^(()))))))))))))((^$ ________",
"________ +IIIIIIIIIIIIIIIIIIIIIIIIIIIIID<KPPPPLPPPPPPO_________________________,GIIIIIIIIIIIIIIIIIIIIIIIIIIIIIIL3GIIIIIIIIIIIG8~~~~^(()))))))))))))((^$ ________",
"________ +IIIIIIIIIIIIIIIIIIIIIIIIIIIIIZ4LPPPPPPPPPPA%_________________________tZIIIIIIIIIIIIIIIIIIIIIIIIIIIIIIL<GIIIIIIIIIIIG8~~~^^(()))))))))))))((^$ ________",
"________ +IIIIIIIIIIIIIIIIIIIIIIIIIIIIL4DPPPPPPPPPPZXo_________________________o5IIIIIIIIIIIIIIIIIIIIIIIIIIIIIIL<GIIIIIIIIIIIZ8^~~^^((())))))))))))((^$ ________",
"________ +IIIIIIIIIIIIIIIIIIIIIIIIIIIIK3GPPPLPPPPL4X ___________________________,PIIIIIIIIIIIIIIIIIIIIIIIIIIIIIL<GIIIIIIIIIPZ@9~~~~^((())))))))))))((^$ ________",
"________ +IIIIIIIIIIIIIIIIIIIIIIIIIIIIG3KLPPPPPPK<X ____________________________2KIIIIIIIIIIIIIIIIIIIIIIIIIIIIIL<GIIIIIIIIL4t 1~~~^^(()))))))))))))((^$ ________",
"________ +IIIIIIIIIIIIIIIIIIIIIIIIIIIIA4LPPPPPPG,. _____________________________tDIIIIIIIIIIIIIIIIIIIIIIIIIIIIIL3GIIIIIIIL,X  8~~~^^(()))))))))))))((^$ ________",
"________ +IIIIIIIIIIIIIIIIIIIIIIIIIIIIZZPPPPPPF@o_______________________________tZIIIIIIIIIIIIIIIIIIIIIIIIIIIIIL<GIIIIIIG@ __ #~~~^^(()))))))))))))((^$ ________",
"________ +IIIIIIIIIIIIIIIIIIIIIIIIIIIPZAPPPPLA@%________________________________tZIIIIIIIIIIIIIIIIIIIIIIIIIIIIIL<GIIIIPA@.___ 1~~~^^((())))))))))))((^$ ________",
"________ +IIIIIIIIIIIIIIIIIIIIIIIIIIILZDPLPLZX__________________________________ ZPIIIIIIIIIIIIIIIIIIIIIIIIIIIIL<KIIILZ%.____ 2E~~^^(()))))))))))))((!8 ________",
"________ +IIIIIIIIIIIIIIIIIIIIIIIIIIILZDPPK4X___________________________________ 5PIIIIIIIIIIIIIIIIIIIIIIIIIIIIL<GIIK3@o_____ %9Y!^^())))))))))))))(EH. ________",
"________ +IIIIIIIIIIIIIIIIIIIIIIIIIIIL3GPG,X____________________________________X5LIIIIIIIIIIIIIIIIIIIIIIIIIIIIL<GIG,.________..#eUYW!))))))))))/WYH1. _________",
"________ +IIIIIIIIIIIIIIIIIIIIIIIIIIIK3KD6. ____________________________________.6KIIIIIIIIIIIIIIIIIIIIIIIIIIIIL3GD6.___________ ..$qqeeUUHUUUUeeq$  ___________",
"________ +IIIIIIIIIIIIIIIIIIIIIIIIIIIK342o _____________________________________ SKIIIIIIIIIIIIIIIIIIIIIIIIIIIIL<<2o________________o. X......  o.______________",
"________ +IIIIIIIIIIIIIIIIIIIIIIIIIIIL,X. ______________________________________.SLIIIIIIIIIIIIIIIIIIIIIIIIIIIIL, . ____________________________________________",
"________ .XXXXXXXXXXXXXXXXXXXXXXXXXXXX  ________________________________________.%XXXXXXXXXXXXXXXXXXXXXXXXXXXXXX. ______________________________________________",
"________________________________________________________________________________________________________________________________________________________________",
"________________________________________________________________________________________________________________________________________________________________",
"________________________________________________________________________________________________________________________________________________________________",
"________________________________________________________________________________________________________________________________________________________________",
"________________________________________________________________________________________________________________________________________________________________",
"________________________________________________________________________________________________________________________________________________________________",
"________________________________________________________________________________________________________________________________________________________________",
"________________________________________________________________________________________________________________________________________________________________"
};

