/* XPM */
static char *bxKlotz120[] = {
/* columns rows colors chars-per-pixel */
"160 160 86 1",
"  c #000000",
". c #130a0c",
"X c #171814",
"o c #1d122c",
"O c #01370b",
"+ c #2b0f0f",
"@ c #3b0000",
"# c #2c2b04",
"$ c #332c2e",
"% c #11064c",
"& c #000069",
"* c #00007e",
"= c #150876",
"- c #262470",
"; c #07540e",
": c #056415",
"> c #146912",
", c #2f5d0a",
"< c #4c0d0e",
"1 c #411f00",
"2 c #5b0101",
"3 c #451c23",
"4 c #520024",
"5 c #5a2f27",
"6 c #680000",
"7 c #6a180b",
"8 c #7d0202",
"9 c #4a014b",
"0 c #4d4d01",
"q c #5b5413",
"w c #696900",
"e c #7e6b00",
"r c #777402",
"t c #4e6060",
"y c #6b5a62",
"u c #6c6c5d",
"i c #0f0892",
"p c #1119a6",
"a c #192794",
"s c #223082",
"d c #232fb0",
"f c #0a10cb",
"g c #0000e4",
"h c #0000fe",
"j c #0e17ff",
"k c #1927ca",
"l c #1927ff",
"z c #2438ce",
"x c #253afd",
"c c #2b40c1",
"v c #2d48fe",
"b c #314dff",
"n c #038e19",
"m c #07a81e",
"M c #07b522",
"N c #09c926",
"B c #03d929",
"V c #00e52c",
"C c #00f22f",
"Z c #00f430",
"A c #8a0101",
"S c #8f1515",
"D c #970101",
"F c #8a2222",
"G c #a70000",
"H c #a91112",
"J c #b70001",
"K c #887800",
"L c #c70000",
"P c #d40000",
"I c #e50000",
"U c #fe0000",
"Y c #928f03",
"T c #ad9101",
"R c #b5ac00",
"E c #ccb000",
"W c #ecbc00",
"Q c #d0c800",
"! c #d9d800",
"~ c #e6d300",
"^ c #fecd00",
"/ c #fed900",
"( c #e6e600",
") c #fee800",
"_ c #fefb00",
"` c None",
/* pixels */
"````````````````````````````````````````````````````````````````````````````````````````````````````````````````````````````````````````````````````````````````",
"````````````````````````````````````````````````````````````````````````````````````````````````````````````````````````````````````````````````````````````````",
"````````````````````````````````````````````````````````````````````````````````````````````````````````````````````````````````````````````````````````````````",
"````````````````````````````````````````````````````````````````````````````````````````````````````````````````````````````````````````````````````````````````",
"````````````````````````````````````````````````````````````````````````````````````````````````````````````````````````````````````````````````````````````````",
"````````````````````````````````````````````````````````````````````````````````````````````````````````````````````````````````````````````````````````````````",
"````````````````````````````````````````````````````````````````````````````````````````````````````````````````````````````````````````````````````````````````",
"````````````````````````````````````````````````````````````````````````````````````````````````````````````````````````````````````````````````````````````````",
"````````````````````````````````````````````````````````````````````````````````````````````````````````````````````````````````````````````````````````````````",
"````````````````````````````````````````````````````````````````````````````````````````````````````````````````````````````````````````````````````````````````",
"````````````````````````````````````````````````````````````````````````````````````````````````````````````````````````````````````````````````````````````````",
"````````````````````````````````````````````````````````````````````````````````````````````````````````````````````````````````````````````````````````````````",
"````````````````````````````````````````````````````````````````````````````````````````````````````````````````````````````````````````````````````````````````",
"````````````````````````````````````````````````````````````````````````````````````````````````````````````````````````````````````````````````````````````````",
"````````````````````````````````````````````````````````````````````````````````````````````````````````````````````````````````````````````````````````````````",
"````````````````````````````````````````````````````````````````````````````````````````````````````````````````````````````````````````````````````````````````",
"````````````````````````````````````````````````````````````````````````````````````````````````````````````````````````````````````````````````````````````````",
"````````````````````````````````````````````````````````````````````````````````````````````````````````````````````````````````````````````````````````````````",
"````````````````````````````````````````````````````````````````````````````````````````````````````````````````````````````````````````````````````````````````",
"````````````````````````````````````````````````````````````````````````````````````````````````````````````````````````````````````````````````````````````````",
"`````````````````````````````````````````````````````````````````````````````````````` .@```````````````````````````````````````````````````````````````````````",
"`````````````````````````````````````````````````````````````````````````````````````X@GL@``````````````````````````````````````````````````````````````````````",
"````````````````````````````````````````````````````````````````````````````````````o$LUUJ@`````````````````````````````````````````````````````````````````````",
"```````````````````````````````````````````````````````````````````````````````````.7IUUUUJ@````````````````````````````````````````````````````````````````````",
"`````````````````````````````````````````````````````````````````````````````````` 8IUUUUUUL@X``````````````````````````````````````````````````````````````````",
"````````````````````````````````````````````````````````````````````````````````.$AIUUUUUUUUP5.`````````````````````````````````````````````````````````````````",
"```````````````````````````````````````````````````````````````````````````````.5GUUUUUUUUUUUPF.````````````````````````````````````````````````````````````````",
"``````````````````````````````````````````````````````````````````````````````.+JUUUUUUUUUUUUUPyX```````````````````````````````````````````````````````````````",
"````````````````````````````````````````````````````````````````````````````` <LUUUUUUUUUUUUUUUL5X``````````````````````````````````````````````````````````````",
"``````````````````````````````````````````````````````````````````````````` .6IUUUUUUUUUUUUUUUUUPFX`````````````````````````````````````````````````````````````",
"``````````````````````````````````````````````````````````````````````````.$8IUUUUUUUUUUUUUUUUUUUP5o````````````````````````````````````````````````````````````",
"``````````````````````````````````````````````````````````````````````````$AIUUUUUUUUUUUUUUUUUUUUUP5.```````````````````````````````````````````````````````````",
"````````````````````````````````````````````````````````````````````````.58GIUUUUUUUUUUUUUUUUUUUUUUP5X``````````````````````````````````````````````````````````",
"```````````````````````````````````````````````````````````````````````.5JIJAIUUUUUUUUUUUUUUUUUUUUUUI5.`````````````````````````````````````````````````````````",
"```````````````````````````````````````````````````````````````````````7LUUUJAPUUUUUUUUUUUUUUUUUUUUUUP7X````````````````````````````````````````````````````````",
"`````````````````````````````````````````````````````````````````````.7PUUUUUPAPUUUUUUUUUUUUUUUUUUUUUUIF.```````````````````````````````````````````````````````",
"````````````````````````````````````````````````````````````````````.7PUUUUUUULAPUUUUUUUUUUUUUUUUUUUUUUI7o``````````````````````````````````````````````````````",
"````````````````````````````````````````````````````````````````````7PUUUUUUUUUPALUUUUUUUUUUUUUUUUUUUUUUI7.`````````````````````````````````````````````````````",
"``````````````````````````````````````````````````````````````````.8IUUUUUUUUUUUPALUUUUUUUUUUUUUUUUUUUUUUIFX````````````````````````````````````````````````````",
"`````````````````````````````````````````````````````````````````.7IUUUUUUUUUUUUUPAJUUUUUUUUUUUUUUUUUUUUUUI7.```````````````````````````````````````````````````",
"`````````````````````````````````````````````````````````````````7IUUUUUUUUUUUUUUUIAJUUUUUUUUUUUUUUUUUUUUUUP7X``````````````````````````````````````````````````",
"```````````````````````````````````````````````````````````````.SUUUUUUUUUUUUUUUUUUIDGIUUUUUUUUUUUUUUUUUUUUUIF.`````````````````````````````````````````````````",
"``````````````````````````````````````````````````````````````.AIUUUUUUUUUUUUUUUUUUUIGGIUUUUUUUUUUUUUUUUUUUUUIS.````````````````````````````````````````````````",
"``````````````````````````````````````````````````````````````AIUUUUUUUUUUUUUUUUUUUUUIGDIUUUUUUUUUUUUUUUUUUUUUIS.```````````````````````````````````````````````",
"``````````````````````````````````````````````````````````` 5HIUUUUUUUUUUUUUUUUUUUUUUUUJAIUUUUUUUUUUUUUUUUUUUUUIH.``````````````````````````````````````````````",
"```````````````````````````````````````````````````````````5HIUUUUUUUUUUUUUUUUUUUUUUUUUIJDPUUUUUUUUUUUUUUUUUUUUUIS+....oooXXo.oX````````````````````````````````",
"``````````````````````````````````````````````````````````$HIUUUUUUUUUUUUUUUUUUUUUUUUUUUUJAIUUUUUUUUUUUUUUUUUUUUUISqYYYYYYYYYYY#.```````````````````````````````",
"```````````````````````````````````````````````````````` 3HUUUUUUUUUUUUUUUUUUUUUUUUUUUUUUULAIUUUUUUUUUUUUUUUUUUUUID0_________!rw.```````````````````````````````",
"````````````````````````````````````````-XXXX#XX#XXXX#+o<HUUUUUUUUUUUUUUUUUUUUUUUUUUUUUUUUULALUUUUUUUUUUUUUUUUUUI8wQ________(wY! ```````````````````````````````",
"```````````````````````````````````````.cddaddddddddddaoLUUUUUUUUUUUUUUUUUUUUUUUUUUUUUUUUUUULALUUUUUUUUUUUUUUUUI8wW________!qY(/.```````````````````````````````",
"`````````````````````````````````````X.ivbbbbbbbbbbbbz9HUUUUUUUUUUUUUUUUUUUUUUUUUUUUUUUUUUUUUPAJIUUUUUUUUUUUUUP7K/))______RqR))).```````````````````````````````",
"````````````````````````````````````.$dxbbbbbbbbbbbbz9JUUUUUUUUUUUUUUUUUUUUUUUUUUUUUUUUUUUUUUUIAHUUUUUUUUUUUUJ7T~/))_____RqR)))/.```````````````````````````````",
"```````````````````````````````````Oodbbbbbvbbbbbbvz9LUUUUUUUUUUUUUUUUUUUUUUUUUUUUUUUUUUUUUUUUUIDDUUUUUUUUUUJ7E^/))_____YqQ))/)/.```````````````````````````````",
"`````````````````````````````````` -zbbvbbbvbbbvbbk9PUUUUUUUUUUUUUUUUUUUUUUUUUUUUUUUUUUUUUUUUUUUUGDIUUUUUUUAqE^/)))___(rw!_)))//.```````````````````````````````",
"````````````````````````````````` .*aaaaaaaaaaaaaa4PUUUUUUUUUUUUUUUUUUUUUUUUUUUUUUUUUUUUUUUUUUUUUIGDIUUUUIAwE///)____!rK(__))///.```````````````````````````````",
"```````````````````````````````` %apipipiipipiii%+LUUUUUUUUUUUUUUUUUUUUUUUUUUUUUUUUUUUUUUUUUUUUUUUIGDUUUI6wW^^/)))__!wK(__)))//~.```````````````````````````````",
"```````````````````````````````` sbbbbbbbvvvvvva4LUUUUUUUUUUUUUUUUUUUUUUUUUUUUUUUUUUUUUUUUUIUUUUUUUUJAPL7Y^^^/))___Q0Y___))))/)/ ```````````````````````````````",
"````````````````````````````````.sbbbbvbbbbbvvp.DJGGGGGJGGDGGGGGGGGGGGGGGGDDDDDDDDDDDDDDDDDSADDADDDDD627T^^/)))___RwR(___)))////.```````````````````````````````",
"```````````````````````````````` sbbbbbbbvbbbbzpaiasiiiiiiiii==ii&o*ii=ii%$. . ...  .  . .t5eKYKYKYYYYTE^///))___Y0R_____)))//)/.```````````````````````````````",
"````````````````````````````````.sbbbbbbbbbbvvbvbbbbvvxxljjjjhhhhf&ghhhhh*X`````````````` $REEEEEEETEEEEEEEEEQQQrw!______)//)/(To```````````````````````````````",
"````````````````````````````````.sbbbbbbbbvbbbbbbbbbvvvxxlljjjhhhf&ghhhhh*u``````````````X$wwwwwwwwwwwwwwwwwwwww#!___)_)))//)~Y+````````````````````````````````",
"```````````````````````````````` sbbbbbbbbbbbbbbbbbbbbvvvxxlljjjhg&ghhhhh*u``````````````.#R((((((((~((((((((((Q0______))//)/w+$5$$$X```````````````````````````",
"```````````````````````````````` sbbbbbbbbbbbbbbbbbbbbbbvvxxlljjjf&ghhhhh*u```````````````#Q___________________!#__))))))//~q:mmmnm:. ``````````````````````````",
"````````````````````````````````.sbbbbbbbbbbbbbbbbbbbbvbbbvvxxlljf&ghhhhh*u```````````````#Q___________________!0)__)))///RwnNNNNNn:; ``````````````````````````",
"```````````````````````````````` sbbbbbbbbbbbbbbbbbbvbbvbbbvvvxxlf&ghhhhh*u```````````````#!___________________!0))))))//E,nMNNNNn;M: ``````````````````````````",
"```````````````````````````````` sbbbbbbbbbbbbbbbbbbbbbbvbvbbvvxlk&ghhhhh*u```````````````XQ___________________(0)))////Y;MNNNNM::MN> ``````````````````````````",
"````````````````````````````````.sbbbbbbbbbbbbbbbbbbbbbbbbvbvbvvvk&ghhhhh*u```````````````X!___________________!#)/)///K>MNNNNm::NNN:.``````````````````````````",
"```````````````````````````````` sbbbbbbbbbbbbbbbbbbbbbvbvvvvvbbvk&ghhhhh*u```````````````#!___________________!0(//)/K>MNNNNm;nNNNN: ``````````````````````````",
"```````````````````````````````` sbbbbbbbbbbbbbbbbbbbbbbbvvvvbvbbz&ghhhhh*u``````````````Xr(___________________(#)//R0>mmmmmm;nNNNNN:.``````````````````````````",
"```````````````````````````````` sbbbbbbbbbbbbbbbbbbbbbbbbbvvvvvvz&ghhhhh*u`````````````$O,(___________________!0//E,O;:;::;OmNNNNNN: ``````````````````````````",
"````````````````````````````````.sbbbbbbbbbbbbbbbbbbbbbbbbbbvbvbbz&ghhhhh*u`````````````y:,!___________________!0/R,mMMMMMMmONNNNNNM:.``````````````````````````",
"```````````````````````````````` sbbbbbbbbbbbbbbbbbbbbbbbbbbbbbbbz&ghhhhh*u`````````````y:,(___________________(#R,MNNNNNNNNOMNNNNNN> ``````````````````````````",
"```````````````````````````````` sbbbbbbbbbbbbbbbbbbbbbbbbbbbvbbbz&ghhhhh*u`````````````y:,YRRERRRERRRERERRERRRT#,mNNNNNNNNNONNNNNNN: ``````````````````````````",
"```````````````````````````````` sbbbbbbbbbbbbbbbbbbbbbbbbbbbbbbbz&ghhhhh*u`````````````u:m>>>>>>>>>>>>>>>>>>>>>:MNNNNNNNNNNONNNNNNN:.``````````````````````````",
"````````````````````````````````.sbbbbbbbbbbbbbbbbbbbbbbbbbbbbbbbz&ghhhhh*u`````````````y:ZZZZZCBBNNNNNNNNNNNNNNNNNNNNNNNNNNONNNNNNN: ``````````````````````````",
"```````````````````````````````` sbbbbbbbbbbbbbbbbbbbbbbbbbbbbbbbc&ghhhhh*u`````````````u:CVVVVVBBNNNNNNNNNNNNNNNNNNNNNNNNNNONNNNNNN: ``````````````````````````",
"```````````````````````````````` sbbbbbbbbbbbbbbbbbbbbbbbbbbbbbbbc&ghhhhh*u`````````````y:ZVVVVVVBBNNNNNNNBNNNBNBNNBBBNBBNBNONNNNNNN:.``````````````````````````",
"````````````````````````````````.-bbbbbbbbbbbbbbbbbbbbbbbbbbbbbbbz&ghhhhhiu`````````````u:ZVVVVVVBBBBBBBBBBBBBBBBBBBBBBBVBVBONNNNNNN: ``````````````````````````",
"```````````````````````````````` sbbbbbbbbbbbbbbbbbbbbbbbbbbbbbbbz&ghhhhh*$`````````````$:ZVVVVVVVVVVBVBVBBVBVVVVBVVBVBVVVVBONNNNNNN:.``````````````````````````",
"````````````````````````````````.sbbbbbbbbbbbbbbbbbbbbbbbbbbbbbbbz&ghhhhh*$tttttttttttttt:ZCVVVVVVVVVVVVVVVVVVVVVVVVVVVVVVVBONNNNNNN> ``````````````````````````",
"```````````````````````````````X$sbbbbbbbbbbbbbbbbbbbbbbbbbbbbbbbz&ghhhhhi2AAAAAAAAAAAAA2nCVVVVVVVVVVVVVVBVVVVVVVVVVVVVVVVVBONNNNMNN: ``````````````````````````",
"``````````````````````````````.3A-bbbbbbbbbbbbbbbbbbbbbbbbbbbbbbbz&ghhhhhiGUUUUUUUUUUUUUJnCVVVVVVVVVVVVVVVVVVVVVVVVVVVVVVVVBONNNNNNN: ``````````````````````````",
"`````````````````````````````.3JJsbbbbbbbbbbbbbbbbbbbbbbbbbbbbbbbz&ghhhhg%JUUUUUUUUUUUUUGnZVVVVVVVVVVVVVVVVVVVVVVVVVVVVVVVVBONNNNNNm;0$`````````````````````````",
"```````````````````````````` 6PUJ-bbbbbbbbbbbbbbbbbbbbbbbbbbbbbbbz&ghhhioGUUUUUUUUUUUUUUGnZVVVVVVVVVVCVVVVVVVVVVVVVVVVVVVVVBONNNNNm0E)RYrq.`````````````````````",
"``````````````````````````.X6IUULsbbbbbbbbbbbbbbbbbbbbbbbbbbbbbbbz&ghgi4GUUUUUUUUUUUUUUUGnVVVVVVVVVVVVVVVVVVVVVVVVVVVVVVVVVVONNNN>,E/))_(Q0 ````````````````````",
"``````````````````````````$AIUUUJsvvvvvbbvbbbbbbbbbbbbbbbbbbbbbbbz&ggi4PIUUUUUUUUUUUUUUUGnCVVVVVVVVVVVVVVVVVVVVVVVVVVVVVVVVBONNN>wE//))___Y.````````````````````",
"````````````````````````.+GUUUUUL-xxxxxvvvxvvbbvbbbbbbbbbbbbbvbbvz&f%AIUUUUUUUUUUUUUUUUUGnCVVVVVVVVVVVVVVVVVVVVVVVCVVVVVVVVBONM>K^//))(~!Y# ````````````````````",
"``````````````````````` @GUUUUUUL&ffffkfffkkkfkkkkkkkkkkkkkkkdkkkp%%DIUUUUUUUUUUUUUUUUUUGnCVVVVVVVVVVVVVVVVVVVVVVVVVVVVBVVVVOm;wQEEQERYrrY0 ````````````````````",
"```````````````````````@JUUUUUUUP244444444444444<444444444444444442GUUUUUUUUUUUUUUUUUUUUJnZZCCCCCCCCZZCCCCCVVCCCZCCCCZZCZZZVO,0wwwwwwwEQQ/e ````````````````````",
"```````````````````` $7PIIIPIIIPIIIPIIPIIIPIIPIPIIPIIPIPIIIPPIPIIIPIPPIPIPIIIPIPPIIPPIIPGO:::::::::::::::::;;>>>>>>>>>>>>>,,0~^^//~/))_))/e ````````````````````",
"```````````````````` +2666666666666666666666666666666666666666666666666666666666666666662@@@@@@@@@@@@@@@@@.2JJGJJJJJGG6KTTKTW^^///)))__))/e ````````````````````",
"```````````````````` 6PLPPPPLPPPLPPPPPPLPPPLPPPPPPPPPPPLPPPPPPPPPPPLPPPPPLPPPPPPPPPPPPPLPPPLPPLPPPPPPPLPPPJ2UUUUUUUUUU7^^^^^^^^///)))___)/e ````````````````````",
"```````````````````` AUUUUUUUUUUUUUUUUUUUUUUUUUUUUUUUUUUUUUUUUUUUUUUUUUUUUUUUUUUUUUUUUUUUUUUUUUUUUUUUUUUUUL2UUUUUUUUUI7^^^^^^^^///))__)_)/e ````````````````````",
"```````````````````` 8UUUUUUUUUUUUUUUUUUUUUUUUUUUUUUUUUUUUUUUUUUUUUUUUUUUUUUUUUUUUUUUUUUUUUUUUUUUUUUUUUUUUL2UUUUUUUUUI7^^^^^^^////))___))/e ````````````````````",
"```````````````````` 8UUUUUUUUUUUUUUUUUUUUUUUUUUUUUUUUUUUUUUUUUUUUUUUUUUUUUUUUUUUUUUUUUUUUUUUUUUUUUUUUUUUUL2UUUUUUUUUI7^^^^^^^^/)))____))/e ````````````````````",
"```````````````````` 8UUUUUUUUUUUUUUUUUUUUUUUUUUUUUUUUUUUUUUUUUUUUUUUUUUUUUUUUUUUUUUUUUUUUUUUUUUUUUUUUUUUUL2UUUUUUUUUI7^^^^^^////)/_))__)/e ````````````````````",
"```````````````````` 8UUUUUUUUUUUUUUUUUUUUUUUUUUUUUUUUUUUUUUUUUUUUUUUUUUUUUUUUUUUUUUUUUUUUUUUUUUUUUUUUUUUUL2UUUUUUUUUI7^^^^^^^//))))___))/e ````````````````````",
"```````````````````` AUUUUUUUUUUUUUUUUUUUUUUUUUUUUUUUUUUUUUUUUUUUUUUUUUUUUUUUUUUUUUUUUUUUUUUUUUUUUUUUUUUUUL2UUUUUUUUUI7^^^^^///))))_____)/e ````````````````````",
"```````````````````` AUUUUUUUUUUUUUUUUUUUUUUUUUUUUUUUUUUUUUUUUUUUUUUUUUUUUUUUUUUUUUUUUUUUUUUUUUUUUUUUUUUUUL2UUUUUUUUUI7^^^^^///))))))__))/e ````````````````````",
"```````````````````` 8UUUUUUUUUUUUUUUUUUUUUUUUUUUUUUUUUUUUUUUUUUUUUUUUUUUUUUUUUUUUUUUUUUUUUUUUUUUUUUUUUUUUL2UUUUUUUUUI7^^^^^//)))))____)))e ````````````````````",
"```````````````````` 8UUUUUUUUUUUUUUUUUUUUUUUUUUUUUUUUUUUUUUUUUUUUUUUUUUUUUUUUUUUUUUUUUUUUUUUUUUUUUUUUUUUUL2UUUUUUUUUI7^^^^//)))))______)/e ````````````````````",
"```````````````````` AUUUUUUUUUUUUUUUUUUUUUUUUUUUUUUUUUUUUUUUUUUUUUUUUUUUUUUUUUUUUUUUUUUUUUUUUUUUUUUUUUUUUL2UUUUUUUUUI7^^^^^/)))))_)__)_)/e ````````````````````",
"```````````````````` 8UUUUUUUUUUUUUUUUUUUUUUUUUUUUUUUUUUUUUUUUUUUUUUUUUUUUUUUUUUUUUUUUUUUUUUUUUUUUUUUUUUUUL2UUUUUUUUUI7^^^^//))))__)___))/e ````````````````````",
"```````````````````` AUUUUUUUUUUUUUUUUUUUUUUUUUUUUUUUUUUUUUUUUUUUUUUUUUUUUUUUUUUUUUUUUUUUUUUUUUUUUUUUUUUUUL2UUUUUUUUUI7^^^^/)))__)______)/e ````````````````````",
"```````````````````` AUUUUUUUUUUUUUUUUUUUUUUUUUUUUUUUUUUUUUUUUUUUUUUUUUUUUUUUUUUUUUUUUUUUUUUUUUUUUUUUUUUUUL2UUUUUUUUUI7^^^///)_)_______))/e ````````````````````",
"```````````````````` 8UUUUUUUUUUUUUUUUUUUUUUUUUUUUUUUUUUUUUUUUUUUUUUUUUUUUUUUUUUUUUUUUUUUUUUUUUUUUUUUUUUUUL2UUUUUUUUUU7^^^///_))________)/K ````````````````````",
"```````````````````` 8UUUUUUUUUUUUUUUUUUUUUUUUUUUUUUUUUUUUUUUUUUUUUUUUUUUUUUUUUUUUUUUUUUUUUUUUUUUUUUUUUUUUL2UUUUUUUUUI7^^^//))___)_____)_/e ````````````````````",
"```````````````````` 8UUUUUUUUUUUUUUUUUUUUUUUUUUUUUUUUUUUUUUUUUUUUUUUUUUUUUUUUUUUUUUUUUUUUUUUUUUUUUUUUUUUUL2UUUUUUUUUI1^^^^))___________)/e ````````````````````",
"```````````````````` 8UUUUUUUUUUUUUUUUUUUUUUUUUUUUUUUUUUUUUUUUUUUUUUUUUUUUUUUUUUUUUUUUUUUUUUUUUUUUUUUUUUUUL2UUUUUUUUUI1^^^//))__________)/e ````````````````````",
"```````````````````` AUUUUUUUUUUUUUUUUUUUUUUUUUUUUUUUUUUUUUUUUUUUUUUUUUUUUUUUUUUUUUUUUUUUUUUUUUUUUUUUUUUUUL2UUUUUUUUUI1^^^//)__________))/e ````````````````````",
"```````````````````` AUUUUUUUUUUUUUUUUUUUUUUUUUUUUUUUUUUUUUUUUUUUUUUUUUUUUUUUUUUUUUUUUUUUUUUUUUUUUUUUUUUUUL2UUUUUUUUUI1^^//))___________))e ````````````````````",
"```````````````````` 8UUUUUUUUUUUUUUUUUUUUUUUUUUUUUUUUUUUUUUUUUUUUUUUUUUUUUUUUUUUUUUUUUUUUUUUUUUUUUUUUUUUUL2UUUUUUUUUI1^^^//)___________)/e ````````````````````",
"```````````````````` 8UUUUUUUUUUUUUUUUUUUUUUUUUUUUUUUUUUUUUUUIIUUIUUUUUUUUUUUUUUUUUUUUUUUUUUUUUUUUUUUUUUUUL2UUUUUUUUUI1^^^^)))___________/e ````````````````````",
"```````````````````` 8UUUUUUUUUUUUUUUUUUUUUUUUUUUUUUUUUUIUPG8<<<<<7SLIUUUUUUUUUUUUUUUUUUUUUUUUUUUUUUUUUUUUL2UUUUUUUUUI1^^^/)___________))/e ````````````````````",
"```````````````````` AUUUUUUUUUUUUUUUUUUUUUUUUUUUUUUUUUIGAD8X ````XX+8LUUUUUUUUUUUUUUUUUUUUUUUUUUUUUUUUUUUL2UUUUUUUUUI1^^^//)___________))e ````````````````````",
"```````````````````` 8UUUUUUUUUUUUUUUUUUUUUUUUUUUUUUUUL66JPJ+``````` .3GIUUUUUUUUUUUUUUUUUUUUUUUUUUUUUUUUUL2UUUUUUUUUI1^^//))___________)/e ````````````````````",
"```````````````````` AUUUUUUUUUUUUUUUUUUUUUUUUUUUUUUUD2GIII2```````````$2LUUUUUUUUUUUUUUUUUUUUUUUUUUUUUUUUL2UUUUUUUUUI1^^^//____________)/e ````````````````````",
"```````````````````` 8UUUUUUUUUUUUUUUUUUUUUUUUUUUUUID6JIIII.````````````.3LUUUUUUUUUUUUUUUUUUUUUUUUUUUUUUUL2UUUUUUUUUI1^^^/))___________)/e ````````````````````",
"```````````````````` 8UUUUUUUUUUUUUUUUUUUUUUUUUUUUUD2PIIIIJ$````````````` 3LUUUUUUUUUUUUUUUUUUUUUUUUUUUUUUL2UUUUUUUUUI1^^//))___________)/e ````````````````````",
"```````````````````` 8UUUUUUUUUUUUUUUUUUUUUUUUUUUUG6LIIIII8```````````````.2PUUUUUUUUUUUUUUUUUUUUUUUUUUUUUL2UUUUUUUUUI1^^^^/)__________)_/e ````````````````````",
"```````````````````` 8UUUUUUUUUUUUUUUUUUUUUUUUUUUP2JIIIIII6````````````````X7UUUUUUUUUUUUUUUUUUUUUUUUUUUUUL2UUUUUUUUUI1^^^/))____________/e ````````````````````",
"```````````````````` AUUUUUUUUUUUUUUUUUUUUUUUUUUU6DIIIIIIP7````````````````.$JUUUUUUUUUUUUUUUUUUUUUUUUUUUUL2UUUUUUUUUI1^^^^))___________)/e ````````````````````",
"```````````````````` AUUUUUUUUUUUUUUUUUUUUUUUUUUG6IIIIIIIJ5``````````````````7PUUUUUUUUUUUUUUUUUUUUUUUUUUUL2UUUUUUUUUI1^^^//)__________))/e ````````````````````",
"```````````````````` 8UUUUUUUUUUUUUUUUUUUUUUUUUI6JIIIPIIIJ5``````````````````+GUUUUUUUUUUUUUUUUUUUUUUUUUUUL2UUUUUUUUUI1^^^/))____________/e ````````````````````",
"```````````````````` 8UUUUUUUUUUUUUUUUUUUUUUUUUL2PPIIIIIIG.``````````````````.5IUUUUUUUUUUUUUUUUUUUUUUUUUUL2UUUUUUUUUI1^^^^))___________)/e ````````````````````",
"```````````````````` AUUUUUUUUUUUUUUUUUUUUUUUUU8AIIIIIIIIJ.```````````````````+JUUUUUUUUUUUUUUUUUUUUUUUUUUL2UUUUUUUUUI1^^^//)___________)/e ````````````````````",
"```````````````````` 8UUUUUUUUUUUUUUUUUUUUUUUUU2LIIIIIIIIG.```````````````````$7UUUUUUUUUUUUUUUUUUUUUUUUUUL2UUUUUUUUUI1^^^/))___________)/e ````````````````````",
"```````````````````` AUUUUUUUUUUUUUUUUUUUUUUUUG6IIIIIIIIIA.```````````````````.+IUUUUUUUUUUUUUUUUUUUUUUUUUL2UUUUUUUUUI1^^^^))__________)_/e ````````````````````",
"```````````````````` AUUUUUUUUUUUUUUUUUUUUUUUU2JIIIIIIIII7.````````````````````$GUUUUUUUUUUUUUUUUUUUUUUUUUL2UUUUUUUUUI1^^^//)___________)/e ````````````````````",
"```````````````````` 8UUUUUUUUUUUUUUUUUUUUUUUP2IIIIIIIII6X ````````````````````$AUUUUUUUUUUUUUUUUUUUUUUUUUL2UUUUUUUUUL#^^^/))____________)e ````````````````````",
"```````````````````` 8UUUUUUUUUUUUUUUUUUUUUUUJ6IIIIIIIP8 ```````````````````````7UUUUUUUUUUUUUUUUUUUUUUUUUL2UUUUUUUUP<#^^^^))___________)/e ````````````````````",
"```````````````````` 8UUUUUUUUUUUUUUUUUUUUUUUDAIIIIIIG@ ````````````````````````5PUUUUUUUUUUUUUUUUUUUUUUUUL2UUUUUUIG+X.^^^//)___________)/e ````````````````````",
"```````````````````` 8UUUUUUUUUUUUUUUUUUUUUUUAJIIIIIG3.`````````````````````````yJUUUUUUUUUUUUUUUUUUUUUUUUL2UUUUUID+``.^^^/))___________))e ````````````````````",
"```````````````````` AUUUUUUUUUUUUUUUUUUUUUUI8JIIIID5.``````````````````````````yJUUUUUUUUUUUUUUUUUUUUUUUUL2UUUUI8X ``.^^///)___________)/e ````````````````````",
"```````````````````` AUUUUUUUUUUUUUUUUUUUUUUI8LIIP8.```````````````````````````` GUUUUUUUUUUUUUUUUUUUUUUUUL2UUUL7o````XE^^/))__________))/K ````````````````````",
"```````````````````` 8UUUUUUUUUUUUUUUUUUUUUUI8LIL8 `````````````````````````````.GUUUUUUUUUUUUUUUUUUUUUUUUL2UUJ<$`````XqT~/))___________(Y# ````````````````````",
"```````````````````` 8UUUUUUUUUUUUUUUUUUUUUUP8PL<.``````````````````````````````.SIUUUUUUUUUUUUUUUUUUUUUUUL2IJ+ ``````` X#KR!_________Rr0. `````````````````````",
"```````````````````` AUUUUUUUUUUUUUUUUUUUUUUP8G3X```````````````````````````````+SUUUUUUUUUUUUUUUUUUUUUUUUJ2A$`````````````o$ X#####XX$`````````````````````````",
"```````````````````` 8UUUUUUUUUUUUUUUUUUUUUUP2.o````````````````````````````````.SIUUUUUUUUUUUUUUUUUUUUUUUL +.``````````````````````````````````````````````````",
"```````````````````` +@@@<@@<@@@<@@<@@<@@@<@@. `````````````````````````````````X3@@@@@<@@@<@@@<@@@<<@@@<@< ````````````````````````````````````````````````````",
"````````````````````````````````````````````````````````````````````````````````````````````````````````````````````````````````````````````````````````````````",
"````````````````````````````````````````````````````````````````````````````````````````````````````````````````````````````````````````````````````````````````",
"````````````````````````````````````````````````````````````````````````````````````````````````````````````````````````````````````````````````````````````````",
"````````````````````````````````````````````````````````````````````````````````````````````````````````````````````````````````````````````````````````````````",
"````````````````````````````````````````````````````````````````````````````````````````````````````````````````````````````````````````````````````````````````",
"````````````````````````````````````````````````````````````````````````````````````````````````````````````````````````````````````````````````````````````````",
"````````````````````````````````````````````````````````````````````````````````````````````````````````````````````````````````````````````````````````````````",
"````````````````````````````````````````````````````````````````````````````````````````````````````````````````````````````````````````````````````````````````",
"````````````````````````````````````````````````````````````````````````````````````````````````````````````````````````````````````````````````````````````````",
"````````````````````````````````````````````````````````````````````````````````````````````````````````````````````````````````````````````````````````````````",
"````````````````````````````````````````````````````````````````````````````````````````````````````````````````````````````````````````````````````````````````",
"````````````````````````````````````````````````````````````````````````````````````````````````````````````````````````````````````````````````````````````````",
"````````````````````````````````````````````````````````````````````````````````````````````````````````````````````````````````````````````````````````````````",
"````````````````````````````````````````````````````````````````````````````````````````````````````````````````````````````````````````````````````````````````",
"````````````````````````````````````````````````````````````````````````````````````````````````````````````````````````````````````````````````````````````````",
"````````````````````````````````````````````````````````````````````````````````````````````````````````````````````````````````````````````````````````````````",
"````````````````````````````````````````````````````````````````````````````````````````````````````````````````````````````````````````````````````````````````",
"````````````````````````````````````````````````````````````````````````````````````````````````````````````````````````````````````````````````````````````````",
"````````````````````````````````````````````````````````````````````````````````````````````````````````````````````````````````````````````````````````````````",
"````````````````````````````````````````````````````````````````````````````````````````````````````````````````````````````````````````````````````````````````"
};

