/* XPM */
static char *bxLok88[] = {
/* columns rows colors chars-per-pixel */
"96 96 84 1",
"  c #000000",
". c #000415",
"X c #0f101c",
"o c #190505",
"O c #171717",
"+ c #000c2c",
"@ c #000b37",
"# c #1c1c2d",
"$ c #1a2437",
"% c #290404",
"& c #360101",
"* c #351111",
"= c #200f3d",
"- c #272728",
"; c #393939",
": c #000044",
"> c #001446",
", c #051254",
"< c #000076",
"1 c #001968",
"2 c #0c1273",
"3 c #09265d",
"4 c #012266",
"5 c #25164f",
"6 c #490002",
"7 c #570606",
"8 c #5a1317",
"9 c #4c1032",
"0 c #592a2a",
"q c #6f0a11",
"w c #7b0307",
"e c #6a0c25",
"r c #421641",
"t c #4D4D4D",
"y c #555555",
"u c #685555",
"i c #676767",
"p c #747474",
"a c #000099",
"s c #051290",
"d c #0006a3",
"f c #0008b4",
"g c #0018a9",
"h c #0014b8",
"j c #0b308f",
"k c #0025af",
"l c #0039a9",
"z c #003eb9",
"x c #000bce",
"c c #000cd6",
"v c #0114cb",
"b c #0016d8",
"n c #000ae6",
"m c #0002fe",
"M c #0018e8",
"N c #0018fe",
"B c #0031ce",
"V c #0025e5",
"C c #0028fe",
"Z c #0039fe",
"A c #0043c8",
"S c #0046d7",
"D c #004de6",
"F c #0048fe",
"G c #0050ef",
"H c #0055fe",
"J c #870306",
"K c #870614",
"L c #970103",
"P c #aa0001",
"I c #bc0000",
"U c #8a4c4c",
"Y c #a14444",
"T c #c50000",
"R c #d90000",
"E c #e60000",
"W c #fd0000",
"Q c #888888",
"! c #999999",
"~ c #a69d9d",
"^ c #A9A9A9",
"/ c #B8B8B8",
"( c #C4C4C4",
") c None",
/* pixels */
"))))))))))))))))))))))))))))))))))))))))))))))))))))))))))))))))))))))))))))))))))))))))))))))))",
"))))))))))))))))))))))))))))))))))))))))))))))))))))))))))))))))))))))))))))))))))))))))))))))))",
"))))))))))))))))))))))))))))))))))))))))))))))))))))))))))))))))))))))))))))))))))))))))))))))))",
"))))))))))))))))))))))))))))))))))))))))))))))))))))))))))))))))))))))))))))))))))))))))))))))))",
"))))))))))))))))))))))))))))))))))))))))))))))))))))))))))))))))))))))OtQ^^^^^t)))))))))))))))))",
")))))))))))))))))))))))))))))))))))))))))))))))-t;;;;t;;O)))))))))) i!!^^^^^^/(p-)))))))))))))))",
"))))))))))))))))))))))))))))))))))))))))))))OQQ^^^^^^^^/^!!pX))))-;Q^^^^!^///(((^- ---))))))))))",
")))))))))))))))))))))))))))))))))))))))))) y!/////^^^^///^^^Q;).;!^///////((((((//p!/^QyO)))))))",
"))))))))))))))))))))))))))))))))))))))))) y^^/(((//^^^^^^^^^^^iQ^//(((((((((((((((/^^^^^^-))))))",
"))))))))))))))))))))))))))))))))))))))))-i^^^((((//^^^^^^^//^^^^/(((((((((((((((((((^^^^^^-)))))",
")))))))))))))))))))))))))))))));!(//^!tp^^///((((((/////////^^^(((((((((((((((((((((///^^/^)))))",
"))))))))))))))))))))))))))))))t///^^^^^^^/(((((/((((((/((((//^(((/((((((((((((((((((((((/^^t))))",
"))))))))))))))))))))))))))))O!///^^^^//(/((//^^^//((((((((((/((((/^//((////((////((((((((/^!))))",
")))))))))))))))))))))))))) y^(//^^^//((((//^^^^^/((((((((((((//((/^^^///^^^^^^/^^((((((((/^^))))",
"))))))))))))))))))))))))))t(/(/^^^/((((/^^^^^^^//((/(/(((((///^^(//^/(//^^!^^^^^^/((((((((^^))))",
")))))))))))))))))))))))))X!((/^^^/(((//^!^^///(((((/^/^////^^^^/((((((/////^^/^//((((((((//^))))",
"))))))))))))))))))))))))O^((((//((((//^^^/(((((((((^^^^^^^^^^//((((((/^////(((/(((((((((((^^))))",
"))))))))))))))))))))))))t(((((((((((/^^^//(((((((((//^^^^^^^//((((((/^^^^/((((((((((((((//^Q))))",
")))))))))))))))))))))));/(//(((((((/^^//((((((((((((/^^^/////(((((((//^^//((((((((((((((/^^;))))",
")))))))))))))))))))))).Q((^^/(((((((/^/(((((((((((((^^!tp(((((((((((((((////((((((((((((^^!)))))",
"))))))))))))))))))))))y((/^^//(((((((((((((/((((//^^^Qo))p(((/(((((((((///^^/(((//////^^^^i)))))",
"))))))))))))))))))))))y((/^^/((((((((((((//^;((/^^^ytX))))y///^^//(((///^^^!-^(/^^^/^^^~^i))))))",
"))))))))))))))))))))))/(/^^^((((^^(((((((/^p  .o    )       y^^^^^//^^^^!-     ti!^^^^^!t   ))))",
"))))))))))))))))))))))/(/^^/((((///(((((/^!-))))))))         Otp^!^^^ptOO        OOOOOOX  XO))))",
"))))))))))))))))))))))/(^^^(((((/(((((((/^t)))))))))            O----                     .)))))",
"))))))))))))))))))))))(/^^^(((((((((((((/p.))))))))                                       ))))))",
"))))))))))))))))))))))//^^/((((((((/////^O)))))))                                       1@))))))",
"))))))))))))))))))))))//^^/(((/(///^^^^^;))))))))                                      >n:))))))",
"))))))))))))))))))))))/^^^(((//^^^^^^^^y ))))))))  44444444444444444444444444444444444+bm:))))))",
"))))))))))))))))))))))^^^/((/^!pQ^^^^^Q.)))))))))) HHHHHHHHHHHHHHHHHHHHHHHHHHHHHHHHHHH<mm:))))))",
"))))))))))))))))))))))^^^/((^^;)O-----O))))))))))) HHHHHHHHHHHHHHHHHHHHHHHHHHHHHHHHHHH<mm:))))))",
"))))))))))))))))))))))i^^((/^Qo))))))))))))))))))) HHHHHHH43333333333333333334AHHHHHHH<mm:))))))",
"))))))))))))))))))))));^/(/^^p)))))))))))))))))))) HHHHHHH$tttttttttttttttttt;lHHHHHHH<mm:))))))",
"))))))))))))))))))))))t^///^~p)))))))))))))))))))) HHHHHHH$ttttttttttttyytttt;lHHHHHHH<mm:))))))",
"))))))))))))))))))))))t/((^^^p)))))))))))))))))))) HHHHHHH$tttytttttttttttttt;lHHHHHHH<mm:))))))",
")))))))))))))))))))))).^(/^^!-)))))))))))))))))))) HHHHHHH$tttttttttttttttttttlHHHHHHH<mm:))))))",
")))))))))))))))))))))).!((^!^O)))))))))))))))))))) HHHHHHH$tttttttttttttttttt;lHHHHHHH<mN:))))))",
"))))))))))))))))))))))oY((^^~8 ))))))))))))))))))) HHHHHHH$tttttttytttttttttt;lHHHHHHH<mm:))))))",
")))))))))))))))))))))) 8uUUU06 ))))))))))))))))))) HHHHHHH$tytttttttytttttttt;lHHHHHHH4Nm:))))))",
")))))))))))))))))))))) RWTITWP ))))) ooooo ))))))) HHHHHHH$tttttttttttttttytttlHHHHHHH1mm:))))))",
")))))))))))))))))))))) RWWWWWP )))))&PPIIPw )))))) HHHHHHH$tttttttttttttttttt;lHHHHHHH<mm:))))))",
")))))))))))))))))))))) RWWWWWP )))))owJJLJ6 )))))) HHHHHHH$ttttttttttttttttty;lHHHHHHH<mm:))))))",
")))))))))))))))))))))) RWWWWWP )))))%ETITET )))))) HHHHHHH$tttttttttttttttttt;lHHHHHHH<mm:))))))",
")))))))))))))))))))))) EWWWWWI )))))&WWWWWT )))))) HHHHHHH$ttytttttyttyttttyt;lHHHHHHH<mm:))))))",
")))))))))))))))))))))) RWWWWWP )))))&WWWWWT )))))) HHHHHHH$ttttttttttttttttty;lHHHHHHH<mm:))))))",
")))))))))))))))))))))) RWWWWWI )))))&WWWWWR )))))) HHHHHHH$tttttttttttttttttttlHHHHHHG<mm:))))))",
")))))))))))))))))))))) EWWWWWP )))))&WWWWWT )))))) HHHHHHH$tttttttttttyyttttt;lHHHHHHH<mm:))))))",
")))))))))))))))))))))) RWWWWWP )))))&WWWWWR )))))) HHHHHHH$;;;;;;;;;;;;;;;;;;;zHHHHHHH<mm:))))))",
")))))))))))))  +++++++.RWWWWWL++++++6WWWWWI++++++++HHHHHHHAzzzzzzzzzzzzzzzzzlzDHHHHHHH<mm:))))))",
"))))))))))))o8PjHHHHHHB9KITPw5VZFHHD5wITIq=VNCFFHHHHHHHHHHHHHHHHHHHHHHHHHHHHHHHHHHHHHH<mm:))))))",
"))))))))))))OTWJDHHHHHFZBhhhVNNCZFFHHSkghVmmNNZFHHHHHHHHHHHHHHHHHHHHHHHHHHHHHHHHHHHHHH<mm:))))))",
"))))))))))) wWWEjHHHHHFFZNNmmmmNCZFHHFFCNmmmmNCZFHHHHHHHHHHHHHHHHHHHHHHHHHHHHHHHHHHHHG<mm:))))))",
")))))))))))%RWWWrGHHHHHHFCCNmmmNNCZFFHFZCNmmmmCZHHHHHHHHHHHHHHHHHHHHHHHHHHHHHHHHHHHHHH<mm:))))))",
"))))))))))oPWWWWwGHHHHHHFFCNmmmmmNCZFFHFZCNNmNCFHHHHHHHHHHHHHHHHHHHHHHHHHHHHHHHHHHHHHH<mm:))))))",
"))))))))) 7WWWWWPAHHHHHHHFZZNNmmmNNCZFHFFZCCNCHHHHHHHHHHHHHHHHHHHHHHHHHHHHHHHHHHHHHHHH<mm:))))))",
")))))))) ORWWWWWEjHHHHHHHHFFCNNmmmmNCZFHHFFZZZHHHHHHHHHHHHHHHHHHHHHHHHHHHHHHHHHHHHHHHH<mm:))))))",
")))))))) JWWWWWWE4HHHHHHHHHHZZNNmmmmNCFHHFHFFFFHHHHHHHHHHHHHHHHHHHHHHHHHHHHHHHHHHHHHHH<mm:))))))",
"))))))) &WWWWWWWW5HHHHHHHHHHFZZNNmmmNCFFHHHFFHHHHHHHHHHHHHHHHHHHHHHHHHHHHHHHHHHHHHHHHG<mm:))))))",
")))))))oTWWWWWWWW9GHHHHHHHHHHFFZNNmNNCZHHHHHHHHHHHHHHHHHHHHHHHHHHHHHHHHHHHHHHHHHHHHHHH<mm:))))))",
")))))) JWWWWWWWWWeDHHHHHHHHHHHFFZCNNCZFFHHHHHHHHHHHHHHHHHHHHHHHHHHHHHHHHHHHHHHHHHHHHHH<mm:))))))",
"))))) &EWWWWWWWWWeDHHHHHHHHHHHHFFZZZZFFHHHHHHHHHHHHHHHHHHHHHHHHHHHHHHHHHHHHHHHHHHHHHHH<mm:))))))",
")))))oIWWWWWWWWWWKSHHHHHHHHHHHHHHHFFFFHHHHHHHHHHHHHHHHHHHHHHHHHHHHHHHHHHHHHHHHHHHHHHHH<mm:))))))",
")))))7REEWWWWWWWWKSHHHHHHHHHHHHHHHHHHHHHHHHHHHHHHHHHHHHHHHHHHHHHHHHHHHHHHHHHHHHHHHHHHH<mm:))))))",
")))))8TRREWWWWWWWPAHHHHHHHHHHHHHHHHHHHHHHHHHHHHHHHHHHHHHHHHHHHHHHHHHHHHHHHHHHHHHHHHHHG<mm:))))))",
")))))oLTRRWWWWWWWPAHHHHHHHHHHHHHHHHHHHHHHHHHHHHHHHHHHHHHHHHHHHHHHHHHHHHHHHHHHHHHHHHHHH<mm:))))))",
"))))) 7TTRRWWWWWWPAHHHHHHHHHHHHHHHHHHHHHHHHHHHHHHHHHHHHHHHHHHHHHHHHHHHHHHHHHHHHHHHHHHH<mm:))))))",
"))))))oPTTREEWWWWPAHHHHHHHHHHHHHHHHHHHHHHHHHHHHHHHHHHHHHHHHHHHHHHHHHHHHHHHHHHHHHHHHHHH<mm:))))))",
"))))))OKIITREEWWWPAHHHHHHHHHHHHHHHHHHHHHHHHHHHHHHHHHHHHHHHHHHHHHHHHHHHHHHHHHHHHHHHHHHH<mm:))))))",
")))))))*IITTREEWWLAHHHHHHHHHHHHHHHHHHHHHHHHHHHHHHHHHHHHHHHHHHHHHHHHHHHHHHHHHHHHHHHHHHH<mm:))))))",
"))))))) JIITTREEWKSFFHFFHHFHFFHFFHHFFHHHHFHFHFFHHFHFFHHFHFHHHFHFHHHFHHHFFHFHHFFHHHFHHH<mm:))))))",
"))))))) %TTITTRREeBZZZZZZZZZZZZZZZZZZZFZFZZFFFFFFFFFFFFFFFFFFFFFFFFFFZFFFFFFFFZFZFFZFF<nf+ )))))",
")))))))) JIIITTRReVCCNCCNCNCCNCCCCCCCNCCCCCCCCCCCCCCCZCCCCCCZCCCCCCCCCCCCCCCCCCCCCCCCC<@    ))))",
")))))))) 6ITIITTR9MmmmmmmNmmmmmmmmmNmmNmNmNmmNNNmNNNNNNNNNNNNNNNNNmNNmNmmNmNmNmNNmNmNm1.    ))))",
")))))))))OPITITIT5mmmmmmmmmmmmmmmmmmmmmmmmmmmmmmmmmmmmmmmmmmmmmmmmmmmmmmmmmmmmmmmmmmmm<g@.o.))))",
"))))))))))8ITITIT2mmmmmmmmmmmmmmmmmmmmmmmmmmmmmmmmmmmmmmmmmmmmmmmmmmmmmmmmmmmmmmmmmmmm<mm:))))))",
"))))))))))OPIITTIsmmmbfffffMmmmmmmmmmmmmmmmmmmmmmmmmmmmmmbffffbmmmmmmmmmmmxdaaadxmmmmm<mm:))))))",
")))))))))) qIITIwvmn4# .. .+sNmmmmmmmmmmmmmmmmmmmmmmmmmx1.. . .1vmmmmmmmM1.     .1bmmm<mM+))))))",
")))))))))))OPITIenx@.        1Mmmmmmmmmmmmmmmmmmmmmmmmg.        .gNmmmmx@         @xmm<m1 ))))))",
"))))))))))).7III5b@           1nmmmmmmmmmmmmmmmmmmmmmk+          .kNmmc+           @xm<k-o))))))",
"))))))))))))OPILl>    O---O    smmmmmmmmmmmmmmmmmmmmc+    ----X   +vmN>    -;;--    ,m,$; ))))))",
"))))))))))))o7I5l    ;ttttt;   .bmmmmmmmmmmmmmmmmmmm,   Otttttt-   >mh.   ;tttttt   .vo;; ))))))",
")))))))))))))O  O   -ttttttt-   X##................     ;tttttttO   #.   ;ttttttt-   .;t- ))))))",
"))))))))))))))))O  Xttttttttto  #tto)))))))))))))))o   Otttttttt;   ;O  otttttttttO  OttO)))))))",
"))))))))))))))))   OtttttttttO  Ot- )))))))))))))))O.  ;tttttttt;.  -   XtttttttttO   t- )))))))",
"))))))))))))))))   OtttttttttO  O; ))))))))))))))))O.  -tttttttt;.  ;   OtttttttttO   ; ))))))))",
"))))))))))))))))O  Otttttttyto  O )))))))))))))))))X   -tttttttt;   .O   tttytttttO  O )))))))))",
"))))))))))))))))    -tttttty;   .)))))))))))))))))))    tttttttt-   )    -ttttttt-   .))))))))))",
")))))))))))))))).   .tttttt;   . )))))))))))))))))))O   Otttyty-   O)OO   ;ttttt;     ))))))))))",
")))))))))))))))))O   o-;t;-     ))))))))))))))))))))     O-t;;O     )) o   -;;;O    o)))))))))))",
")))))))))))))))))             -))))))))))))))))))))))Xo          oO))) O          o-.)))))))))))",
")))))))))))))))))) .         X ))))))))))))))))))))))) O        . )))))..         o.))))))))))))",
"))))))))))))))))))) OO     -o))))))))))))))))))))))))))OOo     -O))))))))oO.   OO.))))))))))))))",
"))))))))))))))))))))))))))))))))))))))))))))))))))))))))))))))))))))))))))))))))))))))))))))))))",
"))))))))))))))))))))))))))))))))))))))))))))))))))))))))))))))))))))))))))))))))))))))))))))))))",
"))))))))))))))))))))))))))))))))))))))))))))))))))))))))))))))))))))))))))))))))))))))))))))))))",
"))))))))))))))))))))))))))))))))))))))))))))))))))))))))))))))))))))))))))))))))))))))))))))))))"
};

