/* XPM */
static char *bxLok128[] = {
/* columns rows colors chars-per-pixel */
"160 160 85 1",
"  c #000000",
". c #000317",
"X c #0f1115",
"o c #150405",
"O c #171717",
"+ c #050829",
"@ c #001339",
"# c #1c212b",
"$ c #2b0101",
"% c #350505",
"& c #321115",
"* c #2e0f2d",
"= c #282828",
"- c #352727",
"; c #383737",
": c #000342",
"> c #000d52",
", c #001641",
"< c #001756",
"1 c #011768",
"2 c #001679",
"3 c #08236a",
"4 c #01277b",
"5 c #251b53",
"6 c #490101",
"7 c #5b0101",
"8 c #520917",
"9 c #4f1830",
"0 c #4b2d2d",
"q c #670303",
"w c #6d0e14",
"e c #760204",
"r c #4D4D4D",
"t c #585858",
"y c #625e5e",
"u c #686868",
"i c #777777",
"p c #001587",
"a c #001698",
"s c #0017ad",
"d c #0016b6",
"f c #032a8b",
"g c #002596",
"h c #00349c",
"j c #102b81",
"k c #0029a8",
"l c #0026b9",
"z c #0038ab",
"x c #003cb4",
"c c #0014d5",
"v c #000ae9",
"b c #0002fe",
"n c #0019e7",
"m c #0017fe",
"M c #0029c9",
"N c #0028d7",
"B c #0039cd",
"V c #0039d9",
"C c #0028e9",
"Z c #0026fe",
"A c #0037fe",
"S c #0040bf",
"D c #0044cc",
"F c #004add",
"G c #004ee7",
"H c #0049fe",
"J c #0050ef",
"K c #0055fe",
"L c #850202",
"P c #890d15",
"I c #990104",
"U c #a80102",
"Y c #bd0000",
"T c #9f5151",
"R c #c50000",
"E c #d90000",
"W c #e70000",
"Q c #fe0000",
"! c #8A8A8A",
"~ c #969696",
"^ c #ab8a8a",
"/ c #A9A9A9",
"( c #B8B8B8",
") c #C4C4C4",
"_ c None",
/* pixels */
"________________________________________________________________________________________________________________________________________________________________",
"________________________________________________________________________________________________________________________________________________________________",
"________________________________________________________________________________________________________________________________________________________________",
"________________________________________________________________________________________________________________________________________________________________",
"________________________________________________________________________________________________________________________________________________________________",
"________________________________________________________________________________________________________________________________________________________________",
"________________________________________________________________________________________________________________________________________________________________",
"________________________________________________________________________________________________________________________________________________________________",
"________________________________________________________________________________________________________________________________________________________________",
"________________________________________________________________________________________________________________________________________________________________",
"________________________________________________________________________________________________________________________________________________________________",
"________________________________________________________________________________________________________________________________________________________________",
"________________________________________________________________________________________________________________________________________________________________",
"________________________________________________________________________________________________________________________________________________________________",
"________________________________________________________________________________________________________________________________________________________________",
"________________________________________________________________________________________________________________________________________________________________",
"________________________________________________________________________________________________________________ ==i/////((t=___________________________________",
"_____________________________________________________________________________________________________________Xr;;/~//~////(((;__________________________________",
"______________________________________________________________________________Xutuuuuuuuuuuu=________________u////~//////()))(i#________________________________",
"__________________________________________________________________________ ;!!~///////////((//~~~X_______  r!/////////(((())))(/O _ X   ________________________",
"_________________________________________________________________________O;//(((/(//(/////(((((//~=X____=~////(/(////()))))))))(/i=!//(r=O______________________",
"________________________________________________________________________=!//((()(((((/(//(/////////iO_Or~/((((()((((()))))))))))(///////(!rX____________________",
"_______________________________________________________________________=!///()))))((////////////////iu!//((()))))))())))))))))))((////////(! ___________________",
"_____________________________________________________________________ O~///(())))))(////////////(///////(()))))))))))))))))))))))(((///////(! __________________",
"_________________________________________________________O=;;====X_o#i////((())))))(//(/////(((((/////(()))))))))))))))))))))))))))(((((///((!O_________________",
"_______________________________________________________Ot/))((///uru///((())))))))))(((((((((((((////()))))))))))))))))))))))))))))))(()(//(((r_________________",
"______________________________________________________ ~))(((/////////(()))))))())))))))()))))))((//(())))))))))))))))))))))))))))))))))(((((/!O________________",
"____________________________________________________ X~)))(///////(((((())((((((())))))))))))))))((((())))((())))))))))))))))))))))))))))))(///=________________",
"___________________________________________________Xi)))((/////(((())())((//////(())))))))))))))))())))))(///(()))(((((())(()((()))))))))))((///________________",
"__________________________________________________ri)))((/////(())))))(((////////())))))))))))))))))(()))(////(()(////(/((///(//()))))))))))(///________________",
"_________________________________________________t()))(/////((()))))(((/////////(()))))))))))))))))(((())((///()((//////////////()))))))))))((//________________",
"________________________________________________r()))(//////()))))((////////((((())))(()))))))))(((///((()((((())((/////////////(())))))))))(///________________",
"_______________________________________________Xi))))(////(())))((////////()))))))))((/(((/((((((/////(()))))))()(((/((//((/((((())))))))))))(//________________",
"_______________________________________________i))))))(/((()))))((/////((()))))))))((/////////////////())))))))((((((((((((((())())))))))))))(//________________",
"______________________________________________u)))))))(()))))))((/////()))))))))))))(///~///////////((())))))))((/(/(())))))()))))))))))))))(///________________",
"_____________________________________________X/)))))))))))))))(/////(())))))))))))))((////////////((()))))))))(/////(())))))))))))))))))))))///~________________",
"____________________________________________O!))))()))))))))))(////()))))))))))))))))(((/////((((()))))))))))((/////(())))))))))))))))))))((///=________________",
"____________________________________________r)))(/(())))))))))(///(()))))))))))))))))(((/////(()))))))))))))))(((/((()())))))))))))))))))((///uX________________",
"___________________________________________O/))((//())))))))))((/())))))))))))))))((((////!=~())))))))))))))))))((((((((()))))))))))))))((////r_________________",
"___________________________________________()))(///(())))))))))))))))))))))))))))(((////~OX_o~)))))))))))))))))))))((///()))))(()))))))(//////;_________________",
"___________________________________________()))(/~/(()))))))))))))))))))()!))))((//////!#____X~)))(((((()))))))))((((////~)))(((/((/((///////r__________________",
"___________________________________________())(////())))))())))))))))))(((Oi)))((///urr=______Or/)((//(((()))(((((///~//tO!))((///////////(/;___________________",
"__________________________________________i)))(///()))))((()))))))))))(/// X;;======X___________=;(//////((((((/(////=== _O=;t////////////(r ___________________",
"__________________________________________~))((///()))))(//))))))))))((//- ____________           ;!!////////////!!!O         X !!!!!!!~~u    X ________________",
"__________________________________________~))(////())))((//()))))))))(//!O____________               uu!//~///!uu                             =X________________",
"__________________________________________~))(///(()))))((())))))))))(/!O____________                  =rrrr;r=                              Xo_________________",
"__________________________________________~)(////())))))))))))))))))((/u_____________                                                         __________________",
"__________________________________________~)(///())))))))))))))))))(((i ____________                                                       . ___________________",
"__________________________________________~((///(()))))))))))))(((((//X____________                                                       .a ___________________",
"__________________________________________~)(///(())))))))))((((/////u ___________                                                       .pv ___________________",
"__________________________________________~(////()))))(((((((///////tX___________                                                        3Cb ___________________",
"__________________________________________~(////))))((//////////~//u_____________   +@@@@@@@@@@@@@@@@@@@@@@@@@@@@@@@@@@@@@@@@@@@@@@@@@@.<Cbb ___________________",
"__________________________________________!////())))(/////////////~r_______________ hJKKKKKKKKKKKKKKKKKKKKKKKKKKKKKKKKKKKKKKKKKKKKKKKKK,nbbb.___________________",
"__________________________________________~///(()))((//;;i///~////;________________ SKKKKKKKKKKKKKKKKKKKKKKKKKKKKKKKKKKKKKKKKKKKKKKKKKK,vbbb ___________________",
"__________________________________________!////())((//=__XOOOOXOOO ________________ hKKKKKKKKKJJKKKKKKKKKKKKKKKKKKKKKKKKKKKKKKKKKKKKKKK,bbbb ___________________",
"__________________________________________u///()))(//!O____________________________ hKKKKKKKKKJSSSSSSSSSSSSSSSSSSSSSSSSSSSSDKKKKKKKKKKK,vbbb ___________________",
"___________________________________________//(())(///;_____________________________ SKKKKKKKKKSX====#=O===O====O==O===#=O==XGKKKKKKKKKK,bbbb ___________________",
"___________________________________________~//()((/~/;_____________________________ hJKKKKKKKKS=rrrrrrrrrrrrrrrrrrrrrrrrrrrOFKKKKKKKKKK,vbbb ___________________",
"___________________________________________///()((///;_____________________________ hKKKKKKKKKS=rrrrrrrrrrrrrrrrrrrrrrrrrrrOFKKKKKKKKKK,bbbb ___________________",
"___________________________________________//()((////;_____________________________ hKKKKKKKKKS=rrrrrrrrtrrrrrrrrrrrrtrrrrrOFKKKKKKKKKK@vbbb ___________________",
"___________________________________________/(())/////;_____________________________ hKKKKKKKKKS=rrrrrrrrrrrrrrrrrrrtrrrrrrrOFKKKKKKKKKK,bbbb.___________________",
"___________________________________________t)))((/~/iO_____________________________ hKKKKKKKKJh=rrrrrrrrrrrrrrrrrrrrrrrrrrrOFKKKKKKKKKK,vbbb ___________________",
"___________________________________________=))))////t______________________________ SKKKKKKKKKS=rrtrrrrrrrrrrrrrrrrrrrrrrrr#GKKKKKKKKKK,vbbb ___________________",
"___________________________________________-/))(//~/y _____________________________ hKKKKKKKKKS=rrrrrrrrrrrtrrrrrrrrrrrrrrrOFKKKKKKKKKK@bbmb ___________________",
"___________________________________________0T))(///~T% ____________________________ hKKKKKKKKKS=rrrrrrrrrrrrrrtrrrrtrrrrrrrOFKKKKKKKKKK,vmmb ___________________",
"___________________________________________oT))(///^PO ____________________________ hKKKKKKKKKS=trrrrrtrrrrrrrrrrrrrrrrrrrrOFKKKKKKKKKK,vbbb ___________________",
"___________________________________________oq&8wPPw&7% ____________________________ zKKKKKKKKKz=rrrrrrrrrrrrrrrrrrrrrrrrrrrOFKKKKKKKKKK,bbbb ___________________",
"___________________________________________$QQEYUUYWQq ________ ooooooo ___________ hKKKKKKKKKz=rrrrrrrrrrrrrrrrrrrrrrrtrrr=FKKKKKKKKKK,vbbb ___________________",
"___________________________________________$QQQQQQQQQ7 _______ $eeLLLLe7o__________ hKKKKKKKKKS=rrrrrrrrrrrrrrrrrrrrrrrrtrrOFKKKKKKKKKK,bbbb.___________________",
"___________________________________________$QQQQQQQQQ7 _______ 6YYYYYYRU6 _________ hKKKKKKKKKz=rrrrrrrrrtrrrrrrrrrrrrrrrrrOGKKKKKKKKKK,vbbb ___________________",
"___________________________________________$QQQQQQQQQ7 _______ o7LIUUUL6o _________ zKKKKKKKKKS=rrrrrrrrrrrrrtrrrrrtrrrrrrrOFKKKKKKKKKK,vbbb ___________________",
"___________________________________________$QQQQQQQQQ7 _______ 6YL77qeUEq _________ hKKKKKKKKJz=rtrrrrrrrrrrrrrrrrrrrrrrrrtOFKKKKKKKKKK,bbbb ___________________",
"___________________________________________$QQQQQQQQQ7 _______ 6QQQQQQQQe _________ hKKKKKKKKKS=rtrrrrrtrrrrrrrrrrtrrrrrrrrOGKKKKKKKKKK,vbbb ___________________",
"___________________________________________$QQQQQQQQQ7 _______ 6QQQQQQQQe _________ hKKKKKKKKKS=rrrrrrrrrrrrrrrrrrrrrrrrrrrOFKKKKKKKKKK,vbbb ___________________",
"___________________________________________$QQQQQQQQQ7 _______ 6QQQQQQQQe _________ SJKKKKKKKKS=rrrrrrrrrrrrtrrrrrrrrrrrrrrOFKKKKKKKKKK,bbbb ___________________",
"___________________________________________$QQQQQQQQQ7 _______ 6QQQQQQQQq _________ hKKKKKKKKJh=rrrrrrrrrrrrrrrrrrrrrrrrrrrOFKKKKKKKKKK@vbbb ___________________",
"___________________________________________$QQQQQQQQQ7 _______ 6QQQQQQQQe _________ hKKKKKKKKKS=rrrrrrrrrrrrrrrrrrrrrtrrrrr=FKKKKKKKKKK,bbbb.___________________",
"___________________________________________$QQQQQQQQQ7 _______ 6QQQQQQQQe _________ hKKKKKKKKKS=rrrrrrrrtrrrrrrrrrrrrrrrrrrOGKKKKKKKKKK,vbbb ___________________",
"___________________________________________$QQQQQQQQQ7 _______ 6QQQQQQQQq _________ hKKKKKKKKKD=rrrrrrrrrrrrrrrrrrrrrrrrrrrOFKKKKKKKKKK,vbbb ___________________",
"___________________________________________$QQQQQQQQQ7 _______ 6QQQQQQQQe _________ hKKKKKKKKGSo=;=;=;;==;=;;==;=;;==;=;==;XFKKKKKKKKKK@bbbb ___________________",
"______________________________             %QQQQQQQQQ7         eQQQQQQQQe           hKKKKKKKKKGhhhhhhhhhhhhhhhhhhhhhhhhhhhhhJKKKKKKKKKK,Cmbb ___________________",
"____________________________  6ohDDDDDDDDDB$RQQQQQQQR&lMBBDDDD3eWQQQQQQY*dcMMBBDDDDDJKKKKKKKKKKKKKKKKKKKKKKJKKKKKJKKKKKJKKKKKKKKKKKKKKK,vmbb ___________________",
"____________________________O0EE*DKKKKKKKHHz,*8PUPw*,kZAAHHKKKD,+8IIIw*@gmmZAAHHKKKKKKKKKKKKKKKKKKKKKKKKKKKKKKKKKKKKKKKKKKKKKKKKKKKKKKK,bbbb ___________________",
"___________________________ &IQQUjKKKKKKKKHHAVlaaadNZbmZAAHHKKKKGxgaaaMmbbbmZAAHKKKKKKKKKKKKKKKKKKKKKKKKKKKKKKKKKKKKKKKKKKKKKKKKKKKKKKK,vbbb ___________________",
"___________________________ 8WQQW9GKKKKKKKHHAAZmbbbbbmbmZZHHHHKHHAAZmmbbbbbmmZAHKKKKKKKKKKKKKKKKKKKKKKKKKKKKKKKKKKKKKKKKKKKKKKKKKKKKKKK#bbbb.___________________",
"___________________________oRQQQQeSKKKKKKKKHHAZZmbbbbbbmmZZAHHKKHHAAZmmbbbbbmZAAHKKKKKKKKKKKKKKKKKKKKKKKKKKKKKKKKKKKKKKKKKKKKKKKKKKKKKK3vbbb ___________________",
"__________________________ qQQQQQY3KKKKKKKKHHHAAmmmbbbbbmmZAAHHKKHHAAZmmbbbbbmAAHHKKKKKKKKKKKKKKKKKKKKKKKKKKKKKKKKKKKKKKKKKKKKKKKKKKKKK#vbbb ___________________",
"_________________________X%EQQQQQE9JKKKKKKKKHHHAZZmbbbbbbbmZAAHHKKHHAZZmmmbbmmZAHKKKKKKKKKKKKKKKKKKKKKKKKKKKKKKKKKKKKKKKKKKKKKKKKKKKKKK#bbbb ___________________",
"_________________________XIQQQQQQQ6JKKKKKKKKKKKHAAZmbbbbbbmmmAAHHHKHHAAZmmbmmmAHKKKKKKKKKKKKKKKKKKKKKKKKKKKKKKKKKKKKKKKKKKKKKKKKKKKKKKK,vbbb ___________________",
"_______________________  7WQQQQQQQexKKKKKKKKKKKKHAZZmmbbbbbmmZAAHHHKHHAZZZmZZZAHKKKKKKKKKKKKKKKKKKKKKKKKKKKKKKKKKKKKKKKKKKKKKKKKKKKKKKK,vbbb ___________________",
"_______________________ 9RQQQQQQQQIjKKKKKKKKKKKKHHAZmmmbbbbbbmZZAHHHKHHHAZZAAAHHKKKKKKKKKKKKKKKKKKKKKKKKKKKKKKKKKKKKKKKKKKKKKKKKKKKKKKK,bbbb ___________________",
"_______________________XLQQQQQQQQQR3KKKKKKKKKKKKHHHAZZmbmbbbbmmZAHHKKKHHHHHAHHHHKKKKKKKKKKKKKKKKKKKKKKKKKKKKKKKKKKKKKKKKKKKKKKKKKKKKKKK@vbbb ___________________",
"_______________________%WQQQQQQQQQW+KKKKKKKKKKKKKHHHAAmmmbbbbmbmZAHKHKKHHHHHHHKKKKKKKKKKKKKKKKKKKKKKKKKKKKKKKKKKKKKKKKKKKKKKKKKKKKKKKKK,bbbb.___________________",
"_____________________ oYQQQQQQQQQQQOKKKKKKKKKKKKKKKHHAZZmbbbbbbmZAHHKKKKKHKKKKKKKKKKKKKKKKKKKKKKKKKKKKKKKKKKKKKKKKKKKKKKKKKKKKKKKKKKKKK,vbbb ___________________",
"_____________________oeWQQQQQQQQQQQ&FKKKKKKKKKKKKKKHHHAAZmbbbbbmZAHHHKKKKKKKKKKKKKKKKKKKKKKKKKKKKKKKKKKKKKKKKKKKKKKKKKKKKKKKKKKKKKKKKKK,vbbb ___________________",
"____________________ %EQQQQQQQQQQQQ8DKKKKKKKKKKKKKKKHHHAAZmmmbmmZAHHKKKKKKKKKKKKKKKKKKKKKKKKKKKKKKKKKKKKKKKKKKKKKKKKKKKKKKKKKKKKKKKKKKK@bbbb ___________________",
"___________________ &IQQQQQQQQQQQQQwDKKKKKKKKKKKKKKKKKHHAAZmmmZZAAHHKKKKKKKKKKKKKKKKKKKKKKKKKKKKKKKKKKKKKKKKKKKKKKKKKKKKKKKKKKKKKKKKKKK,vbbb ___________________",
"___________________ qQQQQQQQQQQQQQQwhKKKKKKKKKKKKKKKKKKHHAAAZZZAAHKKKKKKKKKKKKKKKKKKKKKKKKKKKKKKKKKKKKKKKKKKKKKKKKKKKKKKKKKKKKKKKKKKKKK,vbbb ___________________",
"__________________X$WQQQQQQQQQQQQQQP4KKKKKKKKKKKKKKKKKKKHHHAAAAHHHKKKKKKKKKKKKKKKKKKKKKKKKKKKKKKKKKKKKKKKKKKKKKKKKKKKKKKKKKKKKKKKKKKKKK,bbbb ___________________",
"__________________oIWQQQQQQQQQQQQQQU4KKKKKKKKKKKKKKKKKKKKKHHHHHHHKHKKKKKKKKKKKKKKKKKKKKKKKKKKKKKKKKKKKKKKKKKKKKKKKKKKKKKKKKKKKKKKKKKKKK,vbbb ___________________",
"_________________ qEWWWQQQQQQQQQQQQU4KKKKKKKKKKKKKKKKKKKKKKHKHHKKKKKKKKKKKKKKKKKKKKKKKKKKKKKKKKKKKKKKKKKKKKKKKKKKKKKKKKKKKKKKKKKKKKKKKK,bbbb.___________________",
"_________________oIEWWQWQQQQQQQQQQQY4KKKKKKKKKKKKKKKKKKKKKKKKKKKKKKKKKKKKKKKKKKKKKKKKKKKKKKKKKKKKKKKKKKKKKKKKKKKKKKKKKKKKKKKKKKKKKKKKKK,vbbb ___________________",
"_________________oeREEWWWQQQQQQQQQQE<KKKKKKKKKKKKKKKKKKKKKKKKKKKKKKKKKKKKKKKKKKKKKKKKKKKKKKKKKKKKKKKKKKKKKKKKKKKKKKKKKKKKKKKKKKKKKKKKKK,vbbb ___________________",
"_________________X&URREWWQQQQQQQQQQE<KKKKKKKKKKKKKKKKKKKKKKKKKKKKKKKKKKKKKKKKKKKKKKKKKKKKKKKKKKKKKKKKKKKKKKKKKKKKKKKKKKKKKKKKKKKKKKKKKK,bbbb ___________________",
"__________________XLRREEWWQQQQQQQQQE<KKKKKKKKKKKKKKKKKKKKKKKKKKKKKKKKKKKKKKKKKKKKKKKKKKKKKKKKKKKKKKKKKKKKKKKKKKKKKKKKKKKKKKKKKKKKKKKKKK,vbbb ___________________",
"__________________ $YYRREWWQWQQQQQQW<KKKKKKKKKKKKKKKKKKKKKKKKKKKKKKKKKKKKKKKKKKKKKKKKKKKKKKKKKKKKKKKKKKKKKKKKKKKKKKKKKKKKKKKKKKKKKKKKKK,vbbb ___________________",
"___________________XIRRRREWWQQQQQQQE<KKKKKKKKKKKKKKKKKKKKKKKKKKKKKKKKKKKKKKKKKKKKKKKKKKKKKKKKKKKKKKKKKKKKKKKKKKKKKKKKKKKKKKKKKKKKKKKKKK,bbbb ___________________",
"___________________ 6RYRREEWWWQQQQQW<KKKKKKKKKKKKKKKKKKKKKKKKKKKKKKKKKKKKKKKKKKKKKKKKKKKKKKKKKKKKKKKKKKKKKKKKKKKKKKKKKKKKKKKKKKKKKKKKKK@vbbb ___________________",
"___________________ 0UYRRRREWWWQQQQE<KKKKKKKKKKKKKKKKKKKKKKKKKKKKKKKKKKKKKKKKKKKKKKKKKKKKKKKKKKKKKKKKKKKKKKKKKKKKKKKKKKKKKKKKKKKKKKKKKK,bbbb.___________________",
"___________________ oqRYYRREEWWQWQQE<KKKKKKKKKKKKKKKKKKKKKKKKKKKKKKKKKKKKKKKKKKKKKKKKKKKKKKKKKKKKKKKKKKKKKKKKKKKKKKKKKKKKKKKKKKKKKKKKKK,vbbb ___________________",
"____________________X&IYRYRREEWWQQQU4KKKKKKKKKKKKKKKKKKKKKKKKKKKKKKKKKKKKKKKKKKKKKKKKKKKKKKKKKKKKKKKKKKKKKKKKKKKKKKKKKKKKKKKKKKKKKKKKKK,vbbb ___________________",
"_____________________oeYYYYRRREWWWQU4HHHHKHHKHHHHKHHKHHHKHHHKHHKKHKHHKHHKHKKHHKHKKKKKHHKKKHKHKHKKKKKKKKHKKKHKKHKKKKKKKKKHKHKKHKHKHKKKKH@bbbb ___________________",
"_____________________ $UYRYRRREEEWWUfAHHAHHHAHAHHHHHAHHHAHAHHHAHHHHHHHHHHHHHHHHHHHHHHHHKHHHHHHHHHHHKHHHHHHHHHHHHHHHHHHHHHHHHHHHHHHHHHHH,vbbb   _________________",
"______________________ LYYYYYRRREWWPgAZZZZZZZAZZZZZZZZZAZAAZAZAZAZZAZAZAAAAAAAAAAAAAAAAAAAAAAAAAAAAAAHAAAAAAAAAAAAAAAAAZAAAAAZAAZAAAAAA:vf.     ________________",
"_______________________%RYRYYRYRREWwkmmmmmmmmmmmmmmmmmmmmmmmmmmmmmmmmmZmmmZmmmZmZZZZZZZZZAZZZZZZZZZZZZZZZZmZmZZZZZZZZZZmmZZmZZmZZZmZmZm:d.      ________________",
"_______________________oLYYYYYRRREE8Mbmbmbbmbbmbbmbbbmbbmbbmmbmbbmbmmmbmmmbmmmmmmmmmmmmmmmmmmmmmmmmmmmmmmmmmbmbmmbmbbbmmmbmmmbmbbbmbmmb@z       ________________",
"_______________________ %RRYYYYRRRR8Nbbbbbbbbbbbbbbbbbbbbbbbbbbbbbbbbbbbbbbbbbbbbbmbbbmbbmbbbbmbmbmbbbmbbbbbbbbbbbbbbbbbbbbbbbbbbbbbbbb:c,    O ________________",
"_______________________ 0eRRRRYYRRE+bbbbbbbbbbbbbbbbbbbbbbbbbbbbbbbbbbbbbbbbbbbbbbbbbbbbbbbbbbbbbbbbbbbbbbbbbbbbbbbbbbbbbbbbbbbbbbbbbbb:bvk2XO__________________",
"________________________owYYYYYYYYE+bbbbbbbbbbbbbbbbbbbbbbbbbbbbbbbbbbbbbbbbbbbbbbbbbbbbbbbbbbbbbbbbbbbbbbbbbbbbbbbbbbbbbbbbbbbbbbbbbbb:vbbb ___________________",
"________________________ OIRYRRYRRU1bbbbbbbbbbbbbbbbbbbbbbbbbbbbbbbbbbbbbbbbbbbbbbbbbbbbbbbbbbbbbbbbbbbbbbbbbbbbbbbbbbbbbbbbbbbbbbbbbbb:bbbb ___________________",
"_________________________OwYYYRYRYLgbbbvnk1<><>11gVbbbbbbbbbbbbbbbbbbbbbbbbbbbbbbbbbbbbbbbbbbl4>><<>pMvbbbbbbbbbbbbbbvf>++++++>kvbbbbbb:vbbb ___________________",
"__________________________XYYRYRYR7Mbbvz@         +gcbbbbbbbbbbbbbbbbbbbbbbbbbbbbbbbbbbbbbvs<         <dnbbbbbbbbbbvz@          ,lvbbbb:vbbkX___________________",
"__________________________O6RRYYRY%bbv1.            <Mbbbbbbbbbbbbbbbbbbbbbbbbbbbbbbbbbbbn3.           .3nbbbbbbbbv2.            .pvbbb:bbc@ ___________________",
"___________________________;IRYRRI5vv<.              @NbbbbbbbbbbbbbbbbbbbbbbbbbbbbbbbbbC<               <nbbbmbbv1               .pbbb:vv1X ___________________",
"___________________________o6EYYYqhv1                 ,Vbbbbbbbbbbbbbbbbbbbbbbbbbbbbbbbn4                 4Cbbbbb<                  pbb:vk#= ___________________",
"___________________________ -LYRU9D4       XOOOXo      >vbbbbbbbbbbbbbbbbbbbbbbbbbbbbbv4       XOOOXX     .4vbbmf       X==##OX     .db@d#;= ___________________",
"____________________________owYYP3z.     O-rrrrr;=X    .pbbbbbbbbbbbbbbbbbbbbbbbbbbbbbs.     O;rrrrr;=X    .sbbN+     O;rrrrrr;O     >v:,;r= ___________________",
"____________________________ OUI*D<     Xrrrrrrrrr;     ,cbbbbbbbbbbbbbbbbbbbbbmbbmbmb,     Orrrrrrrrr=     ,mbp     Orrrrrrrrr0X    +d@#rrO ___________________",
"_____________________________=Oo.X.    X;rrrrrrrrrr=     .+.#.........................     O;rrrrrrrrrr#     .+      rrrrrrrrrrr;     . rr;= ___________________",
"_________________________________=O    -rrtrrrrrrrrrO    =rrrO ______________________      =rrrrrrrrrtrrX    ;;X    =rtrrrrrrrrrr=    Orrr=X____________________",
"_________________________________X     ;rrrrrrrrrrrr;    Orr;O ______________________O    Xrrtrrrrrrrrrr=    =;     ;trrrrtrrrrrr;    X;rrO ____________________",
"_________________________________     Xrrrrrrrrrrrrr;    Orr= _______________________;    Orrrrrrrrrrrrr=    O;     rrrrrrrrrrrrr;X   Xrr= _____________________",
"_________________________________     Xrrrrrrrrrrrrr;    Or;  _______________________;    Orrrrrrrrrrrrr;    O-    X;rrrrrrrrrrrr;X   o;;  _____________________",
"_________________________________      rrrtrrtrrrrrr;X   O=X_________________________;    Orrrrrrrtrrrrr=    O=     rrrrrrrtrrrrr;     = _______________________",
"_________________________________OX    rrrrrrrrrrrrr=    X __________________________O    X;rrrrrrrrrrrr=    XOO    ;rrrrrrrrrrrr;    XX _______________________",
"_________________________________X     ;rrrrrrrrrrrrO      __________________________      ;rrrrrrrrrrrrO     X     =rrrrrrrrrrrrO      ________________________",
"__________________________________     Xrrrrrrrrrrr-    XX___________________________      O;rrrrrrrrrr=    X _      ;rrrrrrrrrr-    XX_________________________",
"__________________________________O     O;rrrrrrrr;      ____________________________ =     Orrrrrrrrr=o    O _=X    X=rrrrrrtr;      __________________________",
"___________________________________O     X-rrrrr;=       _____________________________       O;rrrrr;#       ___       =;rrrr;#       __________________________",
"___________________________________X       O=O=#X       _______________________________XX      X=O=OX     XX____ =      oXXXXo      ;___________________________",
"___________________________________  o               X0________________________________ OX                O ____ XOo              X; ___________________________",
"_____________________________________ X              #X__________________________________ X             X ________OO              OX____________________________",
"______________________________________ =           X ____________________________________ OO           #O __________ O          O ______________________________",
"_______________________________________XX=       Or ______________________________________ X;O       O-X ___________  O=     X=Oo_______________________________",
"________________________________________________________________________________________________________________________________________________________________",
"________________________________________________________________________________________________________________________________________________________________",
"________________________________________________________________________________________________________________________________________________________________",
"________________________________________________________________________________________________________________________________________________________________",
"________________________________________________________________________________________________________________________________________________________________",
"________________________________________________________________________________________________________________________________________________________________",
"________________________________________________________________________________________________________________________________________________________________",
"________________________________________________________________________________________________________________________________________________________________",
"________________________________________________________________________________________________________________________________________________________________",
"________________________________________________________________________________________________________________________________________________________________",
"________________________________________________________________________________________________________________________________________________________________",
"________________________________________________________________________________________________________________________________________________________________",
"________________________________________________________________________________________________________________________________________________________________",
"________________________________________________________________________________________________________________________________________________________________",
"________________________________________________________________________________________________________________________________________________________________",
"________________________________________________________________________________________________________________________________________________________________"
};

