/* XPM */
static char *bxLok160[] = {
/* columns rows colors chars-per-pixel */
"160 160 85 1",
"  c #000000",
". c #000415",
"X c #0f1117",
"o c #160303",
"O c #181717",
"+ c #000929",
"@ c #000936",
"# c #001133",
"$ c #150c24",
"% c #260202",
"& c #370101",
"* c #300f19",
"= c #21162e",
"- c #272727",
"; c #372d2d",
": c #363636",
"> c #020e4e",
", c #001747",
"< c #011b58",
"1 c #000e68",
"2 c #001464",
"3 c #001c77",
"4 c #002164",
"5 c #082373",
"6 c #291a4f",
"7 c #3f3f40",
"8 c #47050d",
"9 c #5b0000",
"0 c #520d29",
"q c #463333",
"w c #6a0000",
"e c #6b0913",
"r c #770001",
"t c #4D4D4D",
"y c #544848",
"u c #565656",
"i c #6d4848",
"p c #636363",
"a c #767676",
"s c #001a84",
"d c #001292",
"f c #0016a7",
"g c #0013b1",
"h c #002b83",
"j c #002795",
"k c #003296",
"l c #0029a9",
"z c #0027b9",
"x c #003baf",
"c c #0037b9",
"v c #0012d3",
"b c #0000EE",
"n c #0002fe",
"m c #0015ea",
"M c #0017fe",
"N c #0033cf",
"B c #0024e7",
"V c #0027fe",
"C c #0036e9",
"Z c #0038fe",
"A c #0042c7",
"S c #0048d7",
"D c #004ce4",
"F c #0049fe",
"G c #0055fe",
"H c #890001",
"J c #970002",
"K c #952c2c",
"L c #a70103",
"P c #bc0000",
"I c #936f6f",
"U c #a84848",
"Y c #c40000",
"T c #d70000",
"R c #c22c2c",
"E c #e70000",
"W c #fe0000",
"Q c #868686",
"! c #9e8c8c",
"~ c #979797",
"^ c #a99393",
"/ c #A9A9A9",
"( c #B8B8B8",
") c #C4C4C4",
"_ c None",
/* pixels */
"_________________________________________________________________________________________________________________________   Q///////((-  _______________________",
"_____________________________________________________________________________________________________________________    Q~////~////((()O ______________________",
"______________________________________________________________________________                  ____________________ a////~//////////()))-  ____________________",
"__________________________________________________________________________    u///////////////(t  o   ____________  a/~/////////(/(((())))(- ___________________",
"_________________________________________________________________________ t//////////////////()))((((t ________  oa////////////())))))))))((O  _      __________",
"_______________________________________________________________________  t///(/((///////////(((((((((/t  _____ a///////(//////(())))))))))((//O ~((((Xo  _______",
"______________________________________________________________________ t///((((((((((((///(((((((//////~: __ Xa///((((((((((/((())))))))))(((///////((((Xo _____",
"_____________________________________________________________________ t///((())))))((///(//////////~/////t  a////((()()))(()())))))))))))))(((////////(//(X ____",
"____________________________________________________________________ t~////()))))))((//////////////////(///////()))))))))))))))))))))))))))))((//////////((X ___",
"__________________________________________________________________ ot/////(())))))))(///~///~///////(////////((())))))))))))))))))))))))))))))(((/////////((X __",
"___________________________________________________ X oXXXXoX __ Xt~////((())))))))((////////////(/((///////(())))))))))))))))))))))))))))))))))((/////////((O _",
"_________________________________________________ Xt)))(((///pXXt/////(((())))))))))((((/(/(/((((()(((/////(()))))))))))))))))))))))))))))))))))))(((/////(()( _",
"________________________________________________ t))))((/////~///////(()()))))))))))))))(()())()))))((////(()))))))))))))))))))))))))))))))))))))))))(((((((/(O ",
"_______________________________________________ t))))(((////////////(())))))))()))))))))))))))))))))((/(/(()))))))))))))))))))))))))))))))))))))))))))))((((/// ",
"_____________________________________________ Xt)))((/////////(((((()))))((((((((()))))))))))))))))))((((())))))((((((()))))))))))))))))))))))))))))))))))(////X",
"____________________________________________ 7))))(((///////((()()()))((((///(//(()))))))))))))))))))))()))))))(((/(((()))(((())(()()))(()))))))))))))))))((//~/",
"__________________________________________ Ot)))((((//////((())))))()(((/////~///()))))))))))))))))))))))))))))((/////()(((///(((/((((((/(/((()))))))))))))(////",
"_________________________________________ t)))))((//////((())))))((((////////////(()))))))))))))))))))))((((())(//////())(//////////////////(()))))))))))))((///",
"________________________________________ t)))))((//~///((()))))))(((///////////((())))))))))))))))))))(((((/())(((//(((()((////~/////~///////())))))))))))))(/~/",
"________________________________________:)))))((//////(())))))(((//////////((((((())))((()(())))))))(((/////(())(((((()))(((////////////////(()))))))))))))(((//",
"_______________________________________ t)))))((////((())))))(((////////(((()))))))))((((/(((((((((((///////(()))))))())))(((/(////////(//((()))))))))))))))(///",
"______________________________________ t))))))((///((())))))(((///////(/()()))))))))((//////////((//////////)))))))))))((((((((((((((((((((())))))))))))))))(///",
"_____________________________________ y)))))))))(((()))))))((///////(((())))))))))))((//~////////////////((())))))))))((((((((()())))()))()))))))))))))))))((///",
"_____________________________________:))))))))))(())))))))((///////((()))))))))))))))((//////////////////((()))))))))((///(//((()))))))))))))))))))))))))))(////",
"____________________________________Xt))))))))))))))))))))((/////((()))))))))))))))))(((//////////////((())))))))))))((///////()))))))))))))))))))))))))))(////Q",
"___________________________________ 7))))))()))))))))))))(//////(()))))))))))))))))))))((((///////(((((()))))))))))))(////////(()))))))))))))))))))))))))((//// ",
"___________________________________-))))((((())))))))))))((///((())))))))))))))))))))()(((///~/((((()))))))))))))))))((////((())))))))))))))))))))))))))((////Q ",
"__________________________________ t))))((/((()))))))))))(////(())))))))))))))))))))))((/////~~/()))))))))))))))))))))(((((((((()(()))))))))))))))))))))(///// _",
"_________________________________Xt))))(////((()))))))))))(())))))))))))))))))))))((((/////~Q:_u())))))))))))))))))))))))()()(((/((()))))))))))))))())))/////( _",
"_________________________________-))))(((///()))))))))))))))))))))))))))))))))))))((/(////~:____p())))))))))))))))))))))))))(((////())))))))()()))(())()//~//~ _",
"_________________________________-))))((////)))))))))))))))))))))))))))()())))))((///////~:______p())))((((()))))))))))))()(((////(~())))())(((((((((///////~ __",
"_________________________________-))))(/////)))))))))))))))))))))))))(((at/)))))/////~QQQ:________p~())(/((((())))))))))(((///////~OQ))))((///////////////(~ ___",
"________________________________ t)))((////(())))()((())))))))))))))((//p_t/~~~~QQQQQ7______________p~/(/////(((()()(((((/////QQQQ-__Q~~~(////////////~//(Qo____",
"________________________________-))))((///((()))))((/(())))))))))))((//~t________________             u/////////(/(((////////QO          QQQ//~/////////~~      ",
"________________________________;)))((/////()))))((///()))))))))))((///u_________________              uQQ~//////////////QQQQO              aQQQaQQQQQ~Q      O ",
"________________________________-)))((////(())))))(//(()))))))))))((//~t________________                  uQa~//~/////QQa-                                   Xt ",
"________________________________-)))((////()))))))((((()))))))))))((/~t________________                      uaQQaaQQa-                                      - _",
"________________________________-))((////())))))))))(())))))))))))(//u_________________                                                                     o __",
"________________________________-)))(////()))))))))))))))))))))))((/~t________________                                                                       ___",
"________________________________-)))/////())))))))))))))))))))))(((~t________________                                                                     +  ___",
"________________________________-))(////(()))))))))))))))))(((((((/u________________                                                                     .l  ___",
"________________________________-))(////())))))))))))))))((((/////~t_______________                                                                     .sn. ___",
"________________________________-)((////(())))))((((((((((///////Qt________________                                                                     4nn  ___",
"________________________________-((/////(())))))(((((((/////////~t________________                                                                     <Cnn  ___",
"________________________________-)(////(()))))(/////////////////p_________________   +,,,,,,,,,,,,,,,,,,,,,,,,,,,,,,,,,,,,,,,,,,,,,,,,,,,,,,,,,,,,,,, ,Cnnn  ___",
"________________________________-((/~//()))))((//////////~///~~~t___________________ hGGGGGGGGGGGGGGGGGGGGGGGGGGGGGGGGGGGGGGGGGGGGGGGGGGGGGGGGGGGGGGG.Nnnnn. ___",
"________________________________-(////(())))((//~aaQ/~/~~/~///Qt____________________ hGGGGGGGGGGGGGGGGGGGGGGGGGGGGGGGGGGGGGGGGGGGGGGGGGGGGGGGGGGGGGGG.bnnnn  ___",
"________________________________O(////(()))((//~t__-aaaaaaaaaat_____________________ hGGGGGGGGGGGGGGGGGGGGGGGGGGGGGGGGGGGGGGGGGGGGGGGGGGGGGGGGGGGGGGG.bnnnn  ___",
"________________________________-(///((()))(///a____________________________________ hGGGGGGGGGGGGGGGGGGGGGGGGGGGGGGGGGGGGGGGGGGGGGGGGGGGGGGGGGGGGGGG.bnnnn  ___",
"________________________________XQ////()))((//~t____________________________________ hGGGGGGGGGGGGSxxxxxxxxxxxxxxxxxxxxxxxxxxxxxxxxxxxAGGGGGGGGGGGGGG.bnnnn. ___",
"_________________________________-/~/(()))(///a_____________________________________ hGGGGGGGGGGGG4XOOOOOOOOOOOOOOOOOOOOOOOOOOOOOOOOOOXSGGGGGGGGGGGGG.bnnnn  ___",
"_________________________________-///(())(////a_____________________________________ kGGGGGGGGGGGG4:tutttuttttttttttuttttttttttuttttutXSGGGGGGGGGGGGG bnnnn  ___",
"_________________________________-///(())(//~/a_____________________________________ kGGGGGGGGGGGG4:ttttttttttttttttttttttttttutttttttoSGGGGGGGGGGGGG bnnnn  ___",
"_________________________________O//((()(/////a_____________________________________ hGGGGGGGGGGGG4;utttttttttutttttttttttttttttttutttXSGGGGGGGGGGGGG.bnnnn  ___",
"_________________________________-//(())(/////a_____________________________________ hGGGGGGGGGGGG4;tttttttuttttttuttutttttuttttttttttXAGGGGGGGGGGGGG.bnnnn  ___",
"_________________________________-((())((/~//~a_____________________________________ kGGGGGGGGGGGG4:ttttttttttttttttttttttttttttttttttXSGGGGGGGGGGGGG.bnnnn. ___",
"_________________________________OQ))))((////!t_____________________________________ hGGGGGGGGGGGG4;ttttttttttutttttttttttttttttttttttXAGGGGGGGGGGGGG.mnnnn. ___",
"__________________________________-))))(/////a______________________________________ hGGGGGGGGGGGG<:tttttttuttttttttttttuttttuttttutttXSGGGGGGGGGGGGG.bnnnM  ___",
"__________________________________-))))((/^//a______________________________________ hGGGGGGGGGGGG4;ttttttttttttttttttttttttttttttttttOSGGGGGGGGGGGGG.bnnnM  ___",
"_________________________________o:!)))(//~//a _____________________________________ kGGGGGGGGGGGG4;uttttttttttttttuttutttttttttttttttoSGGGGGGGGGGGGG.bnnMn. ___",
"_________________________________XqK)))(///~/I8 ____________________________________ hGGGGGGGGGGGG4:ttttttttttttutttttttttttttttttttttXSGGGGGGGGGGGGG.mnMnn  ___",
"_________________________________ %R))))///~^UwX____________________________________ hGGGGGGGGGGGG4-tttttttutttttttttttttttttuttttttttXSGGGGGGGGGGGGG bnnMn  ___",
"_________________________________ oeaIQIIIIIir& ____________________________________ kGGGGGGGGGGGG4;uttttttttttttttttttuttttttttttttttXAGGGGGGGGGGGGG.bMnnn. ___",
"_________________________________ %JwwrrHrrwwrr ____________________________________ hGGGGGGGGGGGG4:ttttttttutttutttttttttutttttttttttXSGGGGGGGGGGGGG.bnnnn  ___",
"_________________________________ &WWETPLLPTWWP ___________oooooooo%oX______________ hGGGGGGGGGGGG4:ttttttttttttttttttttttttttutttttttXAGGGGGGGGGGGGG mnnnn  ___",
"_________________________________ &WWWWWWWWWWWP __________ Oewrrrwrww8o_____________ hGGGGGGGGGGGG4-ttttutttttttttttttttttttttttttttttXSGGGGGGGGGGGGGXbnnnn  ___",
"_________________________________ &WWWWWWWWWWWL __________o9LPPPPPYPPJ8 ____________ hGGGGGGGGGGGG4:ttttttttttttttutttttutttttttttttttXSGGGGGGGGGGGGG bnnnn  ___",
"_________________________________ &WWWWWWWWWWWP __________ &HLPYYPPPJr& ____________ kGGGGGGGGGGGG4:utttttttttutttttutttttttttttutttutXAGGGGGGGGGGGGG.bnnnn. ___",
"_________________________________ &WWWWWWWWWWWP __________ %wwwwwwrHrw& ____________ kGGGGGGGGGGGG<:ttttuttttttttttttttttttttuttttttttXSGGGGGGGGGGGGG.bnnnn  ___",
"_________________________________ &WWWWWWWWWWWL __________ 8YLHwwrHLYTH ____________ hGGGGGGGGGGGG4-ttttttttutttttttttttttttttttttttttXSGGGGGGGGGGGGG.bnnnn  ___",
"_________________________________ &WWWWWWWWWWWP __________ wWWWWWWWWWWJ ____________ hGGGGGGGGGGGG4:uttttttttttttuttttttttutttttttttttXAGGGGGGGGGGGGG bnnnn  ___",
"_________________________________ &WWWWWWWWWWWP __________ 9WWWWWWWWWWH ____________ kGGGGGGGGGGGG<:tttttttttttttttttuttttttttttttttttXSGGGGGGGGGGGGG.bnnnn  ___",
"_________________________________ &WWWWWWWWWWWL __________ wWWWWWWWWWWH ____________ hGGGGGGGGGGGG4:ttttutttttuttttttttttuttutttttttttXAGGGGGGGGGGGGG.bnnnn  ___",
"_________________________________ &WWWWWWWWWWWP __________ 9WWWWWWWWWWJ ____________ hGGGGGGGGGGGG<:ttttttttttttttttttttttttttttttttttOSGGGGGGGGGGGGG.bnnnn  ___",
"_________________________________ &WWWWWWWWWWWP __________ 9WWWWWWWWWWJ ____________ hGGGGGGGGGGGG4:ttttttttttttttuttttutttttttttutttuXSGGGGGGGGGGGGG.bnnnn  ___",
"_________________________________ &WWWWWWWWWWWL __________ 9WWWWWWWWWWH ____________ kGGGGGGGGGGGG4-ttttutttttttttttttttttttttttttttttXAGGGGGGGGGGGGG bnnnn. ___",
"_________________________________ &WWWWWWWWWWWP __________ wWWWWWWWWWWH ____________ hGGGGGGGGGGGG4:tttttttttttttttttttttuttutttttttttOSGGGGGGGGGGGGG.bnnnn  ___",
"_________________________________ &WWWWWWWWWWWL __________ 9WWWWWWWWWWJ ____________ kGGGGGGGGGGGG<:ttttttttttuttuttttttttttttttttttttXSGGGGGGGGGGGGG.bnnnn. ___",
"_________________________________ &WWWWWWWWWWWL __________ 9WWWWWWWWWWH ____________ kGGGGGGGGGGGG4:ttttttttttttttttttttttttttttttttttXAGGGGGGGGGGGGGXmnnnn  ___",
"_________________________________ &WWWWWWWWWWWP __________ wWWWWWWWWWWJ ____________ hGGGGGGGGGGGG4O----------------------------------OSGGGGGGGGGGGGG.bnnnn  ___",
"_________________                 &WWWWWWWWWWWP           owWWWWWWWWWWJ              hGGGGGGGGGGGGxhhhh4hhhhhhhh55hhhhhhhhhhhhhhhhhhhhhDGGGGGGGGGGGGG.bnnnn  ___",
"________________ o& <hh5hhhh5hhhh2%TWWWWWWWWWEr,shhhhhh3h4$HWWWWWWWWWY0<ssssshh5hhhhhAGGGGGGGGGGGGGGGGGGGGGGGGGGGGGGGGGGGGGGGGGGGGGGGGGGGGGGGGGGGGGGG.bnnnn. ___",
"_______________ -8Pe4DGGGGGGGGGGFS,wJLYTTEYPJr=zVZFFFGGGGS5&rLYTTTTLJ8>NMVVZZFFFGGGGGGGGGGGGGGGGGGGGGGGGGGGGGGGGGGGGGGGGGGGGGGGGGGGGGGGGGGGGGGGGGGGGG.bnnnn  ___",
"_______________ qLWErkGGGGGGGGGGFFNh560000065hgBVVZFFFFGGGAk560e0e065sgmnMVVZFFFFGGGGGGGGGGGGGGGGGGGGGGGGGGGGGGGGGGGGGGGGGGGGGGGGGGGGGGGGGGGGGGGGGGGG bnnnn  ___",
"______________ O9WWWT=SGGGGGGGGGGFFZCNzgffgvmBMMMVVZFFFGGGGFDNllffgzBMnnMnMVVZZFFGGGGGGGGGGGGGGGGGGGGGGGGGGGGGGGGGGGGGGGGGGGGGGGGGGGGGGGGGGGGGGGGGGGG bnnnn  ___",
"______________o*YWWWWrkGGGGGGGGGGFFZZVVMnMnnnnnnMMVVZZFFGGGGFFZZVMMnbnnnnnMMVZZFGFGGGGGGGGGGGGGGGGGGGGGGGGGGGGGGGGGGGGGGGGGGGGGGGGGGGGGGGGGGGGGGGGGGG.bnnnn  ___",
"_____________ oHWWWWWP,GGGGGGGGGGGFFZVVMMnnnnnnnnMMVVZZFFGFFGFFZVVMMMnnnnMnMMVZFFGGGGGGGGGGGGGGGGGGGGGGGGGGGGGGGGGGGGGGGGGGGGGGGGGGGGGGGGGGGGGGGGGGGG.bnnnn  ___",
"_____________ &TWWWWWT*SGGGGGGGGGFFFFZVVMMnMnnnnnMMMVVZFFFGGFFFZZVMMMnnnnnnnMVZZFFGGGGGGGGGGGGGGGGGGGGGGGGGGGGGGGGGGGGGGGGGGGGGGGGGGGGGGGGGGGGGGGGGGG.bnnnn. ___",
"____________ oLWWWWWWEekGGGGGGGGGGGFFZZVVMMMnnnnnnMMMVVZZFFFGFFFFZVMMMnnnnnMMVVFFGGGGGGGGGGGGGGGGGGGGGGGGGGGGGGGGGGGGGGGGGGGGGGGGGGGGGGGGGGGGGGGGGGGG.mnnnn  ___",
"___________ O9EWWWWWWWL<GGGGGGGGGGGFFFFZVVMMMnnnnnnnMMVVZFFFFGGFFZZVMMMnnnnMMVZZFFFGGGGGGGGGGGGGGGGGGGGGGGGGGGGGGGGGGGGGGGGGGGGGGGGGGGGGGGGGGGGGGGGGG.bnnnn  ___",
"___________ *TWWWWWWWWT#GGGGGGGGGGGGGFFFZVVMMnnnnnnMnMMVVZZFFGFFFFFZVVMMMnnMMZZFFFGGGGGGGGGGGGGGGGGGGGGGGGGGGGGGGGGGGGGGGGGGGGGGGGGGGGGGGGGGGGGGGGGGG.bnnnn  ___",
"__________ oHWWWWWWWWWT$DGGGGGGGGGGGGGFFFZVVMMMnnnnnnMMMVVZFFFGFFFFZZZVMMMMVVVZFFFGGGGGGGGGGGGGGGGGGGGGGGGGGGGGGGGGGGGGGGGGGGGGGGGGGGGGGGGGGGGGGGGGGG.bnnnn. ___",
"_________ -8TWWWWWWWWWE0xGGGGGGGGGGGGGFFFZZZVMMMnnnnnnMMMVVZFFFGGFFFFZZVVVVVZZFFGGGGGGGGGGGGGGGGGGGGGGGGGGGGGGGGGGGGGGGGGGGGGGGGGGGGGGGGGGGGGGGGGGGGG.bnnnn  ___",
"_________o*PWWWWWWWWWWEekGGGGGGGGGGGGGGGFFFZVVMMnnnnnnnnMMVZZFFFFGFFFFZZZZZZZFFFFGGGGGGGGGGGGGGGGGGGGGGGGGGGGGGGGGGGGGGGGGGGGGGGGGGGGGGGGGGGGGGGGGGGG bnnnn  ___",
"________ OrWWWWWWWWWWWWH5GGGGGGGGGGGGGGGGFFZZZVMMMMnnnnnnMMVVZFFGGGGFFFFZFZFFFFFGGGGGGGGGGGGGGGGGGGGGGGGGGGGGGGGGGGGGGGGGGGGGGGGGGGGGGGGGGGGGGGGGGGGG.bnnnn. ___",
"________ &TWWWWWWWWWWWWY#GGGGGGGGGGGGGGGGGFFFZVVMMnnnnnnMnMMVZFFFGFGFFFGFFFFFFGGGGGGGGGGGGGGGGGGGGGGGGGGGGGGGGGGGGGGGGGGGGGGGGGGGGGGGGGGGGGGGGGGGGGGG.bnnnn  ___",
"_______  LWWWWWWWWWWWWWT#GGGGGGGGGGGGGGGGGGGFFZZVMMMnnnnnnMMVZFFFGGGGGGGGGGGGGGGGGGGGGGGGGGGGGGGGGGGGGGGGGGGGGGGGGGGGGGGGGGGGGGGGGGGGGGGGGGGGGGGGGGGGXmnnnn  ___",
"______ OwWWWWWWWWWWWWWWT$DGGGGGGGGGGGGGGGGGGFFZZZVMMMnnnnnnMVVZFGGGGGGGGGGGGGGGGGGGGGGGGGGGGGGGGGGGGGGGGGGGGGGGGGGGGGGGGGGGGGGGGGGGGGGGGGGGGGGGGGGGGGXbnnnn  ___",
"______ &TWWWWWWWWWWWWWWE*SGGGGGGGGGGGGGGGGGGGFFFZZVMMnMnnnMMVVFFFGGGGGGGGGGGGGGGGGGGGGGGGGGGGGGGGGGGGGGGGGGGGGGGGGGGGGGGGGGGGGGGGGGGGGGGGGGGGGGGGGGGG.bnnnn  ___",
"_____ oJWWWWWWWWWWWWWWWE8cGGGGGGGGGGGGGGGGGGGGFFZZZVVMMMnnMMVZZFFGGGGGGGGGGGGGGGGGGGGGGGGGGGGGGGGGGGGGGGGGGGGGGGGGGGGGGGGGGGGGGGGGGGGGGGGGGGGGGGGGGGG.bnnnn. ___",
"____ O9EWWWWWWWWWWWWWWWEekGGGGGGGGGGGGGGGGGGGGGGFFZZVMMMMMMVZZFFFGGGGGGGGGGGGGGGGGGGGGGGGGGGGGGGGGGGGGGGGGGGGGGGGGGGGGGGGGGGGGGGGGGGGGGGGGGGGGGGGGGGG bnnnn  ___",
"____ *TWWWWWWWWWWWWWWWWEekGGGGGGGGGGGGGGGGGGGGGGFFFZZZVVVVVVZZFFGGGGGGGGGGGGGGGGGGGGGGGGGGGGGGGGGGGGGGGGGGGGGGGGGGGGGGGGGGGGGGGGGGGGGGGGGGGGGGGGGGGGG.bnnnn  ___",
"___  JWWWWWWWWWWWWWWWWWEehGGGGGGGGGGGGGGGGGGGGGGGFFFZZZZZVZZFFFGFGGGGGGGGGGGGGGGGGGGGGGGGGGGGGGGGGGGGGGGGGGGGGGGGGGGGGGGGGGGGGGGGGGGGGGGGGGGGGGGGGGGG.bnnnn  ___",
"__ O9EWWWWWWWWWWWWWWWWWWJ4GGGGGGGGGGGGGGGGGGGGGGGGGFFFFFZFZFFFGFGGGGGGGGGGGGGGGGGGGGGGGGGGGGGGGGGGGGGGGGGGGGGGGGGGGGGGGGGGGGGGGGGGGGGGGGGGGGGGGGGGGGG.bnnnn  ___",
"__ *YWWWWWWWWWWWWWWWWWWWL4GGGGGGGGGGGGGGGGGGGGGGGGGFFGFFFFFFGFGGGGGGGGGGGGGGGGGGGGGGGGGGGGGGGGGGGGGGGGGGGGGGGGGGGGGGGGGGGGGGGGGGGGGGGGGGGGGGGGGGGGGGG bnnnn  ___",
"_ oJEEEEWWWWWWWWWWWWWWWEL4GGGGGGGGGGGGGGGGGGGGGGGGGGGFFGFGGFFGGGGGGGGGGGGGGGGGGGGGGGGGGGGGGGGGGGGGGGGGGGGGGGGGGGGGGGGGGGGGGGGGGGGGGGGGGGGGGGGGGGGGGGG.bnnnn  ___",
"_ %YTEEEEWWWWWWWWWWWWWWWL<GGGGGGGGGGGGGGGGGGGGGGGGGGGGGGGFGGGGGGGGGGGGGGGGGGGGGGGGGGGGGGGGGGGGGGGGGGGGGGGGGGGGGGGGGGGGGGGGGGGGGGGGGGGGGGGGGGGGGGGGGGG.bnnnn  ___",
"_ oTYTEEEEEWWWWWWWWWWWWWY,GGGGGGGGGGGGGGGGGGGGGGGGGGGGGGGGGGGGGGGGGGGGGGGGGGGGGGGGGGGGGGGGGGGGGGGGGGGGGGGGGGGGGGGGGGGGGGGGGGGGGGGGGGGGGGGGGGGGGGGGGGG.bnnnn. ___",
"_ :JTYTTEEWEWWWWWWWWWWWWT+GGGGGGGGGGGGGGGGGGGGGGGGGGGGGGGGGGGGGGGGGGGGGGGGGGGGGGGGGGGGGGGGGGGGGGGGGGGGGGGGGGGGGGGGGGGGGGGGGGGGGGGGGGGGGGGGGGGGGGGGGGG.bnnnn  ___",
"_ O&YYYTEEEEWWWWWWWWWWWWT#GGGGGGGGGGGGGGGGGGGGGGGGGGGGGGGGGGGGGGGGGGGGGGGGGGGGGGGGGGGGGGGGGGGGGGGGGGGGGGGGGGGGGGGGGGGGGGGGGGGGGGGGGGGGGGGGGGGGGGGGGGG.bnnnn. ___",
"__ OLYYYTTEEEWWWWWWWWWWWT#GGGGGGGGGGGGGGGGGGGGGGGGGGGGGGGGGGGGGGGGGGGGGGGGGGGGGGGGGGGGGGGGGGGGGGGGGGGGGGGGGGGGGGGGGGGGGGGGGGGGGGGGGGGGGGGGGGGGGGGGGGG mnnnn  ___",
"__ o9YPYYTTEEWEWWWWWWWWWT+GGGGGGGGGGGGGGGGGGGGGGGGGGGGGGGGGGGGGGGGGGGGGGGGGGGGGGGGGGGGGGGGGGGGGGGGGGGGGGGGGGGGGGGGGGGGGGGGGGGGGGGGGGGGGGGGGGGGGGGGGGG.bnnnn  ___",
"___ oYPYYTTTEEEWWWWWWWWWT#GGGGGGGGGGGGGGGGGGGGGGGGGGGGGGGGGGGGGGGGGGGGGGGGGGGGGGGGGGGGGGGGGGGGGGGGGGGGGGGGGGGGGGGGGGGGGGGGGGGGGGGGGGGGGGGGGGGGGGGGGGG.bnnnn  ___",
"___ owPPYYYTTEEEWWWWWWWWT+GGGGGGGGGGGGGGGGGGGGGGGGGGGGGGGGGGGGGGGGGGGGGGGGGGGGGGGGGGGGGGGGGGGGGGGGGGGGGGGGGGGGGGGGGGGGGGGGGGGGGGGGGGGGGGGGGGGGGGGGGGG.bnnnn. ___",
"____ oTPPYYYTTEEEWEWWWWWT+GGGGGGGGGGGGGGGGGGGGGGGGGGGGGGGGGGGGGGGGGGGGGGGGGGGGGGGGGGGGGGGGGGGGGGGGGGGGGGGGGGGGGGGGGGGGGGGGGGGGGGGGGGGGGGGGGGGGGGGGGGG.bnnnn  ___",
"____ yJPPPYYTTTEEWEWWWWWT#GGGGGGGGGGGGGGGGGGGGGGGGGGGGGGGGGGGGGGGGGGGGGGGGGGGGGGGGGGGGGGGGGGGGGGGGGGGGGGGGGGGGGGGGGGGGGGGGGGGGGGGGGGGGGGGGGGGGGGGGGGG bnnnn  ___",
"____ O&EYYPYYYTEEEEWWWWWT+GGGGGGGGGGGGGGGGGGGGGGGGGGGGGGGGGGGGGGGGGGGGGGGGGGGGGGGGGGGGGGGGGGGGGGGGGGGGGGGGGGGGGGGGGGGGGGGGGGGGGGGGGGGGGGGGGGGGGGGGGGG bnnnn  ___",
"_____ ;JPPPPYYYTTEEWWEWWL,GGGGGGGGGGGGGGGGGGGGGGGGGGGGGGGGGGGGGGGGGGGGGGGGGGGGGGGGGGGGGGGGGGGGGGGGGGGGGGGGGGGGGGGGGGGGGGGGGGGGGGGGGGGGGGGGGGGGGGGGGGG.bnnnn  ___",
"_____ X&PPYPYYYYTTEEEWWEL4GFGGGGGGGGGGGFGGGGGGGGGGGGGGGGGGGGGGFGGGGGGGGGGFGGGGGGGGGGGGGGGGFGGGGGGGGGGGGGFGGGGGGGGGGGGGGGGGGGGGGGGGGGGGGGGGGGGGGGGGGGG.bnnnn  ___",
"______ *LPYPYYYYYTTEEEEWL4FFFFGGFFFFFFFFFFFFFFFFFFFFFGFFFFGFFGFFGGFFFGFFGFGFFFGGFGFFGFFGGGGFFGFFFFGGFGFFGGGGFFGFGGGGGGGGGGGGGGGGFGFGFFGFGGFGFGFGFGGGG.bnnnn. ___",
"______  8YPPPYPYYTTTEEEEJ4ZFFZFZFFZZFZFFZFFFZFFFFFZFFFZFZFFZFFFFFFFFFFFFFFFFFFFFFFFFFFFFFFFFFFFFFFFFFFFFFFFFFFFFFFFFFFFFGGFFFFFFFFFFFFFFFFFFFFFFFFFFF.bnnnn. ___",
"_______ OPPYPPYPYYYTTEETH5ZZVZZZVZZZZZVZZZVVZZVVVZZZZZZZZZZZZZZZZZZZZZZZZZZFZZFZZZFZFZZZZZFZZZFZZFZFZFFZFZZFZFFZFZFZZZZFGGZFFZZZZZZFZZZFZFZZZZZZZZZZZ.bC1@@    _",
"_______  wYPPPYYYYYYTTETejVVVMMVMVVMVVVMVMVVVMVVVMVMVMVVVVVVVMVVVVVVVZVZVVVVVZVZVZVZVVZZZZVZZZZVZZVVZVZVZZZVZZVZVVZVZVVVDZZVVVVVVZVVVVVVVZVVZVZVZVZZV b4.     o ",
"________ %PPYPPPPPYYYTTTelMMMMMMMMMMMnMMMMnMMMMMMMMMMMMMMMMMMMMMMMMMMMMMMVVMMMVMVMVVVVMVVMVVVMVVMVVVVVVVMVVVMVVMMVMVMMMMFVMMVVMVMVMMMVVMMMVMMMMMMMMMM.N.        ",
"________ owYYPYPPPYYYYTY8cMnnnnnnnnMMnnnnnnnnnnnMnnnnnnMnnMnnMnnnMnMnMnMnMnMMMMMMMMMMMMMMMMMMMMMMMMMMMMMMMMMMMMMMMMnMnMMnMnMnMMnMnMMnMnMMMnMMnMnnMnMM.A         ",
"_________ oTPPPPYPYPYYYP*NnnnnnnnnnnnnnnnnnnnnnnnnnnnnnnnnnnnnnnnnnnnnnnnnnnnnnnnMnnnnMnnMnnnMnnnnMnnnMnMnnnnnnnnnnnnnnnnnnnnnnnnnnnnnnnnnnnnnnnnnnnn.m2      - ",
"_________ yrPYPYPPPYPYYL+nnnnnnnnnnnnnnnnnnnnnnnnnnnnnnnnnnnnnnnnnnnnnnnnnnnnnnnnnnnnnnnnMnnnnnnnnnnnnnnnnnnnnnnnnnnnnnnnnnnnnnnnnnnnnnnnnnnnnnnnnnnn.bbl,# : X ",
"_________ X%TPYPYYPPPYTY@nnnnnnnnnnnnnnnnnnnnnnnnnnnnnnnnnnnnnnnnnnnnnnnnnnnnnnnnnnnnnnnnnnnnnnnnnnnnnnnnnnnnnnnnnnnnnnnnnnnnnnnnnnnnnnnnnnnnnnnnnnnn bnMbv o __",
"__________ yrYPYPYPYPPYL2nnnnnnnnnnnnnnnnnnnnnnnnnnnnnnnnnnnnnnnnnnnnnnnnnnnnnnnnnnnnnnnnnnnnnnnnnnnnnnnnnnnnnnnnnnnnnnnnnnnnnnnnnnnnnnnnnnnnnnnnnnnn.bnnnn  ___",
"__________ O%TPPPYYPPYPH3nnnnnnnnnnnnnnnnnnnnnnnnnnnnnnnnnnnnnnnnnnnnnnnnnnnnnnnnnnnnnnnnnnnnnnnnnnnnnnnnnnnnnnnnnnnnnnnnnnnnnnnnnnnnnnnnnnnnnnnnnnnn.bnnnn  ___",
"___________ qJYPPYYPYPPejnnnnnmNs22221223jcVnnnnnnnnnnnnnnnnnnnnnnnnnnnnnnnnnnnnnnnnnnnnnnnnnnnnml3222222szmnnnnnnnnnnnnnnnnnnnNs>@++@@++>1Nnnnnnnnnn bnnnn  ___",
"___________ X&EPPYPYPYL*NnnnMC3+...   .  .#5vnnnnnnnnnnnnnnnnnnnnnnnnnnnnnnnnnnnnnnnnnnnnnnnnnBs#.. . .  ..<lmnnnnnnnnnnnnnnnCs#.         ..2Nbnnnnnn.bnnnNX ___",
"____________ ;JPPPYPPYL+Mnnbk#.            .+jVnnnnnnnnnnnnnnnnnnnnnnnnnnnnnnnnnnnnnnnnnnnnnBj@.            .<NmnnnnMnnnnnMnz@.              +kbnnnnn bnnC,  ___",
"____________ X%TYPPYPYJ>nnb5.                .4Bnnnnnnnnnnnnnnnnnnnnnnnnnnnnnnnnnnnnnnnnnnnm3.                +jmnnnnnnMnnnf#                 .3bnnnn.bnn5  ____",
"_____________ yHPPPPYPejnb3.                  .4VnnnnnnnnnnnnnnnnnnnnnnnnnnnnnnnnnnnnnnnnnB5.                  .jmnMnnnnMnd#                   .hbnnn.bnN.O ____",
"_____________ X&EPYPPL*Nbj.                    .5VnnnnnnnnnnnnnnnnnnnnnnnnnnnnnnnnnnnnnnnVk.                    #cMnnnnnnd+                     .3bnn.bF+-- ____",
"______________ qJYPPPJ<Gl.                      .dnnnnnnnnnnnnnnnnnnnnnnnnnnnnnnnnnnnnnnVj.                      #NMnnnnz#         oXXXX         .cnn.b2Ot- ____",
"______________ o%TPYL8kA.        --tttt:-X       +fnnnnnnnnnnnnnnnnnnnnnnnnnnnnnnnnnnnnnf+       XO:7:tt:-X       ,vnnnV<        -77777tt-X       #bn j.7t- ____",
"_______________ yHPPH<D<       O:tttttttt7-o      ,Cnnnnnnnnnnnnnnnnnnnnnnnnnnnnnnnnnnnv<       O:tttttttt7=o      jmnnl+      O7ttttttttttO       ln..-ttO ____",
"_______________  %TJ$AA.      X7ttttttttttt-      +fnnnnnnnnnnnnnnnnnnnnnnnMnnnnnnMnnnMd+      OttttttttttttO      +vbM>       :ttttttttttt7O      <b.-ttt  ____",
"________________.too ..      X:ttttttttttttt-      ..+.+.++..+.++.+.+.+..+.+.+.+.+.+.++.      O:ttttttuttttttO      .++       :ttttttttuttttt       . ttt:O ____",
"________________ o   Xt      Otttttttttttttt:X     X:tt7;                                     -tttttttttttttt:X     O:-      Ottttttttttttttt-      -7ttt=  ____",
"_____________________X:     Xttttttutttttttut;     O7tyt-._____________________________      OttttttttttutttttO     -7-      :tutttttttttttttto     -ttttO _____",
"_____________________       Ottttttttttuttttt:X    o:tt:X ____________________________OO     -tttttttttttttttt-X    XqO     X7tttttttttuttttttO     Xttt-  _____",
"_____________________       -ttttttttttuttttt:X    X:tt-X_____________________________-O     -tttttttttttttttt:o    X7O     XqtttttttttttttttuO     Ott:X ______",
"_____________________       Ottttttuttttttttt7o     :t:  _____________________________-O     ;tttttuttttttttut-X    X:O     X7ttttutttttttttttO     Xt7o  ______",
"_____________________       Outtttttttttttttt7o    X::O ______________________________-O     ;tttttttttttttttt:X    X:O     X7tttttttuttttutttO     XtX  _______",
"_____________________ O     Otttttttttttttttt7X    oO  _______________________________--     -ttttttttutttuttt:     X-o      7ttttttttttttttttO      O  ________",
"_____________________o:      tttttutttttttttt-      X ________________________________       O7tuttttttttttttt-o      tX     ;tttttttttttttttt      O  _________",
"_____________________        ;ttttttttttuttttO       __________________________________      o:tttttttttttttttX              Xttutttttttttttt-        __________",
"______________________       Otttttttttttttt;     XO___________________________________       Otttttttttttttt-       __       -tttttttttttty:      ; ___________",
"______________________ O      Otttttutttttt:X       ___________________________________-O      -ttttttuttutt-      -X__tO      :tttttuttttt7X        ___________",
"______________________         X7utttttttt:      oX____________________________________         O7tttttttttO         __         -7ttttuttt:X      X ____________",
"_______________________o:       X-tutttt:O         _____________________________________         X;tttttt:O         ____         X-ttttt:O          ____________",
"_______________________  X         OOOOX          _______________________________________OX        XOOXOX        OX______-X                      u _____________",
"________________________  o                    O7________________________________________ OO                    -X ______ -o                    uX _____________",
"_________________________  X                  Ot _________________________________________ X                   X  ________ tO                  uo ______________",
"__________________________  O                   ___________________________________________ OX                Xo __________                      _______________",
"___________________________ X7             oO ______________________________________________ :-              tO _____________ -o            -  _________________",
"____________________________  X7o        X7t ________________________________________________  ::X        OtO  _______________  7-       -to  __________________"
};

