/* XPM */
static char *bxLok112[] = {
/* columns rows colors chars-per-pixel */
"160 160 86 1",
"  c #000000",
". c #000316",
"X c #180606",
"o c #171617",
"O c #000c29",
"+ c #00133a",
"@ c #111425",
"# c #390202",
"$ c #311114",
"% c #361031",
"& c #272727",
"* c #363636",
"= c #000e4a",
"- c #000158",
"; c #021947",
": c #001c58",
"> c #11144f",
", c #000f6d",
"< c #001c77",
"1 c #002164",
"2 c #112776",
"3 c #2e1a4d",
"4 c #460202",
"5 c #4c0f15",
"6 c #580304",
"7 c #4a0d27",
"8 c #500d29",
"9 c #582828",
"0 c #660000",
"q c #7a0102",
"w c #780818",
"e c #4D4D4D",
"r c #5a5a5a",
"t c #696969",
"y c #726868",
"u c #767676",
"i c #000085",
"p c #001685",
"a c #00129a",
"s c #000eb6",
"d c #001ba6",
"f c #022688",
"g c #002494",
"h c #053195",
"j c #0026ac",
"k c #002bb9",
"l c #0037a6",
"z c #003bb1",
"x c #0008ce",
"c c #0009db",
"v c #0016c4",
"b c #0019d3",
"n c #0008e9",
"m c #0002fe",
"M c #0017e7",
"N c #0018fe",
"B c #0027d3",
"V c #0026e4",
"C c #0028fe",
"Z c #003bec",
"A c #0037fe",
"S c #0043c8",
"D c #004add",
"F c #004ce8",
"G c #0049fe",
"H c #0050ee",
"J c #0055fe",
"K c #860202",
"L c #890511",
"P c #970102",
"I c #9e3838",
"U c #a60000",
"Y c #bb0000",
"T c #c40000",
"R c #d70000",
"E c #e90000",
"W c #fe0000",
"Q c #888888",
"! c #978888",
"~ c #999999",
"^ c #a79797",
"/ c #A9A9A9",
"( c #B8B8B8",
") c #c4bdbd",
"_ c #C4C4C4",
"` c None",
/* pixels */
"````````````````````````````````````````````````````````````````````````````````````````````````````````````````````````````````````````````````````````````````",
"````````````````````````````````````````````````````````````````````````````````````````````````````````````````````````````````````````````````````````````````",
"````````````````````````````````````````````````````````````````````````````````````````````````````````````````````````````````````````````````````````````````",
"````````````````````````````````````````````````````````````````````````````````````````````````````````````````````````````````````````````````````````````````",
"````````````````````````````````````````````````````````````````````````````````````````````````````````````````````````````````````````````````````````````````",
"````````````````````````````````````````````````````````````````````````````````````````````````````````````````````````````````````````````````````````````````",
"````````````````````````````````````````````````````````````````````````````````````````````````````````````````````````````````````````````````````````````````",
"````````````````````````````````````````````````````````````````````````````````````````````````````````````````````````````````````````````````````````````````",
"````````````````````````````````````````````````````````````````````````````````````````````````````````````````````````````````````````````````````````````````",
"````````````````````````````````````````````````````````````````````````````````````````````````````````````````````````````````````````````````````````````````",
"````````````````````````````````````````````````````````````````````````````````````````````````````````````````````````````````````````````````````````````````",
"````````````````````````````````````````````````````````````````````````````````````````````````````````````````````````````````````````````````````````````````",
"````````````````````````````````````````````````````````````````````````````````````````````````````````````````````````````````````````````````````````````````",
"````````````````````````````````````````````````````````````````````````````````````````````````````````````````````````````````````````````````````````````````",
"````````````````````````````````````````````````````````````````````````````````````````````````````````````````````````````````````````````````````````````````",
"````````````````````````````````````````````````````````````````````````````````````````````````````````````````````````````````````````````````````````````````",
"````````````````````````````````````````````````````````````````````````````````````````````````````````````````````````````````````````````````````````````````",
"````````````````````````````````````````````````````````````````````````````````````````````````````````````````````````````````````````````````````````````````",
"````````````````````````````````````````````````````````````````````````````````````````````````````````````````````````````````````````````````````````````````",
"````````````````````````````````````````````````````````````````````````````````````````````````````````````````````````````````````````````````````````````````",
"````````````````````````````````````````````````````````````````````````````````````````````````````````````````````````````````````````````````````````````````",
"````````````````````````````````````````````````````````````````````````````````````````````````````````````````````````````````````````````````````````````````",
"````````````````````````````````````````````````````````````````````````````````````````````````````````````````````````````````````````````````````````````````",
"````````````````````````````````````````````````````````````````````````````````````````````````````````````````````````````````````````````````````````````````",
"```````````````````````````````````````````````````````````````````````````````````````````````````````````` &*//////(*o````````````````````````````````````````",
"``````````````````````````````````````````````````````````````````````````````````````````````````````````rru////////(_Q````````````````````````````````````````",
"````````````````````````````````````````````````````````````````````````````&&&~~~~~~~~~~~Q*&&&`````````&t////////((((__/r `````````````````````````````````````",
"```````````````````````````````````````````````````````````````````````````&~///////////((((_(/*````` rr//////~/((_______(t&Xrrr&```````````````````````````````",
"`````````````````````````````````````````````````````````````````````````Xu~((((((((/(//(((////~Qo` ou//(((_((/(_________(/~Q//(/~eo````````````````````````````",
"````````````````````````````````````````````````````````````````````````oQ//((___(((/////////////~er//(((___(__(_________)((//~/////&```````````````````````````",
"`````````````````````````````````````````````````````````````````````` .Q///(_____(////////////(/////(_____________________((///////~&``````````````````````````",
"````````````````````````````````````````````````````````````*e*ee**X`&r////(______(((///////(((/////(________________________(((////((&`````````````````````````",
"``````````````````````````````````````````````````````````&u(_((///uu~///(_(_______(((((((__(_(///((____________________________((/(((t`````````````````````````",
"`````````````````````````````````````````````````````````o(__(/////////(______((______________((/((______________________________()((//*````````````````````````",
"````````````````````````````````````````````````````````t/_)(//////(((((_((((//((_______________(_____((/((___(__(__________________(//t````````````````````````",
"````````````````````````````````````````````````````` &Q__((/////(______(((//////_______________()___((///(__(///(((/((/(___________)///````````````````````````",
"`````````````````````````````````````````````````````e___((////((_____(((///////((_______________(((__(///(_((////////////(__________(//````````````````````````",
"````````````````````````````````````````````````````e)__((////(______////////((((_____(__(____(((///__((((()_(////////////((_________(//````````````````````````",
"```````````````````````````````````````````````````XQ___)////((____(///////((_(_____//((((((((/////(____(____(((//(////(/((__________(//````````````````````````",
"```````````````````````````````````````````````````Q_____(/(______(/////((((_______(///////////////(______)(((((_((_(__(____________((//````````````````````````",
"``````````````````````````````````````````````````u______________(////(_(___________(///~///////(((_______(////((___________________(///````````````````````````",
"`````````````````````````````````````````````````&~_____________((///((______________(/(///////(((_______((/////(___________________(//r````````````````````````",
"`````````````````````````````````````````````````(___((_________(///(_______________(((////(((____________((///((_________________((//~&````````````````````````",
"````````````````````````````````````````````````*___(//(_________//((_______________((///ut_________________((((_((______________((///t`````````````````````````",
"```````````````````````````````````````````````*(__(///(_________((_____________((((///~oX.t_________________)_((//(______(____((/////t`````````````````````````",
"```````````````````````````````````````````````e___(///(__________________(~___((/////Qo````t____((((________(((///~~___(/((__(/////(t``````````````````````````",
"`````````````````````````````````````````````` e___///((_______________)((Qo/(((/~/Q&&o````` *~((///(((((__(/(///~/*o~_((///////////tX``````````````````````````",
"`````````````````````````````````````````````` ___(///(____(/(________)(//r```````````         &~/////((((/////~&       ut~//////(Qt    ````````````````````````",
"``````````````````````````````````````````````X___////(___((//________((//X```````````          &eu/////////~**&          *****e**o   oo````````````````````````",
"`````````````````````````````````````````````` ___///(______(((________/~* ``````````               euuuuut                           o ````````````````````````",
"``````````````````````````````````````````````o__(///(________________(/u````````````                                                 ``````````````````````````",
"`````````````````````````````````````````````` _((//(______________(__(~X``````````                                                 . ``````````````````````````",
"`````````````````````````````````````````````` _(///(___________((((((/*```````````                                                =, ``````````````````````````",
"``````````````````````````````````````````````.__///(________(_((((///t ``````````                                                Oxi ``````````````````````````",
"`````````````````````````````````````````````` _(///(___((/((////~/~/t```````````                                                Okmi ``````````````````````````",
"``````````````````````````````````````````````X(////(___(////////////&```````````  .zzzzzzzzzzzzzzzzzzzzzzzzzzzzzzzzzzzzzzzzzzzz;jNmi ``````````````````````````",
"`````````````````````````````````````````````` (///(___(//uu~/~////~*``````````````OJJJJJJJJJJJJJJJJJJJJJJJJJJJJJJJJJJJJJJJJJJJJ:nmmi ``````````````````````````",
"`````````````````````````````````````````````` (//((__(//t `*ee**e**```````````````OJJJJJJJJJJJJJJJJJJJJJJJJJJJJJJJJJJJJJJJJJJJJ:mmmi ``````````````````````````",
"``````````````````````````````````````````````o~//((__(/~*`````````````````````````OJJJJJJJJJSSSSSSSSSSSSSSSSSSSSSSSSSDJJJJJJJJJ:mmmi ``````````````````````````",
"```````````````````````````````````````````````*//()_(//t``````````````````````````OJJJJJJJJDo&&&*&&&&&&&&&&&&&*&&&&&&2JJJJJJJJJ:nmmi ``````````````````````````",
"```````````````````````````````````````````````*~((_)(//u``````````````````````````+JJJJJJJJD&eeeeeeeeeeeeeeeeeereeeee1JJJJJJJJJ:nmmi ``````````````````````````",
"```````````````````````````````````````````````*//(((/~/u``````````````````````````OJJJJJJJJD&eeeeereeerreeeeeeeeeeeee1JJJJJJJJJ:mmmi ``````````````````````````",
"```````````````````````````````````````````````*/(__////t``````````````````````````OJJJJJJJJD&eeeeeeeeeeeeeeeeeeeeeeee1JJJJJJJJJ:nmmi ``````````````````````````",
"```````````````````````````````````````````````&/__((/~/e``````````````````````````OJJJJJJJJDoeeeeeeeeeeeeeeeereeeeee*1JJJJJJJJJ:mmmi ``````````````````````````",
"````````````````````````````````````````````````Q__((//~```````````````````````````+JJJJJJJJD&eeeeeeeeeeeeeeeeeeeeeee*1JJJJJJJJJ1mmm, ``````````````````````````",
"``````````````````````````````````````````````` y__(/~/~ ``````````````````````````OJJJJJJJJD&eeeeereeereeeereeeeeeeee1JJJJJJJJJ:nmmi ``````````````````````````",
"```````````````````````````````````````````````oL)_((///6 `````````````````````````OJJJJJJJJD&eeeeeeeeeeeeeeeeeeeeeree1JJJJJJJJJ:mNmi ``````````````````````````",
"``````````````````````````````````````````````` 4^/^!!!I# `````````````````````````OJJJJJJJJD&eeeeeeeeeeeeereeeeeeeeee1JJJJJJJJJ:nmmi ``````````````````````````",
"``````````````````````````````````````````````` 0KqqKqqqK `````````````````````````OJJJJJJJJS&eeereeeeeeeeeeeeeeeeeeee1JJJJJJJJJ:nmmi ``````````````````````````",
"``````````````````````````````````````````````` UWWEEEEWY ```````X$#####o `````````+JJJJJJJJD&eeeeeeeeeeeeeeeeeeeeeeee1JJJJJJJJJ:mmmi ``````````````````````````",
"``````````````````````````````````````````````` UWWWWWWWU ```````4YTTYTTP# ````````OJJJJJJJJD&ereeeeeeeeeeeeeeeeeeeeee;JJJJJJJJJ:nmmi ``````````````````````````",
"``````````````````````````````````````````````` UWWWWWWWY ```````X0UYTYP6X ````````OJJJJJJJHD&eeeeeeereeeeereeereereee1JJJJJJJJJ:mmmi ``````````````````````````",
"``````````````````````````````````````````````` UWWWWWWWU ```````#Uq460PR6 ````````OJJJJJJJJD&eeeeeeeeeeeeeeeeeeeeeeee1JJJJJJJJJ1Mmmi ``````````````````````````",
"``````````````````````````````````````````````` UWWWWWWWY ```````4WWWWWWW0 ````````OJJJJJJJJD&eeeeeeeeeeeereeereeeeeee1JJJJJJJJJ:mmmi ``````````````````````````",
"``````````````````````````````````````````````` UWWWWWWWU ```````4WWWWWWW0 ````````OJJJJJJJJD&eeeeeeeeeeeeeeeeeereeeee1JJJJJJJJJ:nmmi ``````````````````````````",
"``````````````````````````````````````````````` UWWWWWWWY ```````4WWWWWWW0 ````````OJJJJJJJJD&eeeeerreeeeeeeeeeeeeeee*1JJJJJJJJJ:nmmi ``````````````````````````",
"``````````````````````````````````````````````` UWWWWWWWU ```````4WWWWWWW0 ````````+JJJJJJJJD&eeeeeeeeeeeeeeeeeeeeeee*1JJJJJJJJJ:nmmi ``````````````````````````",
"``````````````````````````````````````````````` UWWWWWWWY ```````4WWWWWWW0 ````````OJJJJJJJJD&eeeeeeeeeeeeereeeeeeeeee1JJJJJJJJJ:mmmi ``````````````````````````",
"``````````````````````````````````````````````` UWWWWWWWU ```````#WWWWWWW6 ````````OJJJJJJJJD&eeeeeeeeeeeeeeeeeeeeeeee1JJJJJJJJJ:mmmi ``````````````````````````",
"``````````````````````````````````````````````` UWWWWWWWY ```````4WWWWWWW0 ````````OJJJJJJJHDo*********&****&*********1JJJJJJJJJ:nmmi ``````````````````````````",
"````````````````````````````````````            UWWWWWWWU        0WWWWWWW0         OJJJJJJJJJzllllllllllllllllllllllllSJJJJJJJJJ:mmmi ``````````````````````````",
"```````````````````````````````````o66hHHHJHJHGz7TREEERT%kZFGHHHz4TREEERK1MVCZGHHHJHJJJJJJJJJJJJJJJJJJJJJHJJJJJJJJJJJJJJJJJJJJJJ:nmmi ``````````````````````````",
"```````````````````````````````````5RE8DJJJJJJJHj2378832sCCAGGJJHh2%8883pbNNCAGGJJJJJJJJJJJJJJJJJJJJJJJJJJJJJJJJJJJJJJJJJJJJJJJJ:nmmi ``````````````````````````",
"``````````````````````````````````oKWWY2JJJJJJGGAACMnnnNmNNAAGGJJJHZVMMnmmmmNCAGJJJJJJJJJJJJJJJJJJJJJJJJJJJJJJJJJJJJJJJJJJJJJJJJ:mmmi ``````````````````````````",
"````````````````````````````````` 4EWWE7JJJJJJJGGAANNmmmmmNNCAGGJJGAACNNmmmmNNCAGJJJJJJJJJJJJJJJJJJJJJJJJJJJJJJJJJJJJJJJJJJJJJJJ:nmmi ``````````````````````````",
"`````````````````````````````````XUWWWWKSJJJJJJJGGACNNmmmmmNNCAGGJJGAACNNmmmmNCGGJJJJJJJJJJJJJJJJJJJJJJJJJJJJJJJJJJJJJJJJJJJJJJJ:mmmi ``````````````````````````",
"```````````````````````````````` 0EWWWWR2JJJJJJJJGGACNNmmmmmNNCAAJJGGGACNNNmmNCAGJJJJJJJJJJJJJJJJJJJJJJJJJJJJJJJJJJJJJJJJJJJJJJJ:mmmi ``````````````````````````",
"````````````````````````````````oRWWWWWW:JJJJJJJJJGGACNNNmmmmNNAAGGJGGACCNNmNNAGGJJJJJJJJJJJJJJJJJJJJJJJJJJJJJJJJJJJJJJJJJJJJJJJ:nmmi ``````````````````````````",
"`````````````````````````````` oPWWWWWWW%FJJJJJJJJJJGAANNmmmmNmCCAGGJGGGACCNCCAGJJJJJJJJJJJJJJJJJJJJJJJJJJJJJJJJJJJJJJJJJJJJJJJJ1mmmi ``````````````````````````",
"`````````````````````````````` 0EWWWWWWW8SJJJJJJJJJJGGACNNmmmmmNNCAGGJJGGGAAAAGJJJJJJJJJJJJJJJJJJJJJJJJJJJJJJJJJJJJJJJJJJJJJJJJJ:nmmi ``````````````````````````",
"``````````````````````````````oTWWWWWWWWLzJJJJJJJJJJJJGACNNmmmmNNNAGGJJGGGGGGGGJJJJJJJJJJJJJJJJJJJJJJJJJJJJJJJJJJJJJJJJJJJJJJJJJ:mmmi ``````````````````````````",
"````````````````````````````` qWWWWWWWWWYlJJJJJJJJJJJJGGACNNmmmmmNCAGGJJGJGJGJGJJJJJJJJJJJJJJJJJJJJJJJJJJJJJJJJJJJJJJJJJJJJJJJJJ:nmmi ``````````````````````````",
"```````````````````````````` 4RWWWWWWWWWYfJJJJJJJJJJJJGGGACCNNNmmNCAGJJJJJJJJJJJJJJJJJJJJJJJJJJJJJJJJJJJJJJJJJJJJJJJJJJJJJJJJJJJ:mmmi ``````````````````````````",
"````````````````````````````XYWWWWWWWWWWR2JJJJJJJJJJJJJJGGAANNmmmNCAGGJJJJJJJJJJJJJJJJJJJJJJJJJJJJJJJJJJJJJJJJJJJJJJJJJJJJJJJJJJ:nmmi ``````````````````````````",
"```````````````````````````o0WWWWWWWWWWWR3HJJJJJJJJJJJJJJGGACCNNNCAGGJJJJJJJJJJJJJJJJJJJJJJJJJJJJJJJJJJJJJJJJJJJJJJJJJJJJJJJJJJJ:nmmi ``````````````````````````",
"`````````````````````````` #EWWWWWWWWWWWR3HJJJJJJJJJJJJJJJGGGAACAAAGJJJJJJJJJJJJJJJJJJJJJJJJJJJJJJJJJJJJJJJJJJJJJJJJJJJJJJJJJJJJ:mmmi ``````````````````````````",
"``````````````````````````$PWWWWWWWWWWWWE7HJJJJJJJJJJJJJJJJJGGGAGGGGJJJJJJJJJJJJJJJJJJJJJJJJJJJJJJJJJJJJJJJJJJJJJJJJJJJJJJJJJJJJ:nmmi ``````````````````````````",
"````````````````````````` 0EEWWWWWWWWWWWE9HJJJJJJJJJJJJJJJJJJJGGGGJJJJJJJJJJJJJJJJJJJJJJJJJJJJJJJJJJJJJJJJJJJJJJJJJJJJJJJJJJJJJJ:mmmi ``````````````````````````",
"`````````````````````````XTEEEWWWWWWWWWWE8HJJJJJJJJJJJJJJJJJJGJJGJJJJJJJJJJJJJJJJJJJJJJJJJJJJJJJJJJJJJJJJJJJJJJJJJJJJJJJJJJJJJJJ:mmmi ``````````````````````````",
"`````````````````````````.YRREEWWWWWWWWWW0HJJJJJJJJJJJJJJJJJJJJJJJJJJJJJJJJJJJJJJJJJJJJJJJJJJJJJJJJJJJJJJJJJJJJJJJJJJJJJJJJJJJJJ:nmmi ``````````````````````````",
"`````````````````````````o0TTRREEWWWWWWWW0FJJJJJJJJJJJJJJJJJJJJJJJJJJJJJJJJJJJJJJJJJJJJJJJJJJJJJJJJJJJJJJJJJJJJJJJJJJJJJJJJJJJJJ:nmmi ``````````````````````````",
"``````````````````````````$UTTREEWEWWWWWW0FJJJJJJJJJJJJJJJJJJJJJJJJJJJJJJJJJJJJJJJJJJJJJJJJJJJJJJJJJJJJJJJJJJJJJJJJJJJJJJJJJJJJJ:mmmi ``````````````````````````",
"`````````````````````````` qTTTREEWWWWWWW0FJJJJJJJJJJJJJJJJJJJJJJJJJJJJJJJJJJJJJJJJJJJJJJJJJJJJJJJJJJJJJJJJJJJJJJJJJJJJJJJJJJJJJ:nmmi ``````````````````````````",
"`````````````````````````` 4YYTRREEWWWWWW0HJJJJJJJJJJJJJJJJJJJJJJJJJJJJJJJJJJJJJJJJJJJJJJJJJJJJJJJJJJJJJJJJJJJJJJJJJJJJJJJJJJJJJ:mmmi ``````````````````````````",
"```````````````````````````oPYTTTREEWEWWW0FJJJJJJJJJJJJJJJJJJJJJJJJJJJJJJJJJJJJJJJJJJJJJJJJJJJJJJJJJJJJJJJJJJJJJJJJJJJJJJJJJJJJJ:nmmi ``````````````````````````",
"```````````````````````````o4RYTTRREEWWWW0FJJJJJJJJJJJJJJJJJJJJJJJJJJJJJJJJJJJJJJJJJJJJJJJJJJJJJJJJJJJJJJJJJJJJJJJJJJJJJJJJJJJJJ:mmmi ``````````````````````````",
"````````````````````````````&PYYYTTREEEWE7HJJJJJJJJJJJJJJJJJJJJJJJJJJJJJJJJJJJJJJJJJJJJJJJJJJJJJJJJJJJJJJJJJJJJJJJJJJJJJJJJJJJJJ:nmmi ``````````````````````````",
"```````````````````````````` 0YTYTTTREEWE7HGGGGJJGGJGJGGJGJGGGJGGJGJJGGGJGJGJGJGJGJGJJGGJGJJGJGGGJJGJJGJJJJJJJGJGJJGJGJJJJGJGJJJ:mmmi ``````````````````````````",
"```````````````````````````` XPYTTTTTREEE7FAAGAAAGAAAGAGAGAGGGAGGGGGAGGGGGGAGGAGGGGGGGGGGGGGGGGGGGGGGGGGJJGGGGGGGGGGGGGGGGAGGGGG:mnn,  `````````````````````````",
"`````````````````````````````X0TYYTYTRRRR3CCCCCCCCCCCCCCCNCCCCCCCCCCCCACCAAAAAAAAAACAAAAAAACAAAAAAAAAAACJJCAACCACAAACAACAAACCAAA=c:     ````````````````````````",
"``````````````````````````````XYYYYYYTTRY3MNNNNNNNNNNNNNNNNNNNNNNNNNNNNNNCNNNNCNCNCNCNNCNCCNCCCCCCCCCCCNACNCNNNCNNNNNNNNCNNNNNNN-g      ````````````````````````",
"`````````````````````````````` 0TTYTTTTTP2mmmmmmmmmmmmmmmmmmmmmmmmmmmmmNmmmmNmmNmNmNNmNNNNmNmNmmNmNmmNmmNNmmmNmmNmmNmmNmmmmNmmmm-j.     ````````````````````````",
"`````````````````````````````` 9UTYTYTTTPimmmmmmmmmmmmmmmmmmmmmmmmmmmmmmmmmmmmmmmmmmmmmmmmmmmmmmmmmmmmmmmmmmmmmmmmmmmmmmmmmmmmmm-nd;.&  ````````````````````````",
"`````````````````````````````` XLYTYTYYTPsmmmmmmmmmmmmmmmmmmmmmmmmmmmmmmmmmmmmmmmmmmmmmmmmmmmmmmmmmmmmmmmmmmmmmmmmmmmmmmmmmmmmmm-nmmi ``````````````````````````",
"```````````````````````````````o$YTYYTYTwsmmmmmmmmmmmmmmmmmmmmmmmmmmmmmmmmmmmmmmmmmmmmmmmmmmmmmmmmmmmmmmmmmmmmmmmmmmmmmmmmmmmmmm-mmmi ``````````````````````````",
"````````````````````````````````&KTYTYTY8bmmmbf====>:fVmmmmmmmmmmmmmmmmmmmmmmmmmmmmmmmmmmmnv<=====gcmmmmmmmmmmmmng=OOO.O+fnmmmmm-nmm, ``````````````````````````",
"`````````````````````````````````5YYYTYT>mmnfO        +aNmmmmmmmmmmmmmmmmmmmmmmmmmmmmmmmmv:.       OpMmmmmmmmmmj;         +gmmmm-nmM; ``````````````````````````",
"`````````````````````````````````XKYTYTY,mc=            <Mmmmmmmmmmmmmmmmmmmmmmmmmmmmmmmg.           +BmmmNmmmg.           .<mmm-mm1 ```````````````````````````",
"`````````````````````````````````o5YYYT0Bn;              1NmmmmmmmmmmmmmmmmmmmmmmmmmmmNj              +Bmmmmmp.              pnm-nj@o```````````````````````````",
"``````````````````````````````````oPYTT$D<                <mmmmmmmmmmmmmmmmmmmmmmmmmmmkO               ;Cmmmd.       oX      .jm-x;*o```````````````````````````",
"```````````````````````````````````$TTqhf     o*eeee*o    .dmmmmmmmmmmmmmmmmmmmmmmmmmcO    X&*eee*&     ,nmVO    o&eeeee*X    .M-:*e.```````````````````````````",
"```````````````````````````````````oKU%D.    o*eeeeeeeo    ;nmmmmmmmmmmmmmmmmmmmmNmmm<     *eeeeere*    OvNa     *eeeeeeee.    j-&e* ```````````````````````````",
"``````````````````````````````````` &X @    oeeeeeeeeee&    .@@@.....................     *eereeeeee&    .@     *eeeereeee*X    oee*X```````````````````````````",
"```````````````````````````````````````*    &eeeeeeeeee*    *ee& ````````````````````    oeeeeeeeeeeeo   o*o   oeeeeeeeeeeeo   o*eeo````````````````````````````",
"```````````````````````````````````````     eeeeeereeeeeX   &eeo ```````````````````oX   &eeeeeeereee&   o*    &eeeeeeeeeee&   X*e* ````````````````````````````",
"```````````````````````````````````````    oeeeeeeeeeeeeo   &e* ````````````````````&.   *eeeeeeeeeee&   .*    &eeeeeeeeeee*   .e*o ````````````````````````````",
"```````````````````````````````````````     *eeeeeeeeeee    &*X`````````````````````o    &eeeereeeeee&   X*    &eeeeereeeee*    *X `````````````````````````````",
"```````````````````````````````````````&    eeeeeeeeeeee    o ``````````````````````oo   &eeeeeeeeeee&   .oo   oeeeeeeeeeee&   Xo ``````````````````````````````",
"```````````````````````````````````````X    *eeeeeeeeee*     ````````````````````````    Xeeeeeeeeeeeo     o   o*eeeeeeeeeeo     ```````````````````````````````",
"````````````````````````````````````````    o*eeeeeeeeeo   o ````````````````````````o    &eeeeeeeee&     `o    oeeeereeee&    o````````````````````````````````",
"````````````````````````````````````````     o*eeeeee*o    X`````````````````````````o     *eeeeeee&     o`o     &eeeeeee&    X`````````````````````````````````",
"````````````````````````````````````````oo    X&*ee**X      ````````````````````````` .     o*eee*o      ``` X    o&*e**o     .`````````````````````````````````",
"`````````````````````````````````````````       .o       o ``````````````````````````` o      o X     Xo```` &               *X`````````````````````````````````",
"``````````````````````````````````````````X             o& ````````````````````````````X               .````` *             * ``````````````````````````````````",
"```````````````````````````````````````````Xo           ```````````````````````````````` &.         oo````````` .         X ````````````````````````````````````",
"````````````````````````````````````````````ooo      &* `````````````````````````````````oo&      o&o ``````````XX&     &o.`````````````````````````````````````",
"````````````````````````````````````````````````````````````````````````````````````````````````````````````````````````````````````````````````````````````````",
"````````````````````````````````````````````````````````````````````````````````````````````````````````````````````````````````````````````````````````````````",
"````````````````````````````````````````````````````````````````````````````````````````````````````````````````````````````````````````````````````````````````",
"````````````````````````````````````````````````````````````````````````````````````````````````````````````````````````````````````````````````````````````````",
"````````````````````````````````````````````````````````````````````````````````````````````````````````````````````````````````````````````````````````````````",
"````````````````````````````````````````````````````````````````````````````````````````````````````````````````````````````````````````````````````````````````",
"````````````````````````````````````````````````````````````````````````````````````````````````````````````````````````````````````````````````````````````````",
"````````````````````````````````````````````````````````````````````````````````````````````````````````````````````````````````````````````````````````````````",
"````````````````````````````````````````````````````````````````````````````````````````````````````````````````````````````````````````````````````````````````",
"````````````````````````````````````````````````````````````````````````````````````````````````````````````````````````````````````````````````````````````````",
"````````````````````````````````````````````````````````````````````````````````````````````````````````````````````````````````````````````````````````````````",
"````````````````````````````````````````````````````````````````````````````````````````````````````````````````````````````````````````````````````````````````",
"````````````````````````````````````````````````````````````````````````````````````````````````````````````````````````````````````````````````````````````````",
"````````````````````````````````````````````````````````````````````````````````````````````````````````````````````````````````````````````````````````````````",
"````````````````````````````````````````````````````````````````````````````````````````````````````````````````````````````````````````````````````````````````",
"````````````````````````````````````````````````````````````````````````````````````````````````````````````````````````````````````````````````````````````````",
"````````````````````````````````````````````````````````````````````````````````````````````````````````````````````````````````````````````````````````````````",
"````````````````````````````````````````````````````````````````````````````````````````````````````````````````````````````````````````````````````````````````",
"````````````````````````````````````````````````````````````````````````````````````````````````````````````````````````````````````````````````````````````````",
"````````````````````````````````````````````````````````````````````````````````````````````````````````````````````````````````````````````````````````````````",
"````````````````````````````````````````````````````````````````````````````````````````````````````````````````````````````````````````````````````````````````",
"````````````````````````````````````````````````````````````````````````````````````````````````````````````````````````````````````````````````````````````````",
"````````````````````````````````````````````````````````````````````````````````````````````````````````````````````````````````````````````````````````````````",
"````````````````````````````````````````````````````````````````````````````````````````````````````````````````````````````````````````````````````````````````"
};

