/* XPM */
static char *bxLok64[] = {
/* columns rows colors chars-per-pixel */
"96 96 85 1",
"  c #000000",
". c #01081a",
"X c #160202",
"o c #161616",
"O c #000828",
"+ c #000c39",
"@ c #120f35",
"# c #1b1c25",
"$ c #260404",
"% c #390202",
"& c #300e16",
"* c #260a3b",
"= c #282828",
"- c #2a2c35",
"; c #302f2f",
": c #383838",
"> c #001347",
", c #001659",
"< c #000f74",
"1 c #001867",
"2 c #001977",
"3 c #022467",
"4 c #1b2374",
"5 c #13316d",
"6 c #391357",
"7 c #2d146c",
"8 c #2d2266",
"9 c #3c2162",
"0 c #5a0202",
"q c #521111",
"w c #5d143c",
"e c #5f2222",
"r c #7b0507",
"t c #680827",
"y c #460d51",
"u c #4D4D4D",
"i c #575757",
"p c #686868",
"a c #787878",
"s c #000886",
"d c #00029f",
"f c #051485",
"g c #021496",
"h c #160992",
"j c #000ebc",
"k c #0016a9",
"l c #0116b9",
"z c #00279f",
"x c #00359f",
"c c #10248c",
"v c #0336a9",
"b c #003dbc",
"n c #000ecd",
"m c #0017d7",
"M c #000ce7",
"N c #0002fd",
"B c #0010e4",
"V c #0017ff",
"C c #002fc7",
"Z c #003fc3",
"A c #0024fe",
"S c #003bff",
"D c #0045cd",
"F c #004bde",
"G c #004be6",
"H c #0048ff",
"J c #0050ef",
"K c #0055fe",
"L c #8a0305",
"P c #830716",
"I c #950304",
"U c #a80102",
"Y c #a60511",
"T c #bc0000",
"R c #c40000",
"E c #d40102",
"W c #e70000",
"Q c #fd0000",
"! c #878787",
"~ c #989898",
"^ c #ae9393",
"/ c #A9A9A9",
"( c #B8B8B8",
") c #C4C4C4",
"_ c None",
/* pixels */
"________________________________________________________________________________________________",
"________________________________________________________________________________________________",
"________________________________________________________________________________________________",
"________________________________________________________________________________________________",
"________________________________________________________________________________________________",
"________________________________________________________________________________________________",
"________________________________________________________________________________________________",
"________________________________________________________________________________________________",
"________________________________________________________________________________________________",
"________________________________________________________________________________________________",
"________________________________________________________________________________________________",
"________________________________________________________________________________________________",
"________________________________________________________________________________________________",
"________________________________________________________________________________________________",
"________________________________________________________________________________________________",
"________________________________________________________________________________________________",
"______________________________________________________________ oup////u_________________________",
"_____________________________________________oup!!!!!~iu=___ op////(()(a    ____________________",
"____________________________________________:!((((///((//i oa/(((((()))(/a/~io__________________",
"__________________________________________ :~(())(////////!/()))))))))))((////=_________________",
"___________________________________ uaapu;a/(()))(((/((((//())))))))))))))((/(/o________________",
"__________________________________ a)(///((())(())))))))((()))))))())))))))))((i________________",
"_________________________________:((///(())((///()))))))))))(//((/(((((())))))//________________",
"________________________________i)((//())((////(())())))((((((((((//////()))))(/________________",
"_______________________________=())/(())(///()))))(//((////())))(((((((())))))(/________________",
"______________________________ /)))()))(//(())))))(///////())))(//()()))))))))//________________",
"______________________________p)(()))))//())))))))((//()))))))((/(())))))))))//i________________",
"_____________________________:)(/(()))))()))))))(((/a;a))))))))))(((()))))))(//=________________",
"_____________________________i)(/())))))))))(a))(/!p _ p((((()))((//p(((//(///u_________________",
"_____________________________/((/())(()))))(! oooo      o!///////~;o o=i~~~~!u  ________________",
"_____________________________/(//())(())))(/;_____        ouaaauo              o________________",
"_____________________________((/()))))))))(i______                             _________________",
"_____________________________///())))))((/~ _____                            f _________________",
"_____________________________///))(((////~o_____  ..........................1N _________________",
"_____________________________~/()((!!////:_______ DKKKKKKKKKKKKKKKKKKKKKKKKxNN _________________",
"_____________________________~/()(~o  o o _______ DKKKKJFGFFFGFGFFFFFFKKKKKvNN _________________",
"_____________________________u/)(/p______________ DKKKK5:::::::::::::=JKKKKxNN _________________",
"_____________________________u(((/a______________ DKKKK5uuuuuuuuuuuuu:JKKKKxNN _________________",
"_____________________________u))//i______________ DKKKK5iuuuuuuiuuuuu;JKKKKxNN _________________",
"_____________________________o((//;______________ DKKKK5uuuuuuuuuuuiu:JKKKKxNN _________________",
"_____________________________X^)/^e _____________ DKKKK5uiuuuuuuuuuuu;JKKKKxMV _________________",
"_____________________________XUILLr ___  XX _____ DKKKK5uuuuuuuuuuuiu:JKKKKxNN _________________",
"_____________________________XQQQQU ___XIIILX____ DKKKK5uuuuuuuuuuuuu:JKKKKxNN _________________",
"_____________________________XQQQQU ___XLLLIX____ DKKKK5uuuuuiuuuuuuu;JKKKKxNN _________________",
"_____________________________XQQQQU ___$QQQQ%____ DKKKK5uuuiuuuuiuuuu:GKKKKxNN _________________",
"_____________________________XQQQQT ___$QQQQ%____ DKKKK5uuuuuuiuuuuuu:JKKKKxNN _________________",
"_____________________________XQQQQU ___$QQQQ%____ DKKKK5uuuuuuuuuuuuu:JKKKKxNN _________________",
"_____________________________XQQQQU ___$QQQQ%____ DKKKK5u::u::u::u:::=JKKKKxNN _________________",
"______________________ X,3331@WQQQI1131&QQQW*11133GKKKKFDDDDDDDDDDDDDDKKKKKxBN _________________",
"_____________________ qW9KKKKGc6y7lAHHKZ4yyfMVSHKKKKKKKKKKKKKKKKKKKKKKKKKKKxVN _________________",
"_____________________ TQYFKKKHSVNNNVASHKKSVNNNVSKKKKKKKKKKKKKKKKKKKKKKKKKKKxNN _________________",
"____________________ 0QQWvKKKKHSVVNNVASHHHSVNNVSHKKKKKKKKKKKKKKKKKKKKKKKKKKxNN _________________",
"___________________ XEQQQ8KKKKKKSAVNNVVSHHHSVVASKKKKKKKKKKKKKKKKKKKKKKKKKKKxNN _________________",
"___________________ YQQQQwKKKKKKHSANNNVASKHHSSHHKKKKKKKKKKKKKKKKKKKKKKKKKKKxNN _________________",
"__________________ %QQQQQPKKKKKKKHSAVNNVSHKKKHKKKKKKKKKKKKKKKKKKKKKKKKKKKKKxNN _________________",
"__________________XEQQQQQYJKKKKKKKHSVVNVAHKKKKKKKKKKKKKKKKKKKKKKKKKKKKKKKKKxNN _________________",
"_________________ PQQQQQQTFKKKKKKKKHSAAASHKKKKKKKKKKKKKKKKKKKKKKKKKKKKKKKKKxNN _________________",
"_________________%QQQQQQQEDKKKKKKKKKKHHHHKKKKKKKKKKKKKKKKKKKKKKKKKKKKKKKKKKxNN _________________",
"________________ UWWQQQQQEbKKKKKKKKKKKHKKKKKKKKKKKKKKKKKKKKKKKKKKKKKKKKKKKKxNN _________________",
"________________ IEWQQQQQWvKKKKKKKKKKKKKKKKKKKKKKKKKKKKKKKKKKKKKKKKKKKKKKKKxNN _________________",
"_________________%TEEQQQQWvKKKKKKKKKKKKKKKKKKKKKKKKKKKKKKKKKKKKKKKKKKKKKKKKxNN _________________",
"_________________ IREWWQQQvKKKKKKKKKKKKKKKKKKKKKKKKKKKKKKKKKKKKKKKKKKKKKKKKxNN _________________",
"_________________ qRTEWWQWvKKKKKKKKKKKKKKKKKKKKKKKKKKKKKKKKKKKKKKKKKKKKKKKKxNN _________________",
"__________________oUTREWWEbKHKKKHKKHKKHKKKHKKKKHKKKKKKKKKKKKKKKKKKKKKHKKKKKxNN _________________",
"__________________ 0TTRRWRCSSSSSSSSSSSSSSSSSSSHHSHSHSHSHHHSHSHSHHSSHSHSSHSHzms  ________________",
"___________________XTTTREImVNVVNNVNVNVVVNVVVVVVVVVAAAAVAVVAAVVVVVVVVVVVVVVVd,   ________________",
"___________________ rRRTRrVNNNNNNNNNNNNNNNNNNNNNNVNNNNNNNNNNNNNNNNNNNNNNNNNdj> .________________",
"____________________oTTRTtNNNNNNNNNNNNNNNNNNNNNNNNNNNNNNNNNNNNNNNNNNNNNNNNNdNN _________________",
"____________________ rTTR6NB<+OO>kNNNNNNNNNNNNNNNNNNNBf+OO,jNNNNNNl+...+lNNdNMX_________________",
"_____________________&TRThnO      >VNNNNNNNNNNNNNNNNn.      1VNNN<       sNdM, _________________",
"_____________________ rTLv.    o   ,NNNNNNNNNNNNNNNmO   o    2NN<   Xo.   gdg- _________________",
"______________________&U8>  ouuu:o  kNNNNNNNNNNNNNN+  ouuu:o  lm   :uuu:  Os-: _________________",
"______________________ X.  ouuuuuu  o-=.. . . .  .   ouuuuuu  .o  ;uuuuu;  ou= _________________",
"________________________   =uuuuuuo  uo __________o  -uuuuuuo Xo  uuuuuuu  =u __________________",
"________________________   =uuuuuu# o; ___________o  ;uuuiuuo oo  uuuuuuu  =o __________________",
"________________________o  #uuuuuuo   ____________   =uuuuuuo  o  :uuuuu;    ___________________",
"_________________________   :uiuu;   _____________ o  :uuuu=  o   ouuuuuo   ____________________",
"_________________________o   =::#    ______________    =::o    _o   =;=o  o_____________________",
"_________________________         Xo_______________ X         __ o       o _____________________",
"___________________________ o   .o _________________ oo    oo_____ o   o _______________________",
"________________________________________________________________________________________________",
"________________________________________________________________________________________________",
"________________________________________________________________________________________________",
"________________________________________________________________________________________________",
"________________________________________________________________________________________________",
"________________________________________________________________________________________________",
"________________________________________________________________________________________________",
"________________________________________________________________________________________________",
"________________________________________________________________________________________________",
"________________________________________________________________________________________________",
"________________________________________________________________________________________________",
"________________________________________________________________________________________________",
"________________________________________________________________________________________________",
"________________________________________________________________________________________________",
"________________________________________________________________________________________________",
"________________________________________________________________________________________________"
};

