/* XPM */
static char * ziffern_xpm[] = {
"96 32 3 1",
" 	c None",
".	c #FFFFFF",
"+	c #000000",
"                                                                                                ",
"  ...       .    .....  .......     ..  .......  .....  .......  .....   .....                  ",
" ..+++     ..+  ..+++++ .+++++++   ..++ .+++++++..+++++ .+++++++..+++++ ..+++++                 ",
"..+++++   ..++  .+++++++ +++++++  ..+++ .+++++++.+++++++ +++++++.+++++++.+++++++                ",
".+++ +++ ..+++  .++  .++   ..++   .++++ .++     .++   ++    ..++.++  .++.++  .++                ",
".++  .++  ++++   ++  .++  ..++   ..++++ .++...  .++         .++ .++  .++.++  .++                ",
".++  .++   .++      ..++ ..++.   .++.++ .++++++ .++...     ..++  ++...++.++...++.......         ",
".++  .++   .++     ..++  .+++++ ..++.++ .+++++++.++++++    .++  ..+++++  +++++++.+++++++        ",
".++  .++   .++    ..++    ++++++.++..++  ++  .++.+++++++   .++  .+++++++  ++++++ +++++++        ",
".++  .++   .++   ..++   ..   .++.+++++++..   .++.++  .++  ..++  .++  .++..   .++                ",
".++ ..++   .++  ..++    .++  .++ +++++++.++  .++.++  .++  .++   .++  .++.++  .++                ",
" +++.+++ ...++  .++.... .++...++    .++ .++...++.++...++  .++   .++...++.++...++                ",
"  +++++  .+++++ .+++++++ +++++++    .++  +++++++ +++++++  .++    +++++++ +++++++                ",
"   +++    +++++  +++++++  +++++      ++   +++++   +++++    ++     +++++   +++++                 ",
"                                                                                                ",
"                                                                                                ",
"                                                                                                ",
"                                                                                                ",
"                                                                                                ",
"                                                                                                ",
"                                                                                                ",
"                                                                                                ",
"                                                                                                ",
"                                                                                                ",
"                                                                                                ",
"                                                                                                ",
"                                                                                                ",
"                                                                                                ",
"                                                                                                ",
"                                                                                                ",
"                                                                                                ",
"                                                                                                "};
