/* XPM */
static char * dnBlack_xpm[] = {
"128 128 7 1",
" 	c None",
".	c #020000",
"+	c #0C0000",
"@	c #130000",
"#	c #190000",
"$	c #150000",
"%	c #000000",
"                                                                                                                                ",
"                                                                                                                                ",
"                                                                                                                                ",
"                                                                                                                                ",
"                                                                                                                                ",
"                                                                                                                                ",
"                                                                                                                                ",
"           .+@@@@@@+.                      .+@@@@@@+.                      .+@@@@@@+.                      .+@@@@@@+.           ",
"         .+##@@@@@@##+.                  .+##@@@@@@##+.                  .+##@@@@@@##+.                  .+##@@@@@@##+.         ",
"        .$#+.      .+#$.                .$#+.      .+#$.                .$#+.      .+#$.                .$#+.      .+#$.        ",
"        +#.          .#+                +#.          .#+                +#.          .#+                +#.          .#+        ",
"       .#+            +#.              .#+            +#.              .#+            +#.              .#+            +#.       ",
"       +#.            .#+              +#.            .#+              +#.            .#+              +#.            .#+       ",
"       @@              @@              @@              +$@@@@@@@@@@@@@@$+              +$@@@@@@@@@@@@@@$+              @@       ",
"       @@              @@              @@              .+@@@@@@@@@@@@@@+.              .+@@@@@@@@@@@@@@+.              @@       ",
"       @@              @@              @@                                                                              @@       ",
"       @@              @@              @@                                                                              @@       ",
"       @@              @@              @@              .+@@@@@@@@@@@@@@+.              .+@@@@@@@@@@@@@@+.              @@       ",
"       @@              @@              @@              +$@@@@@@@@@@@@@@$+              +$@@@@@@@@@@@@@@$+              @@       ",
"       +#.            .#+              +#.            .#+              +#.            .#+              +#.            .#+       ",
"       .#+            +#.              .#+            +#.              .#+            +#.              .#+            +#.       ",
"        +#.          .#+                +#.          .#+                +#.          .#+                +#.          .#+        ",
"        .$#+.      .+#$.                .$#+.      .+#$.                .$#+.      .+#$.                .$#+.      .+#$.        ",
"         .+##@@@@@@##+.                  .+##+%%%%+##+.                  .+##@@@@@@##+.                  .+##@@@@@@##+.         ",
"           .+@@@@@@+.                      .+##+.+$+.                      .+@@@@@@+.                      .+@@@@@@+.           ",
"                                                                                                                                ",
"                                                                                                                                ",
"                                                                                                                                ",
"                                                                                                                                ",
"                                                                                                                                ",
"                                                                                                                                ",
"                                                                                                                                ",
"                                                                                                                                ",
"                                                                                                                                ",
"                                                                                                                                ",
"                                                                                                                                ",
"                                                                                                                                ",
"                                                                                                                                ",
"                                                                                                                                ",
"           .+@@@@@@+.                      .+@@@@@@+.                      .+@@@@@@+.                      .+@@@@@@+.           ",
"         .+##@@@@@@##+.                  .+##@@@@@@##+.                  .+##@@@@@@##+.                  .+##@@@@@@##+.         ",
"        .$#+.      .+#$.                .$#+.      .+#$.                .$#+.      .+#$.                .$#+.      .+#$.        ",
"        +#.          .#+                +#.          .#+                +#.          .#+                +#.          .#+        ",
"       .#+            +#.              .#+            +#.              .#+            +#.              .#+            +#.       ",
"       +#.            .#+              +#.            .#+              +#.            .#+              +#.            .#+       ",
"       @@              @@              @@              +$@@@@@@@@@@@@@@$+              +$@@@@@@@@@@@@@@$+              @@       ",
"       @@              @@              @@              .+@@@@@@@@@@@@@@+.              .+@@@@@@@@@@@@@@+.              @@       ",
"       @@              @@              @@                                                                              @@       ",
"       @@              @@              @@                                                                              @@       ",
"       @@              @@              @@              .+@@@@@@@@@@@@@@+.              .+@@@@@@@@@@@@@@+.              @@       ",
"       @@              @@              @@              +$@@@@@@@@@@@@@@$+              +$@@@@@@@@@@@@@@$+              @@       ",
"       +#.            .#+              +#.            .#+              +#.            .#+              +#.            .#+       ",
"       .#+            +#.              .#+            +#.              .#+            +#.              .#+            +#.       ",
"        +#.          .#+                +#.          .#+                +#.          .#+                +#.          .#+        ",
"        .$#+.      .+#$.                .$#+.      .+#$.                .$#+.      .+#$.                .$#+.      .+#$.        ",
"         .+##+.  .+##+.                  .+##+.  .+##+.                  .+##+.  .+##+.                  .+##+.  .+##+.         ",
"           .+$+  +$+.                      .+$+  +$+.                      .+$+  +$+.                      .+$+  +$+.           ",
"             @@  @@                          @@  @@                          @@  @@                          @@  @@             ",
"             @@  @@                          @@  @@                          @@  @@                          @@  @@             ",
"             @@  @@                          @@  @@                          @@  @@                          @@  @@             ",
"             @@  @@                          @@  @@                          @@  @@                          @@  @@             ",
"             @@  @@                          @@  @@                          @@  @@                          @@  @@             ",
"             @@  @@                          @@  @@                          @@  @@                          @@  @@             ",
"             @@  @@                          @@  @@                          @@  @@                          @@  @@             ",
"             @@  @@                          @@  @@                          @@  @@                          @@  @@             ",
"             @@  @@                          @@  @@                          @@  @@                          @@  @@             ",
"             @@  @@                          @@  @@                          @@  @@                          @@  @@             ",
"             @@  @@                          @@  @@                          @@  @@                          @@  @@             ",
"             @@  @@                          @@  @@                          @@  @@                          @@  @@             ",
"             @@  @@                          @@  @@                          @@  @@                          @@  @@             ",
"             @@  @@                          @@  @@                          @@  @@                          @@  @@             ",
"           .+$+  +$+.                      .+$+  +$+.                      .+$+  +$+.                      .+$+  +$+.           ",
"         .+##+.  .+##+.                  .+##+.  .+##+.                  .+##+.  .+##+.                  .+##+.  .+##+.         ",
"        .$#+.      .+#$.                .$#+.      .+#$.                .$#+.      .+#$.                .$#+.      .+#$.        ",
"        +#.          .#+                +#.          .#+                +#.          .#+                +#.          .#+        ",
"       .#+            +#.              .#+            +#.              .#+   %%%%%%%% +#.              .#+            +#.       ",
"       +#.            .#+              +#.            .#+              +#.  %        %.#+              +#.            .#+       ",
"       @@              @@              @@              +$@@@@@@@@@@@@@@$+  %   %%%%   %%$@@@@@@@@@@@@@@$+              @@       ",
"       @@              @@              @@              .+@@@@@@@@@@@@@@+.  %  %    %  %.+@@@@@@@@@@@@@@+.              @@       ",
"       @@              @@              @@                                  % %      % %                                @@       ",
"       @@              @@              @@                                  % %  %   % %                                @@       ",
"       @@              @@              @@              .+@@@@@@@@@@@@@@+.  % %   %  % %.+@@@@@@@@@@@@@@+.              @@       ",
"       @@              @@              @@              +$@@@@@@@@@@@@@@$+  %  %  %  % %+$@@@@@@@@@@@@@@$+              @@       ",
"       +#.            .#+              +#.            .#+              +#. %   %%   % .#+              +#.            .#+       ",
"       .#+            +#.              .#+            +#.              .#+  %      %  +#.              .#+            +#.       ",
"        +#.          .#+                +#.          .#+                +#.  %%%%%%  .#+                +#.          .#+        ",
"        .$#+.      .+#$.                .$#+.      .+#$.                .$#+.      .+#$.                .$#+.      .+#$.        ",
"         .+##+.  .+##+.                  .+##+.  .+##+.                  .+##+.  .+##+.                  .+##+.  .+##+.         ",
"           .+$+  +$+.                      .+$+  +$+.                      .+$+  +$+.                      .+$+  +$+.           ",
"             @@  @@                          @@  @@                          @@  @@                          @@  @@             ",
"             @@  @@                          @@  @@                          @@  @@                          @@  @@             ",
"             @@  @@                          @@  @@                          @@  @@                          @@  @@             ",
"             @@  @@                          @@  @@                          @@  @@                          @@  @@             ",
"             @@  @@                          @@  @@                          @@  @@                          @@  @@             ",
"             @@  @@                          @@  @@                          @@  @@                          @@  @@             ",
"             @@  @@                          @@  @@                          @@  @@                          @@  @@             ",
"             @@  @@                          @@  @@                          @@  @@                          @@  @@             ",
"             @@  @@                          @@  @@                          @@  @@                          @@  @@             ",
"             @@  @@                          @@  @@                          @@  @@                          @@  @@             ",
"             @@  @@                          @@  @@                          @@  @@                          @@  @@             ",
"             @@  @@                          @@  @@                          @@  @@                          @@  @@             ",
"             @@  @@                          @@  @@                          @@  @@                          @@  @@             ",
"             @@  @@                          @@  @@                          @@  @@                          @@  @@             ",
"           .+$+  +$+.                      .+$+  +$+.                      .+$+  +$+.                      .+$+  +$+.           ",
"         .+##+.  .+##+.                  .+##+.  .+##+.                  .+##+.  .+##+.                  .+##+.  .+##+.         ",
"        .$#+.      .+#$.                .$#+.      .+#$.                .$#+.      .+#$.                .$#+.      .+#$.        ",
"        +#.          .#+                +#.          .#+                +#.          .#+                +#.          .#+        ",
"       .#+            +#.              .#+            +#.              .#+            +#.              .#+            +#.       ",
"       +#.            .#+              +#.            .#+              +#.            .#+              +#.            .#+       ",
"       @@              @@              @@              +$@@@@@@@@@@@@@@$+              +$@@@@@@@@@@@@@@$+              @@       ",
"       @@              @@              @@              .+@@@@@@@@@@@@@@+.              .+@@@@@@@@@@@@@@+.              @@       ",
"       @@              @@              @@                                                                              @@       ",
"       @@              @@              @@                                                                              @@       ",
"       @@              @@              @@              .+@@@@@@@@@@@@@@+.              .+@@@@@@@@@@@@@@+.              @@       ",
"       @@              @@              @@              +$@@@@@@@@@@@@@@$+              +$@@@@@@@@@@@@@@$+              @@       ",
"       +#.            .#+              +#.            .#+              +#.            .#+              +#.            .#+       ",
"       .#+            +#.              .#+            +#.              .#+            +#.              .#+            +#.       ",
"        +#.          .#+                +#.          .#+                +#.          .#+                +#.          .#+        ",
"        .$#+.      .+#$.                .$#+.      .+#$.                .$#+.      .+#$.                .$#+.      .+#$.        ",
"         .+##@@@@@@##+.                  .+##@@@@@@##+.                  .+##@@@@@@##+.                  .+##@@@@@@##+.         ",
"           .+@@@@@@+.                      .+@@@@@@+.                      .+@@@@@@+.                      .+@@@@@@+.           ",
"                                                                                                                                ",
"                                                                                                                                ",
"                                                                                                                                ",
"                                                                                                                                ",
"                                                                                                                                ",
"                                                                                                                                ",
"                                                                                                                                "};
