/* XPM */
static char * dnRed1_xpm[] = {
"128 128 6 1",
" 	c None",
".	c #3F000A",
"+	c #8E0017",
"@	c #B4001D",
"#	c #C90021",
"$	c #BF001F",
"                                                                                                                                ",
"                                                                                                                                ",
"                                                                                                                                ",
"                                                                                                                                ",
"                                                                                                                                ",
"                                                                                                                                ",
"                                                                                                                                ",
"           .+@@@@@@+.                      .+@@@@@@+.                      .+@@@@@@+.                      .+@@@@@@+.           ",
"         .+##@@@@@@##+.                  .+##@@@@@@##+.                  .+##@@@@@@##+.                  .+##@@@@@@##+.         ",
"        .$#+.      .+#$.                .$#+.      .+#$.                .$#+.      .+#$.                .$#+.      .+#$.        ",
"        +#.          .#+                +#.          .#+                +#.          .#+                +#.          .#+        ",
"       .#+            +#.              .#+            +#.              .#+            +#.              .#+            +#.       ",
"       +#.            .#+              +#.            .#+              +#.            .#+              +#.            .#+       ",
"       @@              @@              @@              +$@@@@@@@@@@@@@@$+              +$@@@@@@@@@@@@@@$+              @@       ",
"       @@              @@              @@              .+@@@@@@@@@@@@@@+.              .+@@@@@@@@@@@@@@+.              @@       ",
"       @@              @@              @@                                                                              @@       ",
"       @@              @@              @@                                                                              @@       ",
"       @@              @@              @@              .+@@@@@@@@@@@@@@+.              .+@@@@@@@@@@@@@@+.              @@       ",
"       @@              @@              @@              +$@@@@@@@@@@@@@@$+              +$@@@@@@@@@@@@@@$+              @@       ",
"       +#.            .#+              +#.            .#+              +#.            .#+              +#.            .#+       ",
"       .#+            +#.              .#+            +#.              .#+            +#.              .#+            +#.       ",
"        +#.          .#+                +#.          .#+                +#.          .#+                +#.          .#+        ",
"        .$#+.      .+#$.                .$#+.      .+#$.                .$#+.      .+#$.                .$#+.      .+#$.        ",
"         .+##@@@@@@##+.                  .+##@@@@@@##+.                  .+##@@@@@@##+.                  .+##@@@@@@##+.         ",
"           .+@@@@@@+.                      .+@@@@@@+.                      .+@@@@@@+.                      .+@@@@@@+.           ",
"                                                                                                                                ",
"                                                                                                                                ",
"                                                                                                                                ",
"                                                                                                                                ",
"                                                                                                                                ",
"                                                                                                                                ",
"                                                                                                                                ",
"                                                                                                                                ",
"                                                                                                                                ",
"                                                                                                                                ",
"                                                                                                                                ",
"                                                                                                                                ",
"                                                                                                                                ",
"                                                                                                                                ",
"           .+@@@@@@+.                      .+@@@@@@+.                      .+@@@@@@+.                      .+@@@@@@+.           ",
"         .+##@@@@@@##+.                  .+##@@@@@@##+.                  .+##@@@@@@##+.                  .+##@@@@@@##+.         ",
"        .$#+.      .+#$.                .$#+.      .+#$.                .$#+.      .+#$.                .$#+.      .+#$.        ",
"        +#.          .#+                +#.          .#+                +#.          .#+                +#.          .#+        ",
"       .#+            +#.              .#+            +#.              .#+            +#.              .#+            +#.       ",
"       +#.            .#+              +#.            .#+              +#.            .#+              +#.            .#+       ",
"       @@              @@              @@              +$@@@@@@@@@@@@@@$+              +$@@@@@@@@@@@@@@$+              @@       ",
"       @@              @@              @@              .+@@@@@@@@@@@@@@+.              .+@@@@@@@@@@@@@@+.              @@       ",
"       @@              @@              @@                                                                              @@       ",
"       @@              @@              @@                                                                              @@       ",
"       @@              @@              @@              .+@@@@@@@@@@@@@@+.              .+@@@@@@@@@@@@@@+.              @@       ",
"       @@              @@              @@              +$@@@@@@@@@@@@@@$+              +$@@@@@@@@@@@@@@$+              @@       ",
"       +#.            .#+              +#.            .#+              +#.            .#+              +#.            .#+       ",
"       .#+            +#.              .#+            +#.              .#+            +#.              .#+            +#.       ",
"        +#.          .#+                +#.          .#+                +#.          .#+                +#.          .#+        ",
"        .$#+.      .+#$.                .$#+.      .+#$.                .$#+.      .+#$.                .$#+.      .+#$.        ",
"         .+##+.  .+##+.                  .+##+.  .+##+.                  .+##+.  .+##+.                  .+##+.  .+##+.         ",
"           .+$+  +$+.                      .+$+  +$+.                      .+$+  +$+.                      .+$+  +$+.           ",
"             @@  @@                          @@  @@                          @@  @@                          @@  @@             ",
"             @@  @@                          @@  @@                          @@  @@                          @@  @@             ",
"             @@  @@                          @@  @@                          @@  @@                          @@  @@             ",
"             @@  @@                          @@  @@                          @@  @@                          @@  @@             ",
"             @@  @@                          @@  @@                          @@  @@                          @@  @@             ",
"             @@  @@                          @@  @@                          @@  @@                          @@  @@             ",
"             @@  @@                          @@  @@                          @@  @@                          @@  @@             ",
"             @@  @@                          @@  @@                          @@  @@                          @@  @@             ",
"             @@  @@                          @@  @@                          @@  @@                          @@  @@             ",
"             @@  @@                          @@  @@                          @@  @@                          @@  @@             ",
"             @@  @@                          @@  @@                          @@  @@                          @@  @@             ",
"             @@  @@                          @@  @@                          @@  @@                          @@  @@             ",
"             @@  @@                          @@  @@                          @@  @@                          @@  @@             ",
"             @@  @@                          @@  @@                          @@  @@                          @@  @@             ",
"           .+$+  +$+.                      .+$+  +$+.                      .+$+  +$+.                      .+$+  +$+.           ",
"         .+##+.  .+##+.                  .+##+.  .+##+.                  .+##+.  .+##+.                  .+##+.  .+##+.         ",
"        .$#+.      .+#$.                .$#+.      .+#$.                .$#+.      .+#$.                .$#+.      .+#$.        ",
"        +#.          .#+                +#.          .#+                +#.          .#+                +#.          .#+        ",
"       .#+            +#.              .#+            +#.              .#+            +#.              .#+            +#.       ",
"       +#.            .#+              +#.            .#+              +#.            .#+              +#.            .#+       ",
"       @@              @@              @@              +$@@@@@@@@@@@@@@$+              +$@@@@@@@@@@@@@@$+              @@       ",
"       @@              @@              @@              .+@@@@@@@@@@@@@@+.              .+@@@@@@@@@@@@@@+.              @@       ",
"       @@              @@              @@                                                                              @@       ",
"       @@              @@              @@                                                                              @@       ",
"       @@              @@              @@              .+@@@@@@@@@@@@@@+.              .+@@@@@@@@@@@@@@+.              @@       ",
"       @@              @@              @@              +$@@@@@@@@@@@@@@$+              +$@@@@@@@@@@@@@@$+              @@       ",
"       +#.            .#+              +#.            .#+              +#.            .#+              +#.            .#+       ",
"       .#+            +#.              .#+            +#.              .#+            +#.              .#+            +#.       ",
"        +#.          .#+                +#.          .#+                +#.          .#+                +#.          .#+        ",
"        .$#+.      .+#$.                .$#+.      .+#$.                .$#+.      .+#$.                .$#+.      .+#$.        ",
"         .+##+.  .+##+.                  .+##+.  .+##+.                  .+##+.  .+##+.                  .+##+.  .+##+.         ",
"           .+$+  +$+.                      .+$+  +$+.                      .+$+  +$+.                      .+$+  +$+.           ",
"             @@  @@                          @@  @@                          @@  @@                          @@  @@             ",
"             @@  @@                          @@  @@                          @@  @@                          @@  @@             ",
"             @@  @@                          @@  @@                          @@  @@                          @@  @@             ",
"             @@  @@                          @@  @@                          @@  @@                          @@  @@             ",
"             @@  @@                          @@  @@                          @@  @@                          @@  @@             ",
"             @@  @@                          @@  @@                          @@  @@                          @@  @@             ",
"             @@  @@                          @@  @@                          @@  @@                          @@  @@             ",
"             @@  @@                          @@  @@                          @@  @@                          @@  @@             ",
"             @@  @@                          @@  @@                          @@  @@                          @@  @@             ",
"             @@  @@                          @@  @@                          @@  @@                          @@  @@             ",
"             @@  @@                          @@  @@                          @@  @@                          @@  @@             ",
"             @@  @@                          @@  @@                          @@  @@                          @@  @@             ",
"             @@  @@                          @@  @@                          @@  @@                          @@  @@             ",
"             @@  @@                          @@  @@                          @@  @@                          @@  @@             ",
"           .+$+  +$+.                      .+$+  +$+.                      .+$+  +$+.                      .+$+  +$+.           ",
"         .+##+.  .+##+.                  .+##+.  .+##+.                  .+##+.  .+##+.                  .+##+.  .+##+.         ",
"        .$#+.      .+#$.                .$#+.      .+#$.                .$#+.      .+#$.                .$#+.      .+#$.        ",
"        +#.          .#+                +#.          .#+                +#.          .#+                +#.          .#+        ",
"       .#+            +#.              .#+            +#.              .#+            +#.              .#+            +#.       ",
"       +#.            .#+              +#.            .#+              +#.            .#+              +#.            .#+       ",
"       @@              @@              @@              +$@@@@@@@@@@@@@@$+              +$@@@@@@@@@@@@@@$+              @@       ",
"       @@              @@              @@              .+@@@@@@@@@@@@@@+.              .+@@@@@@@@@@@@@@+.              @@       ",
"       @@              @@              @@                                                                              @@       ",
"       @@              @@              @@                                                                              @@       ",
"       @@              @@              @@              .+@@@@@@@@@@@@@@+.              .+@@@@@@@@@@@@@@+.              @@       ",
"       @@              @@              @@              +$@@@@@@@@@@@@@@$+              +$@@@@@@@@@@@@@@$+              @@       ",
"       +#.            .#+              +#.            .#+              +#.            .#+              +#.            .#+       ",
"       .#+            +#.              .#+            +#.              .#+            +#.              .#+            +#.       ",
"        +#.          .#+                +#.          .#+                +#.          .#+                +#.          .#+        ",
"        .$#+.      .+#$.                .$#+.      .+#$.                .$#+.      .+#$.                .$#+.      .+#$.        ",
"         .+##@@@@@@##+.                  .+##@@@@@@##+.                  .+##@@@@@@##+.                  .+##@@@@@@##+.         ",
"           .+@@@@@@+.                      .+@@@@@@+.                      .+@@@@@@+.                      .+@@@@@@+.           ",
"                                                                                                                                ",
"                                                                                                                                ",
"                                                                                                                                ",
"                                                                                                                                ",
"                                                                                                                                ",
"                                                                                                                                ",
"                                                                                                                                "};
