/* XPM */
static char * gimp_temp_206421_xpm[] = {
"128 128 86 1",
" 	c None",
".	c #02027E",
"+	c #868686",
"@	c #66667E",
"#	c #4A4A9E",
"$	c #969698",
"%	c #3636BA",
"&	c #A6A6A6",
"*	c #2222CA",
"=	c #AEAEB2",
"-	c #6666CF",
";	c #1A1ADA",
">	c #4A4ADA",
",	c #B2B2B2",
"'	c #7E7EC2",
")	c #3838CE",
"!	c #666692",
"~	c #BABABA",
"{	c #5E5E92",
"]	c #2323DA",
"^	c #0202D2",
"/	c #7A7A82",
"(	c #9696C2",
"_	c #8E8E92",
":	c #0606FA",
"<	c #0A0AF2",
"[	c #56569E",
"}	c #6A6AA6",
"|	c #7E7E96",
"1	c #C2C2C2",
"2	c #5E5ED6",
"3	c #9E9E9E",
"4	c #4E4EC6",
"5	c #1616F6",
"6	c #4242CA",
"7	c #2E2EDA",
"8	c #2626CE",
"9	c #7A7AD2",
"0	c #0E0EEA",
"a	c #898993",
"b	c #9090AB",
"c	c #3636E6",
"d	c #4A4AB2",
"e	c #5E5EAA",
"f	c #AAAAC0",
"g	c #3E3EA6",
"h	c #6666A6",
"i	c #72728E",
"j	c #8E8EC6",
"k	c #5E5EC6",
"l	c #A1A1AC",
"m	c #2222E6",
"n	c #72727A",
"o	c #4646F6",
"p	c #8686AA",
"q	c #727296",
"r	c #1616E6",
"s	c #6E6EBA",
"t	c #2E2EBE",
"u	c #1E1EF2",
"v	c #4040BA",
"w	c #0E0EF2",
"x	c #2828EA",
"y	c #9696AE",
"z	c #5353B2",
"A	c #4242E2",
"B	c #3E3ED2",
"C	c #2E2ECE",
"D	c #6F6FCE",
"E	c #7E7EAA",
"F	c #5252DA",
"G	c #3636DE",
"H	c #7474A8",
"I	c #4A4AC2",
"J	c #1212EA",
"K	c #9E9EC6",
"L	c #8686C6",
"M	c #B6B6C6",
"N	c #2E2EEA",
"O	c #6666B6",
"P	c #5656C6",
"Q	c #A6A6B6",
"R	c #1212F6",
"S	c #88889E",
"T	c #1A1AEA",
"U	c #5E5EBA",
"1111111111111111111111111111111~11111111111,1111111111111111111~11111,p}1}p,1111111111111111111~1111111111111111111111111111111~",
"1~~~~~~~~~~~~~~~~~~~~~~~~~~~~~,~1~~~~~~~~~S3p~~~~~~~~~~~~~~~~~,~1~~~S3#^{^#3S~~~~~~~~~~~~~~~~~,~1~~~~fp!~!Sf~~~~~~~~~~~~~~~~~~,~",
"1~===========================&=~1~=====&bEhOsEbllf===========&f,MQySEO4#vg4}EblKlQf==========&=~1M&3ps[III4ipylff============&=~",
"1M,&&&&&&&&&&&&&&&&&&&&&&&&&3&,~1M,&&&lbsPdv4U}9S$3&&&&&&&&&3lQQQjLsO[FvvdIzO}9pbb33l&&&&&&&3&=,Mlbszd%x**CIeHpb3l&&&&&&&&&&3&,~",
"1~,&lllllllllllllllllllllll$3&=~1~,&3bp}4))8C6zOHpb$33lllll$33K3('DU4dv)tBvIPU}HEppbb333333$33&QfSszC8;J0Jr*CdOqp_333llllll$3&=~",
"1,,&3$$$$$$$$$$$$$$$$$$$$$a33&,~1,,&$_iP)8;m8GvFUhE|____$_a_bbjL'9-zIB)%)))vddPU!sE|+|a_____byljjDFC;Jw<<<<J;CvesE|_$_$$$$a33&,~",
"1~,&3$_a_a_a_a_a_a_a_a_a_+_$3&=~1~M&lae48mrTT88BzP}i|+_a_++_apL9D-P>)tC888tCBBd4z[}qE/|S+|+a_SjLDPBxJ<:::::0r]Cve}H|_aa_a+_$3&=~",
"1~,&3___+_+_+_+_+_+_+_+_|a_$3&,~1~,&3phB7r00JT8%%dze!i//n/+EEqsD2FB)G78*]]]88)gIdz[e!Hqiiq/ppE'D-Axr0:::::::<r*Cv[}in/+++a_$3&,~",
"1,,&&$_+/+/+/+/+/+/+/+///+_$3&,~1~M&3pe);T000Jr]8%v#{{@@/iss}k2k4o)cx8m];;88*88%)#d4[{!{!!sqHsk2oGuJ<<:::::::wT*8%#{@nnn/+_$3&=~",
"1~,&$$_++/////////////n/+a_$3&=~1,,&$Eh6xJww0J;;*t%gv#[{{{[eeFFo>G)xxmu;;;u*u8t8%%vg###z{hhUOkP>BxT0<:::::::<<0;8%g#[{@n|+_$3&,~",
"1~M&l$_+//nnnnnnnnnnnnn//+_$3&,~1~,&3p[68r00<<JTr**t%%g#d[dIIBA)Gcxx]m;xm;r**]88ttt%gg##4[ePPzB)NmR<::<:::::::0Jr*t%g#[@/+_$3&=~",
"1~,&3$_++/nnnnnnnnnnnnn/+a_$l&=~1~,&_phv8r0<<000J;r**t%%vgB)tccccxxummm*rr;r;;***tt%%%gggddI>B)Nu5R0::::::::<::0Jr*8tg#{n/_$3&,~",
"1,M&3$_+//nn@@.....@@nn//a_$l&=~1,M&3|hIt;rJ<<<00JJrr***8t8x8xxuxxxuuuu]***r;;******t8%%%%))GGNx5R0w<::^:::::<::<0Jr*tg#@na$3&=~",
"1~,&3$_++/nnn.^^^^^./nn/++_$3&,~1~,&3Sqd)8;JJ00<000000rr*u]]rrumuuu;]];*u*r*;;;;r****8t8tC)8xxuu5R0<::::::::::^<0^00;*tv#i+$3&,~",
"1~,&3$_++/n/.^<<<:<^6nn/++_$l&,~1~,&3_|e#%8;r00000000000JJJrTRTTuu]uu]88*8***;;rrrrrr**88888u];T5R0000<<::::::::<<0^J0*tg[i_3&=~",
"1,,&3$_+/nnn.:^:::::dnn//a_$3&,,1,=&3_|![gt8;r00^0<^<<<0<<wwwwRr5muxxx78888**r;;;JJ;;r;rurmmT555RRwwww<:<:::^:::^<<^00J*tI{/$&,~",
"1~,&$$_++/nn.:::::::Ann//+_$3&,~1~,&3$+i{#%t*rJJ0^<^:<::<::<<0wT5muxC8)C)tt***;;;;JJJ;JJrrr55RRRRRRRJrrrrJJ0<<^<^<<<<<00*CdH$&=~",
"1,,&3$_++/nn.:::::::>nn/+a_$l&,~1~=&l_a/@{ggtt;;00<0:^::::<:<<wRuxxc)B)v%t%ttt**;;;JJ0JJJ0wRwwRRRTTru****;r;0<0:<^<^<::0J*)}b&,~",
"1~,&3$_+///n.:::::::6nn//+__$&,~1~,&l$a+n@#g%t*;;0<<:::::::::<wRu7)76vIdvgg%tt***;JJJ00000<ww<0R5Tmu88%%%tt*rJJ0w:<::<:<J]G}bl=~",
"1~,=3$_++/nn@::::::Bnnn/+a_$&&=~1~=&3$a/n@{#g%t*;J0<::::::::::<Txx)>4zd[[##ggtt8**;J0000www<<wwTTx7B6d####gtt*rJ00<:<:<<w;GO_l,~",
"1,,&3$_+//n@@@BAAoo@@nn//+_$3&,~1~,&3$_+/n@[#ggt*rJ<^:::::::::05cB>PUOeh{[[#gggtt*;;J0<<<<<<<wRTxGBIzeh@{[[ggt**J00^<::<JuGObl=~",
"1~,&3$_++/nnnnn/@nnn/nn/++_$l&,,1~=&3$_+/n@@{#g%t*r0::::::::::wuN>kessi@@@{[##gg8t*rJ0<<<<<<<wRuc>PO}innn@{{#g%t*;00::<:<mCObl,~",
"1,,&3$_+/nnnnnnnnnnnnnn/++_$3&,~1~,&3$_+/n@@@@[#g8*J<:::::::::wmAPDEE///n@@@{{#ggt*;JJ<<:<<<wRTx>2}'E|+//n@@@{ggtr;0<<<<0*)hbl=~",
"1~,=$$_+/////////n//+//n++_$l&,,1~=&l$_a/n/nn@[[#gt;0::::::::<wxFD'SSb++nnnn@@{[#tt*;00<<::<<Ru)k9LS_a++/nnn@@{#gt*r0<<<J])q$&,~",
"1~=&3$_++/+/+/+++/+/+/+/++__3&,~1~,&3$_++/////n@{#gtr0:^:::::RrN-jy3y$a////+//n@[gt*r0<<<<<wJmNF9S(3y$_/++++/n@{#gt8rrJJrCdE$&=~",
"1~,,3$+++++a+_++++++++++++_$l&,,1~,&3$+++_++++/nn@[gt*J<:<Jr]8Ck'K=&3$a_++++++//}[gt*;J0<w0Ju86sj&f3l_++++/+++nnh#d%t**;8%e|3&,~",
"1,,&3___________________a__$3&,~1,,&3__________++/i!#gt*r**%%4hb,,,&$_________+++i[v%*rJ0Jr;tvO(f==&3_______+a+/i!e#%%t%%4ia3&=~",
"1~,&$$$$$$$$$$$$$$$$$$$$$$$$l&,,1~,&$$$$$$$$$$_$b_a|i{#%t%#[eiK,1~=&$$$$$$$$$$$$_a|!4gtur*%v4Hbf1,=&$$$$$$$_$$__b/qh{4dzeHa_3&,~",
"1,,33333333$33333$333$3333333&,~1~,3333333$3333l3333$|H!{[i||3fM1~,&333333$3333l33_|ihzgC%eiH_lM1~,33$3333333l33bS'|Hq}qEb333&=~",
"1~&&=&&&&&&&&&&&&&=&&,&&&&&&&&,~1,&&&&&&&&&&&&&&&&&&&&3b$$33ll,~1~&&&&&&&&&&&&&&&&&&$SEsHHp_3l,~1~&&&&&&&&&&&&&&&&33bSjb$&&&&&,~",
"1,,=,,,,,,,,,,,,,=,,=,,,,,,,,=,~1,,,,,,,,,,,,,,,,===,=,=,==,==,~1,=,,,,,,,,,,,=,===,=====f,=,,=~1,,,,,,,,,,,===,,,=MM,=,,,,,,==~",
"~~~~~~~~~~~~~~~~~~~~~~~~~~~~~~,~~~~~~~~~~~~~~~,~~~~~,~~~M~~,~~~,~~~,~~~~~~~~~~~M~~~M~~~~M~~~~~~~~,~~~~~~~~~~~~~,~~~~~,~~~~~~,~~~",
"1111111111111111111111111111111~1111111111111111111111111111111~1111111111111111111111111111111~1111111111111111111111111111111~",
"1~~~~~~,~,~~~~~~~~~~~~~~,~~~~~,~1~~~~,~~~,~~~~~~~~~~~,~~~~~~~~,,1~~~~~~~~,~~~~~~~~~~~~~~~,~~,~,,1~~~~~~~~~~~~~~~M~,~~~~,~,~~~~=~",
"1~===,,,,=====,=======,,===,,&=~1,,=,==,,,=,,====,,,,,,=,,,==&,~1~=====,,===,,===,===,,,,,=,,&,~1~,=========,,=,,,,,==,,,,,==&=~",
"1,,&&&&&&&&&&&&&&&&&&&&&&&&&3&,,1~=&&&&&&&&&&&&&&&&&&&&&l&l&3&=,1,=&&&&&&&&&l&&&&&&&&l&l&l&&$&=~~,=&&&&&&&&&l&&&l&&&&&&&&&&&3&,~",
"1~,&3$$$$$$$$$3$3$333333333$3&,~1~,&$333$l$3l33l33333b33$3$_33&,~,&3$$$$$$$$$$$$$$$$3_3$3$$_$3&,~,&$$$$$$$$$$$$33$33333333l$l&=~",
"1,=&$_a++//+++++_$$$$$$$$$_$3&,~1~,&3$$$$$$$_$$____+a_|b+S|aSylQ,&33_aaaa_a_|aSS|pap|aSS|S|S_3$f,&ll__aaaa+b|SaSS+aa___b$b$$3&,~",
"1~&3_/n!h!eh!@i|/++______+_$3&=~1~,&3$______++++||E|E|H/EiEEpb(KKKbb|EH/HEq|HEHE/qEHEEqEHiEEpj(3Klbb||H|HHHEEH/HE||||a+a_+_$3&=~",
"1~&$|H{4d6Iv#z{{nn/+++++++_$3&,~1,,&3$__+++|//nss}}!}h}!hhsHE9jj((LLEHH!!!}h!!}hh}!}!e!!hh}sHLLjjjj'Eqsh!}}!!}h}e!}sHH//n+_$3&,~",
"1~l_sUI%C88CCtv#[@@n//+/++a$$&=~1~,&3$_+/nni!eh{{eezez[zzehOss9'LL9Hs}Uheeeeeeeezeezeee[eeO}DD9LL99DsOhez[zeP[eezee{{hs@n/a$3&=~",
"1~K|h4)C**ur]8t%##[@@nnn++_$3&,~1~,&3$a+ni!!{[[4ddd#ddddz4zkODD'99DDsUUz4#4d#d##4##4z#d#4zUUksDD99DHkk[zz#dddd#ddddd#[[{}/+_3&,~",
"1~y9edt8;rJJ;;*t%g#[{{@n/+_$3&=~1~,&3$a+n@{[[d#gg)%%%%%gdd4zP-2DDD-kkPz4#dgvdgIvgd%gggvv#dIzP22-D222P4I6d)g)%v%v%%gvgg4[hH|_3&=~",
"1M3Hk6C]J00w0rr**tgg#[@@/+_$3&,~1~,&3_+qi{[#gg%%%%ttt%%t)BIIFF222222F4d6g)g)t%%%%%g)%%vgBBI44FF22FF46>B6)%%%tttt%t8tt%g#[!E$3&,~",
"1Mys4B8]0<<<<00;r*t8g#{{n/+$3&,~1~,&3$+i}{#d%%tt*888*8CCt))6>>FF2>F>>IB6%%%%%tttttttttC%)))Ao>o4FFo>A6CB%8C8888**88*8ttvzeqpbl=~",
"1~$He)8r00::<^00Jr**tg#{@/+$$&=~1~,&3_|ih[#g%8t8****]8CCCC)BBoFFFF>oB))C)8t**t88t8*t88C8C)G))BAAoBA)GG%xCt88**r*;;ru;;C)ve}p3&,~",
"1~l9evC*00::<:^0^J;r*tt#[n/_$&=~1~,&$_|s{[v)%8**r;rr;*;87CGG)BAoooBB)c)xt888********8*CCxt7ccGAAAccNcx788u**r*Jrrrrr*r88Bzh/bl=~",
"1~Kph4)*r<:::^<<^^0.r*t%#{n+$&,,1~,&3_/}e#g%t**r;;;;u;]88xNcccBAoBB))c8NN8**;;*r*rr*]**88x7xccNcNcccN7x8m];r;J;JJ0<00JrC%4OE$&,~",
"1~f$EhI%*0:::::^<<0<^0*t%#h/_l,~1~,l$_H}[#%%t**;rJ;Jr*]]8x8)GGBAoAAcc7x8u*m;urrr;;r;*u*x887NcccABccNNx88u*];rJJJ000000J*8IhE$&=~",
"1~f3bEevt;:::::::^^<<0<JC%4!+$,~1,,&$|Hhedgt*rr;J;Jr;r*u877NcAAAoAB))c788*r;;;JJr;;*r***xC77NcAccAcc7Nx88];r;;J000<<<<wr7Bep3&,~",
"1~,3$+i[%*0^::::::::^:00;t6[|_=~1~,&$SHh[d)t8;;JJJ;;;r*C8C)))Booo>ABN)Nx8m;rJJ;0JJr;**]8C7Cc))BoBAc)NGxx88u;;JJJ0<<<<<<J86ep$&=~",
"1~=&3_/@#%r<:::::::^:::<0;8dh_,~1,=l$pq!4g%t*;;JJJJr;*8*)GGA>>FP2FF>A)CCu*;;JJ0JJJJrru8CCC)BAAooFooABGGtx8**;;J0<<:::<<r86O/3&,~",
"1~,&3$a|{g*0^^::::::::^<wruge/=~1~,l$pqh4v%**r;JJJ;r**78))v>4FP222FP>6cC8*JJ0000JJr;**8))BBo4FPF2FF>>66Bttt**;;J00<::<<J8Bhpy&=~",
"1~,&3$_/@#%*J:^::::::::::0r86il~1~=&b|s[zvt8*;JJJJr;u88)%IdFP22DDDDkP>6%x*;J00<00JJr*8C%vd4FP22-D-2kP4IvI%tt8*;J0<<<::<5]BUEbl,~",
"1M,&3$_/n#gt*0<::::::::::<0;Cz|~1~,&bSqedgt*;rJJ;0**tt%vv4[k}DD9L99skkIB8*;J00<<0J;**C%vdzeOOD99'9DDOUU44d%%t**;0<<<:<<r8BeEbl=~",
"1~,&3$a/@{#gt*r<:::::::::<0;8g{~1,=lbpsed%t8*;rJJr*u8%)d4UesD9LjjjL'sO4v8*;r0<<<0Jr;C%d#zh}sE'Ljjj'9Ds!h[ddg)t*;r0<<<:<J]t4}bl,~",
"1,,&3$_nn@#g%*rJ::::::::::0r8%{~1~=l_/szdv)**rrr;r*7t6d4[hhEEjjKKKjLEsUI)x*J00<<Jr*8CvzeehHEpS(KKKybSpHh!{edvt8*rJ0<<<<rx)z}p3=~",
"1~,&3_+/i@{d%t*r0<<::<<<00r*td{~1~=&bp@e4IGtu;rr;mxCBdd[hsEE_jKQMQlb|sez)Cu;J<000rm764z!ii|SyKQ=M=llba//Hihed6CurJ0w<wwrm74}p3,~",
"1~,&3a+/qhed%8*;J0<<0<0JJr*Gv[/~1,=lbEsedBG7xu;rTmxt6ze}sH/pbllfMfQyb}h[B%m;J0<0RrmCBPeH|SS_3l=M1Mfl3|aS||sOzBG8;Jww<w0rxC>}Ll=~",
"1~,&$_aSEhedBCurJ0000JJrm8CBzEl~1~=3S/sOU>)8umTT;uNB6FOqEpS_3l=M1MQ3pE}kIGxT50w<RT8cIUHE__$$3&f~1~=&_$$__|EskIGxTRw<<<RrucIUEy=~",
"1~,$3bapqUPIGx];RRwwJTTux)6zOp,~1~=ybp9!k>6cu;TTuu7B4kh'pbb33&,M1,fbS9skFBNu5RwwRTxG>UEpy3333&,~1~Ml&3l3lbpqk>Bxu5Rww<RTm)z-El=~",
"1,&&3yb9H}F>%cuT5rT5;ux7BBPkEb,,1,&3yj'D24B7xu;umxcB4-Dpbyll&&=M1~l3(_'-PAGmTRRR5uxBFD9yll&&&&,,1~&&&&&&ylS'-FBNu5ww<wJTxA4Dpy=~",
"1,,&lbj'H-P>)cxmuTuuu7c)FPH9SK,~1,=fy('D2FANxuTuuxcoFD9LyKff==,~1==QyjLDPAcxmTRR5mxBksLy&=,,,=,~1=,,,,,Mfl(LDFANuTwwwwRmxA29j3=~",
"~~,fK(j'D-FoBcxxxxxNc)BF2s9jlf~~~~M==(j'-FocNxuuxx)oFD9bK=,,~~~~~~,=KKLD24cxu555TucB29jK=,,~~~~~~~~,~~~,=fKLD2BNm5RRwRTuNB29jQ~~",
"11MMKbL9D2F>B)cNNxcGAFF2DLjK=~1~11~~,KjLD2FcNxuuxxco2DL(K=~~1~1~~1~MfKj92FNxuT55uxco29(K,111111,1111111~~fKj92oNxuRRwR5uco2'Kf1~",
"1~=Kjj9D2PFoccccN)cAFF-D9j(Q=,,~1~MMQKL9-F>cxxmuuxcoFD9jKQf=,~&M1,=fKj9D2ocxu5T5TxNo2DLKQ=,~,~,~1~~~~,MMffjLD2ocxTTRRw5mNA29(f=~",
"1~lyL'D-24BB)ccccBBoF2DHLjylfl=~1~&QK(L92Focxu5uuxNBo2D9jjKKlyf=M=KK(L9DFocxu5555xco4D9jKKQ==l=~1,====f&K(L92PANx55RRw5uNAFDjK=~",
"1~KbEsOUo>A))NNcc)>>kkDHpSy33f,,1~=lyj9D2>Axxum5Tuxc>>kD'LLbbyKQMKKjp9D24ANuT5T5umxAF-D9jbl3$lf=~,f333yySj9D2FBNxu5RRR5uxcPDEy=~",
"1~ypsOPFvBccNx7G))>4POD9pjb_$&,~1~=lSpH}2oBNuTTT5uuNBo4UOs9}'p(KKKSLEh-P>cNm5RRRTuxcoUs}Lpppb$lQ,QlbbSppEH}-F>cxuTRRRwRuxc4kEy=~",
"1=S'}[4I6G)877NCcBIIUh}E|aa_3f,~1~=lbpHOd>)xmT5R5rmxc6>4Uhe}E9LjjjL9}OF>)GxuT5RR5umG)>kO}HqEpjjKKKbjpEEHDOOF6)cxm55wwR5Tx)oUE3,~",
"1+EsheIB%G7xCxCCC)Iv4h}H/|a$l&,~1~,lSpsOzvGxu5rwRrr;8CBB6FzkkkD'L9Ds2FdBCxuTJRwwJTuCGB4zUeesH'LjjLL9s}OOOzzI6Gxu;RRwwwRTx%IO9y=~",
"MhEsh4d))8t88xC))gvd[{}ni/_$3&=~1M=&b|se4I)CmTJRwR5uux7C%)>6P2-2DD2kzIBG78mr5JRRJr;utC6II4zUksD99'DDkk[4ddB)%8xmrrRwwwTT]G4OEy,~",
"1M|sh4d%%CCx88888%vd[e!@n++$3&=~1~,fbp}[dvC8mrJRw00r;*m88)))6oPFF2FFoB%C]u;JwwwRRJ;u*C8%)d>FFk2-D22kP46I)6)8x*urJ00<wwrT8C4hpy=~",
"1!|s!zIvC88*]*8CC%%v#[{@i/_$3&,~1,=lbpHez))8urJ0<0wwJrT]*]xcNcABoAB6G)x*urJJJw0<0JJrm*x*)C)B6oFFFPF>o66)C8tx*urrJJwwwwJ;864sp3,~",
"1/Eshzd%%C8*u**C8)%gd#[@i/+$l&=~1~=&_piezgC8rr00<www0JJTTm]mxxNcNcNNxxm]TrJ0w<<<<000rr;;]87ccGcoBAB)cCC7x*u*rrJ0ww<<w0r;C6z}pK=~",
"1fSEse4d%88**;**8t%%g#{{i/a$3&,~1~,&$Ssh4v%8*rJ0<<<<w0JJrrTumuxxNNxxuuTrJJw<<<<<<<<00JTTmu*uxxNNcNcNNxx];*;rrJ00<<<<<wr]xvUHSl,~",
"1~yps[4v%88*;;;***ttgg[{@/+_3l,~1,,l$|i[zg)8;r00<<<<<<00JJJ5TTuuuuumT;5J000<<<<<<<<<<00JrrTTumxxxxmmmmmurrJJ000<<<<<<0J]tIUEbl=~",
"1M3bHhUdg%8***;;**tt%g#{}i/_$&=~1~,Q$pHh4v%*]J0<<<<:<<ww0RRRR5Tu5TT55RRRJ0<<:<::<<<<<000Rr5TTuuuxuuuu5rJJ00<<<:<::::<0ruCIeEbl,~",
"1MlbE}e4v%t**;;r;*tt%g#[{q|_3&,~1,,l$pHhd%%*;r0<:^<<<<0wwJRRRR5Tu55TTJRwww00<<<^<<<<<0w00J5;55uuuuuTT55JJ000<<:<::<::<r*CIhpbl=~",
"1~QbpH[4d%%****;*r*8%%g#e!||_l=~1~=l$pih[v%**J0<<<<:<<<ww0JR5RT55T5555JJ00<<<<<<<<<0<<0Rrr5Tuumuxxmu;rJJw0<<<<<:::^:<<r8)zh|$l,~",
"1,fbpHh[dgt8*r;r;*;*t%g#zhHSbl=~1~,&$pqez)%*rJ<<:::::<0JJRJR55T5umTTT5r5JJJ00<<<<<<00JJJrTTmxxxxxxuuuuTrJw<<<:^:::::<<r8)P}p3l=~",
"1~&3S|H[zg%tt***;;***t%vz[}E_3,~1~=l$pih4dt**J0<::::<<wJrrTTT5umuxuuumuTrJ0000w<<<00JJrTmmxxxNNNcNcNx]uurrJ0<<<:::::<Jr8gPqp$&,~",
"1~f3j/He[dg%***;;J;**t%gd[hsa3=~1~,&ypHh4gt*;J<^:^::<0JTmxxxxxNNNcN7xx]u;Tr00<0000JJr;;;]]7GccAAocAccN8u*rJ00<<:<:<:<J;86zs+yl=~",
"1~=lySqh{#g%t**;*;rr**t%vdhHpy,~1~=lbSi!4vC*;0<<:::<0Jr8CC))AABAoAA))tN8]rrr000<00Jrr;888)G)B>oFPF>>B)G7]*;r0<<<:::<0J]t)[H|3&,~",
"1~,l$a|}{##tt8*;;;*;*8t%gdehE$=,1~,&bpqhzv)*rJ<:::::<;*tvIFFFP2222FF>B)Cx*rJJ0J0JJr;**C)CB6IFP22-22FzovCC8urr0<0<:<<JJ*)IeE|ll=~",
"1~=&$_/i@[gggt***;;rr*8%)#4eES,~1~=&$Sqhz%t*r0<::::<0;8vz[h}sDD999D-kP6)8*r;JJ0JJJr;*88%vd4k22DD9DDkkz6d)t**;J0<<<00J;8%d[Hb$&,~",
"1~=&3_/i![#g%%t********8%dzeH',~1~=&$pqhz%t*;0<::::<J]CdesHEpjjj((j9sO4dCC*;rJ0JJ;r*xt%vI4eOsDLLjL'9}-Pdv%*;;rJ00<00ruttzh|a3&=~",
"1~,&3_+i@{#ggtt8***;;*8t%)de!H{~1~,&ySH!4vG8;J::::::J]%d!iS_bbKf,QyS'}UI%C*;;rrJr;*8C)%#4eesELjjKjj'H}Ozd)%8*r0<<<<0rm8gP}|_3&,~",
"1M,&3b+i@{[#g%%t***];888)g64[![~1~=&$SH{[vC8T0::::::<]Cz!/|$3Q=,~MQypHUz)Cx*rrrrru*xtvI4{hHEpj(K=K(bLHezzv)8;;r0000J;x)v[s+_3&=~",
"1~,&3bni@!{##gt8]8;u]]x)%)#zh!!,1,,l3pi}[4B7;0:::::::rG[H|_$3Q,~1M=KSEe4I)C;]r;ru]xC)d4zehipa(QfMflyS|shPdB)8uJJ00RrTC)dhiS_3&,~",
"1M,&3++Eihe4d))Cx7]x*x8tBgzPhq|~1,,l3|/se4Bx]J:::^:::rGe|__$3&=M1M=3bH}[46)xmT;Tu*7)BIehsHE|$lf,~Mflb/H}hzv)8TJ0<<0TuC64}Ea$3&=~",
"1~=&a$|/sh[466G%xxx8x77)Bd4{spl~1~=&_SpH}P6)uJ:::::::r7Op__$3Q,M1~=lS|HU4BGxm]ummxc)I4U}H/pbblfM1,=l_SEqOk6cxmTRwwR5mt>Usp_$3&,~",
"1~=3$bSpqOUzIBG7x8xxx7G)I4U}Hb=~1~,33bp9sU>Gm5<::::::T)ka33l3&,~1~=$bpH-P>G7xuuu]x)B4kkHLSb$3&,~1,,33y_9}2>BxuRRwRR;xcIUHa$33&=~",
"1~&l33jLHsk4>)c)xx8xNG)o4ksHp$,~1~&&l3$LHk4Bx5::::::<5AHj3&&&&=~1,&lKS'sk>6cx8uuxNNB42D'jb3&&Q,~1~&&lybjHOF)xu5RR05uxc4-'by&&&,~",
"1,=flbb'D22o6ccxxxNNcG642UD'(l,~1,,,=QKjL-PAxu<::::::TBD(l=,,,=~1,=&l(L9kFB)Nxxxxc)oP-D'(KQf,==~1==,=fljLDFAxmRwRwRuxGFDL(Q=,==~",
",~M=QKj'Dk4>A7NNNxxcGAF22'Lj(=,~~M~~,=Q(LD2BGu<:::::<5ADjf,~~~~~~MM,fKj9D2oAcNxxNc)o2D'jKQ,,~~~~~~~~,=KKLDFANuTRwR5uxAFDLKf,M~~~",
"11~=KjL9-2FBcNxxxxxcBoF-DL(K=~1~11111MfKj92ocmR:::::RxoD(f~1~11~11M~fQjLD-FAccxxNcoF2D9(Kf~1~11~111111fKj9FoNuTwwR5mxcFDLK,1~11~",
"1~=Q(LD-Po)cxxuuuxNcBF2D'L(Kf,,~1,~~,fQKLD2oNxJ<:::05xoDjK=,~~,~1~MMfKj9D2FocxcxNcco2-9LKQ=M~~,~1~M~M=fKLD2BxuRww0R5xco29(Q,~~=~",
"1~ljLDk4AcNxum;uuuxcBFkD9jyKfl=~1~=,=QKj9DFocu50::0R5co2'jlf=&,~1~fQK(L92FoBcNxxNcNoF-DLjKl==&=~1~,,ffKj9DFAxu5RwwR5xNA2DLKQ=&=~",
"1~lpsk>)NxuTT55Rrm8c6FkspS$33&,~1~,Q&Kjp92kAcx5R0<wTmc>2HLb33&=~1,flbj'D-P>AcxxmxN)A42s9'jy33Q,~1~=&&y3j'2FBNuRw<0R55xGFk9j33&,~",
"1M3EUIGxmrR0w<0R5u8cdzOHp_b_3&,~1~,&3bbpHk4BNxTR0ww5mc>ks'pS$&=~1,&yppH-2FBcNxxxuxN)A>kD|pb_3l=~1~=f3$bp'-F)xuRw<<0RTxc>kHpS3&=~",
"1~bhI);rw0w<:<<<JT8)6e}HpSa$3&=~1,=&3bpEskF)7uTRRw5ux)BFhsEpb3f,~,lypH}UP66GNxuumxNGBzUOsE||_lQ,~,=l$Sb/sU>)xT5ww<<RTuxBPOE_3&,~",
"1~pUt8rJ<:::::<<Jr8)de}q++a$3&,~1~,&3_/qhPI)Nu;RRRrTuG64ehipS3lfMQKjEDOUzoGtxmuumu8cCI4UhsEpbyQ,~=f3bp|s}UI)xTT<w<<wRTx)4eqS3&=~",
"1ME4)]J<<:::::::0u]td{}/n+$$3&=~1~=&3_|sh4I)CmT5rRru8CBd4ehEpjKQfKbLEHe4d)%x]*TrTT]7)Bd4[eHEpbKKfQKb_pH}h4IGxTRw<<<<0ru)v[sp3&,~",
"1~948*0<<:::::::<r8%d#@i/+abl&=~1~=&3S|s{#dC8]TrJJrm88CvdeeHE'(KK(j9sePdvCC8uTTrTTu*x)vd4[hs'pjKK((LpEs!zdg88TR<<::<0J;t6eHa3&=~",
"1,pP)]J<::::::::<J*tg[{n/+_$3&,~1~,&3_|}ed)%7*TrrrrruC)%d4khH'Ljjj9|kk4ICC7];rJJJr;;*8%%dz[O}99Lj''9shhzzvC7]rw<:::::<r;)eH_3&,~",
"1,pU)850::::::::::r8g#{n/+_$l&,~1~=&3_|i{zg%8]rrJrr;**t)v4[-kD9'L9D-k4B6)*;*rrJJ0Ju;]*C8)d4PkODD'9DkOk4ddvC*TJ<::::::<T*Be|_3&=~",
"1~bsdC*J::::::::^00*t#{n/a_$3&,,1,,l3_|H[4vt8*rrJJrrru88%6I4k-2DD222>6B88];JJ0000J0rrr]C)C)B>oF422kP>>dBC88;J0<:::::::<T%ep_3&,~",
"1~yEe)8;0:::::::::0J*g[nn+_$3&,~1,,&3a/H{#%t8;rJJJrJr;txC)BI>FPF2F>ABGc]uTrJ00<0<000Jr;;x7CcGBABoBABGC)7x*ur00::::::::<TCe|$3&=~",
"1~lph4%8r<:::::::^0.*tg@n+_$l&,~1~,&3$pqezv%**;J000Jr;r*xCGGBAooooBG7x;mrJ0<<:<:::<000J;TT]uxuxxxxxxx]uu;rJ0<::::::::::r)hS_3&,~",
"1,fbH{I%*r<:^^:::^<<rtg[n/__3&=~1~=&3_/q{z)%*rrJJ000rr;*m*x7ccGGNcxxmmrrJ00<<:<:<::<<<00JJ5RT5T5T555T5JJJ00w<::::::::::rtha33&=~",
"1~f3ps[v%8*J0::::^<^0*tg@na$l&,~1M,l3_pq{z%t**J0000J0Jrr;umxuxNNNmmmT5R0<<:::::::<<:<<<<0<<w<wwRRRRR00000<<:::::::::::<r)h+b3&,~",
"1~=lb/}e#%t*;J0:<<00J*tg[n+_3&,~1,M&3b|H{[v%**;000<000JJrr;uuummuu55w0<w<<::::^:::<:<:<<<<<wwwwwRR0R0www0<0:<:::::::::<r)[a$3&=~",
"1~=&yaH![d%t*;rJ00^0J*tg[!/_3&=~1~=l3_+H@dg%8rJJ0<0<000JwJJJ55555TRwRw<<::<::<<<^::<:<<<www<wwwRRRRwwww<<0<<::::::::::0*)e|$3&,~",
"1~=&3_|q![#gt8*;rJJJ;*tg#!|_3&,~1~M&l_+q}[v%8*;00<0<00w0RRRJT5Tu555RRw<w<<:::::<0<<000w<0wRwRRR5R55TTRRR000<<<^::::^:<J;)e/$3&=~",
"1~,&3$++n@[#gtt*;;;;r*tg[!/_$&=~1~=&3$S/![#%t*;;JJ00000JJr5T5T5Tu55TRRRw<<00<0000J000JJrRR5T5TumuuuTTTTrrJJJ000<<:<<0J;CveH_3&,~",
"1~,&33a+ni{##g%tt***t*%g[}|_3&,~1~,&3$a|i{dg88*;;J;JJrrrrTTummxuxmuTT5rrJJ00JJrJJrrrrr;m;uuuxuxxxxxxxuu*m];rrr;r;rrr;*8CIeH_3&=~",
"1,,&3$_+/n@@{#gg%8t8t%g#{h+_3&=~1~,&l$a/i!#gg%8***;;rr;*u]muxxxNNxxxmmuu;r;;r;r*******u]8xCNNcNcAcGcGc)xt888*********8tv4!H_3&,~",
"1~,&3$_a/nn@@{[##ggggg#[@n+$l&=~1,,&$$_/i@{##%%t*888*8u88xGCNcccANccNx888**888888CC8%%tt)C)BA>FoFFFBBBBCt%%%tt8t8C8)t)%d[s|_3&=~",
"1,,f$$_+/nnnn@@@{{[[[{{!i/a_3&,,1~,&l$a+i@!{#dgB%)8)%8%t)))BA>ooFPoBBB)))tC%t%%v%g)vg)vvvId4FF2-2222P4IId%v)v)g%v%g)vdd[{q|_3&,~",
"1~,&3$_+++////nn@@@@@@@in+_$l&,~1~,&3$_//ni}{[z4dIvvdv6%dvIoFP22222PF46v6dvIIddddz4dz4zzz4[Uk-DD9D---kz4z4#ddddIdIIddz[h!E|_3&=~",
"1~,&$$+++++++++/+|////+/++_$3&,~1,=&3$+a++/Hi}hezzzzzdP[4zeUU-DD9DD-UkezzzePze[he[eeehe[ehhsD9'LjL'Hs}he[eheeeezeee[ehhsH/_$l&,~",
"1,M&3________+_+_aaaS|_a_a_$l&,~1~,&3___aaa||Hiqs}}Oshh}}Oh}D9'LjLLHDh}he}}h}}ssiHHHiHEHqHHEESjjKjjj'is|qs}s!}shhhHHiqH|+|$_3&=~",
"1~,&$$$$$$$$$$$$$$$$_3$$$$$$3&=~1~,&$$$$$$___Spp/EEEEEEEHEEEpL(KKjjjEEEEEEE|pE|ppSSS|S||pp||j(KKffKbpp|pp|pEp|EEEE/EpS___$$$l&,~",
"1~,333$3$33$333$333&333333$l$&,~1~,l33333&l33$b$bbSSSjSbbSSj_y(fffKSSjSbSbbSbbb_b_$bb3y$b3bbb3ff,=Qbb3b_bbbbbb_Sjbbbb$333$l33&=~",
"1~&&&&&&&&&&&&&&&&&&&&&&&&&&&&=~1,&&&&&&&&&&&&&&&lQ&llly3&&llK=f1=3&l3&l&ll&l&l&&&l&&ll3&l&&&&=M1,l&&l&&&&&lllllll3llll&&f&&&&,~",
"1M,,,,,,,,,,,,,,,,=,,,,,,M,M,,,~1,M,,,,,=,==,,==,,=,=,M,,==,==,M1,=,,,=,=,,,,=======,M==,====,,M1,==,==,==,==,M,=,,M,,==,,,,,==~",
",~~,~~~~,~~~~~M~,~~~,~~~~~~~~~,~~~,~~~~~~~~~~,~~,~~~~~~~,~~~~~~~~,~~~,~,~~,~,~~~~~~~~,~~~~~~~~~~~~~~~~~~~~~~~~~~~~,~M~~~~~,~,~~~"};
