/* XPM */
static char * gimp_temp_206425_xpm[] = {
"128 128 86 1",
" 	c None",
".	c #6A6A42",
"+	c #FEFE02",
"@	c #969602",
"#	c #DEDE0A",
"$	c #AAAA22",
"%	c #C6C60E",
"&	c #7A7A32",
"*	c #A6A622",
"=	c #C6C61E",
"-	c #8E8E2A",
";	c #AAAA2E",
">	c #CECE22",
",	c #9E9E3E",
"'	c #BEBE2E",
")	c #81812E",
"!	c #AEAE36",
"~	c #8B8B43",
"{	c #FEFE9E",
"]	c #A6A632",
"^	c #BEBE32",
"/	c #AEAE3A",
"(	c #909064",
"_	c #A6A63A",
":	c #9A9A68",
"<	c #969672",
"[	c #C2C2C2",
"}	c #72724A",
"|	c #B6B63E",
"1	c #A2A24E",
"2	c #787839",
"3	c #80804F",
"4	c #A6A656",
"5	c #9E9E5A",
"6	c #6E6E36",
"7	c #BABABA",
"8	c #EAEA0A",
"9	c #B2B242",
"0	c #76764C",
"a	c #AAAA46",
"b	c #66664A",
"c	c #82825A",
"d	c #92927A",
"e	c #868666",
"f	c #76765A",
"g	c #7A7A52",
"h	c #626254",
"i	c #A2A25A",
"j	c #8E8E8E",
"k	c #9E9E76",
"l	c #666666",
"m	c #FAFA02",
"n	c #6E6E3E",
"o	c #A2A29E",
"p	c #6A6A6A",
"q	c #A6A6A6",
"r	c #DEDE16",
"s	c #6E6E42",
"t	c #B2B2B2",
"u	c #96967E",
"v	c #86866E",
"w	c #9E9E26",
"x	c #969696",
"y	c #868672",
"z	c #727272",
"A	c #76765E",
"B	c #6E6E4E",
"C	c #828282",
"D	c #7A7A7A",
"E	c #868686",
"F	c #969652",
"G	c #F2F206",
"H	c #767676",
"I	c #9E9E9E",
"J	c #6E6E6E",
"K	c #D2D212",
"L	c #B6B61E",
"M	c #B6B62E",
"N	c #8C8C5A",
"O	c #96963A",
"P	c #929276",
"Q	c #8E8E52",
"R	c #96965E",
"S	c #8E8E3E",
"T	c #6A6A4A",
"U	c #CACA11",
"[[[[[[[[[[[[[[[[[[[[[[[[[[[[[[[7[+++++[[[[[[[[++++++q[[[[[[[[[[7[[[o++++++^7[[[[[[[[[[[[[[[[[[[7[[[[[[[[[[[[[[[[[[[[[[[[[[[[[[[7",
"[77777777777777777777777777777t7+++7777777++++++7777777777:++++++++:77777777777777777777777777t7[77777777777777777777777777777t7",
"[7tttttttttttttttttttttttttttqt7[7ttttt++++++tttttttt+++++++tqt7[7tttttttttttttttttttttttttttqt7[7tttttttttttttttttttttttttttqt7",
"77tqqqqqqqqqqqqqqqqqqqqqqqqqIot7[7tq++++++qqqqqqM++++++_qqqqIqt7[7(++++++++++]oqqqqqqqqqqqqqIot777tqqqqqqqqqqqqqqqqqqqqqqqqqIot7",
"[7toIIIIIIIIIIIIIIIIIIIIIIIxIqt7[t+++++IIoooI+++++++IIIIIooj++++++++++IIIIIIIIIIIIIIIIIIIIIxIqt7[7toIIIIIIIIIIIIIIIIIIIIIIIxIqt7",
"77tqIxxxxxxxxxxxxxxxxxxxxxjxIot7++++IxxxxxL++++++xxxxxx++++++++7[7tqIxxxxxxxxxxxxxxxxxxxxxjxIqt777tqIxxxxxxxxxxxxxxxxxxxxxjxIot7",
"[7tqIxjjjjjjjjjjjjjjjjjjjEjxIqt7++tqIxjj++++++jjjjj++++++++xIqt7[7t+++++++++++~jjjjjjjjjjE#+Iqt7[7tqIxjjjjjjjjjjjjjjjjjjjEjxIqt7",
"[7tqIxjEEEEEEEEEEEEEEEEEDEjxIot7[7tqIx+++++EEEEEE+++++++CEjxI!++++++++++3EEEEEEEEEEEEEEE+++xIqt7[RtqIxjEEEEEEEEEEEEEEEEEDEjxIot7",
"[7toIxjEDCDCDCDCDCDCDCCDCEjxIqt7[7tqI++++CCCCCC++++++CCDCE++++++++/qIxjECCCCDAK0BCHDCDCDCEjxIq++[7tqIxjEDCDCDCDCDCDCDCCDCEjxIqt7",
"[7tqIujjCDDDDDDDDDDDDDzDCEjxIqtt[7to+8++CDDDD++#++DDDDH+++#++++7[7tq+++++++DHJHDDDDDDDHDG++CIqt7[7+qIujjCDDDDDDDDDDDDDzDCEjxIot7",
"[7tqIxjEDDHHHHHHHHHHHzHDCjjxIqt7[7+IE+jEDDH++TU++HHHH++LA+++Iqt7++++y]+++++zHHHHzHHHHn+++EjxIq++[7tqI+jEDDzHHHHHHHHHHzHDCEjxIqt7",
"[7tqIxjjCDHzJz@@@@@zpJHDDEjxIqt77=tq+xjECD++z++zzzzz+)H++mjxI+++[7++++jECDHl++++++++hJHDCEj++qt7[+qqIxj8CDHzbzJzJzJzpJHHCjjxIot7",
"[7toIxjECDHzp@++++++JJzDCEjxIqt7[7tQIxdECDGJh+pppp++JJ++CEjx++t7+++qIx++++TzJJJJJJJlJJ+++wjxIq+7[7t+xxjE+DHzp+pJpJppJJHDDEjxIqt7",
"[7tqIxjECDzJ@+++++++{zHDCEjxIqt7k7txIxjjC*Hz+pppph+pJ++DCE++Iqt++7tq++jEC+++++&pl)+++++DCj++Iqt++7tq++jjC+zJJp+ppp%ppzHDCjjxIot7",
"[7tqIxjEDDHz@+++++++{zHDCEjxIqt7[7tqIxjC8DHJJplll+llJ+HDCE+xIq++[7++Ixj+++HJ+++++++wJJ+++Ejx++t7++tqI++EC++JJpl+lllppJzDDEjxIqt7",
"[7tqIxjECDHz@+++++++{JHDDjjxIqt777tqIxjE8Dzzpppll.lp@.HDC+#xI++7[7+1Ix++0D+++pllllp+++H+++jxI+G74+tqIx+EDD+zppl+llh8JzHD~jjxIot7",
"[7toIxjECDHz@+++++++{JzDDEjxIqt7[7tqIxjEDDHzpllllllpJJzDC+dxIx+7[7+qIxg+wD++-pplllp-++#+++jxI++7++tqIx+]CU+zppp+bbT+pzHD8EjxIqt7",
"[7tqIxjjCDzz@+++++++{zHDCEjxIqt777tqIxdECDHJJplllwppp+HHCj+xIq+m[7++IxjE++Hz++++++++++++}Ejx++++++tqI++m}++JJpl+hl+pJJHD+Ej+Iot7",
"[7tqIxjEDDHzJ++++++{pzHDCEjxIqt7[7tqIxxECDHJJlllpllpJz+DDEjjoqt++7tq+xjECDL++++++++++LHDCEj++++++7tqI++G++HJpl++l++lJJHD+C;+Iqt7",
"[7tqIxjECDHzpp{{{{{pJJHDCEjxIqt7[7tqIxjECDHzlppppppppJH+CEjx;qt7[++qIx++DDHzppppppppJHHD+++++++7[7t++++++DHzp+++++pppzH++++xIot7",
"[7tqIxjECDzpJJJJJJJpJzHDCEjxIqt777toIxjEDDzJJppppppJJzHDCEjxoqt7[7tq++jECD++++++++++++++++++Iqt7[<+++++ECDHp+++++pJJpz++++jxIqt7",
"[7tqIxjECDzzJJJJJJJzJJzDDEjxIot7[7tqIxjECDzJJzzzzzzJJJzDCEjxIot7+7tqIxdEC++++++++++++++DCEjxIqt++++++xdEDD++++++zzJJz++++EjxIqt+",
"[7tqIxdEDHzHHHHHHHHHHHHDCEjxIqt7[7tqIxjEDHHHHHzzHHHHHHHDCEjxIqq7[7tq+xdECHHHHHHHHHHHHHHDCEj+++++++tqIxxjL+++++HHHHH+++++CjjxIq++",
"[7tqIxjEDDDDDDDDDDDDDDDDCEjxIot7[7tqIxjjDDDDDDDDDDDDDDDDDjjxIqt777+qIxjEDD+++#+$$+++++++++++++t7[7tqIx+++++BDDDDD+++++DDDEjx++++",
"[7toIxjCDCDCCCCCDCCCCDCDCEjxIqt7[7toIxjCCCCCCCCCCCCDCDCCDEjxIqt7[7tqIxjCD!+++++++++++++CCEjxIqt7[7P+++++wCCCCCD+++++CCCCCE++++t7",
"[7tqIxjEjEjEEEEEjEEEEjEjEEjxIott[7tqIxEEEECEEEEEEEEjEjEEjEjxIqt7[7tqIxEEEEEEEEEEEEEEEEEEEEjxIq+++++++xEEEEEEE+++++EEEEEE+++++qt7",
"[7tqIjjjjjjjjjjjjjjjjjjjjjjxIqt7[7tqIjjjjjjjjjjjjjjjjjjjjjjxIqt777tqIjjdj'+dxjdxjdxjG++++++++++'[7tqIjdxjj+++++jjdxjjj+++++xIqt7",
"[7tqxxxxxxxxxxxxxxxxxxxxxxxxIqt7[7tqxxxxxxxxxxxxxxxxxxxxxxxxIot7[7tqxxxxxxj+#++++++++dxxxxxxIqt7[7tqxx+++++xxxxxxxxx++++xxxxIotm",
"[7tIIIIIIIIIIIIIIIIIIIIIIIIIIqtt[7tIIIIIIIIIIIIIIIIIIIIIIIIIIqt7[7tIIIIIIIIoIIIIIIIIIIIIIIIIIqt7/+++++8IIIIIIIIII++++IIIIIIII+++",
"[7qqqqqqqqqqqqqqqqqqqqqqqqqqqqt7[7qqqqqqqqqqqqqqqqqqqqqqqqqqqot7[7qqqqqqqqqqqqqqqqqqqqqx++++++++[7qqqqqqqqqqq++++,qqqqqqqqq+++d7",
"[tttttttttttttttttttttttttttttq7[tttttttttttttttttttttttttttttt7[tttttttttttttttttttttttttttttt7[tttttttt++++ttttttttttt+++tttt7",
"77777777t777777777777777777777777777777777777777777777777777777777777777777777777777777t7777t777777#++++7777777777777+++77777777",
"[[[[7[7[[7[7[77[7[7[[[[[[[[[[[[7[[[[[[[[[[[[[7[7[7[[[[[[[[[[[[[t[[[[[[[[[[I++++++++++++m>[[[[7[7[[[[[[[[[[[[[7[[[7[[[[[[[[[7[7[7",
"[t7777777777777777777777777777q7[777777777t77777777777777777t7t7[777777+++++++++++++++++++++++d7777777777777777777777777777777t7",
"[7tttttttttttttttttqtqttqttqtqt7[ttqtqtqtttqttttttqtqtqtqttttot7[7qdm++++++++++++++++++++++++++++Gttttttttttttqttttttttttttttqt7",
"[7tqqqqqqqqqqqqqqqqqqqqqqqqqIqq7[7tqqqqqqqqqqqqoqqqqqqqqqqqoIqq7[++++++++++++++++++++++++++++++++++mFqqqooqoqqqqqqqqqqqoqqqqIot7",
"[7qqIIIIIIIIIIIIIIoIIIIoIIoxoqt7[7tqoIoIIIoIIIIIIoIoIoIIIIIxoqt++++++++++++++++++GKyvIjINQ;++++++++++++IIIIIIoIIIIIIIIIIIIIxIqt7",
"[7tqIxxxxxxxxxxxxxxxxxxxxxjxIqt7[7tqIxxxxxxxxxxxxxxxxxxxxxjxI++++++++++++++++CxxxxxxxxxxxxjxIqt7[I+++++++CxxxxxxxxxxxxxxxxjxIot7",
"[7tqIxjjjjjjjjjjjjjjjjjjjEjxIqtt[7tqIxjjjjjjjjjjjjjjjjjjjjj++++++++++++++GjjjjjjjjjjjjjdjEjxoqt7[7tqI++++++UjjjjjjjjjjjjjEjxIqt7",
"[7tqIxjEEEEEEEECjEEjEEEECEjxIqt7[7tqIxjCjEEECjEEEEEEEEjEDm++++++++++++++EEEEEEEEEEEjEEjECEjxIqt7[7tqIxjE+++++mEEEEEEEEEEDEjxIot7",
"[7tqIxjECCCCCCCDCCDCCCCDCEjxIqt7[7tqIxjECCCCDCCCCCCCCCDD+++++++++++++++OCCCCCCCDCCDCCDCHCEjxIqtt[ttqIxdjDC+++++ODCDCCCCDCEjxIqt7",
"[7tqIxjjDDDDD+++TDDDHHzHCjjxIqq7[7tqIxjCCDDDDDHDDDDHHD++++++++++++++++++&DDDDDDDDDDDDDzDCEjxIqt7[7tqIxjECDDD++++0ODDDDzDCEjxIot7",
"[7tqIxjjDDzr+++%zHzHHzHDCCjxIqt7[7toIxjECHHHzHzzzzHHz++++++++++++++++++++++U>THHzHHzHzHDCEjxIqt7[7tqIxjECDHHHH+++GlHzzHDCEjxIqt7",
"77tqIujECD&+++++>pzzJJHHCEjxIqtt[7tqIxjECDzzzzzzzzzz++++++++++++++++++++++++++++++2zJJHDCEjxIqt7[7tqIxjEDDHzzzzJ+++n&JHHCjjxIot7",
"[7tqIxjECD+++++G-JplJJHDCEjxIqt7[7tqIxjECDHJpppppp)+++++++++++++++++++++++++++++++m+++HDCEjxIqt7[ttqIxujCDzJppJJJ+++n-HDDEjxIqt7",
"77tqIxjED+++++++&llppzHHCjjxIqt7[7tqIxjECDzzJpppp)+++++++++++++++++++++++++++++++++++++++EjxIqt7[7tqIxjEDDHzJppppp+++lTDCjjxIot7",
"[7tqIxuj++++++++#hlppJHDCCjxIqtt[7tqIxjECDHJJpllK++++++++++++++++++++++++++++++++++++++++++xIqtt[7tqIxjjDDzJJlllllph++LUDEjxIqt7",
"[7tqI+jE+++++++++&ppJzHHCEjxIqt7[7tqIxjECDzzpppL++++++++++++++++++++++++++++++++++++++++++++mqt7[7tqIxjECDHzppllllllJ+++JfjxIot7",
"[7to+xj++++++++++#.lpJHDCEjxIqt7[ttqIxjECDzzpl6++++++++++++++++++++++++++KHzJplh++++++++++++++R7[7tqIxjECDzzJpllllplJz+++fOxIqt7",
"[7tI+xj+++++++++++2pJzHHCEjxIot7[7tqIxjECDHJJh++++++++++++++++++++++yxjECDHJppllllppJ+++++++++++[7tqIxjEDDHJpplllllppJH+++g]Iot7",
"[7tq+xj+++++++++++hlpJHDCjjxIqtt[7tqIxjECDHJp+++++++++++++++++++++tqIxdECDHzpllppllpJzHD+++++++++7toIxdjDDHzplpplllpJzHD+++C1qt7",
"[7tI+x+++++++++8hbOlJzHHCEjxIqt7[7tqIxjECDHz+++++++++++++++++++'[7tqIxjjDDHJpppllpplpJHDCE++++++++|qIxjECDHJppllpppppJHDC++%mQt7",
"[7qqEx++++++++&pppJ-pJHDCCjxIqt7[7tqIxjECHz+++++++++++++++++++t7[7tqIxjECDHJpJJJpJJJJJHDCEjx++++++++IxjECDHpJJJppJpJJJHDCE++e](7",
"[7tqo++++++++'.$hJJJJzzHCjjxIqq7[7tqIxjECDJ+++++++++++++++++Iqt7[7tqIxjjDDzJzJJJzJJJJzHDCEjxII+++++++xjjCDJzJJJzzJzJJzHDDE'++=dI",
"[7tFI++++++++++++#HzHHHDCCjxoqt7[7tqIxjECH+++++++++++++++++xIqt777tqIxjECzHzHHHzHHHHHHHDCEjxIqt+++++++jEDHHHHHHHHHHHHHHDCEj+++xG",
"[7t+ey+++++++++++++DDDDHCEjxIqq7[7tqIxjED++++++++++++++++wjxIot7[7tqIxjEDDDDDDDDDDDDDDDDCEjxIqt7++++++'EDDDDDDDDDDDDDDDDDEjx+++1",
"[7t++w+++++++++++++wCHCCCEjxoqt7[7tqIxjCD+++++++++++++++}EjxIqt7[7tqIxdCCDCCCDCDCCCDDCDCCEjxoqt7[++++++CCDCCCCCCDCDCDCCCCEjxI+++",
"[7t++I++++++++++++++zEEEEEjxIqtt[7tqIxEE+++++++++++++++HEjjxIqt777tqIxEEEEjEEjEEEEEEEEEEEEjxIqt7[7++++++EjEEEEEEEEjEEEEEEEjxI#++",
"[7t+Ej+++++++++++++++jjjjjjxIqt7[7tqIjjO++++++++++++++8jjjjxIqt7[7tqIjjjjjjjjjdjjdxjjdjdxjjxIqt7[7t++++++jjjjjjPjjjdjjjjdjjxIq++",
"77t+xx+++++++++++++++cxxxxxxIqtt[7tqxxx++++++++++++++GxxxxxxIqt7[7tqxxxxxxxxxxxxxxxxxxxxxxxxIqt7[7tq+++++OxxxxxxxxxxxxxxxxxxIqt+",
"[7t+IE+8m+++++++FIG+++yIIIIIIqt7[7tIIIO++++++++++++++IIIIIIIIqt777tIIIIIIIIIIIIIIIIIIIIIIIIIIqtt[7tII+++++IIIIIIIIIIIIIIIIIIIqt+",
"77q+q++Q;+++++++]qq_++Fqqqqqqqtt[7qqqo++++++++++++++qqqqqqqqqot7[7qqqqqqqqqqqqqqqqqqqqqqqqqqqqt7[7qqq++++++qqqqqqqqqqqqqqqqqqqt7",
"[tttt++t!++++++++ottR++tttttttt7[ttttt+++++++++++++Lttttttttttt7[ttttttttttttttttttttttttttttttt[ttttt+++++tttttttttttttttttttt7",
"77t77++78+++++++++777+:o7777777t77777++++++++++++++777777777t777777777777777+++++++++++177t7t7777t7777+++++m7777777777777777t777",
"7[[[[+9[^+++++++++:[[>+k7[[[[[[7[[[[[+++++++++++++[[[[[[[[[[[7[7[[[[[[[7[=m+++++++++++++++[[[[[7[[[[[[[+++++[[[[[[[[[[[[[[[[[7[7",
"[7777+77xG+++++++++77o+5777777t7[777<+++++++++++++777777777777q7[t777777++++++++++++++++++++77t7[7t7777+++++m77777777777777777t7",
"[7ttt+ttt(+++++++++ttt+(ttqtqqtt[7qt+++++++++++++ttqtqtqtqtttqt7[7tqtqr++++++++++++++++++++++Ft7[7tttttt+++++tqtqtttqttttttttqt7",
"[ttqq+qqq(++++++++++qq+mFqqqoot7[7tq+++++++++++++qqqqqqqqqqqIqq7[7tqq+++++++++++++m++++++++++++7[ttqqqqq+++++qqqqoqqqoooqqqqIot7",
"[7tq++III+++++++++++II=+=oIxIqt7[7tq+++++++++++++IoIoIoIoIIxoqt7[7tq++++++++++IIIIIIIIy+++++++++[7tqIIII++++++IIIIIoIIIIIIIxIqt7",
"[7tq++xxx+++++++++++xxxm8xjxIqq7[7t+++++++++++++jxxxxxxxxxjxIqq7[7t+++++++mNxxxxxxxxxxxxx++++++++ttqIxxxx+++++xxxxxxxxxxxxjxIot7",
"[7tq+8jjj+++++++++++jdj++fjxIqt7[7t+++++++++++++jjjjjjjjjEjxoqt7[7(+++++++jjjjjjjjjjjjjjjE++++++++tqIxjjj+++++jjjjjjjjjjjEjxIqt7",
"77tq+cjEE++++++++++++Cj++Cjxoqq7[7t+++++++++++++EEEEECjECEjxIqq7[7+++++++EEEEEEEEEEEEjEECEj+++++++xqIxjEE+++++EjEECjEjEEDEjxIot7",
"[7tq+xujD+++8m+++++++CC++Ojxoqt7[7+++++++++++++GCCCCCCCHCjjxoqt7[+++++++CDECCCCCCCCCDCCDCEjx+++++++qIxdjD+++++CCCCCCDCCDCEjxIqt7",
"77tq+xjEC++++++++++++Hz#++jxIqt777+++++++++++++DDDDDDHzHCEjxIqt7[++++++ECDDDDDDDDDDDDDHDCEjxI++++++#IxjEC+++++*HDHHDDDzDCEjxIot7",
"[7tq+xjEC++T,++++++++zH+++jxIqt7[7+++++++++++++zzzzzHzHDCEjxIqtt++++++dECDHHHHzzHHHHHJHDCEjxI8++++++IxjEC++++++zHHzHzzHDCEjxIqt7",
"77tq+xjjD++p2+++h++++JzO++jxIot7[7+++++++++++++zzzzzJJHHCEjxIqt7++++++jECDHJJJzzJJJzpzHDCEjxIq+++++++xjjD++++++zzzzzJJHHCjjxIot7",
"[7tq+xjjC++Jh++&J#m++zzD++jxIqt7[7+++++++++++++pppplJJHDCEjxIqt7+++++xjEDDHzJppJJJpppJHDCEjxIq+++++++xjEC++++++pppppJJHDDEjxIqt7",
"77tq+djEJ++zJ++-pp+++JHD++jxIot7[7+++++++++++++ppppppzHHCjjxIqt7+++++xjECDHJppplplppJzzDCEjxIqM++++++cjjC++++++pppllpzHDCjjxIot7",
"[7tq+xjE0++JJ+++hl+++zHD++jxIqt777+++++++++++++llllppJHDCCjxIqt++++++xjEDDHzJpp++lllpzHDCEjxoqt++++++KjCC++++++lllpppJzDDEjxIqt7",
"[7tq+xjEL++zp++++l+++JHD++jxIot7[7+++++++++++++lllppJzHHCEjxIqt++++++xjjCDHJpp+++blpJJzDCEjxIqt+++++++jEw++++++llllpJzHDCjjxIot7",
"[7tq+xdj+++zJ++++l+++JHD++jxIqt7[r+++++++++++++llllppJHDCEjxIqt+++++IdjECDHzpp+++hhlJzHDCEjxoqt+++++++~j%++++++lllllpzHDDEjxIqt7",
"[7tq+xjE+++Jp+++.l+++zHD++jxIqt7[U+++++++++++++lllllJzHHCjjxIqt+++++jxjjDDHJJll+.llppJzDCEjxIqt+++++++O3G++++++llllpJJzDCjjxIot7",
"[7tq+xjE+++zJ++)pp+++JHD++jxIqt7[>+++++++++++++llpplpJHDCCjxIqt+++++CxjECDHJJppllllpJzHDCEjxIqt+++++++9w+++++++plpllJzHDCEjxIqt7",
"[7tq+xjEU++Jp++&pK+++zHD++jxIot7[+++++++++++++++pllpJzHHCEjxIqt++++++xjEDDHzpllppppppJzDCEjxIq8++++++++>++++++nlplpppJzHCEjxIot7",
"[7tq+xdE0++pJ-++h++++JHD++jxIqt7[G+++++w=+++++++JJJppJHDCEjxIqtI+++++xdjDDzpJJppJJpJJzHDCEjxIq++++++++++++++++JpJJJJJzHDCEjxIqt7",
"[7tq+xjEC++hJz+++++++zHJ++jxIot7[+++++!EDm++++++JJJzzzHHCEjxIqt7+++++xjECDzzJJzzJJzJJJzDCEjxIq++++++++++++++++JzJJJJJJHHCEjxIot7",
"[7tq+jjEC+++HH+++++++HHU++jxIIt7[M++++jECH++++++HHzzzzHDCEjxIqt7+++++;jEDHzHHzzHHHHHHHHDCEjxI+++++++++++++++++HHHHHHHzHDCjjxIqt7",
"[7tq+SjED+++DD+++++++DD+++jxIyt7[:+++LjEDDB++++++DDDDDDHCEjxIqt7++++++jjDDDDDDDDDDDDDDDDCEjxI+++++++++++++++++DDDDDDDDDHCEjxIot7",
"[7tq++jDC+++CCC+++++JDC+++jxI1t7[7+++CdCCCC++++++CCCCCCCCEjxIqt7[+++++GCCCCCCCCDCDCCCDDCCEjx+++++++++++++++++CCCCCCCCCCCCEjxIqt7",
"[7tq++EjE+++zEE#++++EEE++AjxIKt7[7+++xEEEEEE+++++gEEEEEEEEjxIot7[++++++EEEEEEEEjEjEEEEjEEEj#+++++++++++++++++EEEEEEEEECEEEjxIot7",
"[7tq++jjj+%++jdj;+++djj++jjxo+tt[7+++jjjjjdj++++++jjjjjjjjjxIqt7[7++++++jjjjjjjjjjjjdjjjjjL++++++++++++++++++jjjjjjjjjjjjjjxIqt7",
"77tq++xxx+m++cxx~+++xxx++xxxI+t7[7+++xxxxxxxx+++++xxxxxxxxxxIot7[7/++++++cxxxxxxxxxxxxxxx++++++++++++++++++mNxxxxxxxxxxxxxxxIot7",
"^7tI++III=+;++ey+++yIIE++IIII+t7[7+++IIIIIIIIy+++++IIIIIIIIIIqt7[7t++++++++IIIIIIIIIIIII++++++++++++++++++++IIIIIIIIIIIIIIIIIqt7",
"+7qq++qqqq+++++++++qqq+++qqqq+t7[7+++qqqqqqqqq+++++eqqqqqqqqqot7[7qq+++++++++dqqqqqqqK++++++++++++++++++++++qqqqqqqqqqqqqqqqqot7",
"+ttt+++ttt+++++++++ttt+++ttttmt77tM++xttttttttt+++++tttttttttttt[tttt++++++++++++++++++++++++++++++++++++++tttttttttttttttttttt7",
"+777+++777+++:++++7o77+++7777+77777+++777777777q++++m777777777777t7777+++++++++++++++++++++++++++++++++++++777777777777777777777",
"+[[[t++[[[++++[++[8i[+++[7[7[777[[[+++[[[[[[[[[[++++++7[7[[[[7[7[[[[[[[+++++++++++++++++++++++++++++++++++[[[[[[[[[[[[[[[[[[[[[7",
"+7t77++7777++++++++R7+++7777a7t7[77+++77777t7t777+++++:7777777t7[77777777++++++++++++++++++++++++++++++++177777777777777777777t7",
"+7ttt+++ttt++++++++t++++tttt+qt7[7t+++,ttttttttttt+++++Ittqttqt7[7tttttttt'++++++++++++++++++++++++++++++ttqtqtqtqtqttqttqttqqt7",
"++tqq+++qqq++++++++q++++qqqq+qt7[7tq+++qqqqqqqqqqqq+++++jqqqIqt77ttqqqqqqqqq(+++++++++++++++++++++++++++qqqqqqqqqqqqqqqqqqqqIot7",
"++tqI+++IIII+#++++I++++yIIIx+qtt[7tq+++IIIIIIIIIIoII+++++9IxIqt7[7tqIIIIIooIIIII9#+m++Gm+=+#+++++++++++IIIoIoIoIoIIIIoIIoIIxIqt7",
"++tqI++++xxx++O++x+++++xxxjE+qt7[7tq+++Kxxxxxxxxxxxxx++++++xIqt7[ttqIxxxxxxxxxxuxxxxxxxxx~>+++++++++++PxxxxxxxxxxxxxxxxxxxjxIot7",
"++tqI++++jjjj++++++++++jjEd++qt7[ttqI+++jjjjjjjjjjjjjj++++++Iqt7[7tqIxjjjjjjjjjjjjjjjjjjjL+++++++++++DdjjjjjjjjjjjjjjjjjjEjxIqt7",
"++!qIx+++LEEj++++++++++ECEj+eqt7[7tqI+++AEEEEEEEEEEEEEE++++++mt7[ttqIxjEEEEEjEEEEEEEEEEE++++++++++++oxjEEEEEEEEEEjEEEEECCjjxIot7",
"+t+qIx+L++CDCC++++++++DDCEj+Iqtt[7tqIx+++CCCCCCDECCCCCCD+++++++G[7tqIxjECCCDCCCCCCCCCC,m+++++++++++qIxjECCCCCCCCCCCCCCCDCEjxIqt7",
"+7+qIx++~++DDDz+++++++zDCED+Iqt7[7tqIx+++JDDDDDDDDDDDDHDCf+++++++mtqIxjECDDDDDDDDDDDU+++++++++++++tqIxjECDDDDDHHHHHHDDHHCEjxIot7",
"+7+qIx++C++zzzH)+++++JHDCE++Iqt7[7tqIxj+++zzzHHzHHHHHJHDCEj++++++++++xjECHHHHHzHz&++++++++++++++97tqIxjECHzzzHHHHHHzzJHDCEjxIqt5",
"+7P+Ixj+DD++bzz-++++++zDCE+SIqt7[7tqIxj+++pzzJzzJJJJpzHDDEjxI+++++++++++++m++++++++++++++++++++7[7tqIxjECDHzzzJzzzzzJzHHCEjxIq(+",
"r7t+Ixj+CD+++++++++++zzDC$+xIqtt[7tqIxjE+++JJppJJJJppJHDCEjxIq:++++++++++++++++++++++++++++++qt7[7tqIxjECDHJpJpppppppJHDCjjxIN++",
"[It+Ixj++DH++++++++r+JHDC++xIqt7[7tqIxdE++++pppppplpJzHDCEjxIqt7q++++++++++++++++++++++++++xIqt7[7tqIxjECDzzJpppppplJzHHCEjxI+++",
"[rt!+xj%+DHz+++++#++Jzzw3++xIqt7[7tqIxuEC+++JpllllllpJHDCEjxoqt7[7t,++++++++++++++++++++DEjxIqt777tqIxjECDHJppllllplpJHDCEjx++++",
"[+tq+xjE+}HJJ++++++ppJHD++>xIqt777tqIxjjDJ+++plllllpJzHDCEjxIqtt[7tqIxj~++++++++++++hzHDDEjxIot7[7tqIxjECDzzJllllllpJzzHCEj+++++",
"[+tq+xjE++HJJpp++llpJz+D++jxIqt7[7tqIxjECD++++lllllppzHDCEjxIqt7[7tqIxjECDHzJpplllpppzHDCEjxIqt7[7tqIxjECDzJJpllllllpzHDCE++++++",
"[7tqI+uEH+hzppllllpppJ++++jxIqt7[7tqIxjjDDH+++llllplJJHDCEjxIqt777tqIxjEDDHJpplllllpJJHDCEjxIot7[7tqIxjECDHzppllllppJJHHC+++++++",
"[7tqI+jEC++zplpplllpJ+J+++jxIqtt[7tqIxjECDHl+++lplppJJHDCEjxIqt7[7tqIxdjCDHzplpppllpJzHDCEjxIqtt[7tqIxjECDzzppllllllJJHD++++++++",
"77/qI++EC8++ppllpppp+++++EjxIqt7[7tqIxjECDHz++++lpllpzzDCEjxIqt777tqIxjEDDHJpplllpplpJHDCEjxIqt7[7tqIxjECDHJplpppppppzH++++++++5",
"[7+qIx+ECD+++JJJppp++++++fjxIqt777tqIxdECDHJJ++++JJJpzHDCEjxIqt7[7tqIxjjDDHJpJJJppJJJzHDCEjxIqt7[7tqIxjECDHJJJpppJJJpJ>++++++++7",
"[7tqIx++CD++++bJzl++*+++CEjxIqt7[7tqIxjEDDJJJz++++JJzJzDCEjxIqt777tqIxjECDzJzJJJzzJJJJHDDjjxIott[7tqIxjECDzJJJzzzJJJJG++++++++o7",
"[7tqIxj+$zH++++++++r+++++EjxIqt7[7toIxjjDHHHHHH++++zHHHDCEjxIqt7[7tqIxjECzHzHHHHzHHHHzHDDjjxIqt7[7toIxjECzHHHzHzHHHH+++++++++9t7",
"[7tqIxj++HDD+++++++++++DHEjxIot7[7tqIxjEDDDDDDDD++++DDDDDEjxIqt777tqIxjEDDDDDDDDDDDDDDDDCEjxIqtt[7tqIxjEDDDDDDDDDDD++++++++++ot7",
"[7tqIxjC++CC8+++++++++++CEjxIqt7[7tqIxjCCCCDCCCCC++++DCCCEjxIqt7[7tqIxdCCDCCCCDCCCDCCDEDCEjxIqt7[7tqIxjCCCCCCCCCCC++++++++++Iqt7",
"77tqIxEEE++Gw++++++++++EEEjxIqq7[7tqIxEEEEEEEEEEEE++++EEEEjxIqt777tqIxEEEjEEEEjEEEEEEjEjEEjxIqt7[7tqIxEEEEEEEEEEw++++++++++xIot7",
"[7tqIjjdjE+++++++++++++jjjjxIqt7[7toIjjjjjdjjjjjdjj++++mdjjxIqt7[7tqIjjjjjjjjjjjjPjjjjjjjjjxIqtt[7tqIjjjjjjjjjj+++++++++++jxIqt7",
"[7tqxxxxxx8+++++++++++xxxxxxIqtt[7tqxxxxxxxxxxxxxxxx+++++xxxIqt7[7tqxxxxxxxxxxxxxxxxxxxxxxxxIot7[7tqxxxxxxxxx8+++++++++++xxxIot7",
"[7tIIIIIIII]+++++++++IIIIIIIIqt7[7tIIIIIIIIIIIIIIIIII++++++IIqt777tIIIIIIIIIIIIIIIIIIIIIIIIIIqt7[7tIIIIIIIIe++++++++++++IIIIIqt7",
"77qqqqqqqqqqq++++++qqqqqqqqqqqt7[7qqqqqqqqqqqqqqqqqqqq++++++qqt7[7qqqqqqqqqqqqqqqqqqqqqqqqqqqott[7qqqqqqqq+++++++++++++qqqqqqot7",
"[tttttttttttttttttttttttttttttq7[ttttttttttttttttttttttq++++++t7[tttttttttttttttttttttttttttttt7[ttttttP++++++++++++++ttttttttt7",
"777777777777777777777777777777777777777777777777777777777++++++m7777777777777777777777777777777t77777>+++++++++++++++77777777777"};
