/* XPM */
static char * i3Dreieck_xpm[] = {
"128 96 22 1",
" 	c None",
".	c #B4CEAE",
"+	c #8EB585",
"@	c #67995D",
"#	c #295620",
"$	c #447A39",
"%	c #90A48B",
"&	c #71906A",
"*	c #999999",
"=	c #CECECE",
"-	c #527A4A",
";	c #7A7A7A",
">	c #204419",
",	c #565656",
"'	c #36612D",
")	c #333333",
"!	c #000000",
"~	c #A4A4A4",
"{	c #616161",
"]	c #444444",
"^	c #282828",
"/	c #909090",
"                                                                                                                                ",
"                                                                                                                                ",
"                                                                                                                                ",
"                                                                                                                                ",
"                                                                                                                                ",
"    .+++++++++++++                  .+++++++++++++                                                                              ",
"    @.+++++++++++++++++++++++++@    @.+++++++++++++++++++++++++@                                                                ",
"    @@++++++++++++++++++++++@###    @@++++++++++++++++++++++@###                                                                ",
"    @@.+++++++++++++++++@$######    @@.+++++++++++++++++@$######                                                                ",
"    @@@.+++++++++++++@##########    @@@.+++++++++++++@##########                                                                ",
"    @@@@++++++++++@#############    @@@@++++++++++@#############    %&&&&&&&&&&&&&                  %&&&&&&&&&&&&&              ",
"    @@@@.+++++@$########*=============@@.+++++@$################    -%&&&&&&&&&&&&&&&&&&&&&&&&&-    -%&&&&&&&&&&&&&&&&&&&&&&&&&-",
"    @@@@@.+@###########;***************@@.+@####################    --&&&&&&&&&&&&&&&&&&&&&&->>>    --&&&&&&&&&&&&&&&&&&&&&&->>>",
"    @@@@@$#############,,,,,,,,,,,,,,,,@@$######################    --%&&&&&&&&&&&&&&&&&-'>>>>>>    --%&&&&&&&&&&&&&&&&&-'>>>>>>",
"     @@@@$##############))))))))))))))$@@$#####################     ---%&&&&&&&&&&&&&->>>>>>>>>>    ---%&&&&&&&&&&&&&->>>>>>>>>>",
"      @@@$###############!!!!!!!!!!!!!$@@$##################        ----&&&&&&&&&&->>>>>>>>>>>>>    ----&&&&&&&&&&->>>>>>>>>>>>>",
"      @@@$###############             $@@$###############           ----%&&&&&-'>>>>>>>>;~~~~~~~~~~~~~--%&&&&&-'>>>>>>>>>>>>>>>>",
"       @@$###########                  @@$###########               -----%&->>>>>>>>>>>{;;;;;;;;;;;;;;;--%&->>>>>>>>>>>>>>>>>>>>",
"        @$########!                     @$########!                 -----'>>>>>>>>>>>>>]]]]]]]]]]]]]]]]--'>>>>>>>>>>>>>>>>>>>>>>",
"        @$#####,,,!                     @$#####,,,!                  ----'>>>>>>>>>>>>>>^^^^^^^^^^^^^^'--'>>>>>>>>>>>>>>>>>>>>> ",
"         $#   ;,,,!                      $#   ;,,,!                   ---'>>>>>>>>>>>>>>>!!!!!!!!!!!!!'--'>>>>>>>>>>>>>>>>>> !  ",
"              ;;,,!                           ;;,,!                   ---'>>>>>>>>>>>>>>> ! ! !       '--'>>>>>>>>>>>>>>> ! ! ! ",
"              =;,,!                           =;,,!                    --'>>>>>>>>>>>!!!!!!!!! !       --'>>>>>>>>>>>!!!!!!!!! !",
"              =;,,!                           =;,,!                     -'>>>>>>>>!!!!!!!!!!!!!!        -'>>>>>>>>!!!!!!!!!!!!!!",
"              =*;,!                           =*;,!                     -'>>>>>]]]!!!!!!!!!!!!!!        -'>>>>>]]]!!!!!!!!!!!!!!",
"              =*;,!                           =*;,!                      '>   {]]]!!!!!!!!!!!!!!         '>   {]]]!!!!!!!!!!!!!!",
"              =*;,!                           =*;,!                          !{{]]!!!!!!!!!!!!!!             !{{]]!!!!!!!!!!!!!!",
"              =*;,!                           =*;,!                         ! ~{]]!!!!!!!!!!!!!!            ! ~{]]!!!!!!!!!!!!!!",
"              =*;,!                           =*;,!                          !~{]]!!!!!!!!!!!!!! ! ! ! ! ! ! !~{]]!!!!!!!!!!!!!!",
"              =*;,!                           =*;,!                         ! ~;{]!!!!!!!!!!!!!!!!!!!!!!!!!!!!~;{]!!!!!!!!!!!!!!",
"              =*;,!                           =*;,!                          !~;{]!!!!!!!!!!!!!!!!!!!!!!!!!!!!~;{]!!!!!!!!!!!!!!",
"              =*;,!                           =*;,!                           ~;{]!!!!!!!!!!!!!!! ! ! ! ! ! ! ~;{]!!!!!!!!!!!!!!",
"              =*;,!                           =*;,!                          !~;{]!!!!!!!!!!!!!!             !~;{]!!!!!!!!!!!!!!",
"              =*;,!                           =*;,!                           ~;{]!!!!!!!!!!!!!!              ~;{]!!!!!!!!!!!!!!",
"              =*;,!                           =*;,!                           ~;{]!!!!!!!!!!!!!!              ~;{]!!!!!!!!!!!!!!",
"              =*;,!                           =*;,!                           ~;{]!!!!!!!!!!!!!!              ~;{]!!!!!!!!!!!!!!",
"              =*;,!                           =*;,!                           ~;{]!!!!!!!!!!!!!!              ~;{]!!!!!!!!!!!!!!",
"    .+++++++++=*;,!                 .+++++++++=*;,!                           ~;{]!!!!!!!!!!!!!!              ~;{]!!!!!!!!!!!!!!",
"    @.++++++++=*;,++++++++@@@@@@    @.++++++++=*;,++++++++@@@@@@              ~;{]!!!!!!!!!!!!!!              ~;{]!!!!!!!!!!!!!!",
"    @@++++++++=*;,@@$$$$$$@@@###    @@++++++++=*;,@@$$$$$$@@@###              ~;{]! ! ! ! ! !!!               ~;{]! ! ! ! ! !!! ",
"    @@.++++++++@@@@@@@++@$######    @@.++++++++@@@@@@@++@$######              ~;{]!! ! ! ! !!! !              ~;{]!! ! ! ! !!! !",
"    @@@.+++++++++++++@##########    @@@.+++++++++++++@##########              ~;{]!         !!!               ~;{]!         !!! ",
"    @@@@++++++++++@#############    @@@@++++++++++@#############    %&&&&&&&&&~;{]!        !!!      %&&&&&&&&&~;{]!        !!!  ",
"    @@@@.+++++@$########*=============@@.+++++@$################    -%&&&&&&&&~;{]&&&&&&&&------    -%&&&&&&&&~;{]&&&&&&&&------",
"    @@@@@.+@###########;***************@@.+@####################    --&&&&&&&&~;{]--''''''--->>>    --&&&&&&&&~;{]--''''''--->>>",
"    @@@@@$#############,,,,,,,,,,,,,,,,@@$######################    --%&&&&&&&&-------&&-'>>>>>>    --%&&&&&&&&-------&&-'>>>>>>",
"     @@@@$##############))))))))))))))$@@$#####################     ---%&&&&&&&&&&&&&->>>>>>>>>>    ---%&&&&&&&&&&&&&->>>>>>>>>>",
"      @@@$###############!!!!!!!!!!!!!$@@$##################        ----&&&&&&&&&&->>>>>>>>>>>>>    ----&&&&&&&&&&->>>>>>>>>>>>>",
"      @@@$###############             $@@$###############           ----%&&&&&-'>>>>>>>>;~~~~~~~~~~~~~--%&&&&&-'>>>>>>>>>>>>>>>>",
"       @@$###########                  @@$###########               -----%&->>>>>>>>>>>{;;;;;;;;;;;;;;;--%&->>>>>>>>>>>>>>>>>>>>",
"        @$########                      @$########                  -----'>>>>>>>>>>>>>]]]]]]]]]]]]]]]]--'>>>>>>>>>>>>>>>>>>>>>>",
"        @$#####                         @$#####                      ----'>>>>>>>>>>>>>>^^^^^^^^^^^^^^'--'>>>>>>>>>>>>>>>>>>>>> ",
"         $#                              $#                           ---'>>>>>>>>>>>>>>>!!!!!!!!!!!!!'--'>>>>>>>>>>>>>>>>>> !  ",
"                                                                      ---'>>>>>>>>>>>>>>> ! ! !       '--'>>>>>>>>>>>>>>> ! ! ! ",
"                                                                       --'>>>>>>>>>>>!!!!!!!!! !       --'>>>>>>>>>>>!!!!!!!!! !",
"                                                                        -'>>>>>>>>!!!!!!!!!!!!!!        -'>>>>>>>>!!!!!!!!!!!!!!",
"                                                                        -'>>>>>!!!!!!!!!!!!!!!!!        -'>>>>>!!!!!!!!!!!!!!!!!",
"                                                                         '>   !!!!!!!!!!!!!!!!!!         '>   !!!!!!!!!!!!!!!!!!",
"                                                                             ! !!!!!!!!!!!!!!!!!             ! !!!!!!!!!!!!!!!!!",
"                                                                            ! !!!!!!!!!!!!!!!!!!            ! !!!!!!!!!!!!!!!!!!",
"                                                                             !!!!!!!!!!!!!!!!!!! ! ! ! ! ! ! !!!!!!!!!!!!!!!!!!!",
"                                                                            ! !!!!!!!!!!!!!!!!!!!!!!!!!!!!!!!!!!!!!!!!!!!!!!!!!!",
"                                                                             ! !!!!!!!!!!!!!!!!!!!!!!!!!!!!!!!!!!!!!!!!!!!!!!!!!",
"                                                                              !!!!!!!!!!!!!!!!!!! ! ! ! ! ! ! !!!!!!!!!!!!!!!!!!",
"                                                                                                                                ",
"                                                                                                    %&&&&&&&&&&&&&              ",
"             {                                                                                      -%&&&&&&&&&&&&&&&&&&&&&&&&&-",
"                                     /~/                                                            --&&&&&&&&&&&&&&&&&&&&&&->>>",
"                                  /~/;{{]                                                           --%&&&&&&&&&&&&&&&&&-'>>>>>>",
"                               /~/;{{]]]^                                                           ---%&&&&&&&&&&&&&->>>>>>>>>>",
"                                {{]]]^^^>                           .+++++++++++++                  ----&&&&&&&&&&->>>>>>>>>>>>>",
"                                ]]^^^!!!'                           @.+++++++++++++++++++++++++@    ----%&&&&&-'>>>>>>>>>>>>>>>>",
"                                ^^!!!   '                           @@++++++++++++++++++++++@###    -----%&->>>>>>>>>>>>>>>>>>>>",
"                                !!                                  @@.+++++++++++++++++@$######    -----'>>>>>>>>>>>>>>>>>>>>>>",
"                                                                    @@@.+++++++++++++@##########     ----'>>>>>>>>>>>>>>>>>>>>> ",
"                                                                    @@@@++++++++++@#############      ---'>>>>>>>>>>>>>>>>>>    ",
"                                                                    @@@@.+++++@$################      ---'>>>>>>>>>>>>>>>       ",
"                                                                    @@@@@.+@####################       --'>>>>>>>>>>>! ! !      ",
"                                                                    @@@@@$######################        -'>>>>>>>>! ! ! ! ! !   ",
"                                                                     @@@@$#####################         -'>>>>>!!!!!!!!!!!!! !  ",
"                                                                      @@@$##################             '> ! !!!!!!!!!!!!!!! ! ",
"                                                                      @@@$###############                  ! !!!!!!!!!!!!!!!!! !",
"                                                                       @@$###########                     ! !!!!!!!!!!!!!!!!!!! ",
"                                                                        @$########                         ! !!!!!!!!!!!!!!!!! !",
"                                                                        @$#####                           ! !!!!!!!!!!!!!!!!!!! ",
"                                                                         $#                                !!!!!!!!!!!!!!!!!!! !",
"                                                                                                          ! !!!!!!!!!!!!!!!!! ! ",
"                                                                                                           ! !!!!!!!!!!!!! ! ! !",
"                                                                                                            ! !!!!!!!!!!! ! ! ! ",
"                                                                                                             ! ! !!!!! ! ! !    ",
"                                                                                                              ! ! ! ! ! !       ",
"                                                                                                                 ! ! !          ",
"                                                                                                                    !           ",
"                                                                                                                                ",
"                                                                                                                                ",
"                                                                                                                                "};
