/* XPM */
static char * i3Kreis_xpm[] = {
"128 96 28 1",
" 	c None",
".	c #9C9EB5",
"+	c #BDBECE",
"@	c #8689A4",
"#	c #4B4D6B",
"$	c #575A7A",
"%	c #393B56",
"&	c #787B99",
"*	c #6A6D8C",
"=	c #7C7E90",
"-	c #999999",
";	c #7A7A7A",
">	c #565656",
",	c #9798A4",
"'	c #6B6D83",
")	c #3C3D55",
"!	c #333333",
"~	c #454861",
"{	c #2D2F44",
"]	c #60627A",
"^	c #545770",
"/	c #616161",
"(	c #444444",
"_	c #282828",
":	c #000000",
"<	c #CECECE",
"[	c #A4A4A4",
"}	c #909090",
"                                                                                                                                ",
"                                                                                                                                ",
"                                                                                                                                ",
"                                                                                                                                ",
"                                                                                                                                ",
"         ..............                  ..............                                                                         ",
"   ..........................      ..........................                                                                   ",
"................................................................                                                                ",
"+.............................@#+.............................@#                                                                ",
".+++.......................@$#%%.+++.......................@$#%%                                                                ",
".++.++.@@@............&*$$$###%%.++.++.@@@............&*$$$###%%         ==============                  ==============         ",
".++..@@&&&@@@@@@@@&&&***$$$###%-.++..@@&&&@@@@@@@@&&&***$$$###%%   ==========================      ==========================   ",
".++..@@&&&&&&&&&&&&&&***$$$###;-.++..@@&&&&&&&&&&&&&&***$$$###%%================================================================",
".++..@@&&&&&&&&&&&&&&***$$$###>>.++..@@&&&&&&&&&&&&&&***$$$###%%,============================='),=============================')",
".++..@@&&&&&&&&&&&&&&***$$$###%!.++..@@&&&&&&&&&&&&&&***$$$###%%=,,,======================='~){{=,,,======================='~){{",
".++..@@&&&&&&&&&&&&&&***$$$###%%.++..@@&&&&&&&&&&&&&&***$$$###%%=,,=,,='''============]^~~~))){{=,,=,,='''============]^~~~))){{",
".++..@@&&&&&&&&&&&&&&***$$$###%%.++..@@&&&&&&&&&&&&&&***$$$###%%=,,=='']]]'''''''']]]^^^~~~))){;=,,=='']]]'''''''']]]^^^~~~))){{",
" ++..@@&&&&&&&&&&&&&&***$$$###%  ++..@@&&&&&&&&&&&&&&***$$$###% =,,=='']]]]]]]]]]]]]]^^^~~~)))/;=,,=='']]]]]]]]]]]]]]^^^~~~))){{",
"    .@@&&&&&&&&&&&&&&***$$$$        .@@&&&&&&&&&&&&&&***$$$$    =,,=='']]]]]]]]]]]]]]^^^~~~)))((=,,=='']]]]]]]]]]]]]]^^^~~~))){{",
"          &&&&&&&&&&&*                    &&&&&&&&&&&*          =,,=='']]]]]]]]]]]]]]^^^~~~))){_=,,=='']]]]]]]]]]]]]]^^^~~~))){{",
"              ;>>>:                           ;>>>:             =,,=='']]]]]]]]]]]]]]^^^~~~))){{=,,=='']]]]]]]]]]]]]]^^^~~~))){{",
"              ;>>>:                           ;>>>:             =,,=='']]]]]]]]]]]]]]^^^~~~))){{=,,=='']]]]]]]]]]]]]]^^^~~~))){{",
"              ;>>>:                           ;>>>:              ,,=='']]]]]]]]]]]]]]^^^~~~))){: ,,=='']]]]]]]]]]]]]]^^^~~~))){:",
"              ;;>>:                           ;;>>:                 ='']]]]]]]]]]]]]]^^^~~~~::::    ='']]]]]]]]]]]]]]^^^~~~~::::",
"              <;>>:                           <;>>:                       ]]]]]]]]]]]^::::::::::          ]]]]]]]]]]]^::::::::::",
"              <-;>:                           <-;>:                           /(((::::::::::::::              /(((::::::::::::::",
"              <-;>:                           <-;>:                          :/(((::::::::::::::             :/(((::::::::::::::",
"              <-;>:                           <-;>:                         : /(((::::::::::::::            : /(((::::::::::::::",
"              <-;>:                           <-;>:                          ://((:::::::::::::: : : : : : : ://((::::::::::::::",
"              <-;>:                           <-;>:                         : [/((::::::::::::::::::::::::::::[/((::::::::::::::",
"              <-;>:                           <-;>:                          :[;/(::::::::::::::::::::::::::::[;/(::::::::::::::",
"              <-;>:                           <-;>:                           [;/(::::::::::::::: : : : : : : [;/(::::::::::::::",
"              <-;>:                           <-;>:                          :[;/(::::::::::::::             :[;/(::::::::::::::",
"              <-;>:                           <-;>:                           [;/(::::::::::::::              [;/(::::::::::::::",
"              <-;>:                           <-;>:                           [;/(::::::::::::::              [;/(::::::::::::::",
"              <-;>:                           <-;>:                           [;/(::::::::::::::              [;/(::::::::::::::",
"              <-;>:                           <-;>:                           [;/(::::::::::::::              [;/(::::::::::::::",
"         .....<-;>.....                  .....<-;>.....                       [;/(::::::::::::::              [;/(::::::::::::::",
"   ...........<-;>........&&&      ...........<-;>........&&&                 [;/(::::::::::::::              [;/(::::::::::::::",
"..............<-;>&&$$$$$$&&..................<-;>&&$$$$$$&&....              [;/(: : : : : :::               [;/(: : : : : ::: ",
"+..............&&&&&&&........@#+..............&&&&&&&........@#              [;/(:: : : : ::: :              [;/(:: : : : ::: :",
".+++.......................@$#%%.+++.......................@$#%%              [;/(:         :::               [;/(:         ::: ",
".++.++.@@@............&*$$$###%%.++.++.@@@............&*$$$###%%         =====[;/(=====    :::           =====[;/(=====    :::  ",
".++..@@&&&@@@@@@@@&&&***$$$###%-.++..@@&&&@@@@@@@@&&&***$$$###%%   ===========[;/(========]]]::    ===========[;/(========]]]:: ",
".++..@@&&&&&&&&&&&&&&***$$$###;-.++..@@&&&&&&&&&&&&&&***$$$###%%==============[;/(]]~~~~~~]]==================[;/(]]~~~~~~]]====",
".++..@@&&&&&&&&&&&&&&***$$$###>>.++..@@&&&&&&&&&&&&&&***$$$###%%,==============]]]]]]]========'),==============]]]]]]]========')",
".++..@@&&&&&&&&&&&&&&***$$$###%!.++..@@&&&&&&&&&&&&&&***$$$###%%=,,,======================='~){{=,,,======================='~){{",
".++..@@&&&&&&&&&&&&&&***$$$###%%.++..@@&&&&&&&&&&&&&&***$$$###%%=,,=,,='''============]^~~~))){{=,,=,,='''============]^~~~))){{",
".++..@@&&&&&&&&&&&&&&***$$$###%%.++..@@&&&&&&&&&&&&&&***$$$###%%=,,=='']]]'''''''']]]^^^~~~))){;=,,=='']]]'''''''']]]^^^~~~))){{",
" ++..@@&&&&&&&&&&&&&&***$$$###%  ++..@@&&&&&&&&&&&&&&***$$$###% =,,=='']]]]]]]]]]]]]]^^^~~~)))/;=,,=='']]]]]]]]]]]]]]^^^~~~))){{",
"    .@@&&&&&&&&&&&&&&***$$$$        .@@&&&&&&&&&&&&&&***$$$$    =,,=='']]]]]]]]]]]]]]^^^~~~)))((=,,=='']]]]]]]]]]]]]]^^^~~~))){{",
"          &&&&&&&&&&&*                    &&&&&&&&&&&*          =,,=='']]]]]]]]]]]]]]^^^~~~))){_=,,=='']]]]]]]]]]]]]]^^^~~~))){{",
"                                                                =,,=='']]]]]]]]]]]]]]^^^~~~))){{=,,=='']]]]]]]]]]]]]]^^^~~~))){{",
"                                                                =,,=='']]]]]]]]]]]]]]^^^~~~))){{=,,=='']]]]]]]]]]]]]]^^^~~~))){{",
"                                                                 ,,=='']]]]]]]]]]]]]]^^^~~~))){: ,,=='']]]]]]]]]]]]]]^^^~~~))){:",
"                                                                    ='']]]]]]]]]]]]]]^^^~~~~::::    ='']]]]]]]]]]]]]]^^^~~~~::::",
"                                                                          ]]]]]]]]]]]^::::::::::          ]]]]]]]]]]]^::::::::::",
"                                                                              ::::::::::::::::::              ::::::::::::::::::",
"                                                                             : :::::::::::::::::             : :::::::::::::::::",
"                                                                            : ::::::::::::::::::            : ::::::::::::::::::",
"                                                                             ::::::::::::::::::: : : : : : : :::::::::::::::::::",
"                                                                            : ::::::::::::::::::::::::::::::::::::::::::::::::::",
"                                                                             : :::::::::::::::::::::::::::::::::::::::::::::::::",
"                                                                              ::::::::::::::::::: : : : : : : ::::::::::::::::::",
"                                                                                                                                ",
"                                                                                                         ==============         ",
"                                        }[                                                         ==========================   ",
"                                     }[};//                                                     ================================",
"                                  }[};//(((                                                     ,=============================')",
"                               }[};//(((__~^                                                    =,,,======================='~){{",
"                             [};//(((___^~~~                             ..............         =,,=,,='''============]^~~~))){{",
"                                ((___:::  ~~                       ..........................   =,,=='']]]'''''''']]]^^^~~~))){{",
"                                __:::     ~~^                   ................................=,,=='']]]]]]]]]]]]]]^^^~~~))){{",
"                                ::                              +.............................@#=,,=='']]]]]]]]]]]]]]^^^~~~))){{",
"                                                                .+++.......................@$#%%=,,=='']]]]]]]]]]]]]]^^^~~~))){{",
"                                                                .++.++.@@@............&*$$$###%%=,,=='']]]]]]]]]]]]]]^^^~~~))){{",
"                                                                .++..@@&&&@@@@@@@@&&&***$$$###%%=,,=='']]]]]]]]]]]]]]^^^~~~))){{",
"                                                                .++..@@&&&&&&&&&&&&&&***$$$###%% ,,=='']]]]]]]]]]]]]]^^^~~~))){ ",
"                                                                .++..@@&&&&&&&&&&&&&&***$$$###%%    ='']]]]]]]]]]]]]]^^^~~~~:   ",
"                                                                .++..@@&&&&&&&&&&&&&&***$$$###%%          ]]]]]]]]]]]^:::::: :  ",
"                                                                .++..@@&&&&&&&&&&&&&&***$$$###%%            : ::::::::::::::: : ",
"                                                                .++..@@&&&&&&&&&&&&&&***$$$###%%           : ::::::::::::::::: :",
"                                                                 ++..@@&&&&&&&&&&&&&&***$$$###%           : ::::::::::::::::::: ",
"                                                                    .@@&&&&&&&&&&&&&&***$$$$               : ::::::::::::::::: :",
"                                                                          &&&&&&&&&&&*                    : ::::::::::::::::::: ",
"                                                                                                           ::::::::::::::::::: :",
"                                                                                                          : ::::::::::::::::: : ",
"                                                                                                           : ::::::::::::::::: :",
"                                                                                                            : ::::::::::::: : : ",
"                                                                                                             : : : : : : : : :  ",
"                                                                                                              : : : : : : :     ",
"                                                                                                                                ",
"                                                                                                                                ",
"                                                                                                                                ",
"                                                                                                                                ",
"                                                                                                                                "};
