/* XPM */
static char * i6Grau_xpm[] = {
"32 32 83 1",
" 	c None",
".	c #020202",
"+	c #D5BAE5",
"@	c #C7BAE3",
"#	c #C2B7DF",
"$	c #BAAFD5",
"%	c #B8AACF",
"&	c #ADA3C7",
"*	c #A89ABD",
"=	c #A490B1",
"-	c #CEBAE4",
";	c #D0BFE9",
">	c #DEC3F0",
",	c #C8B6DF",
"'	c #CCB1DA",
")	c #C1AAD1",
"!	c #BFA6CC",
"~	c #AE99BC",
"{	c #9C8EAE",
"]	c #877E9A",
"^	c #CABEE8",
"/	c #D1B6E0",
"(	c #AA9EC1",
"_	c #AA92B5",
":	c #8D83A0",
"<	c #807691",
"[	c #6F6177",
"}	c #B49CC1",
"|	c #887A96",
"1	c #7A6C85",
"2	c #B4A4C9",
"3	c #DBBEEA",
"4	c #BEB0D7",
"5	c #A896B8",
"6	c #79738C",
"7	c #746A82",
"8	c #655F73",
"9	c #544E5F",
"0	c #A197B8",
"a	c #C4AFD7",
"b	c #9C92B3",
"c	c #9A86A5",
"d	c #6D677C",
"e	c #585263",
"f	c #433A48",
"g	c #BAA4C9",
"h	c #968EAC",
"i	c #927E9C",
"j	c #877591",
"k	c #80728C",
"l	c #74667E",
"m	c #615A6E",
"n	c #5F5265",
"o	c #4E4252",
"p	c #A28AAB",
"q	c #7F6E88",
"r	c #5F5669",
"s	c #423E4B",
"t	c #322E36",
"u	c #9482A0",
"v	c #756E86",
"w	c #5A5668",
"x	c #4F4656",
"y	c #3D3A46",
"z	c #2E2A36",
"A	c #968AA9",
"B	c #9E89A9",
"C	c #38323D",
"D	c #9486A4",
"E	c #8E7B98",
"F	c #534A5B",
"G	c #494250",
"H	c #3A3642",
"I	c #2E2E36",
"J	c #6A6176",
"K	c #817A94",
"L	c #4E4A5A",
"M	c #4A4655",
"N	c #473E4C",
"O	c #362E3A",
"P	c #67596E",
"Q	c #3E3643",
"R	c #5A4E61",
"                                ",
"           ..........           ",
"         ..+@@@#$%&*=..         ",
"       ..-;>>;@@,')!~{]..       ",
"      .%@;;;^@;+/')(~_:<[.      ",
"     .%#@^^@@-,$%%!}~_:|1[.     ",
"    .2'##@#3+,4%&(*55=]6789.    ",
"   .0a44,/++/a)2(*b{=c|6d8ef.   ",
"   .!2%'/'''a)g(0bh=cijklmno.   ",
"  .h*g))2&&&gg(~~_pcijql8r9st.  ",
"  ._~((((**0}~~_=cu|jvd8w9xyz.  ",
" .<A=bb0~0bb__pBui|j1l8w9xsCzz. ",
" .jc:AA{=AADBcuiEkv7l8w9FGHIzt. ",
" .k|]:::Du:]iiEjq7J8me9xGfCzIt. ",
" .166||KK||<6kq1lJmr9LMNyCIztO. ",
" .Jd7vvvvkkq7dJ[[Pe9xGfQCtIztO. ",
" .w8JJdddlJJ[mrrnRLGsyCttttItO. ",
" .9rmmmm8PrrrrRLMGsyHttztttIOt. ",
" .oF9Reene9FFFxGsyHCIttIIttztO. ",
" .QNGxxxFMGGNNfQCtttttIItttIzz. ",
" .OtQfNNNfHHHCCtIttttttIOOOtIO. ",
"  .tOOCCCCtItOOOtttOOOttOOOOz.  ",
"  .OOOOOtttOOOOOOttOOOOtOttzt.  ",
"   .OttttIzItOttttOOOOOttIOt.   ",
"   .OtttOtIzIzIIIIOOttOttOtt.   ",
"    .OztIOIzIttttztOtOttOtt.    ",
"     .OIIttzIIttzItOOtttzz.     ",
"      .OzOOtIzzzIttOttzOt.      ",
"       ..tOttOOtOOtIzzt..       ",
"         ..tOttzzztzt..         ",
"           ..........           ",
"                                "};
