/* XPM */
static char * i6Hntergrund_xpm[] = {
"320 16 8 1",
" 	c None",
".	c #000000",
"+	c #34A836",
"@	c #84CC84",
"#	c #AEE5AE",
"$	c #249124",
"%	c #176D17",
"&	c #08510B",
"                                            ........                                                        ........                                                        ........                                                        ........                                                        ........            ",
"                                         ...++++++++...                                                  ...++++++++...                                                  ...++++++++...                                                  ...++++++++...                                                  ...++++++++...         ",
"                                       ..++@@@@@@++++++..                                              ..++@@@@@@++++++..                                              ..++@@@@@@++++++..                                              ..++@@@@@@++++++..                                              ..++@@@@@@++++++..       ",
"                                     ..+@@@#@@+++++++++++..                                          ..+@@@#@@+++++++++++..                                          ..+@@@#@@+++++++++++..                                          ..+@@@#@@+++++++++++..                                          ..+@@@#@@+++++++++++..     ",
"                                   ..+@@##@@+++++++++++++$$..                                      ..+@@##@@+++++++++++++$$..                                      ..+@@##@@+++++++++++++$$..                                      ..+@@##@@+++++++++++++$$..                                      ..+@@##@@+++++++++++++$$..   ",
"                                  .++@##@@++++++++++++$$$$$$$.                                    .++@##@@++++++++++++$$$$$$$.                                    .++@##@@++++++++++++$$$$$$$.                                    .++@##@@++++++++++++$$$$$$$.                                    .++@##@@++++++++++++$$$$$$$.  ",
"                                 .++@#@@+++++++++++$$$$$$$$$$%.                                  .++@#@@+++++++++++$$$$$$$$$$%.                                  .++@#@@+++++++++++$$$$$$$$$$%.                                  .++@#@@+++++++++++$$$$$$$$$$%.                                  .++@#@@+++++++++++$$$$$$$$$$%. ",
"                                .++@@@+++++++++$$$$$$$$$$$%%%%%.                                .++@@@+++++++++$$$$$$$$$$$%%%%%.                                .++@@@+++++++++$$$$$$$$$$$%%%%%.                                .++@@@+++++++++$$$$$$$$$$$%%%%%.                                .++@@@+++++++++$$$$$$$$$$$%%%%%.",
".                              .++@@++++++++$$$$$$$$$%%%%%%%%%%&.                              .++@@++++++++$$$$$$$$$%%%%%%%%%%&.                              .++@@++++++++$$$$$$$$$%%%%%%%%%%&.                              .++@@++++++++$$$$$$$$$%%%%%%%%%%&.                              .++@@++++++++$$$$$$$$$%%%%%%%%%%&",
"&.                            .+++++++++++$$$$$$$$%%%%%%%%%%&&&&&.                            .+++++++++++$$$$$$$$%%%%%%%%%%&&&&&.                            .+++++++++++$$$$$$$$%%%%%%%%%%&&&&&.                            .+++++++++++$$$$$$$$%%%%%%%%%%&&&&&.                            .+++++++++++$$$$$$$$%%%%%%%%%%&&&&",
"&&.                          .+++++++++$$$$$$$$%%%%%%%%%&&&&&&&&&&.                          .+++++++++$$$$$$$$%%%%%%%%%&&&&&&&&&&.                          .+++++++++$$$$$$$$%%%%%%%%%&&&&&&&&&&.                          .+++++++++$$$$$$$$%%%%%%%%%&&&&&&&&&&.                          .+++++++++$$$$$$$$%%%%%%%%%&&&&&&&&",
"&&&..                      ..++++++++$$$$$%%%%%%%%%%%&&&&&&&&&&&&&&..                      ..++++++++$$$$$%%%%%%%%%%%&&&&&&&&&&&&&&..                      ..++++++++$$$$$%%%%%%%%%%%&&&&&&&&&&&&&&..                      ..++++++++$$$$$%%%%%%%%%%%&&&&&&&&&&&&&&..                      ..++++++++$$$$$%%%%%%%%%%%&&&&&&&&&&&",
"&&&&&..                  ..++++++$$$$$$$%%%%%%%%&&&&&&&&&&&&&&&&&&&&&..                  ..++++++$$$$$$$%%%%%%%%&&&&&&&&&&&&&&&&&&&&&..                  ..++++++$$$$$$$%%%%%%%%&&&&&&&&&&&&&&&&&&&&&..                  ..++++++$$$$$$$%%%%%%%%&&&&&&&&&&&&&&&&&&&&&..                  ..++++++$$$$$$$%%%%%%%%&&&&&&&&&&&&&&&&",
"&&&&&&&..              ..+++++$$$$$$%%%%%%%%&&&&&&&&&&&&&&&&&&&&&&&&&&&..              ..+++++$$$$$$%%%%%%%%&&&&&&&&&&&&&&&&&&&&&&&&&&&..              ..+++++$$$$$$%%%%%%%%&&&&&&&&&&&&&&&&&&&&&&&&&&&..              ..+++++$$$$$$%%%%%%%%&&&&&&&&&&&&&&&&&&&&&&&&&&&..              ..+++++$$$$$$%%%%%%%%&&&&&&&&&&&&&&&&&&&&",
"&&&&&&&&&...        ...++++$$$$$$%%%%%%&&&&&&&&&&&&&&&&&&&&&&&&&&&&&&&&&&...        ...++++$$$$$$%%%%%%&&&&&&&&&&&&&&&&&&&&&&&&&&&&&&&&&&...        ...++++$$$$$$%%%%%%&&&&&&&&&&&&&&&&&&&&&&&&&&&&&&&&&&...        ...++++$$$$$$%%%%%%&&&&&&&&&&&&&&&&&&&&&&&&&&&&&&&&&&...        ...++++$$$$$$%%%%%%&&&&&&&&&&&&&&&&&&&&&&&&&",
"&&&&&&&&&&&&........+++++$$%%%%%%%%&&&&&&&&&&&&&&&&&&&&&&&&&&&&&&&&&&&&&&&&&........+++++$$%%%%%%%%&&&&&&&&&&&&&&&&&&&&&&&&&&&&&&&&&&&&&&&&&........+++++$$%%%%%%%%&&&&&&&&&&&&&&&&&&&&&&&&&&&&&&&&&&&&&&&&&........+++++$$%%%%%%%%&&&&&&&&&&&&&&&&&&&&&&&&&&&&&&&&&&&&&&&&&........+++++$$%%%%%%%%&&&&&&&&&&&&&&&&&&&&&&&&&&&&&"};
