/* XPM */
static char * i6Rot_xpm[] = {
"128 64 8 1",
" 	c None",
".	c #000000",
"+	c #D42B27",
"@	c #E4635D",
"#	c #B10400",
"$	c #520100",
"%	c #EFA4A4",
"&	c #F6DEDD",
"                                      .+@@@@@@++++++####$.                                            .+@@@@@@++++++####$.      ",
"                                    ..@.++++++++++#####$$.                                            .+++++++++++#####$$.      ",
"                                  ..@%%@.++++########$$$$.                                            .##++++########$$$$.      ",
"                                ..@%&%@@.#########$$$$$$.                                              .##########$$$$$$.       ",
"                              ..@%&%@@@+#.$###$$$$$$$$$$.                                              .$$$###$$$$$$$$$$.       ",
"                            ..@%&%@@@++#$.$$$$$$$$$$$$$.                                                .$$$$$$$$$$$$$$.        ",
"             ......       ..@%&%@@@++#$$$.$$$$$$$$$$$$$.                     ......                     .$$$$$$$$$$$$$$.        ",
"           ..@@@@@@..   ..@%&%@@@++#$$$$...$$$$$$$$$$..                    ..@@@@@@..                    ..$$$$$$$$$$..         ",
"         ..@@%%@@@@@@...@%&%@@@++#$$$$..   ..$$$$$$..                    ..@@%%@@@@@@..                    ..$$$$$$..           ",
"        .@@@%&&%@@@@@@.%&%@@@++#$$$$..       ......                     .@@@%&&%@@@@@@@.                     ......             ",
"        .@@&&%%@@@@@@@.%@@@++#$$$$..                                    .@@&&%%@@@@@@@@.                                        ",
"       .@@%&%@@@@@@@@@.@@++#$$$$..                                     .@@%&%@@@@@@@@@@@.                                       ",
"       .@@%@@@@@@@@@@@@.+#$$$$..                                       .@@%@@@@@@@@@@@@+.                                       ",
"      .@@@@@@@@@@@@@@@+.$$$$..                                        .@@@@@@@@@@@@@@@++#.                                      ",
"      .@@@@@@@@@@@@@+++#.$..                                          .@@@@@@@@@@@@@+++##.                                      ",
"      .@@@@@@@@@@@++++##$.                                            .@@@@@@@@@@@++++###.                                      ",
"      .+@@@@@@++++++####$.                                            .+@@@@@@++++++####$.                                      ",
"      .+++++++++++#####$.#..                                        ..@.++++++++++#####$.#..                                    ",
"      .##++++########$$.$#@@..                                    ..@%%@.++++########$$.$#@@..                                  ",
"       .##########$$$$$.$#@@@@..                                ..@%&%@@.#########$$$$$.$#@@@@..                                ",
"       .$$$###$$$$$$$$.$$+@@@@@@..                            ..@%&%@@@+#.$###$$$$$$$$.$$+@@@@@@..                              ",
"        .$$$$$$$$$$$$$.$$+++@@@@@@..                        ..@%&%@@@++#$.$$$$$$$$$$$$.$$+++@@@@@@..                            ",
"        .$$$$$$$$$$$$$.$$##+++@@@@@@..       ......       ..@%&%@@@++#$$$.$$$$$$$$$$$$.$$##+++@@@@@@..       ......             ",
"         ..$$$.....$$...$$###+++@@@@@@..   ..@@@@@@..   ..@%&%@@@++#$$$$...$$$.....$$...$$###+++@@@@@@..   ..@@@@@@..           ",
"           ...$$$$...   ..$$###+++@@@@@@...@@%%@@@@@@...@%&%@@@++#$$$$..   ...$$$$...   ..$$###+++@@@@@@...@@%%@@@@@@..         ",
"            .$$$$$$.      ..$$###+++@@@@@.@@%&&%@@@@@@.%&%@@@++#$$$$..      .$$$$$$.      ..$$###+++@@@@@.@@%&&%@@@@@@@.        ",
"            .+$$$$$.        ..$$###+++@@@.@&&%%@@@@@@@.%@@@++#$$$$..        .+$$$$$.        ..$$###+++@@@.@&&%%@@@@@@@@.        ",
"            .+@$$$$.          ..$$###+++@.%&%@@@@@@@@@.@@++#$$$$..          .+@$$$$.          ..$$###+++@.%&%@@@@@@@@@@@.       ",
"            .+@++$$.            ..$$###+.@%@@@@@@@@@@@@.+#$$$$..            .+@++$$.            ..$$###+.@%@@@@@@@@@@@@+.       ",
"            .+@++#$.              ..$$##.@@@@@@@@@@@@@+.$$$$..              .+@++#$.              ..$$##.@@@@@@@@@@@@@++#.      ",
"            .+@++#$.                ..$.#@@@@@@@@@@@+++#.$..                .+@++#$.                ..$.#@@@@@@@@@@@+++##.      ",
"            .+@++#$.                  .#@@@@@@@@@@++++##$.                  .+@++#$.                  .#@@@@@@@@@@++++###.      ",
"            .+@++#$.                  .+@@@@@@++++++####$.                  .+@++#$.                  .+@@@@@@++++++####$.      ",
"            .+@++#$.                ..@.++++++++++#####$$.                  .+@++#$.                  .+++++++++++#####$$.      ",
"            .+@++#$.              ..@%%@.++++########$$$$.                  .+@++#$.                  .##++++########$$$$.      ",
"            .+@++#$.            ..@%&%@@.#########$$$$$$.                   .+@++#$.                   .##########$$$$$$.       ",
"            .+@++#$.          ..@%&%@@@+#.$###$$$$$$$$$$.                   .+@++#$.                   .$$$###$$$$$$$$$$.       ",
"            .+@++#$.        ..@%&%@@@++#$.$$$$$$$$$$$$$.                    .+@++#$.                    .$$$$$$$$$$$$$$.        ",
"            .+@++#$.      ..@%&%@@@++#$$$.$$$$$$$$$$$$$.                    .+@++#$.                    .$$$$$$$$$$$$$$.        ",
"           ...@++#...   ..@%&%@@@++#$$$$...$$$.....$$..                    ...@++#...                    ..$$$.....$$..         ",
"         ..@@%....++#...@%&%@@@++#$$$$..   ...$$$$...                    ..@@%....++#..                    ...$$$$...           ",
"        .@@@%&&%@@@@@@.%&%@@@++#$$$$..      .$$$$$$.                    .@@@%&&%@@@@@@@.                    .$$$$$$.            ",
"        .@@&&%%@@@@@@@.%@@@++#$$$$..        .+$$$$$.                    .@@&&%%@@@@@@@@.                    .+$$$$$.            ",
"       .@@%&%@@@@@@@@@.@@++#$$$$..          .+@$$$$.                   .@@%&%@@@@@@@@@@@.                   .+@$$$$.            ",
"       .@@%@@@@@@@@@@@@.+#$$$$..            .+@++$$.                   .@@%@@@@@@@@@@@@+.                   .+@++$$.            ",
"      .@@@@@@@@@@@@@@@+.$$$$..              .+@++#$.                  .@@@@@@@@@@@@@@@++#.                  .+@++#$.            ",
"      .@@@@@@@@@@@@@+++#.$..                .+@++#$.                  .@@@@@@@@@@@@@+++##.                  .+@++#$.            ",
"      .@@@@@@@@@@@++++##$.                  .+@++#$.                  .@@@@@@@@@@@++++###.                  .+@++#$.            ",
"      .+@@@@@@++++++####$.                  .+@++#$.                  .+@@@@@@++++++####$.                  .+@++#$.            ",
"      .+++++++++++#####$.#..                .+@++#$.                ..@.++++++++++#####$.#..                .+@++#$.            ",
"      .##++++########$$.$#@@..              .+@++#$.              ..@%%@.++++########$$.$#@@..              .+@++#$.            ",
"       .##########$$$$$.$#@@@@..            .+@++#$.            ..@%&%@@.#########$$$$$.$#@@@@..            .+@++#$.            ",
"       .$$$###$$$$$$$$.$$+@@@@@@..          .+@++#$.          ..@%&%@@@+#.$###$$$$$$$$.$$+@@@@@@..          .+@++#$.            ",
"        .$$$$$$$$$$$$$.$$+++@@@@@@..        .+@++#$.        ..@%&%@@@++#$.$$$$$$$$$$$$.$$+++@@@@@@..        .+@++#$.            ",
"        .$$$$$$$$$$$$$.$$##+++@@@@@@..      .+@++#$.      ..@%&%@@@++#$$$.$$$$$$$$$$$$.$$##+++@@@@@@..      .+@++#$.            ",
"         ..$$$$$$$$$$...$$###+++@@@@@@..   ...@++#...   ..@%&%@@@++#$$$$...$$$$$$$$$$...$$###+++@@@@@@..   ...@++#...           ",
"           ..$$$$$$..   ..$$###+++@@@@@@...@@%....++#...@%&%@@@++#$$$$..   ..$$$$$$..   ..$$###+++@@@@@@...@@%....++#..         ",
"             ......       ..$$###+++@@@@@.@@%&&%@@@@@@.%&%@@@++#$$$$..       ......       ..$$###+++@@@@@.@@%&&%@@@@@@@.        ",
"                            ..$$###+++@@@.@&&%%@@@@@@@.%@@@++#$$$$..                        ..$$###+++@@@.@&&%%@@@@@@@@.        ",
"                              ..$$###+++@.%&%@@@@@@@@@.@@++#$$$$..                            ..$$###+++@.%&%@@@@@@@@@@@.       ",
"                                ..$$###+.@%@@@@@@@@@@@@.+#$$$$..                                ..$$###+.@%@@@@@@@@@@@@+.       ",
"                                  ..$$##.@@@@@@@@@@@@@+.$$$$..                                    ..$$##.@@@@@@@@@@@@@++#.      ",
"                                    ..$.#@@@@@@@@@@@+++#.$..                                        ..$.#@@@@@@@@@@@+++##.      ",
"                                      .#@@@@@@@@@@++++##$.                                            .#@@@@@@@@@@++++###.      "};
