/* XPM */
static char * iaBefehl_xpm[] = {
"96 96 3 1",
" 	c None",
".	c #EFCE8B",
"+	c #423927",
"                                                                                                ",
"                                                                                                ",
"           ..........    ....                ......    ..    ..  ......     ..    ..  ..........",
"           ++++++++++    ++++                ++++++    ++    ++  ++++++     ++    ++  ++++++++++",
"               ..      ..    ..                ..      ....  ..  ..    ..   ..    ..      ..    ",
"               ++      ++    ++                ++      ++++  ++  ++    ++   ++    ++      ++    ",
"               ..      ..    ..                ..      ....  ..  ..    ..   ..    ..      ..    ",
"               ++      ++    ++                ++      ++++  ++  ++    ++   ++    ++      ++    ",
"               ..      ..    ..                ..      ..  ....  ......     ..    ..      ..    ",
"               ++      ++    ++                ++      ++  ++++  ++++++     ++    ++      ++    ",
"               ..      ..    ..                ..      ..  ....  ..         ..    ..      ..    ",
"               ++      ++    ++                ++      ++  ++++  ++         ++    ++      ++    ",
"               ..      ..    ..                ..      ..    ..  ..         ..    ..      ..    ",
"               ++      ++    ++                ++      ++    ++  ++         ++    ++      ++    ",
"               ..        ....                ......    ..    ..  ..           ....        ..    ",
"               ++        ++++                ++++++    ++    ++  ++           ++++        ++    ",
"                                                                                                ",
"                                                                                                ",
"                                                                                                ",
"                                                                                                ",
"                                                                                                ",
"                                                                                                ",
"                                                                                                ",
"                                                                                                ",
"                                                                                                ",
"                                                                                                ",
"                                                                                                ",
"                                                                                                ",
"                                                                                                ",
"                                                                                                ",
"                                                                                                ",
"                                                                                                ",
"                                                                                                ",
"                                                                                                ",
"            ..    ..   ........  ..    ..  ..........            ........   ..    ..   ......   ",
"            ++    ++   ++++++++  ++    ++  ++++++++++            ++++++++   ++    ++   ++++++   ",
"            ....  ..   ..        ..    ..      ..         ..     ..         ....  ..   ..    .. ",
"            ++++  ++   ++        ++    ++      ++         ++     ++         ++++  ++   ++    ++ ",
"            ....  ..   ..          ....        ..         ..     ..         ....  ..   ..    .. ",
"            ++++  ++   ++          ++++        ++         ++     ++         ++++  ++   ++    ++ ",
"            ..  ....   ......      ....        ..                ......     ..  ....   ..    .. ",
"            ++  ++++   ++++++      ++++        ++                ++++++     ++  ++++   ++    ++ ",
"            ..  ....   ..        ..    ..      ..                ..         ..  ....   ..    .. ",
"            ++  ++++   ++        ++    ++      ++                ++         ++  ++++   ++    ++ ",
"            ..    ..   ..        ..    ..      ..         ..     ..         ..    ..   ..    .. ",
"            ++    ++   ++        ++    ++      ++         ++     ++         ++    ++   ++    ++ ",
"            ..    ..   ........  ..    ..      ..         ..     ........   ..    ..   ......   ",
"            ++    ++   ++++++++  ++    ++      ++         ++     ++++++++   ++    ++   ++++++   ",
"                                                                                                ",
"                                                                                                ",
"                                                                                                ",
"                                                                                                ",
"                                                                                                ",
"                                                                                                ",
"                                                                                                ",
"                                                                                                ",
"                                                                                                ",
"                                                                                                ",
"                                                                                                ",
"                                                                                                ",
"                                                                                                ",
"                                                                                                ",
"                                                                                                ",
"                                                                                                ",
"                                                                                                ",
"                                                                                                ",
"              ....       ....   ..........    ....                 ....           ..     ....   ",
"              ++++       ++++   ++++++++++    ++++                 ++++           ++     ++++   ",
"    ..      ..    ..   ..    ..     ..      ..    ..             ..    ..       ....   ..    .. ",
"    ++      ++    ++   ++    ++     ++      ++    ++             ++    ++       ++++   ++    ++ ",
"    ..      ..         ..    ..     ..      ..    ..                   ..       ....   ..  .... ",
"    ++      ++         ++    ++     ++      ++    ++                   ++       ++++   ++  ++++ ",
"            ..  ....   ..    ..     ..      ..    ..               ....       ..  ..   ....  .. ",
"            ++  ++++   ++    ++     ++      ++    ++               ++++       ++  ++   ++++  ++ ",
"            ..    ..   ..    ..     ..      ..    ..                   ..     ..  ..   ..    .. ",
"            ++    ++   ++    ++     ++      ++    ++                   ++     ++  ++   ++    ++ ",
"    ..      ..    ..   ..    ..     ..      ..    ..             ..    ..   ........   ..    .. ",
"    ++      ++    ++   ++    ++     ++      ++    ++             ++    ++   ++++++++   ++    ++ ",
"    ..        ......     ....       ..        ....                 ....           ..     ....   ",
"    ++        ++++++     ++++       ++        ++++                 ++++           ++     ++++   ",
"                                                                                                ",
"                                                                                                ",
"                                                                                                ",
"                                                                                                ",
"                                                                                                ",
"                                                                                                ",
"                                                                                                ",
"                                                                                                ",
"                                                                                                ",
"                                                                                                ",
"                                                                                                ",
"                                                                                                ",
"                                                                                                ",
"                                                                                                ",
"                                                                                                ",
"                                                                                                "};
