/* XPM */
static char * iaError_xpm[] = {
"160 64 5 1",
" 	c None",
".	c #000000",
"+	c #000000",
"@	c #EFCE8B",
"#	c #423927",
"................................................................................................................................................................",
"....................+++++++++++.+++++++++...++++++++++..........++++++++++..+++++++.............+++++++++.............+++++++++........................++++++++.",
"...@@@@.....@@....@@..@@@@@@@@...@@....@@...@@@@@@@@@@...........@@....@@....@@@@@@...@@@@@@@@@@.@@....@@.....@@@@.....@@....@@.@@@@@@@@@@.............@@@@@@@@.",
"+++####++++.##++++##++########+.+##++++##...##########..........+##++++##+..+######...##########+##++++##..+++####+++.+##++++##.##########.............########.",
".@@....@@...@@@@..@@..@@.........@@....@@.......@@...............@@....@@......@@.........@@.....@@....@@...@@....@@...@@....@@.....@@.................@@.......",
"+##++++##++.####++##++##+++++++.+##++++##...++++##++++..........+##++++##+..+++##++...++++##+++++##++++##..+##++++##+.+##++++##.++++##++++.............##++++++.",
".......@@...@@@@..@@..@@...........@@@@.........@@...............@@....@@......@@.........@@.....@@....@@...@@....@@...@@....@@.....@@.................@@.......",
"+++++++##++.####++##++##+++++++.+++####++...++++##++++..........+##++++##+..+++##++...++++##+++++##++++##..+##++++##+.+##++++##.++++##++++.............##++++++.",
".....@@.....@@..@@@@..@@@@@@.......@@@@.........@@...............@@....@@......@@.........@@.....@@@@@@@@...@@....@@...@@....@@.....@@.................@@@@@@...",
"+++++##++++.##++####++######+++.+++####++...++++##++++..........+##++++##+..+++##++...++++##+++++########..+##++++##+.+##++++##.++++##++++.............######++.",
"...@@.......@@..@@@@..@@.........@@....@@.......@@...............@@@@@@@@......@@.........@@.....@@....@@...@@....@@...@@....@@.....@@.................@@.......",
"+++##++++++.##++####++##+++++++.+##++++##...++++##++++..........+########+..+++##++...++++##+++++##++++##..+##++++##+.+##++++##.++++##++++.............##++++++.",
"............@@....@@..@@.........@@....@@.......@@...............@@@@@@@@......@@.........@@.....@@....@@...@@....@@...@@....@@.....@@.................@@.......",
"+++++++++++.##++++##++##+++++++.+##++++##...++++##++++..........+########+..+++##++...++++##+++++##++++##..+##++++##+.+##++++##.++++##++++.............##++++++.",
"...@@.......@@....@@..@@@@@@@@...@@....@@.......@@...............@@....@@....@@@@@@.......@@.....@@....@@.....@@@@.......@@@@.......@@.................@@.......",
"+++##++++++.##++++##++########+.+##++++##...++++##++++..........+##++++##+..+######...++++##+++++##++++##..+++####+++.+++####++.++++##++++.............##++++++.",
"................................................................................................................................................................",
"+++++++++++.........+++++++++++.................................++++++++++......................................................................................",
"................................................................................................................................................................",
"................................................................................................................................................................",
"................................................................................................................................................................",
"................................................................................................................................................................",
"................................................................................................................................................................",
"................................................................................................................................................................",
"................................................................................................................................................................",
"................................................................................................................................................................",
"................................................................................................................................................................",
"................................................................................................................................................................",
"................................................................................................................................................................",
"................................................................................................................................................................",
"................................................................................................................................................................",
"................................................................................................................................................................",
"................................................................................................................................................................",
"...........++++++++++............++++++++..++++++++++.++++++++++...........++++++++++............+++++++............+..........+++++++++++...+++++++.+++++++++++",
"...@@@@.....@@@@@@...............@@@@@@@@...@@@@@@.....@@@@@@......@@@@.....@@@@@@................@@@@@@....@@....@@...............@@@@.........@@.......@@@@...",
"+++####++..+######+++............########..+######+++.+######+++.++####++..+######+++............+######....##++++##+..........++++####+++...+++##++.++++####+++",
".@@....@@...@@....@@.............@@.........@@....@@...@@....@@..@@....@@...@@....@@................@@......@@@@..@@.............@@....@@.....@@@@.....@@....@@.",
"+##++++##..+##++++##+............##++++++..+##++++##+.+##++++##+.##++++##..+##++++##+............+++##++....####++##+..........++##++++##+...+####++.++##++++##+",
".@@....@@...@@....@@.............@@.........@@....@@...@@....@@..@@....@@...@@....@@................@@......@@@@..@@...................@@.......@@.....@@..@@@@.",
"+##++++##..+##++++##+............##++++++..+##++++##+.+##++++##+.##++++##..+##++++##+............+++##++....####++##+..........++++++++##+...+++##++.++##++####+",
".@@....@@...@@@@@@...............@@@@@@.....@@@@@@.....@@@@@@....@@....@@...@@@@@@..................@@......@@..@@@@.................@@.........@@.....@@@@..@@.",
"+##++++##..+######+++............######++..+######+++.+######+++.##++++##..+######+++............+++##++....##++####+..........++++++##+++...+++##++.++####++##+",
".@@....@@...@@..@@...............@@.........@@..@@.....@@..@@....@@....@@...@@..@@..................@@......@@..@@@@...............@@...........@@.....@@....@@.",
"+##++++##..+##++##+++............##++++++..+##++##+++.+##++##+++.##++++##..+##++##+++............+++##++....##++####+..........++++##+++++...+++##++.++##++++##+",
".@@....@@...@@....@@.............@@.........@@....@@...@@....@@..@@....@@...@@....@@................@@......@@....@@.............@@.............@@.....@@....@@.",
"+##++++##..+##++++##+............##++++++..+##++++##+.+##++++##+.##++++##..+##++++##+............+++##++....##++++##+..........++##+++++++...+++##++.++##++++##+",
"...@@@@.....@@....@@.............@@@@@@@@...@@....@@...@@....@@....@@@@.....@@....@@..............@@@@@@....@@....@@.............@@@@@@@@.......@@.......@@@@...",
"+++####++..+##++++##+............########..+##++++##+.+##++++##+.++####++..+##++++##+............+######....##++++##+..........++########+...+++##++.++++####+++",
"................................................................................................................................................................",
".................................++++++++.......................................................................................................................",
"................................................................................................................................................................",
"................................................................................................................................................................",
"................................................................................................................................................................",
"................................................................................................................................................................",
"................................................................................................................................................................",
"................................................................................................................................................................",
"................................................................................................................................................................",
"................................................................................................................................................................",
"................................................................................................................................................................",
"................................................................................................................................................................",
"................................................................................................................................................................",
"................................................................................................................................................................",
"................................................................................................................................................................",
"................................................................................................................................................................"};
