/* XPM */
static char * gimp_temp_632213_xpm[] = {
"128 128 10 1",
" 	c None",
".	c #000000",
"+	c #214721",
"@	c #2D602D",
"#	c #51AD51",
"$	c #54B454",
"%	c #63D363",
"&	c #69E169",
"*	c #6CE76C",
"=	c #397A39",
"               ..                                             ....                            ....                              ",
"              ....                                          ...++...                        ...++...                            ",
"             ..++..                                       ...++@@++...                    ...++@@++...                          ",
"            ..+@@+..                                    ...++@#$$#@++...                ...++@#$$#@++...                        ",
"           ..+@$$@+..                                 ...++@#$%&&%$#@++...            ...++@#$%&&%$#@++...                      ",
"          ..+@$%%$@+..                              ...++@#$%&****&%$#@++...        ...++@#$%&****&%$#@++...                    ",
"         ..+@$%**%$@+..                           ...++@#$%&********&%$#@++...    ...++@#$%&********&%$#@++...                  ",
"        ..+@$%****%$@+..                        ...++@#$%&************&%$#@++......++@#$%&************&%$#@++...                ",
"       ..+@$%******%$@+..                     ...++@#$%&****************&%$#@++++++@#$%&****************&%$#@++...              ",
"      ..+@$%********%$@+..                  ...++@#$%&********************&%$#@@@@#$%&********************&%$#@++...            ",
"     ..+@$%**********%$@+..               ...++@#$%&************************&%####%&************************&%$#@++...          ",
"    ..+@$%************%$@+..            ...++@#$%&************************************************************&%$#@++...        ",
"   ..+@$%**************%$@+..         ...++@#$%&****************************************************************&%$#@++...      ",
"  ..+@$%****************%$@+..      ...++@#$%&********************************************************************&%$#@++...    ",
" ..+@$%******************%$@+..   ...++@#$%&************************************************************************&%$#@++...  ",
"..+@$%********************%$@+.....++@#$%&****************************************************************************&%$#@++...",
"..+@$%********************%$@+.....++@#$%&****************************************************************************&%$#@++...",
" ..+@$%******************%$@+..   ...++@#$%&************************************************************************&%$#@++...  ",
"  ..+@$%****************%$@+..      ...++@#$%&********************************************************************&%$#@++...    ",
"   ..+@$%**************%$@+..         ...++@#$%&****************************************************************&%$#@++...      ",
"    ..+@$%************%$@+..            ...++@#$%&************************************************************&%$#@++...        ",
"     ..+@$%**********%$@+..               ...++@#$%&************************&%####%&************************&%$#@++...          ",
"      ..+@$%********%$@+..                  ...++@#$%&********************&%$#@@@@#$%&********************&%$#@++...            ",
"       ..+@$%******%$@+..                     ...++@#$%&****************&%$#@++++++@#$%&****************&%$#@++...              ",
"        ..+@$%****%$@+..                        ...++@#$%&************&%$#@++......++@#$%&************&%$#@++...                ",
"         ..+@$%**%$@+..                           ...++@#$%&********&%$#@++...    ...++@#$%&********&%$#@++...                  ",
"          ..+@$%%$@+..                              ...++@#$%&****&%$#@++...        ...++@#$%&****&%$#@++...                    ",
"           ..+@$$@+..                                 ...++@#$%&&%$#@++...            ...++@#$%&&%$#@++...                      ",
"            ..+@@+..                                    ...++@#$$#@++...                ...++@#$$#@++...                        ",
"             ..++..                                       ...++@@++...                    ...++@@++...                          ",
"              ....                                          ...++...                        ...++...                            ",
"               ..                                             ....                            ....                              ",
"               ..                                             ....                            ....                              ",
"               ..                                           ...++...                        ...++...                            ",
"              ....                                        ...++@@++...                    ...++@@++...                          ",
"              .++.                                      ...++@#$$#@++...                ...++@#$$#@++...                        ",
"             ..++..                                   ...++@#$%&&%$#@++...            ...++@#$%&&%$#@++...                      ",
"             .+@@+.                                 ...++@#$%&****&%$#@++...        ...++@#$%&****&%$#@++...                    ",
"            ..+##+..                              ...++@#$%&********&%$#@++...    ...++@#$%&********&%$#@++...                  ",
"            .+@$$@+.                            ...++@#$%&************&%$#@++......++@#$%&************&%$#@++...                ",
"           ..+#%%#+..                         ...++@#$%&****************&%$#@++++++@#$%&****************&%$#@++...              ",
"           .+@$&&$@+.                       ...++@#$%&********************&%$#@@@@#$%&********************&%$#@++...            ",
"          ..+#%**%#+..                    ...++@#$%&************************&%####%&************************&%$#@++...          ",
"          .+@$&**&$@+.                    .++@#$%&************************************************************&%$#@++.          ",
"         ..+#%****%#+..                  ..+#$%&****************************************************************&%$#+..         ",
"         .+@$&****&$@+.                  .+@$&********************************************************************&$@+.         ",
"        ..+#%******%#+..                ..+#%**********************************************************************%#+..        ",
"        .+@$&******&$@+.                .+@$&**********************************************************************&$@+.        ",
"       ..+#%********%#+..              ..+#%************************************************************************%#+..       ",
"       .+@$&********&$@+.              .+@$&************************************************************************&$@+.       ",
"      ..+#%**********%#+..            ..+#%**************************************************************************%#+..      ",
"      .+@$&**********&$@+.            .+@$&**************************************************************************&$@+.      ",
"     ..+#%************%#+..          ..+#%****************************************************************************%#+..     ",
"     .+@$&************&$@+.          .+@$&****************************************************************************&$@+.     ",
"    ..+#%**************%#+..        ..+#%******************************************************************************%#+..    ",
"    .+@$&**************&$@+.        .+@$&******************************************************************************&$@+.    ",
"   ..+#%****************%#+..      ..+#%********************************************************************************%#+..   ",
"   .+@$&****************&$@+.      .+@$&********************************************************************************&$@+.   ",
"  ..+#%******************%#+..    ..+#%**********************************************************************************%#+..  ",
"  .+@$&******************&$@+.    .+@$&************************&&******************************&&************************&$@+.  ",
" ..+#%********************%#+..  ..+#%*************************%%******************************%%*************************%#+.. ",
" .+@$&********************&$@+.  .+@$&************************$=@$****************************$@=$************************&$@+. ",
"..+#%**********************%#+....+#%************************$=++@$**************************$@++=$************************%#+..",
".+@$&**********************&$@+..+@$&**********************&%=+..+@$&**********************&$@+..+=%&**********************&$@+.",
".+@$&**********************&$@+..+@$&**********************&%@+..+@@$%********************%$@@+..+@%&**********************&$@+.",
"..+#%**********************%#+....+#%************************$@++.+++@#$%&************&%$#@+++.++@$************************%#+..",
" .+@$&********************&$@+.  .+@$&************************$@@+...++@#$%&********&%$#@++...+@@$************************&$@+. ",
" ..+#%********************%#+..  ..+#%*************************$@+. ...++@#$%&****&%$#@++... .+@$*************************%#+.. ",
"  .+@$&******************&$@+.    .+@$&************************&$+..  ...++@#$%&&%$#@++...  ..+$&************************&$@+.  ",
"  ..+#%******************%#+..    ..+#%*************************%@+.    ...++@#$$#@++...    .+@%*************************%#+..  ",
"   .+@$&****************&$@+.      .+@$&*************************#+..     ...++@@++...     ..+#*************************&$@+.   ",
"   ..+#%****************%#+..      ..+#%*************************$@+.       ...++...       .+@$*************************%#+..   ",
"    .+@$&**************&$@+.        .+@$&************************%#+..        ....        ..+#%************************&$@+.    ",
"    ..+#%**************%#+..        ..+#%************************&$@+.                    .+@$&************************%#+..    ",
"     .+@$&************&$@+.          .+@$&************************%#+..                  ..+#%************************&$@+.     ",
"     ..+#%************%#+..          ..+#%************************&$@+.                  .+@$&************************%#+..     ",
"      .+@$&**********&$@+.            .+@$&************************%#+..                ..+#%************************&$@+.      ",
"      ..+#%**********%#+..            ..+#%************************&$@+.                .+@$&************************%#+..      ",
"       .+@#**********#@+.              .+@#*************************%#+..              ..+#%*************************#@+.       ",
"       .+@#**********#@+.              .+@#*************************&$@+.              .+@$&*************************#@+.       ",
"       .+@#**********#@+.              .+@#*************************&$@+.              .+@$&*************************#@+.       ",
"       .+@#**********#@+.              .+@#*************************%#+..              ..+#%*************************#@+.       ",
"      ..+#%**********%#+..            ..+#%************************&$@+.                .+@$&************************%#+..      ",
"      .+@$&**********&$@+.            .+@$&************************%#+..                ..+#%************************&$@+.      ",
"     ..+#%************%#+..          ..+#%************************&$@+.                  .+@$&************************%#+..     ",
"     .+@$&************&$@+.          .+@$&************************%#+..                  ..+#%************************&$@+.     ",
"    ..+#%**************%#+..        ..+#%************************&$@+.                    .+@$&************************%#+..    ",
"    .+@$&**************&$@+.        .+@$&************************%#+..        ....        ..+#%************************&$@+.    ",
"   ..+#%****************%#+..      ..+#%*************************$@+.       ...++...       .+@$*************************%#+..   ",
"   .+@$&****************&$@+.      .+@$&*************************#+..     ...++@@++...     ..+#*************************&$@+.   ",
"  ..+#%******************%#+..    ..+#%*************************%@+.    ...++@#$$#@++...    .+@%*************************%#+..  ",
"  .+@$&******************&$@+.    .+@$&************************&$+..  ...++@#$%&&%$#@++...  ..+$&************************&$@+.  ",
" ..+#%********************%#+..  ..+#%*************************$@+. ...++@#$%&****&%$#@++... .+@$*************************%#+.. ",
" .+@$&********************&$@+.  .+@$&************************$@@+...++@#$%&********&%$#@++...+@@$************************&$@+. ",
"..+#%**********************%#+....+#%************************$@++.+++@#$%&************&%$#@+++.++@$************************%#+..",
".+@$&**********************&$@+..+@$&**********************&%@+..+@@$%********************%$@@+..+@%&**********************&$@+.",
".+@$&**********************&$@+..+@$&**********************&%=+..+@$&**********************&$@+..+=%&**********************&$@+.",
"..+#%**********************%#+....+#%************************$=++@$**************************$@++=$************************%#+..",
" .+@$&********************&$@+.  .+@$&************************$=@$****************************$@=$************************&$@+. ",
" ..+#%********************%#+..  ..+#%*************************%%******************************%%*************************%#+.. ",
"  .+@$&******************&$@+.    .+@$&************************&&******************************&&************************&$@+.  ",
"  ..+#%******************%#+..    ..+#%**********************************************************************************%#+..  ",
"   .+@$&****************&$@+.      .+@$&********************************************************************************&$@+.   ",
"   ..+#%****************%#+..      ..+#%********************************************************************************%#+..   ",
"    .+@$&**************&$@+.        .+@$&******************************************************************************&$@+.    ",
"    ..+#%**************%#+..        ..+#%******************************************************************************%#+..    ",
"     .+@$&************&$@+.          .+@$&****************************************************************************&$@+.     ",
"     ..+#%************%#+..          ..+#%****************************************************************************%#+..     ",
"      .+@$&**********&$@+.            .+@$&**************************************************************************&$@+.      ",
"      ..+#%**********%#+..            ..+#%**************************************************************************%#+..      ",
"       .+@$&********&$@+.              .+@$&************************************************************************&$@+.       ",
"       ..+#%********%#+..              ..+#%************************************************************************%#+..       ",
"        .+@$&******&$@+.                .+@$&**********************************************************************&$@+.        ",
"        ..+#%******%#+..                ..+#%**********************************************************************%#+..        ",
"         .+@$&****&$@+.                  .+@$&********************************************************************&$@+.         ",
"         ..+#%****%#+..                  ..+#$%&****************************************************************&%$#+..         ",
"          .+@$&**&$@+.                    .++@#$%&************************************************************&%$#@++.          ",
"          ..+#%**%#+..                    ...++@#$%&************************&%####%&************************&%$#@++...          ",
"           .+@$&&$@+.                       ...++@#$%&********************&%$#@@@@#$%&********************&%$#@++...            ",
"           ..+#%%#+..                         ...++@#$%&****************&%$#@++++++@#$%&****************&%$#@++...              ",
"            .+@$$@+.                            ...++@#$%&************&%$#@++......++@#$%&************&%$#@++...                ",
"            ..+##+..                              ...++@#$%&********&%$#@++...    ...++@#$%&********&%$#@++...                  ",
"             .+@@+.                                 ...++@#$%&****&%$#@++...        ...++@#$%&****&%$#@++...                    ",
"             ..++..                                   ...++@#$%&&%$#@++...            ...++@#$%&&%$#@++...                      ",
"              .++.                                      ...++@#$$#@++...                ...++@#$$#@++...                        ",
"              ....                                        ...++@@++...                    ...++@@++...                          ",
"               ..                                           ...++...                        ...++...                            ",
"               ..                                             ....                            ....                              "};
