/* XPM */
static char * gimp_temp_615310_xpm[] = {
"96 32 5 1",
" 	c None",
".	c #000000",
"+	c #FF8000",
"@	c #C05800",
"#	c #FFA858",
".++@@@.@@@@.@@@@@@@@@@@@@+@#.                                      .@#+@@++++++++++@@++++.###++.",
".++@@@.@@@@@@@@@@@@@@@@@@+@#.                                      .@#+@@++++++++++++++++.###++.",
".++@@@.@@@@@@@@@@@@@@@@@@+@#.                                      .@#+@@++++++++++++++++.###++.",
".++@@@.@@@@..@@@@@@@@@@@@+@#........................................@#+@@++++++++++.@++++.###++.",
".++@@@.@@@@.@@@@@@@@@@@@@+@#@@@@@@@@@@@@@@@@@@@@@@@@@@@@@@@@@@@@@@@@@#+@@++++++++++@@++++.###++.",
".++@@@.@@@@@@@@@@@@@@@@@@+@###########################################+@@++++++++++++++++.###++.",
".++@@@.@@@@@@@@@@@@@@@@@@+++++++++++++++++++++++++++++++++++++++++++++#@@++++++++++++++++.###++.",
".++@@@.@@@@..@@@@@@@@@@@@@@@@@@@@@@@@@@@@@@@@@@@@@@@@@@@@@@@@@@@@@@@@@@@@++++++++++.@++++.###++.",
".++@@@.@@@@.@@@@@@@@@@@@@@@@@@@@@@@@@@@@@@@@@@@@@@@@@@@@@@@@@@@@@@@@@@@@@++++++++++@@++++.###++.",
".++@@@.@@@@@@@@@@@@@@@+++++++++++++++++++++++++++++++++++++++++++++++++++#+++++++++++++++.###++.",
".++@@@.@@@@@@@@@@@@@@+++++++++++++++++++++++++++++++++++++++++++++++++++++#++++++++++++++.###++.",
".++@@@.@@@@..@@@@@@@+++++++++++++++++++++++++++++++++++++++++++++++++++++++#+++++++.@++++.###++.",
".++@@@.@@@@.@@@@@@@+++++++++++++++++++++++++++++++++++++++++++++++++++++++++#++++++@@++++.###++.",
".++@@@.@@@@@@@@@@@+++++++++++++++++++++++++++++@+++++++++++++++++++++++++++++#+++++++++++.###++.",
".++@@@.@@@@@@@@@@++++++++++++++++++++++++++++++@++++++++++++++++++++++++++++++#++++++++++.###++.",
".++@@@.@@@@..@@@+++++++++++++++++++++++++@@@@@@+@@@@@@+++++++++++++++++++++++++#+++.@++++.###++.",
".++@@@.@@@@.@@@+++++++++++++++++++++++++++@@@@+++@@@@+++++++++++++++++++++++++++#++@@++++.###++.",
".++@@@.@@@@@@@+++++++++++++++++++++++++++++++++++++++++++++++++++++++++++++++++++#+++++++.###++.",
".++@@@.@@@@@@+++++++++++++++++++++++++++++++++++++++++++++++++++++++++++++++++++++#++++++.###++.",
".++@@@.@@@@.@++.@++.@++.@++.@++.@++.@++.@++.@++.@++.@++.@++.@++.@++.@++.@++.@++.@++.@++++.###++.",
".++@@@.@@@@@@++@@++@@++@@++@@++@@++@@++@@++@@++@@++@@++@@++@@++@@++@@++@@++@@++@@++@@++++.###++.",
".++@@@.@@@+++++++++++++++++++++++++++++++++++++++++++++++++++++++++++++++++++++++++++#+++.###++.",
".++@@@.@@+++++++++++++++++++++++++++++++++++++++++++++++++++++++++++++++++++++++++++++#++.###++.",
".++@@@.@+++++++++++++++++++++++++++++++++++++++++++++++++++++++++++++++++++++++++++++++#+.###++.",
".++@@@.+++++++++++++++++++++++++++++++++++++++++++++++++++++++++++++++++++++++++++++++++#.###++.",
".++@@@....................................................................................###++.",
".++@@########################################################################################++.",
".++@#########################################################################################++.",
".++##########################################################################################++.",
".++++++++++++++++++++++++++++++++++++++++++++++++++++++++++++++++++++++++++++++++++++++++++++#+.",
".+++++++++++++++++++++++++++++++++++++++++++++++++++++++++++++++++++++++++++++++++++++++++++++#.",
"................................................................................................"};
