/* XPM */
static char*cmuschel[]={
"128 128 18 1",
"g c #007700",
"j c #00cc33",
"a c #00ffff",
"# c #000000",
"l c #336633",
"f c #999900",
"p c #666633",
"m c #663300",
"b c #ccff33",
"n c #cc9900",
"c c #999966",
"h c #99cccc",
"k c #0000ff",
". c None",
"i c #990033",
"e c #990066",
"d c #00c000",
"o c #555555",
"..........###########.....................###########.....................###########.....................###########...........",
".........#aaaaaa#aaaa#...................#bbbbbb#bbbb#...................#cccccc#cccc#...................#dddddd#dddd#..........",
"......###aaaaaaa#aaaaa###.............###bbbbbbb#bbbbb###.............###ccccccc#ccccc###.............###ddddddd#ddddd###.......",
".....#aaaaaaaaaa#aaaaaaaa#...........#bbbbbbbbbb#bbbbbbbb#...........#cccccccccc#cccccccc#...........#dddddddddd#dddddddd#......",
"....#aaaaaaaaaaa#aaaaaaaaa#.........#bbbbbbbbbbb#bbbbbbbbb#.........#ccccccccccc#ccccccccc#.........#ddddddddddd#ddddddddd#.....",
"....#aaaaaaaaaaa#aaaaaaaaa#.........#bbbbbbbbbbb#bbbbbbbbb#.........#ccccccccccc#ccccccccc#.........#ddddddddddd#ddddddddd#.....",
"..###aaaaaaaaa###aaaaaaaaa###.....###bbbbbbbbb###bbbbbbbbb###.....###ccccccccc###ccccccccc###.....###ddddddddd###ddddddddd###...",
".#aa#aaaaaaaaa#aaaaaaaaaa#aaa#...#bb#bbbbbbbbb#bbbbbbbbbb#bbb#...#cc#ccccccccc#cccccccccc#ccc#...#dd#ddddddddd#dddddddddd#ddd#..",
"#aaa#aaaaaaaaa#aaaaaaaaa#aaaaa###bbb#bbbbbbbbb#bbbbbbbbb#bbbbb###ccc#ccccccccc#ccccccccc#ccccc###ddd#ddddddddd#ddddddddd#ddddd##",
"#aaaa#aaaaaaaa#aaaaaaaaa#aaaaa###bbbb#bbbbbbbb#bbbbbbbbb#bbbbb###cccc#cccccccc#ccccccccc#ccccc###dddd#dddddddd#ddddddddd#ddddd##",
"#aaaaa#aaaaaaa#aaaaaaa###aaaaa###bbbbb#bbbbbbb#bbbbbbb###bbbbb###ccccc#ccccccc#ccccccc###ccccc###ddddd#ddddddd#ddddddd###ddddd##",
"#aaaaa#aaaaaaa#aaaaaaa#aaaaaaa###bbbbb#bbbbbbb#bbbbbbb#bbbbbbb###ccccc#ccccccc#ccccccc#ccccccc###ddddd#ddddddd#ddddddd#ddddddd##",
"#aaaaa#aaaaaaa#aaaaaaa#aaaaaaa###bbbbb#bbbbbbb#bbbbbbb#bbbbbbb###ccccc#ccccccc#ccccccc#ccccccc###ddddd#ddddddd#ddddddd#ddddddd##",
"#aaaaaa#aaaaaa#aaaaaa#aaaaaaaa###bbbbbb#bbbbbb#bbbbbb#bbbbbbbb###cccccc#cccccc#cccccc#cccccccc###dddddd#dddddd#dddddd#dddddddd##",
"#aaaaaaa#aaaaa#aaaaa#aaaaaaaaa###bbbbbbb#bbbbb#bbbbb#bbbbbbbbb###ccccccc#ccccc#ccccc#ccccccccc###ddddddd#ddddd#ddddd#ddddddddd##",
"#aaaaaaa#aaaaa#aaaaa#aaaaaaaaa###bbbbbbb#bbbbb#bbbbb#bbbbbbbbb###ccccccc#ccccc#ccccc#ccccccccc###ddddddd#ddddd#ddddd#ddddddddd##",
"#aaaaaaa###aaa#aaaaa#aaaaaaaaa###bbbbbbb###bbb#bbbbb#bbbbbbbbb###ccccccc###ccc#ccccc#ccccccccc###ddddddd###ddd#ddddd#ddddddddd##",
".#aaaaaaaa#aaaaaaaa#aaaaaaaaa#...#bbbbbbbb#bbbbbbbb#bbbbbbbbb#...#cccccccc#cccccccc#ccccccccc#...#dddddddd#dddddddd#ddddddddd#..",
"..#aaaaaaa#aaaaaaa#aaaaaaaaa#.....#bbbbbbb#bbbbbbb#bbbbbbbbb#.....#ccccccc#ccccccc#ccccccccc#.....#ddddddd#ddddddd#ddddddddd#...",
"...#aaaaaaaaaaaaaaaaaaaaaaa#.......#bbbbbbbbbbbbbbbbbbbbbbb#.......#ccccccccccccccccccccccc#.......#ddddddddddddddddddddddd#....",
"....#aaaaaaaaaaaaaaaaaaaaa#.........#bbbbbbbbbbbbbbbbbbbbb#.........#ccccccccccccccccccccc#.........#ddddddddddddddddddddd#.....",
"....#aaaaaaaaaaaaaaaaaaaa#..........#bbbbbbbbbbbbbbbbbbbb#..........#cccccccccccccccccccc#..........#dddddddddddddddddddd#......",
"....#aaaaaaaaaaaaaaaaaaa#...........#bbbbbbbbbbbbbbbbbbb#...........#ccccccccccccccccccc#...........#ddddddddddddddddddd#.......",
"....#aaaaaaaaaaaaaaaaaaa#...........#bbbbbbbbbbbbbbbbbbb#...........#ccccccccccccccccccc#...........#ddddddddddddddddddd#.......",
"....#aaaaaaaaaaaaaaaaaaa###.........#bbbbbbbbbbbbbbbbbbb###.........#ccccccccccccccccccc###.........#ddddddddddddddddddd###.....",
"....#aaaaaaaaaaaaaaaaaaaaa#.........#bbbbbbbbbbbbbbbbbbbbb#.........#ccccccccccccccccccccc#.........#ddddddddddddddddddddd#.....",
"..###aaaaa###aaaaa#aaaaaaa###.....###bbbbb###bbbbb#bbbbbbb###.....###ccccc###ccccc#ccccccc###.....###ddddd###ddddd#ddddddd###...",
"..#aaaaaa#aaaaaaaaa#aaaaaaaa#.....#bbbbbb#bbbbbbbbb#bbbbbbbb#.....#cccccc#ccccccccc#cccccccc#.....#dddddd#ddddddddd#dddddddd#...",
"###aaaaa#aaaaaaaaaaa#aaaaaaa#######bbbbb#bbbbbbbbbbb#bbbbbbb#######ccccc#ccccccccccc#ccccccc#######ddddd#ddddddddddd#ddddddd####",
"###aaaaa#aaaaaaaaaaa#aaaaaaa#######bbbbb#bbbbbbbbbbb#bbbbbbb#######ccccc#ccccccccccc#ccccccc#######ddddd#ddddddddddd#ddddddd####",
"################################################################################################################################",
"..........###########.....................###########.....................###########.....................###########...........",
"..........###########.....................###########.....................###########.....................###########...........",
".........#eeeeee#eeee#...................#ffffff#ffff#...................#gggggg#gggg#...................#hhhhhh#hhhh#..........",
"......###eeeeeee#eeeee###.............###fffffff#fffff###.............###ggggggg#ggggg###.............###hhhhhhh#hhhhh###.......",
".....#eeeeeeeeee#eeeeeeee#...........#ffffffffff#ffffffff#...........#gggggggggg#gggggggg#...........#hhhhhhhhhh#hhhhhhhh#......",
"....#eeeeeeeeeee#eeeeeeeee#.........#fffffffffff#fffffffff#.........#ggggggggggg#ggggggggg#.........#hhhhhhhhhhh#hhhhhhhhh#.....",
"....#eeeeeeeeeee#eeeeeeeee#.........#fffffffffff#fffffffff#.........#ggggggggggg#ggggggggg#.........#hhhhhhhhhhh#hhhhhhhhh#.....",
"..###eeeeeeeee###eeeeeeeee###.....###fffffffff###fffffffff###.....###ggggggggg###ggggggggg###.....###hhhhhhhhh###hhhhhhhhh###...",
".#ee#eeeeeeeee#eeeeeeeeee#eee#...#ff#fffffffff#ffffffffff#fff#...#gg#ggggggggg#gggggggggg#ggg#...#hh#hhhhhhhhh#hhhhhhhhhh#hhh#..",
"#eee#eeeeeeeee#eeeeeeeee#eeeee###fff#fffffffff#fffffffff#fffff###ggg#ggggggggg#ggggggggg#ggggg###hhh#hhhhhhhhh#hhhhhhhhh#hhhhh##",
"#eeee#eeeeeeee#eeeeeeeee#eeeee###ffff#ffffffff#fffffffff#fffff###gggg#gggggggg#ggggggggg#ggggg###hhhh#hhhhhhhh#hhhhhhhhh#hhhhh##",
"#eeeee#eeeeeee#eeeeeee###eeeee###fffff#fffffff#fffffff###fffff###ggggg#ggggggg#ggggggg###ggggg###hhhhh#hhhhhhh#hhhhhhh###hhhhh##",
"#eeeee#eeeeeee#eeeeeee#eeeeeee###fffff#fffffff#fffffff#fffffff###ggggg#ggggggg#ggggggg#ggggggg###hhhhh#hhhhhhh#hhhhhhh#hhhhhhh##",
"#eeeee#eeeeeee#eeeeeee#eeeeeee###fffff#fffffff#fffffff#fffffff###ggggg#ggggggg#ggggggg#ggggggg###hhhhh#hhhhhhh#hhhhhhh#hhhhhhh##",
"#eeeeee#eeeeee#eeeeee#eeeeeeee###ffffff#ffffff#ffffff#ffffffff###gggggg#gggggg#gggggg#gggggggg###hhhhhh#hhhhhh#hhhhhh#hhhhhhhh##",
"#eeeeeee#eeeee#eeeee#eeeeeeeee###fffffff#fffff#fffff#fffffffff###ggggggg#ggggg#ggggg#ggggggggg###hhhhhhh#hhhhh#hhhhh#hhhhhhhhh##",
"#eeeeeee#eeeee#eeeee#eeeeeeeee###fffffff#fffff#fffff#fffffffff###ggggggg#ggggg#ggggg#ggggggggg###hhhhhhh#hhhhh#hhhhh#hhhhhhhhh##",
"#eeeeeee###eee#eeeee#eeeeeeeee###fffffff###fff#fffff#fffffffff###ggggggg###ggg#ggggg#ggggggggg###hhhhhhh###hhh#hhhhh#hhhhhhhhh##",
".#eeeeeeee#eeeeeeee#eeeeeeeee#...#ffffffff#ffffffff#fffffffff#...#gggggggg#gggggggg#ggggggggg#...#hhhhhhhh#hhhhhhhh#hhhhhhhhh#..",
"..#eeeeeee#eeeeeee#eeeeeeeee#.....#fffffff#fffffff#fffffffff#.....#ggggggg#ggggggg#ggggggggg#.....#hhhhhhh#hhhhhhh#hhhhhhhhh#...",
"...#eeeeeeeeeeeeeeeeeeeeeee#.......#fffffffffffffffffffffff#.......#ggggggggggggggggggggggg#.......#hhhhhhhhhhhhhhhhhhhhhhh#....",
"....#eeeeeeeeeeeeeeeeeeeee#.........#fffffffffffffffffffff#.........#ggggggggggggggggggggg#.........#hhhhhhhhhhhhhhhhhhhhh#.....",
"....#eeeeeeeeeeeeeeeeeeee#..........#ffffffffffffffffffff#..........#gggggggggggggggggggg#..........#hhhhhhhhhhhhhhhhhhhh#......",
"....#eeeeeeeeeeeeeeeeeee#...........#fffffffffffffffffff#...........#ggggggggggggggggggg#...........#hhhhhhhhhhhhhhhhhhh#.......",
"....#eeeeeeeeeeeeeeeeeee#...........#fffffffffffffffffff#...........#ggggggggggggggggggg#...........#hhhhhhhhhhhhhhhhhhh#.......",
"....#eeeeeeeeeeeeeeeeeee###.........#fffffffffffffffffff###.........#ggggggggggggggggggg###.........#hhhhhhhhhhhhhhhhhhh###.....",
"....#eeeeeeeeeeeeeeeeeeeee#.........#fffffffffffffffffffff#.........#ggggggggggggggggggggg#.........#hhhhhhhhhhhhhhhhhhhhh#.....",
"..###eeeee###eeeee#eeeeeee###.....###fffff###fffff#fffffff###.....###ggggg###ggggg#ggggggg###.....###hhhhh###hhhhh#hhhhhhh###...",
"..#eeeeee#eeeeeeeee#eeeeeeee#.....#ffffff#fffffffff#ffffffff#.....#gggggg#ggggggggg#gggggggg#.....#hhhhhh#hhhhhhhhh#hhhhhhhh#...",
"###eeeee#eeeeeeeeeee#eeeeeee#######fffff#fffffffffff#fffffff#######ggggg#ggggggggggg#ggggggg#######hhhhh#hhhhhhhhhhh#hhhhhhh####",
"###eeeee#eeeeeeeeeee#eeeeeee#######fffff#fffffffffff#fffffff#######ggggg#ggggggggggg#ggggggg#######hhhhh#hhhhhhhhhhh#hhhhhhh####",
"################################################################################################################################",
"..........###########.....................###########.....................###########.....................###########...........",
"..........###########.....................###########.....................###########.....................###########...........",
".........#iiiiii#iiii#...................#jjjjjj#jjjj#...................#kkkkkk#kkkk#...................#llllll#llll#..........",
"......###iiiiiii#iiiii###.............###jjjjjjj#jjjjj###.............###kkkkkkk#kkkkk###.............###lllllll#lllll###.......",
".....#iiiiiiiiii#iiiiiiii#...........#jjjjjjjjjj#jjjjjjjj#...........#kkkkkkkkkk#kkkkkkkk#...........#llllllllll#llllllll#......",
"....#iiiiiiiiiii#iiiiiiiii#.........#jjjjjjjjjjj#jjjjjjjjj#.........#kkkkkkkkkkk#kkkkkkkkk#.........#lllllllllll#lllllllll#.....",
"....#iiiiiiiiiii#iiiiiiiii#.........#jjjjjjjjjjj#jjjjjjjjj#.........#kkkkkkkkkkk#kkkkkkkkk#.........#lllllllllll#lllllllll#.....",
"..###iiiiiiiii###iiiiiiiii###.....###jjjjjjjjj###jjjjjjjjj###.....###kkkkkkkkk###kkkkkkkkk###.....###lllllllll###lllllllll###...",
".#ii#iiiiiiiii#iiiiiiiiii#iii#...#jj#jjjjjjjjj#jjjjjjjjjj#jjj#...#kk#kkkkkkkkk#kkkkkkkkkk#kkk#...#ll#lllllllll#llllllllll#lll#..",
"#iii#iiiiiiiii#iiiiiiiii#iiiii###jjj#jjjjjjjjj#jjjjjjjjj#jjjjj###kkk#kkkkkkkkk#kkkkkkkkk#kkkkk###lll#lllllllll#lllllllll#lllll##",
"#iiii#iiiiiiii#iiiiiiiii#iiiii###jjjj#jjjjjjjj#jjjjjjjjj#jjjjj###kkkk#kkkkkkkk#kkkkkkkkk#kkkkk###llll#llllllll#lllllllll#lllll##",
"#iiiii#iiiiiii#iiiiiii###iiiii###jjjjj#jjjjjjj#jjjjjjj###jjjjj###kkkkk#kkkkkkk#kkkkkkk###kkkkk###lllll#lllllll#lllllll###lllll##",
"#iiiii#iiiiiii#iiiiiii#iiiiiii###jjjjj#jjjjjjj#jjjjjjj#jjjjjjj###kkkkk#kkkkkkk#kkkkkkk#kkkkkkk###lllll#lllllll#lllllll#lllllll##",
"#iiiii#iiiiiii#iiiiiii#iiiiiii###jjjjj#jjjjjjj#jjjjjjj#jjjjjjj###kkkkk#kkkkkkk#kkkkkkk#kkkkkkk###lllll#lllllll#lllllll#lllllll##",
"#iiiiii#iiiiii#iiiiii#iiiiiiii###jjjjjj#jjjjjj#jjjjjj#jjjjjjjj###kkkkkk#kkkkkk#kkkkkk#kkkkkkkk###llllll#llllll#llllll#llllllll##",
"#iiiiiii#iiiii#iiiii#iiiiiiiii###jjjjjjj#jjjjj#jjjjj#jjjjjjjjj###kkkkkkk#kkkkk#kkkkk#kkkkkkkkk###lllllll#lllll#lllll#lllllllll##",
"#iiiiiii#iiiii#iiiii#iiiiiiiii###jjjjjjj#jjjjj#jjjjj#jjjjjjjjj###kkkkkkk#kkkkk#kkkkk#kkkkkkkkk###lllllll#lllll#lllll#lllllllll##",
"#iiiiiii###iii#iiiii#iiiiiiiii###jjjjjjj###jjj#jjjjj#jjjjjjjjj###kkkkkkk###kkk#kkkkk#kkkkkkkkk###lllllll###lll#lllll#lllllllll##",
".#iiiiiiii#iiiiiiii#iiiiiiiii#...#jjjjjjjj#jjjjjjjj#jjjjjjjjj#...#kkkkkkkk#kkkkkkkk#kkkkkkkkk#...#llllllll#llllllll#lllllllll#..",
"..#iiiiiii#iiiiiii#iiiiiiiii#.....#jjjjjjj#jjjjjjj#jjjjjjjjj#.....#kkkkkkk#kkkkkkk#kkkkkkkkk#.....#lllllll#lllllll#lllllllll#...",
"...#iiiiiiiiiiiiiiiiiiiiiii#.......#jjjjjjjjjjjjjjjjjjjjjjj#.......#kkkkkkkkkkkkkkkkkkkkkkk#.......#lllllllllllllllllllllll#....",
"....#iiiiiiiiiiiiiiiiiiiii#.........#jjjjjjjjjjjjjjjjjjjjj#.........#kkkkkkkkkkkkkkkkkkkkk#.........#lllllllllllllllllllll#.....",
"....#iiiiiiiiiiiiiiiiiiii#..........#jjjjjjjjjjjjjjjjjjjj#..........#kkkkkkkkkkkkkkkkkkkk#..........#llllllllllllllllllll#......",
"....#iiiiiiiiiiiiiiiiiii#...........#jjjjjjjjjjjjjjjjjjj#...........#kkkkkkkkkkkkkkkkkkk#...........#lllllllllllllllllll#.......",
"....#iiiiiiiiiiiiiiiiiii#...........#jjjjjjjjjjjjjjjjjjj#...........#kkkkkkkkkkkkkkkkkkk#...........#lllllllllllllllllll#.......",
"....#iiiiiiiiiiiiiiiiiii###.........#jjjjjjjjjjjjjjjjjjj###.........#kkkkkkkkkkkkkkkkkkk###.........#lllllllllllllllllll###.....",
"....#iiiiiiiiiiiiiiiiiiiii#.........#jjjjjjjjjjjjjjjjjjjjj#.........#kkkkkkkkkkkkkkkkkkkkk#.........#lllllllllllllllllllll#.....",
"..###iiiii###iiiii#iiiiiii###.....###jjjjj###jjjjj#jjjjjjj###.....###kkkkk###kkkkk#kkkkkkk###.....###lllll###lllll#lllllll###...",
"..#iiiiii#iiiiiiiii#iiiiiiii#.....#jjjjjj#jjjjjjjjj#jjjjjjjj#.....#kkkkkk#kkkkkkkkk#kkkkkkkk#.....#llllll#lllllllll#llllllll#...",
"###iiiii#iiiiiiiiiii#iiiiiii#######jjjjj#jjjjjjjjjjj#jjjjjjj#######kkkkk#kkkkkkkkkkk#kkkkkkk#######lllll#lllllllllll#lllllll####",
"###iiiii#iiiiiiiiiii#iiiiiii#######jjjjj#jjjjjjjjjjj#jjjjjjj#######kkkkk#kkkkkkkkkkk#kkkkkkk#######lllll#lllllllllll#lllllll####",
"################################################################################################################################",
"..........###########.....................###########.....................###########.....................###########...........",
"..........###########.....................###########.....................###########.....................###########...........",
".........#mmmmmm#mmmm#...................#nnnnnn#nnnn#...................#oooooo#oooo#...................#pppppp#pppp#..........",
"......###mmmmmmm#mmmmm###.............###nnnnnnn#nnnnn###.............###ooooooo#ooooo###.............###ppppppp#ppppp###.......",
".....#mmmmmmmmmm#mmmmmmmm#...........#nnnnnnnnnn#nnnnnnnn#...........#oooooooooo#oooooooo#...........#pppppppppp#pppppppp#......",
"....#mmmmmmmmmmm#mmmmmmmmm#.........#nnnnnnnnnnn#nnnnnnnnn#.........#ooooooooooo#ooooooooo#.........#ppppppppppp#ppppppppp#.....",
"....#mmmmmmmmmmm#mmmmmmmmm#.........#nnnnnnnnnnn#nnnnnnnnn#.........#ooooooooooo#ooooooooo#.........#ppppppppppp#ppppppppp#.....",
"..###mmmmmmmmm###mmmmmmmmm###.....###nnnnnnnnn###nnnnnnnnn###.....###ooooooooo###ooooooooo###.....###ppppppppp###ppppppppp###...",
".#mm#mmmmmmmmm#mmmmmmmmmm#mmm#...#nn#nnnnnnnnn#nnnnnnnnnn#nnn#...#oo#ooooooooo#oooooooooo#ooo#...#pp#ppppppppp#pppppppppp#ppp#..",
"#mmm#mmmmmmmmm#mmmmmmmmm#mmmmm###nnn#nnnnnnnnn#nnnnnnnnn#nnnnn###ooo#ooooooooo#ooooooooo#ooooo###ppp#ppppppppp#ppppppppp#ppppp##",
"#mmmm#mmmmmmmm#mmmmmmmmm#mmmmm###nnnn#nnnnnnnn#nnnnnnnnn#nnnnn###oooo#oooooooo#ooooooooo#ooooo###pppp#pppppppp#ppppppppp#ppppp##",
"#mmmmm#mmmmmmm#mmmmmmm###mmmmm###nnnnn#nnnnnnn#nnnnnnn###nnnnn###ooooo#ooooooo#ooooooo###ooooo###ppppp#ppppppp#ppppppp###ppppp##",
"#mmmmm#mmmmmmm#mmmmmmm#mmmmmmm###nnnnn#nnnnnnn#nnnnnnn#nnnnnnn###ooooo#ooooooo#ooooooo#ooooooo###ppppp#ppppppp#ppppppp#ppppppp##",
"#mmmmm#mmmmmmm#mmmmmmm#mmmmmmm###nnnnn#nnnnnnn#nnnnnnn#nnnnnnn###ooooo#ooooooo#ooooooo#ooooooo###ppppp#ppppppp#ppppppp#ppppppp##",
"#mmmmmm#mmmmmm#mmmmmm#mmmmmmmm###nnnnnn#nnnnnn#nnnnnn#nnnnnnnn###oooooo#oooooo#oooooo#oooooooo###pppppp#pppppp#pppppp#pppppppp##",
"#mmmmmmm#mmmmm#mmmmm#mmmmmmmmm###nnnnnnn#nnnnn#nnnnn#nnnnnnnnn###ooooooo#ooooo#ooooo#ooooooooo###ppppppp#ppppp#ppppp#ppppppppp##",
"#mmmmmmm#mmmmm#mmmmm#mmmmmmmmm###nnnnnnn#nnnnn#nnnnn#nnnnnnnnn###ooooooo#ooooo#ooooo#ooooooooo###ppppppp#ppppp#ppppp#ppppppppp##",
"#mmmmmmm###mmm#mmmmm#mmmmmmmmm###nnnnnnn###nnn#nnnnn#nnnnnnnnn###ooooooo###ooo#ooooo#ooooooooo###ppppppp###ppp#ppppp#ppppppppp##",
".#mmmmmmmm#mmmmmmmm#mmmmmmmmm#...#nnnnnnnn#nnnnnnnn#nnnnnnnnn#...#oooooooo#oooooooo#ooooooooo#...#pppppppp#pppppppp#ppppppppp#..",
"..#mmmmmmm#mmmmmmm#mmmmmmmmm#.....#nnnnnnn#nnnnnnn#nnnnnnnnn#.....#ooooooo#ooooooo#ooooooooo#.....#ppppppp#ppppppp#ppppppppp#...",
"...#mmmmmmmmmmmmmmmmmmmmmmm#.......#nnnnnnnnnnnnnnnnnnnnnnn#.......#ooooooooooooooooooooooo#.......#ppppppppppppppppppppppp#....",
"....#mmmmmmmmmmmmmmmmmmmmm#.........#nnnnnnnnnnnnnnnnnnnnn#.........#ooooooooooooooooooooo#.........#ppppppppppppppppppppp#.....",
"....#mmmmmmmmmmmmmmmmmmmm#..........#nnnnnnnnnnnnnnnnnnnn#..........#oooooooooooooooooooo#..........#pppppppppppppppppppp#......",
"....#mmmmmmmmmmmmmmmmmmm#...........#nnnnnnnnnnnnnnnnnnn#...........#ooooooooooooooooooo#...........#ppppppppppppppppppp#.......",
"....#mmmmmmmmmmmmmmmmmmm#...........#nnnnnnnnnnnnnnnnnnn#...........#ooooooooooooooooooo#...........#ppppppppppppppppppp#.......",
"....#mmmmmmmmmmmmmmmmmmm###.........#nnnnnnnnnnnnnnnnnnn###.........#ooooooooooooooooooo###.........#ppppppppppppppppppp###.....",
"....#mmmmmmmmmmmmmmmmmmmmm#.........#nnnnnnnnnnnnnnnnnnnnn#.........#ooooooooooooooooooooo#.........#ppppppppppppppppppppp#.....",
"..###mmmmm###mmmmm#mmmmmmm###.....###nnnnn###nnnnn#nnnnnnn###.....###ooooo###ooooo#ooooooo###.....###ppppp###ppppp#ppppppp###...",
"..#mmmmmm#mmmmmmmmm#mmmmmmmm#.....#nnnnnn#nnnnnnnnn#nnnnnnnn#.....#oooooo#ooooooooo#oooooooo#.....#pppppp#ppppppppp#pppppppp#...",
"###mmmmm#mmmmmmmmmmm#mmmmmmm#######nnnnn#nnnnnnnnnnn#nnnnnnn#######ooooo#ooooooooooo#ooooooo#######ppppp#ppppppppppp#ppppppp####",
"###mmmmm#mmmmmmmmmmm#mmmmmmm#######nnnnn#nnnnnnnnnnn#nnnnnnn#######ooooo#ooooooooooo#ooooooo#######ppppp#ppppppppppp#ppppppp####",
"################################################################################################################################",
"################################################################################################################################"};
