/* XPM */
static char * ibwSchuh_xpm[] = {
"32 32 6 1",
" 	c None",
".	c #990000",
"+	c #000022",
"@	c #550000",
"#	c #000000",
"$	c #994400",
"                                ",
"                                ",
"                                ",
"                                ",
"                                ",
"                    .......     ",
"                  ..++++++..    ",
"                 ..+++++++++.   ",
"                 ..+++++++++.   ",
"                 .++++++++..+.  ",
"                 .+++.....+++.  ",
"               ...+++.@@@@+++.  ",
"        ##     .$$....@@@@+++.  ",
"       #       .$$$$.@@@@@+++.  ",
"       ##       .$$$.@@@@@+++.  ",
"        ##      .$@@#@@@@@+++.  ",
"         #  ## .$@#$@@@@@@+++.  ",
"          ## .#.###$@@@@@@+++.  ",
"          # ...##$$@@@@@@@+++.  ",
"      ... #..$$$$##@@@@@@@+++.  ",
"    ..$$$.#.$@@$$@@#@@@@@@+++.  ",
"   ..$#$$$#$$$$$@@@@#@@@@@+++.  ",
"  .$$@$#$###@$$@@@@@#@@@@@+++.  ",
"  .$$@$$$#$$$@@@@@@@@#@@@@+++.  ",
"  .@$$$$#$$@@@@@@@@@@@#@@@+++.  ",
"  @@@$$$#@@@@@@@@@@@@@#@@++++.  ",
"  @@@@@@@#@@@@@@@@@@@#@@@++++.  ",
"  @@@@@@@@@@@@@@@@@@@@@@@++++.  ",
"  @@@@@@@@@@@@@@@@@@@@@++++++   ",
"   +++++++++@@@@@@@++++++++++   ",
"     ...+++++++++++++++++++     ",
"      ....................      "};
