/* XPM */
static char * ibwWellen_xpm[] = {
"320 96 11 1",
" 	c None",
".	c #C8DCFF",
"+	c #C6B485",
"@	c #B29F65",
"#	c #000000",
"$	c #918054",
"%	c #FF9400",
"&	c #C66D00",
"*	c #5B4F36",
"=	c #174389",
"-	c #A55800",
"................................................................................................................................................................................................................................................................................................................................",
"................................................................................................................................................................................................................................................................................................................................",
"................................................................................................................................................................................................................................................................................................................................",
"................................................................................................................................................................................................................................................................................................................................",
"................................................................................................................................................................................................................................................................................................................................",
"................................................................................................................................................................................................................................................................................................................................",
"................................................................................................................................................................................................................................................................................................................................",
"................................................................................................................................................................................................................................................................................................................................",
"................................................................................................................................................................................................................................................................................................................................",
"................................................................................................................................................................................................................................................................................................................................",
"................................................................................................................................................................................................................................................................................................................................",
"................................................................................................................................................................................................................................................................................................................................",
"................................................................................................................................................................................................................................................................................................................................",
"................................................................................................................................................................................................................................................................................................................................",
"................................................................................................................................................................................................................................................................................................................................",
"................................................................................................................................................................................................................................................................................................................................",
"................................................................................................................................................................................................................................................................................................................................",
"................................................................................................................................................................................................................................................................................................................................",
"................................................................................................................................................................................................................................................................................................................................",
"................................................................................................................................................................................................................................................................................................................................",
"................................................................................................................................................................................................................................................................................................................................",
"................................................................................................................................................................................................................................................................................................................................",
"................................................................................................................................................................................................................................................................................................................................",
"................................................................................................................................................................................................................................................................................................................................",
"..................................................................................................................++++++@.......................................................................................................................................................................................................",
".................................................................................................................++++++@@@@.....................................................................................................................................................................................................",
"...............................................................................................................+++++@@@@++@@....................................................................................................................................................................................................",
"..............................................................................................................+++++@@@@@@@@@@...................................................................................................................................................................................................",
"..............................................................................................................@@@@##@@@@@@@@@@..................................................................................................................................................................................................",
".............................................................................................................@@@@####@@@@@@@@@@.................................................................................................................................................................................................",
".............................................................................................................@@@@####@@@@@@@$$@.................................................................................................................................................................................................",
"............................................................................................................@@@@@@##@@@@@@@@$$$@................................................................................................................................................................................................",
"............................................................................................................@+@@@@@@@@@@@@@@$$$$................................................................................................................................................................................................",
"...........................................................................................................%@@@@@@@@@@@@@@@@$$$$................................................................................................................................................................................................",
"......................................................................................................%%%%%%%@@@@@@@@@@@@@@@$$$$$...............................................................................................................................................................................................",
"...................................................................................................%%%%%%%%%%@@@@@@@@@@@@@@@@$$$@...............................................................................................................................................................................................",
"................................................................................................%%%%%%%%%%%%%%$@@@@@@@@@@@@@@$$$$...............................................................................................................................................................................................",
"................................................................................................%%%%%%%%%%%%%%@@@@@@@@@@@@@$$@$$$...............................................................................................................................................................................................",
"................................................................................................&&&&&&&&&&&&&&@@@@@@@@@@@@$$$@$$@@..............................................................................................................................................................................................",
".................................................................................................&&&&&&&&&&&&&$@@@@@@@@@@@@$@@$$$@..............................................................................................................................................................................................",
"............................................................................................................$*$$@@@@@@@@@@@@@@@$$$..............................................................................................................................................................................................",
".............................................................................................................$$@@@@@@@@@@@@@$@@$$$@.............................................................................................................................................................................................",
"..............................................................................................................@@@@@@@@@@@@@@@@@@$$@.............................................................................................................................................................................................",
"..............................................................................................................@@$@$@@@@@@@@@$@$@@@@@............................................................................................................................................................................................",
"...............................................................................................................$$@@@@$$@$$$@$@@@@@@@............................................................................................................................................................................................",
"...............................................................................................................@@@$@@$$@@@@@@@@@@++@@.................................................@+++@.....................................................................................................................................",
"................................................................................................................@@$@@$@@@@@@@@@@@@@@@@..........................................@@@@++@@@@@.....................................................................................................................................",
"................................................................................................................@@$$@@@@@@@+@@@@++@@@@@.......................................@@@@@++++++@@.....................................................................................................................................",
".................................................................................................................@@$@@@@@@@@@@@@@@@@@@@@$$+...............................++++++@@++++@@@@......................................................................................................................................",
".................................................................................................................@@@@@@@@@@@@@@@@@@@@@@$$++++...........................@++++++@@@@++@@@@@......................................................................................................................................",
"..................................................................................................................@@@@@@@@@@@@@@@@@@@@$$$++++++.....................++++++++@@@@@@@@@@@@$$......................................................................................................................................",
"..................................................................................................................@@@@@@@@@@@@@@@@@@@@$$@$++++++++++.............@@@@++++++@@@@@@@@@@@@@@.......................................................................................................................................",
"..................................................................................................................@@@@@@@@@@@@@@@@@@@@$$@@@@++++++++++++++++++@@@@$$@@@@@@@@@@@@@@@@@@@@@.......................................................................................................................................",
"..................................................................................................................@@@@@@@@@@@@@@@@@@@@$$@@@@+++++++++++++++++@@@@$$$@@@@@@@@@@@@@@@@@@@@@.......................................................................................................................................",
"..................................................................................................................@@@@@@@@$$@@@@@@@@@@$$$@@@++++++++++++++++@@@@$$$@@@$$@@@@$$@@@@$$$$@@........................................................................................................................................",
"..................................................................................................................@@@@@@@@@@@@@@@@@@@@@$@@@@@++++++++++++@@@@@@@$@@@@@@@@@@@@@@@@@@$$$@@........................................................................................................................................",
"...................................................................................................................@@@@@@@@@@@@@@@@@@@@*$$@@@@@+++++++++@@@@@@$$@@$$$@@@@@@@@@@@@@@@@@$$........................................................................................................................................",
"...................................................................................................................@@@@@@@@@@@@@@@@@@@@@$$@@@@@@@@@@@@@@@@@@@@@$@@@@@@@@@@@@@@@@@@@@@$$$........................................................................................................................................",
"...................................................................................................................@@@@@$$@@@@@@@@$$@@@@@$$@@@@@@@@@@@@@@@@@@@@@$$***@@@@@@@$$@@@@@@$$*$........................................................................................................................................",
"...................................................................................................................@@@@@@@@@@@@@@@@@@@@@@$$$@@@@@@@@@@@@@@@@@@@@$$$$$$@@@@@@@@@@@@@$$$$.........................................................................................................................................",
"....................................................................................................................@@@@@@@@@@$$@@@@@@@@@@$$@@@@@@@@@@@@@@@@@@$$@@@@$$@@$$@@@@@@@$$@@$*.........................................................................................................................................",
"....................................................................................................................@@@@@@@@@@$$@@@@@@@@@@@$$@@@@@@@@@@@@@@@@@@@@@$$$@@@@$$@@@**$$$$$**.........................................................................................................................................",
"....................................................................................................................$$@@@@@@$$@@$$@@@@@@@@@@$$$@@@@@@@@@@@@@@@@@$$$@@@@@@@@@@@$$$**$**..........................................................................................................................................",
"....................................................................................................................$$$@@@@@@@@@@@@@@@@@@@@@@$$$$$@@@@@@@@@@@@@$$$@@@@@@@@@@@$$$$$$***..........................................................................................................................................",
".....................................................................................................................$$$$$@@@@@@@@@@$$@@$$@@@@@@@@$$$$$$$$*$$$$*@@@@$$$$@@$$$$**$$***...........................................................................................................................................",
".....................................................................................................................$$$$$$@@@@@@@@$$$$@$@@@@@@@@@@@@$$$$$$**@@@@$@$$$$$$$$$$$**$****..........................................................................................................................========.........",
"............................................................======....................................................$$$$$$$$$$**$$**$$@@@$@@$@@@@@@@@@@@@@@@$$@@$$$$**$$****$$****....................................................=======..............................................................============.......",
"..........................................................==========..................................................$$$$$$$@@$$$$$$$$$@@@@@@$$@$@@@@@@$$@@@@$$@@$$$****$$$*******...................................................============.........................................................======#########......",
"........................................................==============............................................=====***$$$$$$$$**$$$$**$$**$$*$@====####=======********$$******...======...........######......====................=============###....................................................=====##         ######",
"......................................................=================.......................................===========*$$$$$$$$$$$$$***$$$$$$$====##****####======************===============.....#      ##..========.............============##   ##.................................................=====#                 ",
"..................======....##########..............====================................======.............##===============**************$$$$====###**********#####======**=======================##         ####=======...........===========##       ##=.......========...........#####..............=====#                  ",
"................=========###          ####.........========================...........==========.........##  #===================*********$$===###******************##===========================##               ####====..........==========#           ##..================...####     ####.........=====#                   ",
"....###.......==========#                 ####...=======================#######.....================...##     ###=====================**======#***********************##========================#                     ##===.........=========#              ####================#             ##==....======#                   ",
"...#   #.....==========#                      ##=====================###       #.====================##          ##==========================#**************************##=====================#                        ##==........========#                   ##=============#                ##=========#                    ",
"..#     #...==========#                         #==================##           ###=================#              ##=======================#**************************** ####================#                           ##=......=========#                     #==========##                   #======##                     ",
".#       #===========#                           #================#                #===============#                 #=====================#      *************&&&**          ##=============#                              ##...==========#                       #=======##                      #===##                       ",
"#         ##=======##                             ##=============#                  #============##                   ##=================##          &&&        &&&             ##========###                                 ##==========#                         #######                         ###                         ",
"            ##===##                                 ##==========#                    #=========##                       ##=============##             &&&        &&&&             ##=====#                                      ##=======#                                                                                      ",
"              ###                                     #=========#                     #======##                           ###========##                &&&        &&&&              ##=##                                         #===###                                                                                       ",
"                                                       #=======#                       #===##                                ###===##                   &&&&       &&&&&              #                                            ###                                                                                          ",
"                                                        ###===#                         #=#                                     ###                      &&&&       &&&&&&---                                                                                                                                                   ",
"                                                           #=#                           #                                                                &&&&     &&&&&&&--                                                                                                                                                    ",
"                                                            #                                                                                              &&&&& &&&&&&---                                                                                                                                                      ",
"                                                                                                                                                         &&&&&&&-&&-----                                                                                                                                                        ",
"                                                                                                                                                      &&&&&&----- --                                                                                                                                                            ",
"                                                                                                                                                      &&------                                                                                                                                                                  ",
"                                                                                                                                                       &---                                                                                                                                                                     ",
"                                                                                                                                                                                                                                                                                                                                ",
"                                                                                                                                                                                                                                                                                                                                ",
"                                                                                                                                                                                                                                                                                                                                ",
"                                                                                                                                                                                                                                                                                                                                ",
"                                                                                                                                                                                                                                                                                                                                ",
"                                                                                                                                                                                                                                                                                                                                ",
"                                                                                                                                                                                                                                                                                                                                ",
"                                                                                                                                                                                                                                                                                                                                ",
"                                                                                                                                                                                                                                                                                                                                "};
