/* XPM */
static char * ieGrauN_xpm[] = {
"128 64 6 1",
" 	c None",
".	c #AFAFAF",
"+	c #CCCCCC",
"@	c #666666",
"#	c #848484",
"$	c #BCBCBC",
"..+++                      +++@@@@###$$$$$$$$$$$$$$$$$$$$$$$$$....+++                      +++@@@@###$$$$$$$$$$$$$$$$$$$$$$$$$..",
"+++@@                      ..+++###$$$$$$$$$$$$$$$$$$$$$$$$$$$$$+++@@                      ..+++###$$$$$$$$$$$$$$$$$$$$$$$$$$$$$",
"+@@@@                      ....+++$$$$$$$$$$$$$$$$$$$$$$$$$$$$+++@@@@                      ....+++$$$$$$$$$$$$$$$$$$$$$$$$$$$$++",
"@@@@@                      .....+++@$$$$$$$$$$$$$$$$$$$$$$$$+++@@@@@@                      ......+++$$$$$$$$$$$$$$$$$$$$$$$$+++@",
"@@@@@                      ...+++@@@#$$$$$$$$$$$$$$$$$$$$$+++@@@@@@@@                      ........+++$$$$$$$$$$$$$$$$$$$$+++@@@",
"@@@            ++           +++@@@@@###$$$$$$$$$$$$$$$$$+++@@@@@@@@            ++            ........+++$$$$$$$$$$$$$$$$+++@@@@@",
"@    +       ++++++       +++@@@@@@###$$$+$$$$$$$$$$$$+++@@@@@@@@    +++     ++++++    ++      ........+++$$$$$$$$$$$$+++@@@@@@@",
"     .@    +++@@..+++   +++@@@@@@###$$$+++++$$$$$$$$+++@@@@@@@@     ++@@#  +++@@..+++  .+++      ........+++$$$$$$$$+++@@@@@@@@ ",
"    ..@@ +++@@@@#...+++++@@@@@@###$$$+++@@.+++$$$$+++@@@@@@@@       +@@@@@++@@@@#...+++...++       ........+++$$$$+++@@@@@@@@   ",
"    .@@@@+@@@@@@#.....+@@@@@@###$$$+++@@@@#..++++++@@@@@@@@         .@@@@@@@@@@@#.....+....@         ........++++++@@@@@@@@     ",
"    .@@@@@@@@@###$....@@@@@###$$$+++@@@@@@#....++@@@@@@@@          .@@@@@@@@@@###$.........@           ........++@@@@@@@@       ",
"   .@@@@@@@@###$$$$$..@@@###$$$+++@@@@@@@@##....@@@@@@@            .@@@@@@@@###$$$$$.......@#            .......@@@@@@@         ",
" +++@@@@@@####$$$$$$$$@###$$$+++@@@@@@@@   #....@@@@@            +++@@@@@@###$$$$$$$$$......+++            .....@@@@@           ",
"++@@@@@@#####$$$$$$$$$$$$$$$..+++@@@@@       ...@@@            +++@@@@@@#####$$$$$$$$$$$......+++            ...@@@            +",
"@@@@@@#####$$$$$$$$$$$$$$$$$....+++@           .@            +++@@@@@@#####$$$$$$$$$$$$$$$......+++            .@            +++",
"@@@@###$$$$$$$$$$$$$$$$$$$$$......+++                      +++@@@@@@###$$$$$$$$$$$$$$$$$$$$$......+++                      +++@@",
"@@###$$$$$$$$$$$$$$$$$$$$$$$$$....+++                      +++@@@@###$$$$$$$$$$$$$$$$$$$$$$$$$....+++                      +++@@",
"###$$$$$$$$$$$$$$$$$$$$$$$$$$$$$+++@@                      ..+++###$$$$$$$$$$$$$$$$$$$$$$$$$$$$$+++@@                      ..+++",
"++$$$$$$$$$$$$$$$$$$$$$$$$$$$$+++@@@@                      ....+++$$$$$$$$$$$$$$$$$$$$$$$$$$$$+++@@@@                      ....+",
".+++$$$$$$$$$$$$$$$$$$$$$$$$.+++@@@@@                      .....+++@$$$$$$$$$$$$$$$$$$$$$$$$.+++@@@@@                      .....",
"...+++$$$$$$$$$$$$$$$$$$$$$$...+++@@@                      ...+++@@@#$$$$$$$$$$$$$$$$$$$$$$$...+++@@@                ++    .....",
".....+++$$$$$$$$$$$$$$$$$$$$.....+++           ++           +++@@@@@###$$$$$$$$$$$$$$$$$$$$$.....+++           ++    .++     ...",
".......+++$$$$$$$$$$$$+$$$$$$......+++       ++++++       +++@@@@@@###$$$+$$$$$$$$$$$$+$$$$$$......+++       ++++++  ..@       .",
" ........+++$$$$$$$$+++++$$$$$$......+++   +++@@..+++   +++@@@@@@###$$$+++++$$$$$$$$+++++$$$$$$......+++   +++@@..+++..@   ++   ",
"   ........+++$$$$+++@@.+++$$$$$$......+++++@@@@#...+++++@@@@@@###$$$+++@@.+++$$$$+++@@.+++$$$$$$......+++++@@@@#...+..@   .++  ",
"     ........++++++@@@@#..+++$$$$$$......+@@@@@@#.....+@@@@@@###$$$+++@@@@#..++++++@@@@#..+++$$$$$$......+@@@@@@#......@#  ..@  ",
"       ........++@@@@@@#....+++$$$$$$....@@@@@###$....@@@@@###$$$+++@@@@@@#....++@@@@@@#....+++$$$$$$....@@@@@###$......+++..@  ",
"         .......@@@@@@@##.....+++$$$$$$..@@@###$$$$$..@@@###$$$+++@@@@@@@@##....@@@@@@@##.....+++$$$$$$..@@@###$$$$$......+..@  ",
"           .....@@@@@   #.......+++$$$$$$@###$$$$$$$$$@###$$$+++@@@@@@@@   #....@@@@@   #.......+++$$$$$$@###$$$$$$$$$.......@# ",
"+            ...@@@       .....+++@@$$$$$$$$$$$$$$$$$$$$$$$$..+++@@@@@       ...@@@       .....+++@@$$$$$$$$$$$$$$$$$$$$......++",
"+++            .@           .+++@@@@##$$$$$$$$$$$$$$$$$$$$$$....+++@           .@           .+++@@@@##$$$$$$$$$$$$$$$$$$$$......",
"..+++                      +++@@@@@@###$$$$$$$$$$$$$$$$$$$$$......+++                      +++@@@@@@###$$$$$$$$$$$$$$$$$$$$$....",
"                           +++@@@@###$$$$$$$$$$$$$$$$$$$$$$$$$..                                @@###$$$$$$$$$$$$$$$$$$$$$$$$$..",
"                           ..+++###$$$$$$$$$$$$$$$$$$$$$$$$$$$$$                                ###$$$$$$$$$$$$$$$$$$$$$$$$$$$$$",
"                           ....+++$$$$$$$$$$$$$$$$$$$$$$$$$$$$++                                ++$$$$$$$$$$$$$$$$$$$$$$$$$$$$++",
"                           .....+++@$$$$$$$$$$$$$$$$$$$$$$$$+++@                                .+++$$$$$$$$$$$$$$$$$$$$$$$$+++@",
"                           ...+++@@@#$$$$$$$$$$$$$$$$$$$$$+++@@@                                ...+++$$$$$$$$$$$$$$$$$$$$+++@@@",
"               ++           +++@@@@@###$$$$$$$$$$$$$$$$$+++@@@@@               ++               .....+++$$$$$$$$$$$$$$$$+++@@@@@",
"     +       ++++++       +++@@@@@@###$$$+$$$$$$$$$$$$+++@@@@@@@     +++     ++++++    ++       .......+++$$$$$$$$$$$$+++@@@@@@@",
"     .@    +++@@..+++   +++@@@@@@###$$$+++++$$$$$$$$+++@@@@@@@@     ++@@#  +++@@..+++  .+++      ........+++$$$$$$$$+++@@@@@@@@ ",
"    ..@@ +++@@@@#...+++++@@@@@@###$$$+++@@.+++$$$$+++@@@@@@@@       +@@@@@++@@@@#...+++...++       ........+++$$$$+++@@@@@@@@   ",
"    .@@@@+@@@@@@#.....+@@@@@@###$$$+++@@@@#..++++++@@@@@@@@         .@@@@@@@@@@@#.....+....@         ........++++++@@@@@@@@     ",
"    .@@@@@@@@@###$....@@@@@###$$$+++@@@@@@#....++@@@@@@@@          .@@@@@@@@@@###$.........@           ........++@@@@@@@@       ",
"   .@@@@@@@@###$$$$$..@@@###$$$+++@@@@@@@@##....@@@@@@@            .@@@@@@@@###$$$$$.......@#            .......@@@@@@@         ",
" +++@@@@@@####$$$$$$$$@###$$$+++@@@@@@@@   #....@@@@@            +++@@@@@@###$$$$$$$$$......+++            .....@@@@@           ",
"++@@@@@@#####$$$$$$$$$$$$$$$..+++@@@@@       ...@@@             ++@@@@@@#####$$$$$$$$$$$......++             ...@@@             ",
"@@@@@@#####$$$$$$$$$$$$$$$$$....+++@           .@               @@@@@@#####$$$$$$$$$$$$$$$......               .@               ",
"@@@@###$$$$$$$$$$$$$$$$$$$$$......+++                           @@@@###$$$$$$$$$$$$$$$$$$$$$....                                ",
"@@###$$$$$$$$$$$$$$$$$$$$$$$$$....+++                      +++@@@@###$$$$$$$$$$$$$$$$$$$$$$$$$....+++                           ",
"###$$$$$$$$$$$$$$$$$$$$$$$$$$$$$+++@@                      ..+++###$$$$$$$$$$$$$$$$$$$$$$$$$$$$$+++@@                           ",
"++$$$$$$$$$$$$$$$$$$$$$$$$$$$$+++@@@@                      ....+++$$$$$$$$$$$$$$$$$$$$$$$$$$$$+++@@@@                           ",
".+++$$$$$$$$$$$$$$$$$$$$$$$$.+++@@@@@                      .....+++@$$$$$$$$$$$$$$$$$$$$$$$$.+++@@@@@                           ",
"...+++$$$$$$$$$$$$$$$$$$$$$$...+++@@@                      ...+++@@@#$$$$$$$$$$$$$$$$$$$$$$$...+++@@@                ++         ",
".....+++$$$$$$$$$$$$$$$$$$$$.....+++           ++           +++@@@@@###$$$$$$$$$$$$$$$$$$$$$.....+++           ++    .++        ",
".......+++$$$$$$$$$$$$+$$$$$$......+++       ++++++       +++@@@@@@###$$$+$$$$$$$$$$$$+$$$$$$......+++       ++++++  ..@        ",
" ........+++$$$$$$$$+++++$$$$$$......+++   +++@@..+++   +++@@@@@@###$$$+++++$$$$$$$$+++++$$$$$$......+++   +++@@..+++..@   ++   ",
"   ........+++$$$$+++@@.+++$$$$$$......+++++@@@@#...+++++@@@@@@###$$$+++@@.+++$$$$+++@@.+++$$$$$$......+++++@@@@#...+..@   .++  ",
"     ........++++++@@@@#..+++$$$$$$......+@@@@@@#.....+@@@@@@###$$$+++@@@@#..++++++@@@@#..+++$$$$$$......+@@@@@@#......@#  ..@  ",
"       ........++@@@@@@#....+++$$$$$$....@@@@@###$....@@@@@###$$$+++@@@@@@#....++@@@@@@#....+++$$$$$$....@@@@@###$......+++..@  ",
"         .......@@@@@@@##.....+++$$$$$$..@@@###$$$$$..@@@###$$$+++@@@@@@@@##....@@@@@@@##.....+++$$$$$$..@@@###$$$$$......+..@  ",
"           .....@@@@@   #.......+++$$$$$$@###$$$$$$$$$@###$$$+++@@@@@@@@   #....@@@@@   #.......+++$$$$$$@###$$$$$$$$$.......@# ",
"             ...@@@       .....+++@@$$$$$$$$$$$$$$$$$$$$$$$$..+++@@@@@       ...@@@       .....+++@@$$$$$$$$$$$$$$$$$$$$......++",
"               .@           .+++@@@@##$$$$$$$$$$$$$$$$$$$$$$....+++@           .@           .+++@@@@##$$$$$$$$$$$$$$$$$$$$......",
"                           +++@@@@@@###$$$$$$$$$$$$$$$$$$$$$......+++                      +++@@@@@@###$$$$$$$$$$$$$$$$$$$$$...."};
