/* XPM */
static char * ieGras_xpm[] = {
"128 64 12 1",
" 	c None",
".	c #AFAFAF",
"+	c #CCCCCC",
"@	c #666666",
"#	c #1321DA",
"$	c #232EB4",
"%	c #2231A1",
"&	c #171F88",
"*	c #848484",
"=	c #6871E7",
"-	c #9BA1EE",
";	c #EFF1FE",
"..+++                      +++@@@@@@    ###############$    ......+++                      +++@@@@@@    ###############$    ....",
"+++@@                      ..+++@@      $##############$      ..+++@@                      ..+++@@      $##############$      ..",
"+@@@@                      ....+++      $$###########$$$      +++@@@@                      ....+++      $############$$$      ++",
"@@@@@                      .....+++@    $##$$###$$$$$$%%    +++@@@@@@                      ......+++    $#######$$$$$$%%    +++@",
"@@@@@                      ...+++@@@    $$$$###$$%%%%%%%  +++@@@@@@@@                      ........+++  $$$$###$$%%%%%%%  +++@@@",
"@@@            ++           +++@@@@@     &&$$$$$&%%%%%% +++@@@@@@@@            ++            ........+++ &&$$$$$&%%%%%% +++@@@@@",
"@            ++++++       +++@@@@@@@     +&&&&&&&%%%%%+++@@@@@@@@            ++++++            ........+++&&&&&&&%%%%%+++@@@@@@@",
"           +++@@..+++   +++@@@@@@@@    +++++&&&&&%%%+++@@@@@@@@            +++@@..+++            ........+++&&&&&%%%+++@@@@@@@@ ",
"         +++@@@@*...+++++@@@@@@@@    +++@@.+++&&&%+++@@@@@@@@            +++@@@@*...+++            ........+++&&&%+++@@@@@@@@   ",
"       +++@@@@@@*.....+@@@@@@@@    +++@@@@*..++++++@@@@@@@@            +++@@@@@@*.....+++            ........++++++@@@@@@@@     ",
"     +++@@@@@#####$...@@@@@@@    +++@@@@@@*....++@@@@@@@@            +++@@@@@#####$.....+++            ........++@@@@@@@@       ",
"   +++@@@@@########$$.@@@@@    +++@@@@@@@@**....@@@@@@@            +++@@@@@########$$.....+++            .......@@@@@@@         ",
" +++@@@@@@##===######$@@@    +++@@@@@@@@   *....@@@@@            +++@@@@@@##===######$......+++            .....@@@@@           ",
"++@@@@@@@##---==######$     ..+++@@@@@       ...@@@            +++@@@@@@@##---==######$.......+++            ...@@@            +",
"@@@@@@@@ ##-;-########$     ....+++@           .@            +++@@@@@@@@ ##-;-########$ ........+++            .@            +++",
"@@@@@@  ##=--=#########$    ......+++                      +++@@@@@@@@  ##=--=#########$  ........+++                      +++@@",
"@@@@    ##############$$    ......+++                      +++@@@@@@    ##############$$    ......+++                      +++@@",
"@@      $##############$      ..+++@@                      ..+++@@      $##############$      ..+++@@                      ..+++",
"++      $###########$$$$      +++@@@@                      ....+++      $$##########$$$$      +++@@@@                      ....+",
".+++    $#######$$$$$$%$    .+++@@@@@                      .....+++@    $##$####$$$$$$%$    .+++@@@@@                      .....",
"...+++  $$$$###$$%%%%%%%    ...+++@@@                      ...+++@@@    $$$$###$$%%%%%%%    ...+++@@@                      .....",
".....+++ &&$$$$$&%%%%%%     .....+++           ++           +++@@@@@     &&$$$$$&%%%%%%     .....+++           ++            ...",
".......+++&&&&&&&%%%%%+     .......+++       ++++++       +++@@@@@@@     +&&&&&&&%%%%%+     .......+++       ++++++            .",
" ........+++&&&&&%%%+++++    ........+++   +++@@..+++   +++@@@@@@@@    +++++&&&&&%%%+++++    ........+++   +++@@..+++           ",
"   ........+++&&&%+++@@.+++    ........+++++@@@@*...+++++@@@@@@@@    +++@@.+++&&&%+++@@.+++    ........+++++@@@@*...+++         ",
"     ........++++++@@@@*..+++    ........+@@@@@@*.....+@@@@@@@@    +++@@@@*..++++++@@@@*..+++    ........+@@@@@@*.....+++       ",
"       ........++@@@@@@*....+++    ......@@@@#####$...@@@@@@@    +++@@@@@@*....++@@@@@@*....+++    ......@@@@#####$.....+++     ",
"         .......@@@@@@@**.....+++    ....@@########$$.@@@@@    +++@@@@@@@@**....@@@@@@@**.....+++    ....@@########$$.....+++   ",
"           .....@@@@@   *.......+++    ..@##===######$@@@    +++@@@@@@@@   *....@@@@@   *.......+++    ..@##===######$......+++ ",
"+            ...@@@       .....+++@@     ##---==######$     ..+++@@@@@       ...@@@       .....+++@@     ##---==######$.......++",
"+++            .@           .+++@@@@     ##-;-########$     ....+++@           .@           .+++@@@@     ##-;-########$ ........",
"..+++                      +++@@@@@@    ##=--=#########$    ......+++                      +++@@@@@@    ##=--=#########$  ......",
"                           +++@@@@@@    ###############$    ....                                @@@@    ###############$    ....",
"                           ..+++@@      $##############$      ..                                @@      $##############$      ..",
"                           ....+++      $$###########$$$      ++                                ++      $############$$$      ++",
"                           .....+++@    $##$$###$$$$$$%%    +++@                                .+++    $#######$$$$$$%%    +++@",
"                           ...+++@@@    $$$$###$$%%%%%%%  +++@@@                                ...+++  $$$$###$$%%%%%%%  +++@@@",
"               ++           +++@@@@@     &&$$$$$&%%%%%% +++@@@@@               ++               .....+++ &&$$$$$&%%%%%% +++@@@@@",
"             ++++++       +++@@@@@@@     +&&&&&&&%%%%%+++@@@@@@@             ++++++             .......+++&&&&&&&%%%%%+++@@@@@@@",
"           +++@@..+++   +++@@@@@@@@    +++++&&&&&%%%+++@@@@@@@@            +++@@..+++            ........+++&&&&&%%%+++@@@@@@@@ ",
"         +++@@@@*...+++++@@@@@@@@    +++@@.+++&&&%+++@@@@@@@@            +++@@@@*...+++            ........+++&&&%+++@@@@@@@@   ",
"       +++@@@@@@*.....+@@@@@@@@    +++@@@@*..++++++@@@@@@@@            +++@@@@@@*.....+++            ........++++++@@@@@@@@     ",
"     +++@@@@@#####$...@@@@@@@    +++@@@@@@*....++@@@@@@@@            +++@@@@@#####$.....+++            ........++@@@@@@@@       ",
"   +++@@@@@########$$.@@@@@    +++@@@@@@@@**....@@@@@@@            +++@@@@@########$$.....+++            .......@@@@@@@         ",
" +++@@@@@@##===######$@@@    +++@@@@@@@@   *....@@@@@            +++@@@@@@##===######$......+++            .....@@@@@           ",
"++@@@@@@@##---==######$     ..+++@@@@@       ...@@@             ++@@@@@@@##---==######$.......++             ...@@@             ",
"@@@@@@@@ ##-;-########$     ....+++@           .@               @@@@@@@@ ##-;-########$ ........               .@               ",
"@@@@@@  ##=--=#########$    ......+++                           @@@@@@  ##=--=#########$  ......                                ",
"@@@@    ##############$$    ......+++                      +++@@@@@@    ##############$$    ......+++                           ",
"@@      $##############$      ..+++@@                      ..+++@@      $##############$      ..+++@@                           ",
"++      $###########$$$$      +++@@@@                      ....+++      $$##########$$$$      +++@@@@                           ",
".+++    $#######$$$$$$%$    .+++@@@@@                      .....+++@    $##$####$$$$$$%$    .+++@@@@@                           ",
"...+++  $$$$###$$%%%%%%%    ...+++@@@                      ...+++@@@    $$$$###$$%%%%%%%    ...+++@@@                           ",
".....+++ &&$$$$$&%%%%%%     .....+++           ++           +++@@@@@     &&$$$$$&%%%%%%     .....+++           ++               ",
".......+++&&&&&&&%%%%%+     .......+++       ++++++       +++@@@@@@@     +&&&&&&&%%%%%+     .......+++       ++++++             ",
" ........+++&&&&&%%%+++++    ........+++   +++@@..+++   +++@@@@@@@@    +++++&&&&&%%%+++++    ........+++   +++@@..+++           ",
"   ........+++&&&%+++@@.+++    ........+++++@@@@*...+++++@@@@@@@@    +++@@.+++&&&%+++@@.+++    ........+++++@@@@*...+++         ",
"     ........++++++@@@@*..+++    ........+@@@@@@*.....+@@@@@@@@    +++@@@@*..++++++@@@@*..+++    ........+@@@@@@*.....+++       ",
"       ........++@@@@@@*....+++    ......@@@@#####$...@@@@@@@    +++@@@@@@*....++@@@@@@*....+++    ......@@@@#####$.....+++     ",
"         .......@@@@@@@**.....+++    ....@@########$$.@@@@@    +++@@@@@@@@**....@@@@@@@**.....+++    ....@@########$$.....+++   ",
"           .....@@@@@   *.......+++    ..@##===######$@@@    +++@@@@@@@@   *....@@@@@   *.......+++    ..@##===######$......+++ ",
"             ...@@@       .....+++@@     ##---==######$     ..+++@@@@@       ...@@@       .....+++@@     ##---==######$.......++",
"               .@           .+++@@@@     ##-;-########$     ....+++@           .@           .+++@@@@     ##-;-########$ ........",
"                           +++@@@@@@    ##=--=#########$    ......+++                      +++@@@@@@    ##=--=#########$  ......"};
