/* XPM */
static char * ieRot_xpm[] = {
"128 160 12 1",
" 	c None",
".	c #AFAFAF",
"+	c #CCCCCC",
"@	c #666666",
"#	c #A33104",
"$	c #E34A06",
"%	c #CB4206",
"&	c #848484",
"*	c #B13504",
"=	c #F68E65",
"-	c #641C03",
";	c #000000",
"..+++                      +++@@##$$$$$$$$$$$$$$$$$$$$$$$$$$$$%%..+++                      +++@@##$$$$$$$$$$$$$$$$$$$%%#$$$%%%%%",
"+++@@                      ..+++##$$$$$$$$$$$$$$$$$$$$$$$$$$$$%%+++@@                      ..+++##$$$$$$$$$$$$$$$$$$$$%#$$$%%#%%",
"+@@@@                      ....+++$$$$$$$$$$$$$$$$$$$$$$$$$$$$+++@@@@                      ....+++$$$$$$$$$$$$$$$$$$$$$$$$$%%#++",
"@@@@@                      .....+++@$$$$$$$$$$$$$$$$$$$$$$$$+++@@@@@@                      ......+++$$$$$$$$$$$$$$$$$$$$$$$%+++@",
"@@@@@                      ...+++@@@$$$$$$$$$$$$$$$$$$$$$$+++@@@@@@@@                      ........+++$$$$$$$$$$$$$$$$$$$$+++@@@",
"@@@            ++           +++@@@@#$$$$$$$$$$$$$$$$$$$$+++@@@@@@@@            ++            ........+++$$$$$$$$$$$$$$$$+++@@@@@",
"@    +       ++++++       +++@@@@###$$$$$+$$$$$$$$$$$$+++@@@@@@@@    +++     ++++++    ++      ........+++$$$$$$$$$$$$+++@@@@@@@",
"     .@    +++@@..+++   +++@@@@####$$$$+++++$$$$$$$$+++@@@@@@@@     ++@@&  +++@@..+++  .+++      ........+++$$$$$$$$+++@@@@@@@@ ",
"    ..@@ +++@@@@&...+++++@@@@####$$$$+++@@.+++$$$$+++@@@@@@@@       +@@@@@++@@@@&...+++...++       ........+++$$$$+++@@@@@@@@   ",
"    .@@@@+@@@@##*%....+@@@@####$$$$+++@@@@&..++++++@@@@@@@@         .@@@@@@@@@##*%....+....@         ........++++++@@@@@@@@     ",
"    .@@@@@@@####%%%%..@@@####$$$$+++@@@@@@&....++@@@@@@@@          .@@@@@@@@####%%%%.......@           ........++@@@@@@@@       ",
"   .@@@@@@####$$$$%%%%@####$$$$+++@@@@@@@@&&....@@@@@@@            .@@@@@@####$$$$%%%%.....@&            .......@@@@@@@         ",
" +++@@@@####$$$$$$$$%%###$$$$+++@@@@@@@@   &....@@@@@            +++@@@@####$$$$$$$$%%%%....+++            .....@@@@@           ",
"++@@@@####$$$$$$$$$$$$#$$$$$..+++@@@@@       ...@@@            +++@@@@####$$$$$$$$$$$$%%%%....+++            ...@@@            +",
"@@@@#####$$$$$$$$$$$$$$$$$$$....+++@           .@            +++@@@@######$$$$$$$$$$$$$%%%%%....+++            .@            +++",
"@@#######$$$$$$$$$$$$$$$$$$$%%....+++                      +++@@@@#######$$$$$$$$$$$$$$%%%%%%%....+++                      +++@@",
"####%###$$$$$$$$$$$$$$$$$$$$%%%%..+++                      +++@@#########$$$$$$$$$$$$$$%%%%#%%%%..+++                      +++@@",
"##$$$%##$$$$$$$$$$$$$$$$$$$$$$%%+++@@                      ..+++##$$%###$$$$$$$$$$$$$$$$%%%#$$%%+++@@                      ..+++",
"++$$$$%$$$$$$$$$$$$$$$$$$$$$$$+++@@@@                      ....+++$$$$$$$$$$$$$$$$$$$$$$$$%#$$+++@@@@                      ....+",
".+++$$$$$$$$$$$$$$$$$$$$$$$$.+++@@@@@                      .....+++@$$$$$$$$$$$$$$$$$$$$$$$$.+++@@@@@                      .....",
"...+++$$$$$$$$$$$$$$$$$$$$$$...+++@@@                      ...+++@@@$$$$$$$$$$$$$$$$$$$$$$$$...+++@@@                ++    .....",
".....+++$$$$$$$$$$$$$$$$$$$$%....+++           ++           +++@@@@#$$$$$$$$$$$$$$$$$$$$$$$$%....+++           ++    .++     ...",
".......+++$$$$$$$$$$$$+$$$$$%%%....+++       ++++++       +++@@@@###$$$$$+$$$$$$$$$$$$+$$$$$%%%....+++       ++++++  ..@       .",
" ........+++$$$$$$$$+++++$$$$%%%%....+++   +++@@..+++   +++@@@@####$$$$+++++$$$$$$$$+++++$$$$%%%%....+++   +++@@..+++..@   ++   ",
"   ........+++$$$$+++@@.+++$$$$%%%%....+++++@@@@&...+++++@@@@####$$$$+++@@.+++$$$$+++@@.+++$$$$%%%%....+++++@@@@&...+..@   .++  ",
"     ........++++++@@@@&..+++$$$$%%%%....+@@@@##*%....+@@@@####$$$$+++@@@@&..++++++@@@@&..+++$$$$%%%%....+@@@@##*%.....@&  ..@  ",
"       ........++@@@@@@&....+++$$$$%%%%..@@@####%%%%..@@@####$$$$+++@@@@@@&....++@@@@@@&....+++$$$$%%%%..@@@####%%%%....+++..@  ",
"         .......@@@@@@@&&.....+++$$$$%%%%@####$$$$%%%%@####$$$$+++@@@@@@@@&&....@@@@@@@&&.....+++$$$$%%%%@####$$$$%%%%....+..@  ",
"           .....@@@@@   &.......+++$$$$%%###$$$$$$$$%%###$$$$+++@@@@@@@@   &....@@@@@   &.......+++$$$$%%###$$$$$$$$%%%%.....@& ",
"+            ...@@@       .....+++@@$$$$$#$$$$$$$$$$$$#$$$$$..+++@@@@@       ...@@@       .....+++@@$$$$$#$$$$$$$$$$$%%%%%....++",
"+++            .@           .+++@@@@$$$$$$$$$$$$$$$$$$$$$$$$....+++@           .@           .+++@@@@$$$$$$$$$$$$$$$$$%%#%%%%....",
"..+++                      +++@@@@##$$$$$$$$$$$$$$$$$$$$$$$$%%....+++                      +++@@@@##$$$$$$$$$$$$$$$$$%%#$$%%%%..",
"                           +++@@####$$$$$$$$$$$$$$$$$$$$$$$$$$%%                                ####$$$$$$$$$$$$$$$$$%%#$$$%%%%%",
"                           ..+++##$$$$$$$$$$$$$$$$$$$$$$$$$$$$%%                                ##$$$$$$$$$$$$$$$$$$$$%#$$$%%#%%",
"                           ....+++$$$$$$$$$$$$$$$$$$$$$$$$$$$$++                                ++$$$$$$$$$$$$$$$$$$$$$$$$$%%#++",
"                           .....+++@$$$$$$$$$$$$$$$$$$$$$$$$+++@                                .+++$$$$$$$$$$$$$$$$$$$$$$$%+++@",
"                           ...+++@@@$$$$$$$$$$$$$$$$$$$$$$+++@@@                                ...+++$$$$$$$$$$$$$$$$$$$$+++@@@",
"               ++           +++@@@@#$$$$$$$$$$$$$$$$$$$$+++@@@@@               ++               .....+++$$$$$$$$$$$$$$$$+++@@@@@",
"     +       ++++++       +++@@@@###$$$$$+$$$$$$$$$$$$+++@@@@@@@     +++     ++++++    ++       .......+++$$$$$$$$$$$$+++@@@@@@@",
"     .@    +++@@..+++   +++@@@@####$$$$+++++$$$$$$$$+++@@@@@@@@     ++@@&  +++@@..+++  .+++      ........+++$$$$$$$$+++@@@@@@@@ ",
"    ..@@ +++@@@@&...+++++@@@@####$$$$+++@@.+++$$$$+++@@@@@@@@       +@@@@@++@@@@&...+++...++       ........+++$$$$+++@@@@@@@@   ",
"    .@@@@+@@@@##*%....+@@@@####$$$$+++@@@@&..++++++@@@@@@@@         .@@@@@@@@@##*%....+....@         ........++++++@@@@@@@@     ",
"    .@@@@@@@####%%%%..@@@####$$$$+++@@@@@@&....++@@@@@@@@          .@@@@@@@@####%%%%.......@           ........++@@@@@@@@       ",
"   .@@@@@@####$$$$%%%%@####$$$$+++@@@@@@@@&&....@@@@@@@            .@@@@@@####$$$$%%%%.....@&            .......@@@@@@@         ",
" +++@@@@####$$$$$$$$%%###$$$$+++@@@@@@@@   &....@@@@@            +++@@@@####$$$$$$$$%%%%....+++            .....@@@@@           ",
"++@@@@####$$$$$$$$$$$$#$$$$$..+++@@@@@       ...@@@             ++@@@@####$$$$$$$$$$$$%%%%....++             ...@@@             ",
"@@@@#####$$$$$$$$$$$$$$$$$$$....+++@           .@               @@@@######$$$$$$$$$$$$$%%%%%....               .@               ",
"@@#######$$$$$$$$$$$$$$$$$$$%%....+++                           @@#######$$$$$$$$$$$$$$%%%%%%%..                                ",
"####%###$$$$$$$$$$$$$$$$$$$$%%%%..+++                      +++@@#########$$$$$$$$$$$$$$%%%%#%%%%..+++                           ",
"##$$$%##$$$$$$$$$$$$$$$$$$$$$$%%+++@@                      ..+++##$$%###$$$$$$$$$$$$$$$$%%%#$$%%+++@@                           ",
"++$$$$%$$$$$$$$$$$$$$$$$$$$$$$+++@@@@                      ....+++$$$$$$$$$$$$$$$$$$$$$$$$%#$$+++@@@@                           ",
".+++$$$$$$$$$$$$$$$$$$$$$$$$.+++@@@@@                      .....+++@$$$$$$$$$$$$$$$$$$$$$$$$.+++@@@@@                           ",
"...+++$$$$$$$$$$$$$$$$$$$$$$...+++@@@                      ...+++@@@$$$$$$$$$$$$$$$$$$$$$$$$...+++@@@                ++         ",
".....+++$$$$$$$$$$$$$$$$$$$$%....+++           ++           +++@@@@#$$$$$$$$$$$$$$$$$$$$$$$$%....+++           ++    .++        ",
".......+++$$$$$$$$$$$$+$$$$$%%%....+++       ++++++       +++@@@@###$$$$$+$$$$$$$$$$$$+$$$$$%%%....+++       ++++++  ..@        ",
" ........+++$$$$$$$$+++++$$$$%%%%....+++   +++@@..+++   +++@@@@####$$$$+++++$$$$$$$$+++++$$$$%%%%....+++   +++@@..+++..@   ++   ",
"   ........+++$$$$+++@@.+++$$$$%%%%....+++++@@@@&...+++++@@@@####$$$$+++@@.+++$$$$+++@@.+++$$$$%%%%....+++++@@@@&...+..@   .++  ",
"     ........++++++@@@@&..+++$$$$%%%%....+@@@@##*%....+@@@@####$$$$+++@@@@&..++++++@@@@&..+++$$$$%%%%....+@@@@##*%.....@&  ..@  ",
"       ........++@@@@@@&....+++$$$$%%%%..@@@####%%%%..@@@####$$$$+++@@@@@@&....++@@@@@@&....+++$$$$%%%%..@@@####%%%%....+++..@  ",
"         .......@@@@@@@&&.....+++$$$$%%%%@####$$$$%%%%@####$$$$+++@@@@@@@@&&....@@@@@@@&&.....+++$$$$%%%%@####$$$$%%%%....+..@  ",
"           .....@@@@@   &.......+++$$$$%%###$$$$$$$$%%###$$$$+++@@@@@@@@   &....@@@@@   &.......+++$$$$%%###$$$$$$$$%%%%.....@& ",
"             ...@@@       .....+++@@$$$$$#$$$$$$$$$$$$#$$$$$..+++@@@@@       ...@@@       .....+++@@$$$$$#$$$$$$$$$$$%%%%%....++",
"               .@           .+++@@@@$$$$$$$$$$$$$$$$$$$$$$$$....+++@           .@           .+++@@@@$$$$$$$$$$$$$$$$$%%#%%%%....",
"                           +++@@@@##$$$$$$$$$$$$$$$$$$$$$$$$%%....+++                      +++@@@@##$$$$$$$$$$$$$$$$$%%#$$%%%%..",
"                                                                                                                                ",
"                                                                                                                                ",
"                                                                                                                                ",
"                                                                                                                                ",
"                                                $$$$$%%#$$$$.@@@                $$$$$#%$%$=$.@@@                $$$$$%%$$$$$.@@@",
"                                                $$$$$$=$%%#%.@@@                $$$$%%$$%%#%.@@@                $$$%%$%$%%##.@@@",
"                                                $$$$$%++$=%%.@@@                $$$$$$++$$%%.@@@                $$$=$$++$$%%.@@@",
"                                                $$$$+++@*%*#%@@                 $$$$+++@*%=#%@@                 $$$$+++@***#%@@ ",
"              ++++                              $$+++@@@@####                   $$+++@@@@##-#                   $$+++@@@@#=##-  ",
"            +++@.+++                            +++@@@@@@@#%--                  +++@@@@@@@##--                  +++@@@@@@@#*--  ",
"          +++@@@&..+++                          +@@@@@@@@ ##%#                  +@@@@@@@@ -#%#                  +@@@@@@@@ #%-#- ",
"        +++@@@@#*....+++                        @@@@@@@   -##-                  @@@@@@@   ;-#-                  @@@@@@@   -##-- ",
"      +++@@@@###%%%....+++                      @@@@@      #-%-                 @@@@@      ##%-                 @@@@@      #-%  ",
"    +++@@@@####$$%%%%....+++                    @@@        #-#-                 @@@        #-#-                 @@@        --#- ",
"  +++@@@@####$$$$$$%%%%....+++                  @          -#-#                 @          -# -                 @          -# - ",
"+++@@@@####$$$$$$$$$$%%%%....+++                             -#                            - -#                             --# ",
"+++@@####$$$$$$$$$$$$$$%%%%..+++                             --                             ---                            - -# ",
"..+++##$$$$$$$$$$$$$$$$$$%%+++@@                              --                              --                            - - ",
"....+++$$$$$$$$$$$$$$$$$$+++@@@@                              #-                            - #-                             ---",
"......+++$$$$$$$$$$$$$$+++@@@@@@                            - -                             - -                             -  -",
"........+++$$$$$$$$$$+++@@@@@@@@                            #--                               -                             - --",
"  ........+++$$$$$$+++@@@@@@@@                              -  -                            #--                               # ",
"    ........+++$$+++@@@@@@@@                                -  -                            -  -                            #-- ",
"      ........++++@@@@@@@@                                   %                              -  -                            -  -",
"        ........@@@@@@@@                                     - -                             -                              -  -",
"          ......@@@@@@                                       -                               # -                             -  ",
"            ....@@@@                                                                         -                                #-",
"              ..@@                                                                                                              ",
"                                                              -                                                              -  ",
"                                                                                              -                                 ",
"                                                             -                                                                  ",
"                                                                                                                                ",
"                                                                                                                                ",
"                                                                                                                                ",
"                                                                                                                                ",
"                                                                                                                                ",
"                                                                                                                                ",
"                                                                                                                                ",
"                                                                                                                                ",
"                                                                                                                                ",
"                                                                                                                                ",
"                                                                                                                                ",
"                                                                                                                                ",
"                                                                                                                                ",
"                                                                                                                                ",
"                                                                                                                                ",
"                                                                                                                                ",
"                                                                                                                                ",
"                                                                                                                                ",
"                                                                                                                                ",
"                                                                                                                                ",
"                                                                                                                                ",
"                                                                                                                                ",
"                                                                                                                                ",
"                                                                                                                                ",
"                                                                                                                                ",
"                                                                                                                                ",
"                                                                                                                                ",
"                                                                                                                                ",
"                                                                                                                                ",
"                                                                                                                                ",
"                                                                                                                                ",
"                                                                                                                                ",
"                                                                                                                                ",
"                                                                                                                                ",
"                                                                                                                                ",
"                                                                                                                                ",
"                                                                                                                                ",
"                                                                                                                                ",
"                                                                                                                                ",
"                                                                                                                                ",
"                                                                                                                                ",
"                                                                                                                                ",
"                                                                                                                                ",
"                                                                                                                                ",
"                                                                                                                                ",
"                                                                                                                                ",
"                                                                                                                                ",
"                                                                                                                                ",
"                                                                                                                                ",
"                                                                                                                                ",
"                                                                                                                                ",
"                                                                                                                                ",
"                                                                                                                                ",
"                                                                                                                                ",
"                                                                                                                                ",
"                                                                                                                                ",
"                                                                                                                                ",
"                                                                                                                                ",
"                                                                                                                                ",
"                                                                                                                                ",
"                                                                                                                                ",
"                                                                                                                                ",
"                                                                                                                                ",
"                                                                                                                                ",
"                                                                                                                                "};
