/* XPM */
static char * igWeiss_xpm[] = {
"96 32 8 1",
" 	c None",
".	c #C69729",
"+	c #000000",
"@	c #E2C68C",
"#	c #A5D3CE",
"$	c #FFFFFF",
"%	c #6D9E97",
"&	c #50726D",
"...............+@..............................+@...............                                ",
"...............+@..............................+@...............                                ",
"............+++++++............................+@...............            +++++++             ",
".........+++#######+++.........................+@...............         +++#######+++          ",
".......++###$$$$$#####++.......................+@...............       ++###$$$$$#####++        ",
"......+##$$$$$##########+......................+@...............      +##$$$$$##########+       ",
".....+#$$$$$#############+.....................+@...............     +#$$$$$#############+      ",
"....+##$$$################+....................+@...............    +##$$$################+     ",
"....+#$$##################+....................+@...............    +#$$##################+     ",
"...+##$###################%+...................+@...............   +##$###################%+    ",
"...+######################%+...................+@...............   +######################%+    ",
"...+#######################+...................+@...............   +#######################+    ",
"..+########################%+..................+@...............  +########################%+   ",
"..+########################%+..................+@...............  +########################%+   ",
"..+########################%+..................+@...............  +########################%+   ",
"+++########################%++++++++++++++++++++++++++++++++++++  +########################%+   ",
"@@+#######################%%+@@@@@@@@@@@@@@@@@@+@@@@@@@@@@@@@@@@  +#######################%%+   ",
"..+%######################%%+..................+@...............  +%######################%%+   ",
"..+%######################%%+..................+@...............  +%######################%%+   ",
"...+#####################%%+...................+@...............   +#####################%%+    ",
"...+%####################%&+...................+@...............   +%####################%&+    ",
"...+%###################%%&+...................+@...............   +%###################%%&+    ",
"....+%#################%%&+....................+@...............    +%#################%%&+     ",
"....+%%###############%%&&+....................+@...............    +%%###############%%&&+     ",
".....+%%%###########%%%&&+.....................+@...............     +%%%###########%%%&&+      ",
"......+&%%%%######%%%&&&+......................+@...............      +&%%%%######%%%&&&+       ",
".......++&&&%%%%%%&&&&++.......................+@...............       ++&&&%%%%%%&&&&++        ",
".........+++&&&&&&&+++.........................+@...............         +++&&&&&&&+++          ",
"............+++++++............................+@...............            +++++++             ",
"...............+@..............................+@...............                                ",
"...............+@..............................+@...............                                ",
"...............+@..............................+@...............                                "};
