/* XPM */
static char * sbunt_xpm[] = {
"32 32 32 1",
" 	c None",
".	c #FFE875",
"+	c #FFE000",
"@	c #FFDE00",
"#	c #FFD902",
"$	c #FFD403",
"%	c #000000",
"&	c #FFDB01",
"*	c #FFCC06",
"=	c #FFCE05",
"-	c #FFBF09",
";	c #FFD603",
">	c #FFD104",
",	c #FFC707",
"'	c #FFC109",
")	c #FFBC0A",
"!	c #FFB70C",
"~	c #FFB20D",
"{	c #FFC906",
"]	c #FFC408",
"^	c #FFBA0B",
"/	c #FFB50C",
"(	c #FFAF0E",
"_	c #FFAA0F",
":	c #FFA511",
"<	c #FFA810",
"[	c #FFAD0F",
"}	c #FF9815",
"|	c #FF9615",
"1	c #FFA212",
"2	c #FF9D13",
"3	c #FF9B14",
"                                ",
"                                ",
"  ..                        ..  ",
"  .+.                      .+.  ",
"   .+..                  ..+.   ",
"    .++...            ...++.    ",
"    .++++..............++++.    ",
"     .++++++........++++++.     ",
"     .++++++++++++++@@##$$.     ",
"     ..+++++++++++++@@##$..     ",
"      .++++%%+++&&&%%***$.      ",
"      .+++%%%%++&&%%%%**$.      ",
"      ..++%%%%$$==%%%%--..      ",
"      ..+++%%$$$===%%---..      ",
"      ..;;>>**,,''))!!~~..      ",
"      ..;;>>**,,''))!!~~..      ",
"      ..{{]]--^^//((__::..      ",
"      ..{{]]--^^//((__::..      ",
"      ..))%%<<[[<<<<%%}}..      ",
"      ..)))%%%[[<<%%%}}}..      ",
"      .(((__%%%%%%%%||||..      ",
"      .(((__|%%%%%%||||||.      ",
"     ..<1122}}|||||||||||..     ",
"     .<<1122}}||||||||||||.     ",
"     .33||2}........||||||.     ",
"    .333|..............||||.    ",
"    .|3...            ...||.    ",
"   .|..                  ..|.   ",
"  .|.                      .|.  ",
"  ..                        ..  ",
"                                ",
"                                "};
