/* XPM */
static char * ihLila_xpm[] = {
"64 32 3 1",
" 	c None",
".	c #C45AE8",
"+	c #AE00E1",
"                                ..                            ..",
"                                .+.                          .+.",
"                                 .+..                      ..+. ",
"                                  .++..                  ..++.  ",
"                                  .+++....            ....+++.  ",
"                                   .++++.....      .....++++.   ",
"             ......                ..+++++............+++++..   ",
"           ..........               .++++++++......++++++++.    ",
"          ...++++++...              ..++++++++++++++++++++..    ",
"         ..++++++++++..             ..++++++++++++++++++++..    ",
"        ..++++++++++++..             ..++++++++++++++++++..     ",
"       ..++++++++++++++..            ..++++++++++++++++++..     ",
"       ..++++++++++++++..            ..++++++++++++++++++..     ",
"      ..++++++++++++++++..            ..++++++++++++++++..      ",
"      ..++++++++++++++++..            ..++++++++++++++++..      ",
"      ..++++++++++++++++..            ..++++++++++++++++..      ",
"      ..++++++++++++++++..            ..++++++++++++++++..      ",
"      ..++++++++++++++++..            ..++++++++++++++++..      ",
"      ..++++++++++++++++..            ..++++++++++++++++..      ",
"       ..++++++++++++++..            ..++++++++++++++++++..     ",
"       ..++++++++++++++..            ..++++++++++++++++++..     ",
"        ..++++++++++++..             ..++++++++++++++++++..     ",
"         ..++++++++++..             ..++++++++++++++++++++..    ",
"          ...++++++...              ..++++++++++++++++++++..    ",
"           ..........               .++++++++......++++++++.    ",
"             ......                ..+++++............+++++..   ",
"                                   .++++.....      .....++++.   ",
"                                  .+++....            ....+++.  ",
"                                  .++..                  ..++.  ",
"                                 .+..                      ..+. ",
"                                .+.                          .+.",
"                                ..                            .."};
