/* XPM */
static char * gimp_temp_160563_xpm[] = {
"96 224 4 1",
" 	c None",
".	c #719384",
"+	c #92DD21",
"@	c #DD9C4D",
"                                                                                                ",
"            .......                                     ................                        ",
"         ....     ....                            .......              .......                  ",
"       ...           ...                       ....                          ....               ",
"      ..               ..                   ....                                ....            ",
"     ..              +  ..                ...                                      ...          ",
"    ..               ++  ..             ...                                     ++   ...        ",
"   ..                 ++  ..          ...                                        +++   ...      ",
"   .                   ++  .         ..                                             +++  ..     ",
"  ..                       ..       ..                                                +   ..    ",
"  .                         .      ..                                                      ..   ",
"  .                         .     ..                                                        ..  ",
" ..                         ..    .                                                          .  ",
" .                           .   ..                                                          .. ",
" .                           .   .                                                            . ",
" .                           .   .                                                            . ",
" .                           .   .                                                            . ",
" .                           .   .                                                            . ",
" ..                         ..   ..                                                          .. ",
"  .                         .     .                                                          .  ",
"  .                         .     ..                                                        ..  ",
"  ..                       ..      ..                                                      ..   ",
"   .         @@@@@         .        ..                                                    ..    ",
"   ..                     ..         ..                              @@@@                ..     ",
"    ..                   ..           ...                   @@@   @@@@                 ...      ",
"     ..                 ..              ...                   @@@@                   ...        ",
"      ..               ..                 ...                                      ...          ",
"       ...           ...                    ....                                ....            ",
"         ....     ....                         ....                          ....               ",
"            .......                               .......              .......                  ",
"                                                        ................                        ",
"                                                                                                ",
"                                                                                                ",
"             ......                                       ............                          ",
"           ...    ...                                 .....          .....                      ",
"          ..        ..                              ...                  ...                    ",
"         ..          ..                           ...                      ...                  ",
"        ..            ..                        ...                          ...                ",
"       ..              ..                     ...                         ++   ...              ",
"       .             +  .                    ..                            ++    ..             ",
"      ..             ++ ..                  ..                               ++   ..            ",
"      .               ++ .                 ..                                 ++   ..           ",
"     ..                + ..               ..                                   ++   ..          ",
"     .                 ++ .              ..                                     ++   ..         ",
"    ..                  + ..            ..                                       +    ..        ",
"    .                      .           ..                                              ..       ",
"    .                      .          ..                                                ..      ",
"   ..                      ..         .                                                  .      ",
"   .                        .        ..                                                  ..     ",
"   .                        .        .                                                    .     ",
"  ..                        ..      ..                                                    ..    ",
"  .                          .      .                                                      .    ",
"  .                          .     ..                                                      ..   ",
"  .                          .     .                                                        .   ",
"  .                          .    ..                                                        ..  ",
"  .                          .    .                                                          .  ",
" ..                          ..   .                                                          .  ",
" .                            .   .                                                          .  ",
" .                            .  ..                                                          .. ",
" .                            .  .                                                            . ",
" .                            .  .                                                            . ",
" .                            .  .                                                            . ",
" .                            .  .                                                            . ",
" .                            .  .                                                            . ",
" .                            .  .                                                            . ",
" .                            .  .                                                            . ",
" .                            .  .                                                            . ",
" .                            .  .                                                            . ",
" .                            .  .                                                            . ",
" .                            .  ..                                                          .. ",
" .                            .   .                                                          .  ",
" ..                          ..   .                                                          .  ",
"  .                          .    .                                                          .  ",
"  .                          .    ..                                                        ..  ",
"  .                          .     .                                                        .   ",
"  .                          .     ..                                                      ..   ",
"  .                          .      .                                                      .    ",
"  ..                        ..      ..                                                    ..    ",
"   .                        .        .                                                    .     ",
"   .                        .        ..                                                  ..     ",
"   ..                      ..         .                                                  .      ",
"    .                      .          ..                                                ..      ",
"    .                      .           ..                                              ..       ",
"    ..                    ..            ..                                            ..        ",
"     .                    .              ..                                          ..         ",
"     ..           @      ..               ..               @@@@@@  @@@@@@           ..          ",
"      .       @ @@@      .                 ..                @@@@@@@@@             ..           ",
"      ..      @@@       ..                  ..                    @@              ..            ",
"       .                .                    ..                                  ..             ",
"       ..              ..                     ...                              ...              ",
"        ..            ..                        ...                          ...                ",
"         ..          ..                           ...                      ...                  ",
"          ..        ..                              ...                  ...                    ",
"           ...    ...                                 .....          .....                      ",
"             ......                                       ............                          ",
"                                                                                                ",
"                                                                                                ",
"                                                                     .....                      ",
"                                                                    .    ..                     ",
"                                 .....                             .   ++ .                     ",
"                                 .   ...                           .      ..                    ",
"                    ...         ..     ...                         .       .                    ",
"                  ... ..        .       ++..                       .       .                    ",
"               ....    .        .       + ++.                       .      .                    ",
"              ..       .        .       ++ +.                        . @  .                     ",
"            ..          .      ..           .                        .   ..                     ",
"           ..       ++  .      .            .                            .                      ",
"           .            .      .           .                                                    ",
"          .             ..     .          ..                                                    ",
"         ..              .     .          .                                                     ",
"        ..               .     .          .                                                     ",
"       ..                .     .         ..                                                     ",
"       .                 .     ..        .                                                      ",
"       .......          .       .        .                                                      ",
"       .     ...        .       ..       .                                                      ",
"               ..       .        .       .                                                      ",
"                ..      ..       ..      .                                                      ",
"                 ..      .        ..    .                                                       ",
"                  ..      .        ..   .                                                       ",
"                   ..     ..        .. .                                                        ",
"                    ..     ..        ..             ..........                                  ",
"                     ...   ..                    ...       ...                                  ",
"                       .....                   ...       +++ .                                  ",
"                                 +            ..             .                                  ",
"                                                             .                                  ",
"                +.              ...           ..              .                                 ",
"             ....               @.             ..             .                                 ",
"                                          ..     .            .                                 ",
"                                         . ..     .           .                                 ",
" . .........                            ..  .      .          .                                 ",
" . ..      .                            .  +..     ..         .                                 ",
"    .      ..                          .     .      ..        .                                 ",
"    ..      .  +..                     .     ..      ..       .                                 ",
"     .      ...  ..                    .      .       ..     ..                                 ",
"     .            ..                   .      ..       ..    .                                  ",
"      .            ..                  .       .        ..   .                                  ",
"      ..            ..                .        .         ..  .                                  ",
"       .             ..               .        ..         ....                                  ",
"       ..             .               .         .                                               ",
"        .             ..              .         .                                               ",
"         .             ..             .         .                                               ",
"         ..             ..           ..         .                                               ",
"          .              ..          .           .                                              ",
"          ..              .          .           .                                              ",
"           .                         .          ..                                              ",
"           .              .          .         ..                                               ",
"            .            ..          .         .                            ..                  ",
"            ..  @@@@   ..            .        ..                       .........                ",
"             ..  @@   ..             .       ..                      ...       ..               ",
"              ..     ..              .       .                       .       +  ..              ",
"                .. ...               . @@   .                       .       +++  .              ",
"                  .                  .     ..                      ..         +  ..             ",
"                                     .    ..                       .              .             ",
"                                     .  ...                       ..              .             ",
"                                     ....                         .               .             ",
"                                                                  .               .             ",
"                                                                  .              ..             ",
"                                                                  .             ..              ",
"                                                                  .             .               ",
"                                                                  ..           ..               ",
"                                                                   .         ...                ",
"                                                                   .  @     ..                  ",
"                                                                   ..  @    .                   ",
"                                                                    .       .                   ",
"                                                                    .      ..                   ",
"                                                                    .      .                    ",
"                                                                    .     ..                    ",
"                                                                    ..    .                     ",
"                        .                                            .   .                      ",
"                        ..                                           .   .                      ",
"                         ..                                              .                      ",
"                          ..                                                                    ",
"                           .                                                                    ",
"                           .                                                                    ",
"                           .                                                                    ",
"         ....              ..                   .                                               ",
"            ..              .            +     .                                                ",
"             .               .          +++   .                                                 ",
"              .              ..          +++..                                                  ",
"              ..              ..           ..                                                   ",
"               ..                         ..                                                    ",
"                ..                        .                                                     ",
"                 ..                      .                                                      ",
"                  ..                    ..                                                      ",
"                   ....                 .                                                       ",
"                                                                                                ",
"                                                                                                ",
"                                                                                                ",
"                                                                                                ",
"                                                            ..                                  ",
"                               .+                  .....   ..                                   ",
"                              ...               ...    .....                                    ",
"    ....      ..              .@                .                                               ",
"   ..   ......                                                                                  ",
"  ..                                                                                            ",
"                                                                                                ",
"                                                                                                ",
"                                                                                                ",
"                         ..  .         .                                                        ",
"                        ..  ..         ..                                                       ",
"                       .     .          ..                                       ....           ",
"                      ..     .           ..                                .......  ..          ",
"                    ..       ..           ..                             ...         ..         ",
"                   ..         .            ..                          ...            ...       ",
"                  ..          .             ..                        ..          +++   .       ",
"                 ..           ..             ..                      ..             +++ ..      ",
"                ..             .              ..                     .                 + ..     ",
"               ..              .               ..                   .                     .     ",
"              ..               ..                .                  .                     .     ",
"             ..              @  .                 .                ..                     .     ",
"             .             @@@  .                  ..              .                      .     ",
"            .                @  ..                  ..  ....       .                      .     ",
"       ......                    .                   ....          .                      .     ",
"      ..                         .                                 .                     ..     ",
"      .                          .                                 .                     .      ",
"     ..                          .                                 .                    ..      ",
"    ..                          .                                  .                    .       ",
"    .                          ..                                 ..                   ..       ",
"    .                                                             .                   ..        ",
"                                                                  .                   .         ",
"                                                                  .                  ..         ",
"                                                                  .            @@   ..          ",
"                                                                  .               ...           ",
"                                                                  ..           ....             "};
