/* XPM */
static char * gimp_temp_223455_xpm[] = {
"128 96 16 1",
" 	c None",
".	c #000000",
"+	c #AAAAAA",
"@	c #F2FF00",
"#	c #FFFFFF",
"$	c #FFD400",
"%	c #FFA500",
"&	c #D1D800",
"*	c #D6AB00",
"=	c #D88200",
"-	c #86C77F",
";	c #34AF39",
">	c #BF7FC6",
",	c #AE33A9",
"'	c #DB9528",
")	c #276FDA",
"                                                                      ..  +++                                                   ",
"                                                  .                   .@.###                                                    ",
"                                                 .@.                  .@@.#                          ##                         ",
"                                                .@@.                  .@@.                      ... ##                          ",
"                                                .@.                   .@@@.###      ##  ..      .@@.##                          ",
"         ....                          ....    .@@.#                   .@@.##        ##.@.       .@@.  ##               ##      ",
"       ..$$$$. ..                     .####.  .@@@.##                  .@@@.          #.@.        .@@.##                 ###    ",
"      .$%$@$...##.                 .......##. .@@. ###                 .@@@. ##   ##  .@@.         .@@.  ##            #  #...  ",
"     .$$$$$.###.##.               ..$$.###.#..@@@.  #                  ..@@.###    ## .@.           .@@.##             ## .@@.  ",
"     .$@$$.#####.#.              ..$$.#####..@@@.## ##...               .@@@.       #.@@.           .@@@.   #       ##  #.@@.   ",
"    .$$$$$.##..#.#.              .$@@.##....@@@@. ##..@@.               .@@@.  # #  .@@.             .@@@. ##        #  .@@.    ",
"    .$$%$$.##..#.#.              .%$$.###..$@@@.## .@@&.             ....@@@.##  ## .@@.             ..@@@.#      #  #..@@.     ",
"    .%$$$$$.#........           .$$$$$.##..$$@@. #.&&..            ...##.@@@..    #.@@.            ....@@@@..     ##..@@@.      ",
"    .$$@$%$$....@@@@@.....      .$$@$$$...$$$@.# .&&..            .$.....$@@..    ..@@.           .$....@$@..     .#.@@&.       ",
"    .$$$$$$$$$$$@@@@@@@@@@....  .$$$$$$$$$$$$.# .&&&.            .$.##...$$$...  ..@@..          .$.##...$$....  ...@@&.        ",
"    .$%$$$$.@$$@@@@@@@@@@@@@@.   .$$%$$%$$$$....&&&.             .$.####.$$........$$.           .$.####.$$........$$..         ",
"    .$$@$$@$..$@@@@@@@@@@&&&.    .$$$@$$$$%$...$$&.             .$@$.##.$$@........$$$..        .$@$.##.$$@........$$$..        ",
"    .$$$$$$$$*..........&&..      .%$$$$@$$$$$$$$.              .$$$$..$$$$$$.....$$$$%$.       .$$$$..$$$$$$.....$$$$%$.       ",
"     .$$$$%$$$**&&&&&&&...         .$$$$$$$$$$$$*=.              .%$$$$$%$@$%$$@$$$$$$$@*.       .%$$$$$%$@$%$$@$$$$$$$@*.      ",
"     .$@$$$$$$**&&&....             .$%$$%$$%$$$***.             .$$@$$$$$$$$%$$$$$$@$$**.       .$$@$$$$$$$$%$$$$$$@$$**.      ",
"     .$$$%$@$***...                  .$$$$$$$$@$*&*.             .$$@$%$@$$$$$$%$$%$$$$**.       .$$@$%$@$$$$$$%$$%$$$$**.      ",
"      .*$$$$**=.                      .$$$@$%$$****.              .*$$$$$$@$$$@$$@$$%$**.         .*$$$$$$@$$$@$$@$$%$**.       ",
"      .******&*.                       ..$$$$*****.                .**=*$%$$$$$$$$$$$$**.          .**=*$%$$$$$$$$$$$$**.       ",
"       ..******.                         .*******.                  ....****$$$*$$&****.            ....****$$$*$$&****.        ",
"         ......                           ..**...                       ....**********.                 ....**********.         ",
"          .  .                            . ..                             ...........                     ...........          ",
"          .  ..                           .  ..                           ..  ..                          ..  ..                ",
"          .   .                           .   .                           .   .                           .   .                 ",
"          .   .                           .   .                           .   .                           .   .                 ",
"        .... ....                       .... ....                       .... ....                       .... ....               ",
"          ..   ..                         ..   ..                         ..   ..                         ..   ..               ",
"                                                                                                                                ",
"    ....---;.--;.;---;.;;.                                          ....>>>,.>>,.,>>>,.,,.                                      ",
"       .---;.--;.;---;...            ..               ...              .>>>,.>>,.,>>>,...            ..               ...       ",
"     ##.---;.--;.;---;.             .##.             .---.           ##.>>>,.>>,.,>>>,.             .##.             .>>>.      ",
"... ## .---;.--;.;---;.         ....##--.   .....   .-----.     ... ## .>>>,.>>,.,>>>,.         ....##>>.   .....   .>>>>>.     ",
".@@.## .---;.--;.;---;.         .@@.##---. .-----.  .-----.     .@@.## .>>>,.>>,.,>>>,.         .@@.##>>>. .>>>>>.  .>>>>>.     ",
" .@@.  ##--;.---.;---;. ##       .@@.;-##-.-------...---##.      .@@.  ##>>,.>>>.,>>>,. ##       .@@.,>##>.>>>>>>>...>>>##.     ",
"  .@@.##---.-----.---;.  ###      .@@.##-----------------###      .@@.##>>>.>>>>>.>>>,.  ###      .@@.##>>>>>>>>>>>>>>>>>###    ",
"   .@@..-##---;;--.--;.#  #...     .@@.--##-;;--;;-----#-;#...     .@@..>##>>>,,>>.>>,.#  #...     .@@.>>##>,,>>,,>>>>>#>,#...  ",
"    .@@.##.;;;..;;.;-;.## .@@.      .@@.##--;;--;;-----##;.@@.      .@@.##.,,,..,,.,>,.## .@@.      .@@.##>>,,>>,,>>>>>##,.@@.  ",
"    .@@@.-;.#.  ..;;##. #.@@.       .@@@.---#'--.'--##--#.@@.       .@@@.>,.#.  ..,,##. #.@@.       .@@@.>>>#)>>.)>>##>>#.@@.   ",
"     .@@@.;##    .;--#. .@@.         .@@@.-##'--''---#-;.@@.         .@@@.,##    .,>>#. .@@.         .@@@.>##)>>))>>>#>,.@@.    ",
"     ..@@@.#     .#--#..@@.          ..@@@.#------#--#..@@.          ..@@@.#     .#>>#..@@.          ..@@@.#>>>>>>#>>#..@@.     ",
"   ....@@@@..    .##..@@@.         ....@@@@.------##..@@@.         ....@@@@..    .##..@@@.         ....@@@@.>>>>>>##..@@@.      ",
"  .$....@$@..     .#.@@&.         .$....@$@..---.-.#.@@&.         .$....@$@..     .#.@@&.         .$....@$@..>>>.>.#.@@&.       ",
" .$.##...$$....  ...@@&.         .$.##...$$..---.-..@@&.         .$.##...$$....  ...@@&.         .$.##...$$..>>>.>..@@&.        ",
" .$.####.$$........$$..          .$.####.$$..--;...$$..          .$.####.$$........$$..          .$.####.$$..>>,...$$..         ",
".$@$.##.$$@........$$$..        .$@$.##.$$@...-;...$$$..        .$@$.##.$$@........$$$..        .$@$.##.$$@...>,...$$$..        ",
".$$$$..$$$$$$.....$$$$%$.       .$$$$..$$$$$$.....$$$$%$.       .$$$$..$$$$$$.....$$$$%$.       .$$$$..$$$$$$.....$$$$%$.       ",
" .%$$$$$%$@$%$$@$$$$$$$@*.       .%$$$$$%$@$%$$@$$$$$$$@*.       .%$$$$$%$@$%$$@$$$$$$$@*.       .%$$$$$%$@$%$$@$$$$$$$@*.      ",
" .$$@$$$$$$$$%$$$$$$@$$**.       .$$@$$$$$$$$%$$$$$$@$$**.       .$$@$$$$$$$$%$$$$$$@$$**.       .$$@$$$$$$$$%$$$$$$@$$**.      ",
" .$$@$%$@$$$$$$%$$%$$$$**.       .$$@$%$@$$$$$$%$$%$$$$**.       .$$@$%$@$$$$$$%$$%$$$$**.       .$$@$%$@$$$$$$%$$%$$$$**.      ",
"  .*$$$$$$@$$$@$$@$$%$**.         .*$$$$$$@$$$@$$@$$%$**.         .*$$$$$$@$$$@$$@$$%$**.         .*$$$$$$@$$$@$$@$$%$**.       ",
"   .**=*$%$$$$$$$$$$$$**.          .**=*$%$$$$$$$$$$$$**.          .**=*$%$$$$$$$$$$$$**.          .**=*$%$$$$$$$$$$$$**.       ",
"    ....****$$$*$$&****.            ....****$$$*$$&****.            ....****$$$*$$&****.            ....****$$$*$$&****.        ",
"        ....**********.                 ....**********.                 ....**********.                 ....**********.         ",
"           ...........                     ...........                     ...........                     ...........          ",
"          ..  ..                          ..  ..                          ..  ..                          ..  ..                ",
"          .   .                           .   .                           .   .                           .   .                 ",
"          .   .                           .   .                           .   .                           .   .                 ",
"        .... ....                       .... ....                       .... ....                       .... ....               ",
"          ..   ..                         ..   ..                         ..   ..                         ..   ..               ",
"                                                                                                                                ",
"                                                                                                                                ",
"                                                                                                                                ",
"                                                                             ..                                                 ",
"                                                                            .@.  ..                                             ",
"        ....                                                                .@.##..                                             ",
"      ..$$$$. ..                                                            .@.# .&.                                            ",
"     .$%$@$...##.                                                          ..@.  .&.                                            ",
"    .$$$$$.###.##.                                                         .@@.# .&.                                            ",
"    .$@$$.#####.#.                                                         .@@.##.&&.                                           ",
"   .$$$$$.##..#.#.                                                         .@@.  .&&.                                           ",
"   .$$%$$.##..#.#.                                                         .@@.  .&&.                                           ",
"   .%$$$$$.#............                                                   .@@.##.&&.                                           ",
"   .$$@$%$$....@@@@@@@@....                                            .....@@.  .&&.                                           ",
"   .$$$$$$$$$$$@@@@@@@@@@@@.                                          .####.@@.  .&&.                                           ",
"   .$%$$$$$@$...............                                         .##....@@.##.&&.                                           ",
"   .$$@$$@$$.  #  #  ## ##                                           .#.###..$.  .*$*...                                        ",
"   .$$$$$$$$.  #  #  #   #                                            .##....$.  .*$$=**.                                       ",
"   .$$$$$$$$$..............                                          ..##....$$..$$$$$&*.                                       ",
"    .$$$$%$$$**&&&&&&&&&&..                                         .$.#####.$@$$$$$$$**.                                       ",
"    .$@$$$$$$**&&&&&&&...                                           .$$.###.$$$$$$$$@$**.                                       ",
"    .$$$%$@$***.......                                              .$@$...$$$$@$$%$$$**.                                       ",
"     .*$$$$**=.                                                     .$$$$$$$%$$$$$$$%***.                                       ",
"     .******&*.                                                      .%$$$$$$$$$%$$$$**.                                        ",
"      ..******.                                                      .$$@$%$@$$@$$$&***.                                        ",
"        ......                                                        .$$$$$$$%$$****..                                         ",
"          .  .                                                         ..$$%$*****...                                           ",
"          .  ..                                                          .........                                              ",
"          .   .                                                            .   .                                                ",
"          .   .                                                            .   .                                                ",
"        .... ....                                                        .... ....                                              ",
"          ..   ..                                                          ..   ..                                              ",
"                                                                                                                                "};
