/* XPM */
static char * inGrau_xpm[] = {
"128 64 7 1",
" 	c None",
".	c #000000",
"+	c #DDDDDD",
"@	c #BBBBBB",
"#	c #888888",
"$	c #FFFFFF",
"%	c #444444",
"                                                                                                                                ",
"                                                                                                                                ",
"             .......                         .......                         .......                         .......            ",
"          ...+++++@@.                     ...+++++@@.                     ...+++++@@.                     ...+++++@@.           ",
"        ..++++++@@@@@.                  ..++++++@@@@@.                  ..++++++@@@@@.                  ..++++++@@@@@.          ",
"       .++++++@@@@@@@@.                .++++++@@@@@@@@.                .++++++@@@@@@@@.                .++++++@@@@@@@@.         ",
"       .@@++@@@@@######.               .@@++@@@@@######.               .@@++@@@@@######.               .@@++@@@@@######.        ",
"      .@@@@@@@##########.             .@@@@@@@##########.             .@@@@@@@##########.             .@@@@@@@##########.       ",
"      .@@@@#############.             .@@@@#############.             .@@@@#############.             .@@@@#############.       ",
"      .@@@##..###..#####.             .@@@###..###..####.             .@@@####..##..####.             .@@@###..###..####.       ",
"       .###.$$.#.$$.####.              .####.$$.#.$$.###.              .#####.$$..$$.###.              .####.$$.#.$$.###.       ",
"       .##.$$$$.$$$$.###.              .###.$$$$.$$$$.##.              .####.$$$$.$$$.##.              .###.$$...$$...##.       ",
"       .#.$$$$$.$$$$$.##.              .##.$$$$$.$$$$$.#.              .###.$$$...$$...#.              .##.$$$...$$..$.#.       ",
"       .#.$$$$$.$$$$$.#.               .##.$$$...$$..$..               .###.$$$...$$....               .##.$$$$$.$$$$$..        ",
"        ..$$..$.$..$$.#.                .#.$$$...$$..$..                .##.$$$$$.$$$$..                .#.$$$$$.$$$$$..        ",
"        ..$$...#...$$..                 .#.$$$$.#.$$$$.                 .##.$$$$..$$$$.                 .#.$$$$.#.$$$$.         ",
"      ...#....###....#...             ...##....###....#..              ..###....##....#..             ...##....###....#..       ",
"    ..++++@@@@@@@@@@@++@@..          .++++@@@@@@@@@@@++@@..           .+++@@@@@@@@@@@++@@..          .++++@@@@@@@@@@@++@@..     ",
"   .++++++++@@@@@@@@@+@@@@#.        .+++++++@@@@@@@@@+@@@@#.         .++++++@@@@@@@@@+@@@@#.        .+++++++@@@@@@@@@+@@@@#.    ",
"   .++++@@@@@@#####@@@@@@##.        .+++@@@@@@#####@@@@@@##.         .+++@@@@@#####@@@@@@##.        .+++@@@@@@#####@@@@@@##.    ",
"  .@@@@@@@##################.      .@@@@@@##################.       .@@@@@##################.      .@@@@@@##################.   ",
"  .@@@######################.      .@@######################.       .@@#####################.      .@@######################.   ",
"  .@########################.      .@#######################.       .@######################.      .@#######################.   ",
"  .########################%.      .#######################%.       .######################%.      .#######################%.   ",
"   .######################%.        .#####################%.         .####################%%.       .#####################%.    ",
"   .###################%%%%.        .###################%%%.         .###################%%.        .###################%%%.    ",
"    .%%%%%%%########%%%%%%.          .%%%%%%%########%%%%%.           .%%%%%%%########%%%%%.         .%%%%%%%########%%%%%.     ",
"     ...%%%%%%%%%%%%%%%%..            ..%%%%%%%%%%%%%%%%..             ..%%%%%%%%%%%%%%%%..           ..%%%%%%%%%%%%%%%%..      ",
"        .....%%%%%%%%...                ......%%%%%%%%..                 ......%%%%%%%%..               ......%%%%%%%%..        ",
"             ........                         ........                         ........                       ........          ",
"                                                                                                                                ",
"                                                                                                                                ",
"                                                                                                                                ",
"                                                                                                                                ",
"             .......                         .......                         .......                         .......            ",
"          ...+++++@@.                     ...+++++@@.                     ...+++++@@.                     ...+++++@@.           ",
"        ..++++++@@@@@.                  ..++++++@@@@@.                  ..++++++@@@@@.                  ..++++++@@@@@.          ",
"       .++++++@@@@@@@@.                .++++++@@@@@@@@.                .++++++@@@@@@@@.                .++++++@@@@@@@@.         ",
"       .@@++@@@@@######.               .@@++@@@@@######.               .@@++@@@@@######.               .@@++@@@@@######.        ",
"      .@@@@@@@##########.             .@@@@@@@##########.             .@@@@@@@##########.             .@@@@@@@##########.       ",
"      .@@@@#############.             .@@@@#############.             .@@@@#############.             .@@@@#############.       ",
"      .@@@##..###..#####.             .@@@#..###..######.             .@@@#..##..#######.             .@@@#..###..######.       ",
"       .###.$$.#.$$.####.              .##.$$.#.$$.#####.              .##.$$..$$.######.              .##.$$.#.$$.#####.       ",
"       .##.$..$.$..$.###.              .#...$$...$$.####.              .#.$$$.$$$$.#####.              .#.$$$$.$$$$.####.       ",
"       .#.$$..$.$..$$.##.              ..$..$$...$$$.###.              ..$$$$.$$$$$.####.              ..$$$$$.$$$$$.###.       ",
"       .#.$$$$$.$$$$$.#.               ..$$$$$.$$$$$.##.               ....$$.$..$$.###.               ..$..$$...$$$.##.        ",
"        ..$$$$$.$$$$$.#.                .$$$$$.$$$$$.##.                ...$$.$..$$.###.                .$..$$...$$$.##.        ",
"        ..$$$$.#.$$$$..                 .$$$$.#.$$$$.#.                 .$$$$..$$$$.##.                 .$$$$.#.$$$$.#.         ",
"      ...#....###....#...             ..#....###....##...             ..#....##....###..              ..#....###....##...       ",
"    ..++++@@@@@@@@@@@++@@..         ..++++@@@@@@@@@@@++@@.          ..++++@@@@@@@@@@@++@.           ..++++@@@@@@@@@@@++@@.      ",
"   .++++++++@@@@@@@@@+@@@@#.       .++++++++@@@@@@@@@+@@@#.        .++++++++@@@@@@@@@+@@#.         .++++++++@@@@@@@@@+@@@#.     ",
"   .++++@@@@@@#####@@@@@@##.       .++++@@@@@@#####@@@@@##.        .++++@@@@@@#####@@@@##.         .++++@@@@@@#####@@@@@##.     ",
"  .@@@@@@@##################.     .@@@@@@@#################.      .@@@@@@@################.       .@@@@@@@#################.    ",
"  .@@@######################.     .@@@#####################.      .@@@####################.       .@@@#####################.    ",
"  .@########################.     .@#######################.      .@######################.       .@#######################.    ",
"  .########################%.     .#######################%.      .######################%.       .#######################%.    ",
"   .######################%.       .#####################%.       .#####################%.         .#####################%.     ",
"   .###################%%%%.       .###################%%%.        .#################%%%%.         .###################%%%.     ",
"    .%%%%%%%########%%%%%%.         .%%%%%#########%%%%%%.         .%%%%#########%%%%%%%.           .%%%%%#########%%%%%%.      ",
"     ...%%%%%%%%%%%%%%%%..           ...%%%%%%%%%%%%%%%%.           ..%%%%%%%%%%%%%%%%..             ...%%%%%%%%%%%%%%%%.       ",
"        .....%%%%%%%%...                ...%%%%%%%%%....              ...%%%%%%%%%....                  ...%%%%%%%%%....        ",
"             ........                      .........                     .........                         .........            ",
"                                                                                                                                ",
"                                                                                                                                "};
