/* XPM */
static char * ipGrau_xpm[] = {
"32 32 7 1",
" 	c None",
".	c #000000",
"+	c #DDDDDD",
"@	c #B2B2B2",
"#	c #515151",
"$	c #686868",
"%	c #939393",
"                                ",
" .............   .............  ",
" .+++++++++@.     .@++++++++@.  ",
" .@++++++@#.       .$@+++++@$.  ",
" .@@%%%%##.         .$$%%%%$$.  ",
" .@@%%%##.           .$$%%%$$.  ",
" .@@%%%%@@.         .++%%%%$$.  ",
" .@@%$%%%@@.       .++%%%$%$$.  ",
" .@@##$%%%@@.     .++%%%#$$$$.  ",
" .@$#.$$%%%@@.   .++%%%##.$$$.  ",
" .@#. .$$%%%@@. .++%%%##. .$$.  ",
" .$.   .$$%%%@+.++%%%##.   .$.  ",
" ..     .$$%%%+++%%%##.     ..  ",
" .       .$$%%%+%%%##.       .  ",
"          .$$%%%%%##.           ",
"           .$$%%%$$.            ",
"          .++%%%%%@@.           ",
" .       .++%%%$%%%@@.       .  ",
" ..     .++%%%##$%%%@@.     ..  ",
" .+.   .++%%%##.$$%%%@@.   .@.  ",
" .@@. .++%%%##. .$$%%%@@. .+$.  ",
" .@+@.++%%%##.   .$$%%%@@.+@$.  ",
" .@@@@+%%%##.     .$$%%%@@+$$.  ",
" .@@%@%%%##.       .$$%%%@%$$.  ",
" .@@%%%%##.         .$$%%%%$$.  ",
" .@@%%%##.           .$$%%%$$.  ",
" .@@%%%%@@.         .++%%%%$$.  ",
" .@######$@.       .+@######$.  ",
" .#########$.     .@#########.  ",
" .............   .............  ",
"                                ",
"                                "};
