/* XPM */
static char * ipHochRunter_xpm[] = {
"64 96 7 1",
" 	c None",
".	c #000000",
"+	c #BFEE9F",
"@	c #96E168",
"#	c #5AB827",
"$	c #418D18",
"%	c #225A09",
"               .                               .                ",
"              .+.                             .+.               ",
"             .++@.                           .++@.              ",
"            .++#@@.                         .++#@@.             ",
"           .++###@@.                       .++###@@.            ",
"          .++#####@@.                     .++#####@@.           ",
"         .++#######@@.                   .++#######@@.          ",
"        .+$%%%$#$%%%%@.                 .+$%%%$#$%%%%@.         ",
"       .$$%%%$@#$$%%%%%.               .$$%%%$@#$$%%%%%.        ",
"      .......@@#$$.......             .......@@#$$.......       ",
"            .@@#$$.                         .@@#$$.             ",
"            .@@#$$.                         .@@#$$.             ",
"            .@@#$$...........................@@#$$.             ",
"            .@@#$$@+++++++++++++++++++++++++++@#$$.             ",
"            .@@#$@@++++++++++++++++++++++++++++#$$.             ",
"            .@@#################################$$.             ",
"            .@@#$%%%%%%%%%%%%%%%%%%%%%%%%%%%%%$#$$.             ",
"            .@@#$$%%%%%%%%%%%%%%%%%%%%%%%%%%%$@#$$.             ",
"            .@@#$$...........................@@#$$.             ",
"            .@@#$$.                         .@@#$$.             ",
"            .@@#$$.                         .@@#$$.             ",
"            .@@#$$.                         .@@#$$.             ",
"            .@@#$$.                         .@@#$$.             ",
"            .@@#$$.                         .@@#$$.             ",
"            .@@#$$.                         .@@#$$.             ",
"            .@@#$$.                         .@@#$$.             ",
"            .@@#$$.                         .@@#$$.             ",
"            .@@#$$.                         .@@#$$.             ",
"            .@@#$$.                         .@@#$$.             ",
"            .@@#$$.                         .@@#$$.             ",
"            .@@#$$.                         .@@#$$.             ",
"            .@@#$$.                         .@@#$$.             ",
"            .@@#$$.                         .@@#$$.             ",
"            .@@#$$.                         .@@#$$.             ",
"            .@@#$$.                         .@@#$$.             ",
"            .@@#$$.                         .@@#$$.             ",
"            .@@#$$.                         .@@#$$.             ",
"            .@@#$$.                         .@@#$$.             ",
"            .@@#$$.                         .@@#$$.             ",
"            .@@#$$.                         .@@#$$.             ",
"            .@@#$$.                         .@@#$$.             ",
"            .@@#$$.                         .@@#$$.             ",
"            .@@#$$.                         .@@#$$.             ",
"            .@@#$$.                         .@@#$$.             ",
"            .@@#$$...........................@@#$$.             ",
"            .@@#$$@+++++++++++++++++++++++++++@#$$.             ",
"            .@@#$@@++++++++++++++++++++++++++++#$$.             ",
"            .@@#################################$$.             ",
"            .@@#$%%%%%%%%%%%%%%%%%%%%%%%%%%%%%$#$$.             ",
"            .@@#$$%%%%%%%%%%%%%%%%%%%%%%%%%%%$@#$$.             ",
"            .@@#$$...........................@@#$$.             ",
"            .@@#$$.                         .@@#$$.             ",
"            .@@#$$.                         .@@#$$.             ",
"      .......@@#$$.......             .......@@#$$.......       ",
"       .@@++++@#$$@++##.               .@@++++@#$$@++##.        ",
"        .$@++++#$@@+#%.                 .$@++++#$@@+#%.         ",
"         .$$#######%%.                   .$$#######%%.          ",
"          .$$#####%%.                     .$$#####%%.           ",
"           .$$###%%.                       .$$###%%.            ",
"            .%%#%%.                         .%%#%%.             ",
"             .%%%.                           .%%%.              ",
"              .%.                             .%.               ",
"               .                               .                ",
"                                                                ",
"                                                                ",
"                                      ...                       ",
"             ..                       .++...                    ",
"          ...@.                       .@++++...                 ",
"       ...++$.                       .@@#++++++...              ",
"    ...++++...                       .@@####++++++...           ",
" ...++++++%%.                        .@@######%%%%..            ",
" .+++++###%%.                       .@@#####%%%%..              ",
" .@+#####%%.                        .@@######$..                ",
"  .@+####%%.                        .@@#%%$$#$$.                ",
"  .@@####@...            .         .@@%%%%.@##$$.               ",
"  .@@####@@++..         ..         .@%%%...@@#$$.               ",
"   .@@#$###++++..       ..         .$%..  .@@##$$.              ",
"   .@@#$$%###++++..    .+$.       .#..     .@@#$$.              ",
"   .@@$$.%%%###++++..  .+$.       ..       .@@##$$.             ",
"    .@$$..%%%%###++++..++$.                 .@@#$$.             ",
"    .@$.  ..%%%%###+++.++$$.                .@@##$$.       ..   ",
"    .@$.    ..%%%%###+++#$$.                 .@@#$$.     ..@.   ",
"     ..       ..%%%%###+#$$.                 .@@##$$.  ..@@.    ",
"     ..         ..%%$$####$$.                 .@@#$$...+++%.    ",
"     .            ...$####$$.                 .@@##$.++++%%.    ",
"                   .+$####$$.                  .@@#$$$+#%%.     ",
"                   .++#####%$.                 ..@######%%.     ",
"                  .++###%%%%%.               ..+++@#####%%.     ",
"                  .++%%%%%%...             ..++++######%%.      ",
"                 .++%%%%...               ...%%%%%%####%%.      ",
"                 .@%%...                     ...%%%%%%#%%.      ",
"                .@...                           ...%%%%%.       ",
"                ..                                 ...%%.       ",
"                                                      ...       ",
"                                                                ",
"                                                                "};
