/* XPM */
static char * isBauerSchwarz_xpm[] = {
"32 32 7 1",
" 	c None",
".	c #000000",
"+	c #949494",
"@	c #545454",
"#	c #202020",
"$	c #111111",
"%	c #0A0A0A",
"                                ",
"                                ",
"                                ",
"                                ",
"                                ",
"                                ",
"                                ",
"                                ",
"             ......             ",
"            .+++@@#.            ",
"           .++@@####.           ",
"           .@@#####$.           ",
"           .@######$.           ",
"           .#####$$$.           ",
"            .$$$$$%.            ",
"             .$%%%.             ",
"             .##$$.             ",
"             .+##$.             ",
"             .+##$.             ",
"             .@##$.             ",
"            .+@@##$.            ",
"            .+@@##$.            ",
"           .++@@###$.           ",
"          .%%%%%%%%%%.          ",
"          .+@@#####$%.          ",
"        ..%%%%%%%%%%%%..        ",
"        .++@########$$%.        ",
"        .++@########$$%.        ",
"        .++@########$$%.        ",
"        ................        ",
"                                ",
"                                "};
