/* XPM */
static char * isDameWeiss_xpm[] = {
"128 128 10 1",
" 	c None",
".	c #16A500",
"+	c #5AFF3D",
"@	c #107000",
"#	c #010101",
"$	c #F0F0F0",
"%	c #E9E9E9",
"&	c #C8C8C8",
"*	c #8B8B8B",
"=	c #494949",
"                                                                .+                                                              ",
"                                                                @.+                                                             ",
"                                                                 @..+          ###                                              ",
"                                                                  ...+   ###  #$%&#  ###                                        ",
"                                                                  @....+#$%&# #%&*# #$%&#                                       ",
"                                                                   @....#%&*# #&**# #%&*#                                       ",
"                                                                   ###..#&**#  #=#  #&**#  ###                                  ",
"                                                                  #$%&#..#=#   #&#   #=#  #$%&#                                 ",
"                                                                  #%&*#  #&#   #&#   #&#  #%&*#                                 ",
"                                                                  #&**#   #&#  #&#  #%#   #&**#                                 ",
"                                                                   #==#   #&#  #&#  #%#   #==#                                  ",
"                                                                    #&#   #&#  #&#  #&#   #&#                                   ",
"                                                                     #&#  #%&# #&# #%&#  #%#                                    ",
"                                                                     #&&#  #&# #&# #%#  #$&#                                    ",
"                                                                      #&#  #&##%&&##&#  #&#                                     ",
"                                                                      #&&# #&&#%&&#%&# #%*#                                     ",
"                                                                       #&&##%&#%&&#%&##$&#                                      ",
"                                                                       #*&# #&=&&&=&# #&*#                                      ",
"                                                                        #&&##%$%%%&&##%&#                                       ",
"                                                                        #*&&=$%&&&&&=%&*#                                       ",
"                                                                         #&&%%&&&&&*&&*#                                        ",
"                                                                         #*%%&&&&&&**&*#                                        ",
"                                                                          #%&&&&&&****#                                         ",
"                                                                         #=============#                                        ",
"                                                                         #$$%&&&&&&&**=#                                        ",
"                                                                    +++##===============##                                      ",
"                                                                   +...#$$%&&&&&&&&&&&**=#                                      ",
"                                                                  +...@#$$%&&&&&&&&&&&**=#                                      ",
"                                                                  +..@ #$$%&&&&&&&&&&&**=#                                      ",
"                                                                 +.@@  ###################                                      ",
"                                                                +.@            +.@                                              ",
"                                                                @@             +.@                                              ",
"                                                              +@               +.@                                              ",
"                                                             +.@               +.@                                              ",
"               ###                             ###         ++.@                ###                                              ",
"         ###  #$%&#  ###                 ###  #$%&#  ###  +..@           ###  #$%&#  ###                                        ",
"        #$%&# #%&*# #$%&#               #$%&# #%&*# #$%&#+...@          #$%&# #%&*# #$%&#                                       ",
"        #%&*# #&**# #%&*#               #%&*# #&**# #%&*#...@           #%&*# #&**# #%&*#                                       ",
"   ###  #&**#  #=#  #&**#  ###     ###  #&**#  #=#  #&**#..###     ###  #&**#  #=#  #&**#  ###                                  ",
"  #$%&#  #=#   #&#   #=#  #$%&#   #$%&#  #=#   #&#   #=#  #$%&#   #$%&#  #=#   #&#   #=#  #$%&#                                 ",
"  #%&*#  #&#   #&#   #&#  #%&*#   #%&*#  #&#   #&#   #&#  #%&*#   #%&*#  #&#   #&#   #&#  #%&*#                                 ",
"  #&**#   #&#  #&#  #%#   #&**#   #&**#   #&#  #&#  #%#   #&**#   #&**#   #&#  #&#  #%#   #&**#                                 ",
"   #==#   #&#  #&#  #%#   #==#     #==#   #&#  #&#  #%#   #==#     #==#   #&#  #&#  #%#   #==#                                  ",
"    #&#   #&#  #&#  #&#   #&#       #&#   #&#  #&#  #&#   #&#       #&#   #&#  #&#  #&#   #&#                                   ",
"     #&#  #%&# #&# #%&#  #%#         #&#  #%&# #&# #%&#  #%#         #&#  #%&# #&# #%&#  #%#                                    ",
"     #&&#  #&# #&# #%#  #$&#         #&&#  #&# #&# #%#  #$&#         #&&#  #&# #&# #%#  #$&#                                    ",
"      #&#  #&##%&&##&#  #&#           #&#  #&##%&&##&#  #&#           #&#  #&##%&&##&#  #&#                                     ",
"      #&&# #&&#%&&#%&# #%*#           #&&# #&&#%&&#%&# #%*#           #&&# #&&#%&&#%&# #%*#                                     ",
"       #&&##%&#%&&#%&##$&#             #&&##%&#%&&#%&##$&#             #&&##%&#%&&#%&##$&#                                      ",
"       #*&# #&=&&&=&# #&*#+++++++++++++#*&# #&=&&&=&# #&*#+++++++++++++#*&# #&=&&&=&# #&*#                                      ",
"        #&&##%$%%%&&##%&#...............#&&##%$%%%&&##%&#...............#&&##%$%%%&&##%&#                                       ",
"        #*&&=$%&&&&&=%&*#@@@@@@@@@@@@@@@#*&&=$%&&&&&=%&*#@@@@@@@@@@@@@@@#*&&=$%&&&&&=%&*#                                       ",
"         #&&%%&&&&&*&&*#                 #&&%%&&&&&*&&*#                 #&&%%&&&&&*&&*#                                        ",
"         #*%%&&&&&&**&*#                 #*%%&&&&&&**&*#                 #*%%&&&&&&**&*#                                        ",
"          #%&&&&&&****#                   #%&&&&&&****#                   #%&&&&&&****#                                         ",
"         #=============#                 #=============#                 #=============#                                        ",
"         #$$%&&&&&&&**=#                 #$$%&&&&&&&**=#                 #$$%&&&&&&&**=#                                        ",
"    +++##===============##++           ##===============##++        +++##===============##++                                    ",
"   +...#$$%&&&&&&&&&&&**=#..+          #$$%&&&&&&&&&&&**=#..+      +...#$$%&&&&&&&&&&&**=#..+                                   ",
"  +...@#$$%&&&&&&&&&&&**=#...+         #$$%&&&&&&&&&&&**=#...+    +...@#$$%&&&&&&&&&&&**=#...+                                  ",
"  +..@ #$$%&&&&&&&&&&&**=#@...         #$$%&&&&&&&&&&&**=#@...    +..@ #$$%&&&&&&&&&&&**=#@...                                  ",
" +.@@  ################### @@.+        ################### @@.+  +.@@  ################### @@.+                                 ",
"+.@                          @.+               +.@           @.++.@            +.@           @.+                                ",
"@@                            @.               +.@            @.@@             +.@            @.                                ",
"                                .+             +.@            +@.+             +.@              .+                            +@",
"                                @.+            +.@           +.@@.+            +.@              @.+                          +.@",
"                                 @..+          ###         ++.@  @..+          ###               @..+          ###         ++.@ ",
"                                  ...+   ###  #$%&#  ###  +..@    ...+   ###  #$%&#  ###          ...+   ###  #$%&#  ###  +..@  ",
"                                  @....+#$%&# #%&*# #$%&#+...@    @....+#$%&# #%&*# #$%&#         @....+#$%&# #%&*# #$%&#+...@  ",
"                                   @....#%&*# #&**# #%&*#...@      @....#%&*# #&**# #%&*#          @....#%&*# #&**# #%&*#...@   ",
"                                   ###..#&**#  #=#  #&**#..###     ###..#&**#  #=#  #&**#  ###     ###..#&**#  #=#  #&**#..###  ",
"                                  #$%&#..#=#   #&#   #=#  #$%&#   #$%&#..#=#   #&#   #=#  #$%&#   #$%&#..#=#   #&#   #=#  #$%&# ",
"                                  #%&*#  #&#   #&#   #&#  #%&*#   #%&*#  #&#   #&#   #&#  #%&*#   #%&*#  #&#   #&#   #&#  #%&*# ",
"                                  #&**#   #&#  #&#  #%#   #&**#   #&**#   #&#  #&#  #%#   #&**#   #&**#   #&#  #&#  #%#   #&**# ",
"                                   #==#   #&#  #&#  #%#   #==#     #==#   #&#  #&#  #%#   #==#     #==#   #&#  #&#  #%#   #==#  ",
"                                    #&#   #&#  #&#  #&#   #&#       #&#   #&#  #&#  #&#   #&#       #&#   #&#  #&#  #&#   #&#   ",
"                                     #&#  #%&# #&# #%&#  #%#         #&#  #%&# #&# #%&#  #%#         #&#  #%&# #&# #%&#  #%#    ",
"                                     #&&#  #&# #&# #%#  #$&#         #&&#  #&# #&# #%#  #$&#         #&&#  #&# #&# #%#  #$&#    ",
"                                      #&#  #&##%&&##&#  #&#           #&#  #&##%&&##&#  #&#           #&#  #&##%&&##&#  #&#     ",
"                                      #&&# #&&#%&&#%&# #%*#           #&&# #&&#%&&#%&# #%*#           #&&# #&&#%&&#%&# #%*#     ",
"                                       #&&##%&#%&&#%&##$&#             #&&##%&#%&&#%&##$&#             #&&##%&#%&&#%&##$&#      ",
"                                       #*&# #&=&&&=&# #&*#+++++++++++++#*&# #&=&&&=&# #&*#+++++++++++++#*&# #&=&&&=&# #&*#      ",
"                                        #&&##%$%%%&&##%&#...............#&&##%$%%%&&##%&#...............#&&##%$%%%&&##%&#       ",
"                                        #*&&=$%&&&&&=%&*#@@@@@@@@@@@@@@@#*&&=$%&&&&&=%&*#@@@@@@@@@@@@@@@#*&&=$%&&&&&=%&*#       ",
"                                         #&&%%&&&&&*&&*#                 #&&%%&&&&&*&&*#                 #&&%%&&&&&*&&*#        ",
"                                         #*%%&&&&&&**&*#                 #*%%&&&&&&**&*#                 #*%%&&&&&&**&*#        ",
"                                          #%&&&&&&****#                   #%&&&&&&****#                   #%&&&&&&****#         ",
"                                         #=============#                 #=============#                 #=============#        ",
"                                         #$$%&&&&&&&**=#                 #$$%&&&&&&&**=#                 #$$%&&&&&&&**=#        ",
"                                       ##===============##          +++##===============##             ##===============##      ",
"                                       #$$%&&&&&&&&&&&**=#         +...#$$%&&&&&&&&&&&**=#             #$$%&&&&&&&&&&&**=#      ",
"                                       #$$%&&&&&&&&&&&**=#        +...@#$$%&&&&&&&&&&&**=#             #$$%&&&&&&&&&&&**=#      ",
"                                       #$$%&&&&&&&&&&&**=#        +..@ #$$%&&&&&&&&&&&**=#             #$$%&&&&&&&&&&&**=#      ",
"                                       ###################       +.@@  ###################             ###################      ",
"                                               +.@              +.@                                                             ",
"                                               +.@              @@                                                              ",
"                                               +.@            +@                                                                ",
"                                               +.@           +.@                                                                ",
"                                               ###         ++.@                                                                 ",
"                                         ###  #$%&#  ###  +..@                                                                  ",
"                                        #$%&# #%&*# #$%&#+...@                                                                  ",
"                                        #%&*# #&**# #%&*#...@                                                                   ",
"                                   ###  #&**#  #=#  #&**#..###                                                                  ",
"                                  #$%&#  #=#   #&#   #=#  #$%&#                                                                 ",
"                                  #%&*#  #&#   #&#   #&#  #%&*#                                                                 ",
"                                  #&**#   #&#  #&#  #%#   #&**#                                                                 ",
"                                   #==#   #&#  #&#  #%#   #==#                                                                  ",
"                                    #&#   #&#  #&#  #&#   #&#                                                                   ",
"                                     #&#  #%&# #&# #%&#  #%#                                                                    ",
"                                     #&&#  #&# #&# #%#  #$&#                                                                    ",
"                                      #&#  #&##%&&##&#  #&#                                                                     ",
"                                      #&&# #&&#%&&#%&# #%*#                                                                     ",
"                                       #&&##%&#%&&#%&##$&#                                                                      ",
"                                       #*&# #&=&&&=&# #&*#                                                                      ",
"                                        #&&##%$%%%&&##%&#                                                                       ",
"                                        #*&&=$%&&&&&=%&*#                                                                       ",
"                                         #&&%%&&&&&*&&*#                                                                        ",
"                                         #*%%&&&&&&**&*#                                                                        ",
"                                          #%&&&&&&****#                                                                         ",
"                                         #=============#                                                                        ",
"                                         #$$%&&&&&&&**=#                                                                        ",
"                                       ##===============##++                                                                    ",
"                                       #$$%&&&&&&&&&&&**=#..+                                                                   ",
"                                       #$$%&&&&&&&&&&&**=#...+                                                                  ",
"                                       #$$%&&&&&&&&&&&**=#@...                                                                  ",
"                                       ################### @@.+                                                                 ",
"                                                             @.+                                                                ",
"                                                              @.                                                                "};
