/* XPM */
static char * gimp_temp_44814_xpm[] = {
"160 32 7 1",
" 	c None",
".	c #753909",
"+	c #2D1603",
"@	c #9F653B",
"#	c #000000",
"$	c #0A0500",
"%	c #935B2D",
"                                                                       ..+                                            @.+                                       ",
"                                                                       @..                                            @.+                                       ",
"                #   #                                                   ..+                                          @.+                                        ",
"                #  ##                                                   @..                                          @.+                                        ",
"               #.##.#                                                    ..+                                        @.+                                         ",
"               #.$$.#                                                    @..                                        @.+                                         ",
"             ##@@%%.+#                                                    ..+                                      @.+                                          ",
"            #@@@%....+#         @@                                        @..                                      @.+                                        @@",
"           #@@$$.....+#         ..@@                                       ..+                                    @.+                                       @@..",
"          #@@%##......+#        ++..@@                                     @..                                    @.+                                     @@..++",
"          #@%.........+#          ++..@@                                    ..+                                  @.+                                    @@..++  ",
"         #@%.........++#            ++..@@                                  @..                                  @.+                                  @@..++    ",
"        #@%.....++...++#              ++..@@                                 ..+                                @.+                                 @@..++      ",
"       #@@....++++++.+$#                ++..@@                               @..                                @.+                               @@..++        ",
"      #@@....++$$$+.++$#                  ++..@@                              ..+                              @.+                              @@..++          ",
"      #@....++###+..++#                     ++..@@                            @..                              @.+                            @@..++            ",
"      #.+.++##  #@..++#                       ++..@@                           ..+                            @.+                           @@..++              ",
"       #+++#    #@..++#                         ++..@@                         @..                            @.+                         @@..++                ",
"        ###     #@..++#                           ++..@@                        ..+                          @.+                        @@..++                  ",
"               #@%..++#                             ++..@@                      @..                          @.+                      @@..++                    ",
"              #@%%%..+#                               ++..@@                     ..+                        @.+                     @@..++                      ",
"             #@%%%...++#                                ++..@@                   @..                        @.+                   @@..++                        ",
"            #@%%%.....+#                                  ++..@@                  ..+                      @.+                  @@..++                          ",
"           #$$$$$$$$$$$$#                                   ++..                  @..                      @.+                  ..++                            ",
"           #@%%.......+$#                                     ++                   ..+                    @.+                   ++                              ",
"         ##$$$$$$$$$$$$$$##                                                        @..                    @.+                                                   ",
"         #@@%..........++$#                                                         ..+                  @.+                                                    ",
"         #@@%..........++$#                                                         @..                  @.+                                                    ",
"         #@@%..........++$#                                                          ..+                @.+                                                     ",
"         ##################                                                          @..                @.+                                                     ",
"                                                                                      ..+              @.+                                                      ",
"                                                                                      @..              @.+                                                      "};
