/* XPM */
static char * gimp_temp_44819_xpm[] = {
"160 32 6 1",
" 	c None",
".	c #1B1B23",
"+	c #020202",
"@	c #7F7F98",
"#	c #000000",
"$	c #62627A",
"                                                                       ..+                                            @.+                                       ",
"                                                                       @..                                            @.+                                       ",
"                #   #                                                   ..+                                          @.+                                        ",
"                #  ##                                                   @..                                          @.+                                        ",
"               #.##.#                                                    ..+                                        @.+                                         ",
"               #.##.#                                                    @..                                        @.+                                         ",
"             ##@@$$.+#                                                    ..+                                      @.+                                          ",
"            #@@@$....+#         @@                                        @..                                      @.+                                        @@",
"           #@@##.....+#         ..@@                                       ..+                                    @.+                                       @@..",
"          #@@$##......+#        ++..@@                                     @..                                    @.+                                     @@..++",
"          #@$.........+#          ++..@@                                    ..+                                  @.+                                    @@..++  ",
"         #@$.........++#            ++..@@                                  @..                                  @.+                                  @@..++    ",
"        #@$.....++...++#              ++..@@                                 ..+                                @.+                                 @@..++      ",
"       #@@....++++++.+##                ++..@@                               @..                                @.+                               @@..++        ",
"      #@@....++###+.++##                  ++..@@                              ..+                              @.+                              @@..++          ",
"      #@....++###+..++#                     ++..@@                            @..                              @.+                            @@..++            ",
"      #.+.++##  #@..++#                       ++..@@                           ..+                            @.+                           @@..++              ",
"       #+++#    #@..++#                         ++..@@                         @..                            @.+                         @@..++                ",
"        ###     #@..++#                           ++..@@                        ..+                          @.+                        @@..++                  ",
"               #@$..++#                             ++..@@                      @..                          @.+                      @@..++                    ",
"              #@$$$..+#                               ++..@@                     ..+                        @.+                     @@..++                      ",
"             #@$$$...++#                                ++..@@                   @..                        @.+                   @@..++                        ",
"            #@$$$.....+#                                  ++..@@                  ..+                      @.+                  @@..++                          ",
"           ##############                                   ++..                  @..                      @.+                  ..++                            ",
"           #@$$.......+##                                     ++                   ..+                    @.+                   ++                              ",
"         ##################                                                        @..                    @.+                                                   ",
"         #@@$..........++##                                                         ..+                  @.+                                                    ",
"         #@@$..........++##                                                         @..                  @.+                                                    ",
"         #@@$..........++##                                                          ..+                @.+                                                     ",
"         ##################                                                          @..                @.+                                                     ",
"                                                                                      ..+              @.+                                                      ",
"                                                                                      @..              @.+                                                      "};
