/* XPM */
static char * itBlau_xpm[] = {
"160 192 12 1",
" 	c None",
".	c #000000",
"+	c #31C8D8",
"@	c #45E4EF",
"#	c #FFFFFF",
"$	c #329BA3",
"%	c #309AD7",
"&	c #45B4EE",
"*	c #317BA2",
"=	c #6E6EE3",
"-	c #7C7FF3",
";	c #5E61CD",
"                                                                                                                                                                ",
"                                                                                                                                                                ",
"                                                                                                                                                                ",
"                                                                                                                                                                ",
"                                                                                                                                                                ",
"                                                                                                                                                                ",
"                                                                                                                                                                ",
"                                                                                                                                                                ",
"                                                                                                                                                                ",
"                                                                                                                                                                ",
"                                                                                                                                                                ",
"                                                                                                                                                                ",
"                                                                                                                                                                ",
"                                                                                                                                                                ",
"                                                                                                                                                                ",
"                                                                                                                                                                ",
"                                                                                                                                                                ",
"                                                                                                                                                                ",
"                                     .    .                                                                          .    .                                     ",
"                                     .   .+.    .                                                              .    .+.   .                                     ",
"                                    ...  .+.   .+.   .                                                    .   .+.   .+.  ...                                    ",
"                                    .+.  .++.  .+.   ..                                                  ..   .+.  .++.  .+.                                    ",
"                                    .++. .++.  .++. .++.                                                .++. .++.  .++. .++.                                    ",
"                                    .++..++++..+++..+++.                                                .+++..+++..++++..++.                                    ",
"                                    .+++.++++.+++++.++++.                                              .++++.+++++.++++.+++.                                    ",
"                                   .++++.++++.+++++.++++...                                          ...++++.+++++.++++.++++.                                   ",
"                                   .+++++.+@@@@@@@@@@@@@@@@.                                        .@@@@@@@@@@@@@@@@+.+++++.                                   ",
"                         .         .++@@@@@@@@@++@++@@@@@@@@.                                      .@@@@@@@@++@++@@@@@@@@@++.         .                         ",
"                         ....      .@@@@@@@@+++@@@@+++++++@@@..                                  ..@@@+++++++@@@@+++@+++@+@@.      ....                         ",
"                          .@@...    .@@@@@@+@@@++++@++++@@@@@@@.....                        .....@@@@@@@@@@@@@@++@@@++@++++.    ...@@.                          ",
"                          .+++@@..  .@@++@+@@++++++++++++@@@@@@@@@@@..                    ..@@@@@@@@@@@++++++++++++@@+@+++@.  ..@@+++.                          ",
"                           .+++++@..@@++@+++++++++++++++++++++..@@++++..                ..@@@+@@..+++++++++++@@+++++++++++@@..@+++++.                           ",
"                           .++++++@+..+@@++++++++++++++++++++.##.+++++++.              .+@@@@@@.##.++@@@@@@@@@++++++++++++..+@++++++.                           ",
"                           .$$++++++++@++++++++++++++++++++++.#..++++++++.            .+@++++++..#.+++++++++++++++++++++++++++++++$$.                           ",
"                          .++$$$$$$$++++++++++++++++++++++++++..+++++++++.            .+++++++++..++++++++++++++++++++++++++$$$$$$$++.                          ",
"                          .++++++++++@++++++++++++++++++++++++++++++++++++.          .+++++++++++++++++++++++++++++++++++++++++++++++.                          ",
"                           .+++++++$++++++++++++++++++++++++++++++++++++++.          .++++++++++++++++++++++++++++++++++++++$+++++++.                           ",
"                           .+++++$$$++++++++++++.@++++++++++++++++++++++$.            .+++++++++++++++++++++++@.++++++++++++$$$+++++.                           ",
"                           .+$$$$++$+++++++++++.@@@@.+++++++++++++++++...              ...+++++++++++++++++.@@@@.++++++++$+$$++$$$$+.                           ",
"                           .+$+++++++++++++++..@@@@.$++++++++++++$++++...              ...+++++++++++++++++$.@@@@..++++++$$+++++++$+.                           ",
"                           .+++++$$+++++++++.@@@...$++++++++$$$$$$++$$$.                .$$++++++$++++++++++$...@@@.++$$$$+$+$$+++++.                           ",
"                            .++$$$+$+++++++++...$$$++++++$$$$+++++$$$..                  ..$+++++++$$$+++++++$$$...+++++$$++$+$$$++.                            ",
"                            .$$$+++++++++++++++$$$++++++$$+++++$$$$$.                      .$+++++++++$$++++++$$$+$$$$$$$+$+++++$$$.                            ",
"                            .++++++$$++++++++++++++$$$++$+$$$$$$$$$.                        .$$$$$$$$$+$++$$$++++++++++$$$+$$++++++.                            ",
"                            .+++$$$..+++++$$$$$$$$+++++++$$$$$$$$..                          ..$$$$$$$$+++++++$$$$$$$$$$$$+..$$$+++.                            ",
"                           .++$$...  .++++++++++++$$$$$$$$$$.....                              .....$$$$$$$$$$++$$$$$$+$$+.  ...$$++.                           ",
"                           .$$..     .$$$$$$$$$$$$$$$$$$$$..                                        ..$$$$$$$$$$$$$$$$$$$$.     ..$$.                           ",
"                          ....      .++$$$$$$$$$$$$$$$$$..                                            ..$$$$$$$$$$$$$$$$$+$.      ....                          ",
"                                    .++++$$$$$$$$$$$$$$.                                                .$$$$$$$$$$$$$$++$$.                                    ",
"                                    .+++++++++$$$$$$++.                                                  .++$$$$$$+++++++++.                                    ",
"                                     .++++.+++++++++++.                                                  .+++++++++++.++++.                                     ",
"                                     .+++. .++++.++++.                 .  .   .                           .++++.++++. .+++.                                     ",
"                                      .++. .+++. .+++.                 . ..  .%. .                        .+++. .+++. .++.                                      ",
"                                      .++.  .++. .+++.                .%..%. .%. ..                       .+++. .++.  .++.                                      ",
"                                       .+.  .++.  .+.                 .%..%%..%..%%.                       .+.  .++.  .+.                                       ",
"                                       ..    ..   ..                  .%%.%%.%%%.%%%.                       ..   ..    ..                                       ",
"                                        .    .     .                 .%%%.&&&&&&&&&&&.                      .     .    .                                        ",
"                                                                ..   .&&&&&&&&&&&&&&&&..                                                                        ",
"                                                                .%... .%&&&%&%&%%&&&&&&%...                                                                     ",
"                                                                .%&&%..&%%&&&%%&&&&%%%%&&&&..                                                                   ",
"                                                                .**%%%.%%&%%%%&&&%%%%%%#.%%%%.                                                                  ",
"                                                                .%%***%&&%%%%%%%%%%%%%%..%%%%%.                                                                 ",
"                                                                .%%%%%%%&%%%%%%%%%%%%%%%%%%%%%%.                                                                ",
"                                                                .%****%%%%%%%%%%%%%%%%%%%%%%%%%.                                                                ",
"                                                                .%%%%**%%%%%..&&&.%%%%%%%%%%%..                                                                 ",
"                                                                .%%%*%%%%%%.&&&&.*%%%%%%%%%%%..                                                                 ",
"                                                                 .***%%%%%%%....*%%%%%%%%%%%*.                                                                  ",
"                                                                 .%%%%*%%%%%%*********%*****.                                                                   ",
"                                                                ..%***.%***%%%**%%%%%*****..                                                                    ",
"                                                                .**....**%***********%....                                                                      ",
"                                                                ...   .%**%********%..                                                                          ",
"                                                                      .%%%%%%***%%%.                                                                            ",
"                                                                      .%%%%%%%%%%%.                                                                             ",
"                                                                       .%%.%%%.%%%.                                                                             ",
"                                                                       .%. .%%.%%.                                                                              ",
"                                                                        .. .%. .%.                                                                              ",
"                                                                         .  .   .                                                                               ",
"                                                                                                                                                                ",
"                                                                                                                                                                ",
"                                                                                                                                                                ",
"                                                                                                                                                                ",
"                                                                                                                                                                ",
"                                     .    .                                                                          .    .                                     ",
"                                     .   .%.    .                                                              .    .%.   .                                     ",
"                                    ...  .%.   .%.   .                                                    .   .%.   .%.  ...                                    ",
"                                    .%.  .%%.  .%.   ..                                                  ..   .%.  .%%.  .%.                                    ",
"                                    .%%. .%%.  .%%. .%%.                                                .%%. .%%.  .%%. .%%.                                    ",
"                                    .%%..%%%%..%%%..%%%.                                                .%%%..%%%..%%%%..%%.                                    ",
"                                    .%%%.%%%%.%%%%%.%%%%.                                              .%%%%.%%%%%.%%%%.%%%.                                    ",
"                                   .%%%%.%%%%.%%%%%.%%%%...                                          ...%%%%.%%%%%.%%%%.%%%%.                                   ",
"                                   .%%%%%.%&&&&&&&&&&&&&&&&.                                        .&&&&&&&&&&&&&&&&%.%%%%%.                                   ",
"                         .         .%%&&&&&&&&&%%&%%&&&&&&&&.                                      .&&&&&&&&%%&%%&&&&&&&&&%%.         .                         ",
"                         ....      .&&&&&&&&%%%&&&&%%%%%%%&&&..                                  ..&&&%%%%%%%&&&&%%%&%%%&%&&.      ....                         ",
"                          .&&...    .&&&&&&%&&&%%%%&%%%%&&&&&&&.....                        .....&&&&&&&&&&&&&&%%&&&%%&%%%%.    ...&&.                          ",
"                          .%%%&&..  .&&%%&%&&%%%%%%%%%%%%&&&&&&&&&&&..                    ..&&&&&&&&&&&%%%%%%%%%%%%&&%&%%%&.  ..&&%%%.                          ",
"                           .%%%%%&..&&%%&%%%%%%%%%%%%%%%%%%%%%..&&%%%%..                ..&&&%&&..%%%%%%%%%%%&&%%%%%%%%%%%&&..&%%%%%.                           ",
"                           .%%%%%%&%..%&&%%%%%%%%%%%%%%%%%%%%.##.%%%%%%%.              .%&&&&&&.##.%%&&&&&&&&&%%%%%%%%%%%%..%&%%%%%%.                           ",
"                           .**%%%%%%%%&%%%%%%%%%%%%%%%%%%%%%%.#..%%%%%%%%.            .%&%%%%%%..#.%%%%%%%%%%%%%%%%%%%%%%%%%%%%%%%**.                           ",
"                          .%%*******%%%%%%%%%%%%%%%%%%%%%%%%%%..%%%%%%%%%.            .%%%%%%%%%..%%%%%%%%%%%%%%%%%%%%%%%%%%*******%%.                          ",
"                          .%%%%%%%%%%&%%%%%%%%%%%%%%%%%%%%%%%%%%%%%%%%%%%%.          .%%%%%%%%%%%%%%%%%%%%%%%%%%%%%%%%%%%%%%%%%%%%%%%.                          ",
"                           .%%%%%%%*%%%%%%%%%%%%%%%%%%%%%%%%%%%%%%%%%%%%%%.          .%%%%%%%%%%%%%%%%%%%%%%%%%%%%%%%%%%%%%%*%%%%%%%.                           ",
"                           .%%%%%***%%%%%%%%%%%%.&%%%%%%%%%%%%%%%%%%%%%%*.            .%%%%%%%%%%%%%%%%%%%%%%%&.%%%%%%%%%%%%***%%%%%.                           ",
"                           .%****%%*%%%%%%%%%%%.&&&&.%%%%%%%%%%%%%%%%%...              ...%%%%%%%%%%%%%%%%%.&&&&.%%%%%%%%*%**%%****%.                           ",
"                           .%*%%%%%%%%%%%%%%%..&&&&.*%%%%%%%%%%%%*%%%%...              ...%%%%%%%%%%%%%%%%%*.&&&&..%%%%%%**%%%%%%%*%.                           ",
"                           .%%%%%**%%%%%%%%%.&&&...*%%%%%%%%******%%***.                .**%%%%%%*%%%%%%%%%%*...&&&.%%****%*%**%%%%%.                           ",
"                            .%%***%*%%%%%%%%%...***%%%%%%****%%%%%***..                  ..*%%%%%%%***%%%%%%%***...%%%%%**%%*%***%%.                            ",
"                            .***%%%%%%%%%%%%%%%***%%%%%%**%%%%%*****.                      .*%%%%%%%%%**%%%%%%***%*******%*%%%%%***.                            ",
"                            .%%%%%%**%%%%%%%%%%%%%%***%%*%*********.                        .*********%*%%***%%%%%%%%%%***%**%%%%%%.                            ",
"                            .%%%***..%%%%%********%%%%%%%********..                          ..********%%%%%%%************%..***%%%.                            ",
"                           .%%**...  .%%%%%%%%%%%%**********.....                              .....**********%%******%**%.  ...**%%.                           ",
"                           .**..     .********************..                                        ..********************.     ..**.                           ",
"                          ....      .%%*****************..                                            ..*****************%*.      ....                          ",
"                                    .%%%%**************.                                                .**************%%**.                                    ",
"                                    .%%%%%%%%%******%%.                                                  .%%******%%%%%%%%%.                                    ",
"                                     .%%%%.%%%%%%%%%%%.                                                  .%%%%%%%%%%%.%%%%.                                     ",
"                                     .%%%. .%%%%.%%%%.                                                    .%%%%.%%%%. .%%%.                                     ",
"                                      .%%. .%%%. .%%%.                                                    .%%%. .%%%. .%%.                                      ",
"                                      .%%.  .%%. .%%%.                                                    .%%%. .%%.  .%%.                                      ",
"                                       .%.  .%%.  .%.                                                      .%.  .%%.  .%.                                       ",
"                                       ..    ..   ..                                                        ..   ..    ..                                       ",
"                                        .    .     .                                                        .     .    .                                        ",
"                                                                                                                                                                ",
"                                                                                                                                                                ",
"                                                                                                                                                                ",
"                                                                                                                                                                ",
"                                                                                                                                                                ",
"                                                                                                                                                                ",
"                                                                                                                                                                ",
"                                                                                                                                                                ",
"                                                                                                                                                                ",
"                                                                                                                                                                ",
"                                                                                                                                                                ",
"                                                                                                                                                                ",
"                                                                                                                                                                ",
"                                                                                                                                                                ",
"                                                                                                                                                                ",
"                                                                                                                                                                ",
"                                                                                                                                                                ",
"                                                                                                                                                                ",
"                                                                                                                                                                ",
"                                                                                                                                                                ",
"                                                                                                                                                                ",
"                                                                                                                                                                ",
"                                                                                                                                                                ",
"                                                                                                                                                                ",
"                                                                                                                                                                ",
"                                     .    .                                                                          .    .                                     ",
"                                     .   .=.    .                                                              .    .=.   .                                     ",
"                                    ...  .=.   .=.   .                                                    .   .=.   .=.  ...                                    ",
"                                    .=.  .==.  .=.   ..                                                  ..   .=.  .==.  .=.                                    ",
"                                    .==. .==.  .==. .==.                                                .==. .==.  .==. .==.                                    ",
"                                    .==..====..===..===.                                                .===..===..====..==.                                    ",
"                                    .===.====.=====.====.                                              .====.=====.====.===.                                    ",
"                                   .====.====.=====.====...                                          ...====.=====.====.====.                                   ",
"                                   .=====.=----------------.                                        .----------------=.=====.                                   ",
"                         .         .==---------==-==--------.                                      .--------==-==---------==.         .                         ",
"                         ....      .--------===----=======---..                                  ..---=======----===-===-=--.      ....                         ",
"                          .--...    .------=---====-====-------.....                        .....--------------==---==-====.    ...--.                          ",
"                          .===--..  .--==-=--============-----------..                    ..-----------============--=-===-.  ..--===.                          ",
"                           .=====-..--==-=====================..--====..                ..---=--..===========--===========--..-=====.                           ",
"                           .======-=..=--====================.##.=======.              .=------.##.==---------============..=-======.                           ",
"                           .;;========-======================.#..========.            .=-======..#.===============================;;.                           ",
"                          .==;;;;;;;==========================..=========.            .=========..==========================;;;;;;;==.                          ",
"                          .==========-====================================.          .===============================================.                          ",
"                           .=======;======================================.          .======================================;=======.                           ",
"                           .=====;;;============.-======================;.            .=======================-.============;;;=====.                           ",
"                           .=;;;;==;===========.----.=================...              ...=================.----.========;=;;==;;;;=.                           ",
"                           .=;===============..----.;============;====...              ...=================;.----..======;;=======;=.                           ",
"                           .=====;;=========.---...;========;;;;;;==;;;.                .;;======;==========;...---.==;;;;=;=;;=====.                           ",
"                            .==;;;=;=========...;;;======;;;;=====;;;..                  ..;=======;;;=======;;;...=====;;==;=;;;==.                            ",
"                            .;;;===============;;;======;;=====;;;;;.                      .;=========;;======;;;=;;;;;;;=;=====;;;.                            ",
"                            .======;;==============;;;==;=;;;;;;;;;.                        .;;;;;;;;;=;==;;;==========;;;=;;======.                            ",
"                            .===;;;..=====;;;;;;;;=======;;;;;;;;..                          ..;;;;;;;;=======;;;;;;;;;;;;=..;;;===.                            ",
"                           .==;;...  .============;;;;;;;;;;.....                              .....;;;;;;;;;;==;;;;;;=;;=.  ...;;==.                           ",
"                           .;;..     .;;;;;;;;;;;;;;;;;;;;..                                        ..;;;;;;;;;;;;;;;;;;;;.     ..;;.                           ",
"                          ....      .==;;;;;;;;;;;;;;;;;..                                            ..;;;;;;;;;;;;;;;;;=;.      ....                          ",
"                                    .====;;;;;;;;;;;;;;.                                                .;;;;;;;;;;;;;;==;;.                                    ",
"                                    .=========;;;;;;==.                                                  .==;;;;;;=========.                                    ",
"                                     .====.===========.                                                  .===========.====.                                     ",
"                                     .===. .====.====.                                                    .====.====. .===.                                     ",
"                                      .==. .===. .===.                                                    .===. .===. .==.                                      ",
"                                      .==.  .==. .===.                                                    .===. .==.  .==.                                      ",
"                                       .=.  .==.  .=.                                                      .=.  .==.  .=.                                       ",
"                                       ..    ..   ..                                                        ..   ..    ..                                       ",
"                                        .    .     .                                                        .     .    .                                        ",
"                                                                                                                                                                ",
"                                                                                                                                                                ",
"                                                                                                                                                                ",
"                                                                                                                                                                ",
"                                                                                                                                                                ",
"                                                                                                                                                                ",
"                                                                                                                                                                "};
