/* XPM */
static char * gimp_temp_218410_xpm[] = {
"64 96 4 1",
" 	c None",
".	c #000000",
"+	c #00CCFF",
"@	c #0066FF",
"                                                                ",
"                                                                ",
"                                                                ",
"                                                                ",
"                                                                ",
"                                                                ",
"                                                                ",
"                                                                ",
"                                                                ",
"                                                                ",
"                                                                ",
"                                                                ",
"                                                                ",
"                                                                ",
"                                                                ",
"                                                                ",
"                                                                ",
"                                                                ",
"                                                                ",
"                                                                ",
"                                                                ",
"                                                                ",
"                                                                ",
"                                                                ",
"                                                                ",
"                 .......                .......                 ",
"               ..+++++++..            ..+++++++..               ",
"              .++++++@@@@@.          .++++++@@@@@.              ",
"             .++++@@@@@@@@@.        .++++@@@@@@@@@.             ",
"            .++@@@@@@@@@@@@@.      .++@@@@@@@@@@@@@.            ",
"           .++@@@@@@@@@@@@@@@.    .++@@@@@@@@@@@@@@@.           ",
"          .@@@@@@..@@..@@@@@@.   .@@@@@@..@@..@@@@@@.           ",
"          .@@@@@@..@@..@@@@@@@.  .@@@@@@..@@..@@@@@@@.          ",
"         .@@@@@@@@@@@@@@@@@@@@. .@@@@@@@@@@@@@@@@@@@@.          ",
"         .@@@@@@@@@@@@@@@@@@@@@..@@@@@@@@@@@@@@@@@@@@@.         ",
"         .@@@@@@@@@@@@@@@@@@@@@..@@@@@@@@@@@@@@@@@@@@@.         ",
"         .@@@@@@@@@@@@@@@@@@@@@..@@@@@@@@@@@@@@@@@@@@@.         ",
"         .@@@@@@@.+++@@.@@@@@@@..@@@@@@@.+++@@.@@@@@@@.         ",
"         .@@@@@@@.@++@@.@@@@@@@..@@@@@@@.@++@@.@@@@@@@.         ",
"          .@@@@@@.@+@@@.@@@@@@@. .@@@@@@.@+@@@.@@@@@@@.         ",
"          .@@@@@@.@@@@.@@@@@@@.  .@@@@@@.@@@@.@@@@@@@.          ",
"           .@@@@@@.@@@.@@@@@@@.   .@@@@@@.@@@.@@@@@@@.          ",
"           .@@@@@@@...@@@@@@@.    .@@@@@@@...@@@@@@@.           ",
"            .@@@@@@@@@@@@@@@.      .@@@@@@@@@@@@@@@.            ",
"             .@@@@@@@@@@@@@.        .@@@@@@@@@@@@@.             ",
"             ....@@@@@@@....        ....@@@@@@@....             ",
"            .++@@.@@@@@.++@@.      .++@@.@@@@@.++@@.            ",
"            .@@@@.......@@@@.      .@@@@.......@@@@.            ",
"            .@@@@.     .@@@@.      .@@@@.     .@@@@.            ",
"            .@@@@.     .@@@@.      .@@@@.     .@@@@.            ",
"             .@@@.     .@@@.        .@@@.     .@@@.             ",
"              ...       ...          ...       ...              ",
"                                                                ",
"                                                                ",
"                                                                ",
"                                                                ",
"                                                                ",
"                                                                ",
"                                                                ",
"                                                                ",
"                                                                ",
"                                                                ",
"                                                                ",
"                                                                ",
"                 .......                .......                 ",
"               ..+++++++..            ..+++++++..               ",
"              .++++++@@@@@.          .++++++@@@@@.              ",
"             .++++@@@@@@@@@.        .++++@@@@@@@@@.             ",
"            .++@@@@@@@@@@@@@.      .++@@@@@@@@@@@@@.            ",
"           .++@@@@@@@@@@@@@@@.    .++@@@@@@@@@@@@@@@.           ",
"          .@@@@@@..@@..@@@@@@.   .@@@@@@..@@..@@@@@@.           ",
"          .@@@@@@..@@..@@@@@@@.  .@@@@@@..@@..@@@@@@@.          ",
"         .@@@@@@@@@@@@@@@@@@@@. .@@@@@@@@@@@@@@@@@@@@.          ",
"         .@@@@@@@@@@@@@@@@@@@@@..@@@@@@@@@@@@@@@@@@@@@.         ",
"         .@@@@@@@@@@@@@@@@@@@@@..@@@@@@@@@@@@@@@@@@@@@.         ",
"         .@@@@@@@@@@@@@@@@@@@@@..@@@@@@@@@@@@@@@@@@@@@.         ",
"         .@@@@@@@.+++@@.@@@@@@@..@@@@@@@.+++@@.@@@@@@@.         ",
"         .@@@@@@@.@++@@.@@@@@@@..@@@@@@@.@++@@.@@@@@@@.         ",
"          .@@@@@@.@+@@@.@@@@@@@. .@@@@@@.@+@@@.@@@@@@@.         ",
"          .@@@@@@.@@@@.@@@@@@@.  .@@@@@@.@@@@.@@@@@@@.          ",
"           .@@@@@@.@@@.@@@@@@@.   .@@@@@@.@@@.@@@@@@@.          ",
"           .@@@@@@@...@@@@@@@.    .@@@@@@@...@@@@@@@.           ",
"            .@@@@@@@@@@@@@@@.      .@@@@@@@@@@@@@@@.            ",
"             .@@@@@@@@@@@@@.        .@@@@@@@@@@@@@.             ",
"              .@@@@@@@@@@@.          .@@@@@@@@@@@.              ",
"               ..@@@@@@@..            ..@@@@@@@..               ",
"                .........              .........                ",
"                ..     ..              ..     ..                ",
"                ..     ..              ..     ..                ",
"                ..     ..              ..     ..                ",
"                ..     ..              ..     ..                ",
"                ..     ..              ..     ..                ",
"               ....   ....            ....   ....               ",
"              .++@@. .++@@.          .++@@. .++@@.              ",
"              .@@@@. .@@@@.          .@@@@. .@@@@.              ",
"              ...... ......          ...... ......              "};
