/* XPM */
static char * gimp_temp_22045_xpm[] = {
"64 96 6 1",
" 	c None",
".	c #000000",
"+	c #CDBF4A",
"@	c #A99D38",
"#	c #686123",
"$	c #1E0A0A",
"                                                                ",
"                                                                ",
"                                                                ",
"                                                                ",
"                                                                ",
"                                                                ",
"                                                                ",
"                                                                ",
"                                                                ",
"                                                                ",
"                                                                ",
"                                                                ",
"                                                                ",
"                                                                ",
"                                                                ",
"                                                                ",
"                                                                ",
"                                                                ",
"                                                                ",
"                                                                ",
"                                                                ",
"                                                                ",
"                                                                ",
"                                                                ",
"                                                                ",
"                                                                ",
"                                                                ",
"                                                                ",
"                                                                ",
"                                                                ",
"                                                                ",
"                                                                ",
"                                                                ",
"                                                                ",
"                                                                ",
"                                                                ",
"                    ..    ....             ..    ....           ",
"                  ..+......+@@.          ..+......+@@.          ",
"                 ..+++.##@@@##.         ..+++.##@@@##.          ",
"                .@@.#@@###+@@#.        .@@.#@@###+@@#.          ",
"           ... .@@+.#@@##.#.##.   ... .@@+.#@@##.#.##.          ",
"           .++..+@++.#+#..###..   .++..+@++.#+#..###..          ",
"            .+++..@#.++#...#..     .+++..@#.++#...#..           ",
"             .+++##.+@+@@@...       .+++##.+@+@@@...            ",
"          ...@#####++#++#@.      ...@#####++#++#@.              ",
"          ...@@@@+++@#+@#..      ...@@@@+++@#+@#..              ",
"           .....+@@@@@@....       .....+@@@@@@....              ",
"                .........              .........                ",
"                                                                ",
"                                                                ",
"                                                                ",
"                                                                ",
"                                                                ",
"                                                                ",
"                                                                ",
"                                                                ",
"                                                                ",
"                                                                ",
"                                                                ",
"                                                                ",
"                                                                ",
"                                                                ",
"                                                                ",
"                                                                ",
"                                                                ",
"                                                                ",
"                                                                ",
"                                                                ",
"                                                                ",
"                                                                ",
"                                                                ",
"                    ..    ....             ..    ....           ",
"                  ..+......+@@.          ..+......+@@.          ",
"                 ..+++.##@@@##.         ..+++.##@@@##.          ",
"                .@@.#@@###+@@#.        .@@.#@@###+@@#.          ",
"           ... .@@+.#@@##.#.##.   ... .@@+.#@@##.#.##.          ",
"           .++..+@++.#+#..###..   .++..+@++.#+#..###..          ",
"            .+++..@#.++#...#..     .+++..@#.++#...#..           ",
"             .+++##.+@+@@@...       .+++##.+@+@@@...            ",
"          ...@#####++#++#@.      ...@#####++#++#@.              ",
"          ...@@@@+++@#+@#..      ...@@@@+++@#+@#..              ",
"           .....+@@@@@@....       .....+@@@@@@....              ",
"               ..........$            ..........$               ",
"                   $$$$$$                 $$$$$$                ",
"                                                                ",
"                                                                ",
"                                                                ",
"                                                                ",
"                                                                ",
"                                                                ",
"                                                                ",
"                                                                ",
"                                                                ",
"                                                                ",
"                                                                ",
"                                                                "};
