/* XPM */
static char * gimp_temp_22043_xpm[] = {
"64 96 12 1",
" 	c None",
".	c #BCBCBC",
"+	c #000000",
"@	c #E7E7E7",
"#	c #BED092",
"$	c #9ABF41",
"%	c #7D9A38",
"&	c #6F8832",
"*	c #627630",
"=	c #3C4820",
"-	c #4C5D23",
";	c #1E0A0A",
"                                                                ",
"                                                                ",
"                                                                ",
"                                                                ",
"                                                                ",
"                                                                ",
"                                                                ",
"                                                                ",
"                                                                ",
"                                                                ",
"                                                                ",
"                                                                ",
"                                                                ",
"                                                                ",
"                                                                ",
"                                                                ",
"                                                                ",
"                                                                ",
"                                                                ",
"                                                                ",
"                                                                ",
"                                                                ",
"                                                                ",
"                                                                ",
"                                                                ",
"                                                                ",
"                                                                ",
"                                                                ",
"                                                                ",
"                                                                ",
"                                                                ",
"                      .++                    .++                ",
"                  ++ .+ +                ++ .+ +                ",
"                 +@#++ .+               +@#++ .+                ",
"                 +#@##+++               +#@##+++                ",
"                +#@$%&#$+              +#@$%&#$+                ",
"                +#$%$**=+              +#$%$**=+                ",
"               +#-$%-*=+              +#-$%-*=+                 ",
"               +%$-$*+=+              +%$-$*+=+                 ",
"               +%*-$*=+               +%*-$*=+                  ",
"               +$#$-+++               +$#$-+++                  ",
"               +$#$%**=+              +$#$%**=+                 ",
"               +$#$%-+++              +$#$%-+++                 ",
"               +$#$%&-+               +$#$%&-+                  ",
"               +$#$%&-+               +$#$%&-+                  ",
"               +$#$%&-+               +$#$%&-+                  ",
"               +%%%&*=+               +%%%&*=+                  ",
"               ++++++++               ++++++++                  ",
"                                                                ",
"                                                                ",
"                                                                ",
"                                                                ",
"                                                                ",
"                                                                ",
"                                                                ",
"                                                                ",
"                                                                ",
"                                                                ",
"                                                                ",
"                                                                ",
"                                                                ",
"                                                                ",
"                                                                ",
"                                                                ",
"                                                                ",
"                                                                ",
"                      .++                    .++                ",
"                  ++ .+ +                ++ .+ +                ",
"                 +@#++ .+               +@#++ .+                ",
"                 +#@##+++               +#@##+++                ",
"                +#@$%&#$+              +#@$%&#$+                ",
"                +#$%$**=+              +#$%$**=+                ",
"               +#-$%-*=+              +#-$%-*=+                 ",
"               +%$-$*+=+              +%$-$*+=+                 ",
"               +%*-$*=+               +%*-$*=+                  ",
"               +$#$-+++               +$#$-+++                  ",
"               +$#$%**=+              +$#$%**=+                 ",
"               +$#$%-+++              +$#$%-+++                 ",
"               +$#$%&-+               +$#$%&-+                  ",
"               +$#$%&-+               +$#$%&-+                  ",
"               +$#$%&-+               +$#$%&-+                  ",
"               +%%%&*=+               +%%%&*=+                  ",
"               ++++++++;;;            ++++++++;;;               ",
"                   ;;;;;;                 ;;;;;;                ",
"                                                                ",
"                                                                ",
"                                                                ",
"                                                                ",
"                                                                ",
"                                                                ",
"                                                                ",
"                                                                ",
"                                                                ",
"                                                                ",
"                                                                ",
"                                                                "};
