/* XPM */
static char * gimp_temp_22745_xpm[] = {
"64 96 8 1",
" 	c None",
".	c #000000",
"+	c #DDDD11",
"@	c #FFFF11",
"#	c #BBBB00",
"$	c #888800",
"%	c #FFFFFF",
"&	c #444400",
"                                                                ",
"                                                                ",
"                                                                ",
"                                                                ",
"                                                                ",
"                                                                ",
"                                                                ",
"                                                                ",
"                                                                ",
"                                                                ",
"                                                                ",
"                                                                ",
"                                                                ",
"                                                                ",
"                                                                ",
"                                                                ",
"                                                                ",
"                                                                ",
"                                                                ",
"                                                                ",
"                                                                ",
"                                                                ",
"                                                                ",
"                                                                ",
"                                                                ",
"                 .......                .......                 ",
"               ..+@@@+++..            ..+@@@+++..               ",
"             ..+@@@@@@++++..        ..+@@@@@@++++..             ",
"            .+@@@@@++++#####.      .+@@@@@++++#####.            ",
"           .+@@@@+++#########.    .+@@@@+++#########.           ",
"           .@@++#############.    .@@++#############.           ",
"          .+++################.  .+++################.          ",
"          .++#################.  .++#################.          ",
"         .+++#################$..+++#################$.         ",
"         .#####..##...########$..#######..##...######$.         ",
"         .####.%%..%%%.######$$..######.%%..%%%.####$$.         ",
"         .###.%%%%.%%%%.#####$&..#####.%%%%.%%%%.###$&.         ",
"         .###.%%%%.%%%%.####$$&..#####.%%%%.%%%%.##$$&.         ",
"         .###.%..%.%..%.###$$&&..#####.%%...%..%.#$$&&.         ",
"         .###....%....%.#$$$&&&..#####.%....%....$$&&&.         ",
"          .##...........$$$&&&.  .####.%.........$&&&.          ",
"          .$##...##....$$$&&&&.  .$####...##....$&&&&.          ",
"           .$$###$$$$$$&&&&&&.    .$$###$$$$$$&&&&&&.           ",
"           .$$$$$$$$$&&&&&&&&.    .$$###$$$$$$&&&&&&.           ",
"            .&...&&&&&&&...&.     .$$...$$$$&&&...&&.           ",
"             .##$.&&&&&.##$.       ..##$.&&&&&.##$..            ",
"             .#$$$.&&&.$$$$.        .#$$$.&&&.$$$$.             ",
"             .$$$$.....$$$$.        .$$$$.&&&.$$$$.             ",
"              .$$$.   .$$$.          .$$$.....$$$.              ",
"              .$$$$. .$$$$.          .$$$$. .$$$$.              ",
"               .$$$. .$$$.            .$$$. .$$$.               ",
"                ...   ...              ...   ...                ",
"                                                                ",
"                                                                ",
"                                                                ",
"                                                                ",
"                                                                ",
"                                                                ",
"                                                                ",
"                                                                ",
"                                                                ",
"                                                                ",
"                                                                ",
"                                                                ",
"                 .......                .......                 ",
"               ..+@@@+++..            ..+@@@+++..               ",
"             ..+@@@@@@++++..        ..+@@@@@@++++..             ",
"            .+@@@@@++++#####.      .+@@@@@++++#####.            ",
"           .+@@@@+++#########.    .+@@@@+++#########.           ",
"           .@@++#############.    .@@++#############.           ",
"          .+++################.  .+++################.          ",
"          .++#################.  .++#################.          ",
"         .+++#################$..+++#################$.         ",
"         .#####..##...########$..#######..##...######$.         ",
"         .####.%%..%%%.######$$..######.%%..%%%.####$$.         ",
"         .###.%%%%.%%%%.#####$&..#####.%%%%.%%%%.###$&.         ",
"         .###.%%%%.%%%%.####$$&..#####.%%%%.%%%%.##$$&.         ",
"         .###.%..%.%..%.###$$&&..#####.%%...%..%.#$$&&.         ",
"         .###....%....%.#$$$&&&..#####.%....%....$$&&&.         ",
"          .##...........$$$&&&.  .####.%.........$&&&.          ",
"          .$##...##....$$$&&&&.  .$####...##....$&&&&.          ",
"           .$$###$$$$$$&&&&&&.    .$$###$$$$$$&&&&&&.           ",
"           .$$$$$$$$$&&&&&&&&.    .$$$$$$$$$&&&&&&&&.           ",
"            .&&&&&&&&&&&&&&&.      .&&&&&&&&&&&&&&&.            ",
"             ..&&&&&&&&&&&..        ..&&&&&&&&&&&..             ",
"               ..&&&&&&&..            ..&&&&&&&..               ",
"                .........              .........                ",
"                .&&. .&&.              .&&. .&&.                ",
"                .$&. .&&.              .$&. .&&.                ",
"                .#$. .$&.              .#$. .$&.                ",
"                .#$. .#$.              .#$. .#$.                ",
"             .. .#$. .#$. ...       .. .#$. .#$. ...            ",
"            .++..#$. .#$..++#.     .++..#$. .#$..++#.           ",
"            .+$++#$&.###++##$.     .+$++#$&.###++##$.           ",
"            .$&&&&&&.&&&&&&&&.     .$&&&&&&.&&&&&&&&.           ",
"             ....... ........       ....... ........            "};
