/* XPM */
static char * gimp_temp_218016_xpm[] = {
"64 96 8 1",
" 	c None",
".	c #000000",
"+	c #03B203",
"@	c #00EE00",
"#	c #008800",
"$	c #FFFFFF",
"%	c #005500",
"&	c #002200",
"                                                                ",
"                                                                ",
"                                                                ",
"                                                                ",
"                                                                ",
"                                                                ",
"                                                                ",
"                                                                ",
"                                                                ",
"                                                                ",
"                                                                ",
"                                                                ",
"                                                                ",
"                                                                ",
"                                                                ",
"                                                                ",
"                                                                ",
"                                                                ",
"                                                                ",
"                                                                ",
"                                                                ",
"                                                                ",
"                                                                ",
"                                                                ",
"                                                                ",
"                 .......                .......                 ",
"               ..+@@@+++..            ..+@@@+++..               ",
"             ..+@@@@@@++++..        ..+@@@@@@++++..             ",
"            .+@@@@@++++#####.      .+@@@@@++++#####.            ",
"           .+@@@@+++#########.    .+@@@@+++#########.           ",
"           .@@++#############.    .@@++#############.           ",
"          .+..##...###########.  .+..##...###########.          ",
"          ..$$..$$$.##########.  ..$$..$$$.##########.          ",
"         .+.$$$.$$$$.#########%..+.$$$.$$$$.#########%.         ",
"         .#.$$$.$$$$.#########%..#.$$$.$$$$.#########%.         ",
"         .#...$...$$.########%%..#...$...$$.########%%.         ",
"         .#...$....$.########%&..#...$....$.########%&.         ",
"         .#........$.#######%%&..#........$.#######%%&.         ",
"         .##..##....#######%%&&..##..##....#######%%&&.         ",
"         .###############%%%&&&..###############%%%&&&.         ",
"          .############%%%%&&&.  .############%%%%&&&.          ",
"          .%#########%%%%%&&&&.  .%#########%%%%%&&&&.          ",
"           .%%###%%%%%%&&&&&&.    .%%###%%%%%%&&&&&&.           ",
"           .%%%%%%%%%&&&&&&&&.    .%%###%%%%%%&&&&&&.           ",
"            .&...&&&&&&&...&.     .%%...%%%%&&&...&&.           ",
"             .##%.&&&&&.##%.       ..##%.&&&&&.##%..            ",
"             .#%%%.&&&.%%%%.        .#%%%.&&&.%%%%.             ",
"             .%%%%.....%%%%.        .%%%%.&&&.%%%%.             ",
"              .%%%.   .%%%.          .%%%.....%%%.              ",
"              .%%%%. .%%%%.          .%%%%. .%%%%.              ",
"               .%%%. .%%%.            .%%%. .%%%.               ",
"                ...   ...              ...   ...                ",
"                                                                ",
"                                                                ",
"                                                                ",
"                                                                ",
"                                                                ",
"                                                                ",
"                                                                ",
"                                                                ",
"                                                                ",
"                                                                ",
"                                                                ",
"                                                                ",
"                 .......                .......                 ",
"               ..+@@@+++..            ..+@@@+++..               ",
"             ..+@@@@@@++++..        ..+@@@@@@++++..             ",
"            .+@@@@@++++#####.      .+@@@@@++++#####.            ",
"           .+@@@@+++#########.    .+@@@@+++#########.           ",
"           .@@++#############.    .@@++#############.           ",
"          .+..##...###########.  .+..##...###########.          ",
"          ..$$..$$$.##########.  ..$$..$$$.##########.          ",
"         .+.$$$.$$$$.#########%..+.$$$.$$$$.#########%.         ",
"         .#.$$$.$$$$.#########%..#.$$$.$$$$.#########%.         ",
"         .#...$...$$.########%%..#...$...$$.########%%.         ",
"         .#...$....$.########%&..#...$....$.########%&.         ",
"         .#........$.#######%%&..#........$.#######%%&.         ",
"         .##..##....#######%%&&..##..##....#######%%&&.         ",
"         .###############%%%&&&..###############%%%&&&.         ",
"          .############%%%%&&&.  .############%%%%&&&.          ",
"          .%#########%%%%%&&&&.  .%#########%%%%%&&&&.          ",
"           .%%###%%%%%%&&&&&&.    .%%###%%%%%%&&&&&&.           ",
"           .%%%%%%%%%&&&&&&&&.    .%%%%%%%%%&&&&&&&&.           ",
"            .&&&&&&&&&&&&&&&.      .&&&&&&&&&&&&&&&.            ",
"             ..&&&&&&&&&&&..        ..&&&&&&&&&&&..             ",
"               ..&&&&&&&..            ..&&&&&&&..               ",
"                .........              .........                ",
"                .&&. .&&.              .&&. .&&.                ",
"                .%&. .&&.              .%&. .&&.                ",
"                .#%. .%&.              .#%. .%&.                ",
"                .#%. .#%.              .#%. .#%.                ",
"             .. .#%. .#%. ...       .. .#%. .#%. ...            ",
"            .++..#%. .#%..++#.     .++..#%. .#%..++#.           ",
"            .+%++#%&.###++##%.     .+%++#%&.###++##%.           ",
"            .%&&&&&&.&&&&&&&&.     .%&&&&&&.&&&&&&&&.           ",
"             ....... ........       ....... ........            "};
