/* XPM */
static char * gimp_temp_218421_xpm[] = {
"32 96 8 1",
" 	c None",
".	c #000000",
"+	c #BBBB00",
"@	c #DDDD11",
"#	c #FFFF11",
"$	c #888800",
"%	c #FFFFFF",
"&	c #444400",
"                                ",
"                                ",
"                                ",
"                                ",
"                                ",
"      ....      ... ...         ",
"      .++.....  .+. .+...       ",
"      .++++.+. .+++..+.+.       ",
"      .+.++.+. .+.+..+.+.       ",
"      .+.++.+..++.+..+.+.       ",
"      .+++..+..++++..+++.       ",
"      .+.++.+...+++..+++.       ",
"      .+.++.+++.+.++.+.+.       ",
"      .+++..+++.+.++.+.+.       ",
"      .... ............+.       ",
"                      ...       ",
"                                ",
"                                ",
"                                ",
"                                ",
"      ....      ... ...         ",
"      .++.....  .+. .+...       ",
"      .++++.+. .+++..+.+.       ",
"      .+.++.+. .+.+..+.+.       ",
"      .+.++.+..++.+..+.+.       ",
"      .+++..+..++++..+++.       ",
"      .+.++.+...+++..+++.       ",
"      .+.++.+++.+.++.+.+.       ",
"      .+++..+++.+.++.+.+.       ",
"      .... ............+.       ",
"                      ...       ",
"                                ",
"                                ",
"                                ",
"      ....      ... ...         ",
"      .++.....  .+. .+...       ",
"      .++++.+. .+++..+.+.       ",
"      .+.++.+. .+.+..+.+.       ",
"      .+.++.+..++.+..+.+.       ",
"      .+++..+..++++..+++.       ",
"      .+.++.+...+++..+++.       ",
"      .+.++.+++.+.++.+.+.       ",
"      .+++..+++.+.++.+.+.       ",
"      .... ............+.       ",
"                      ...       ",
"                                ",
"                                ",
"                                ",
"      ....      ... ...         ",
"      .++.....  .+. .+...       ",
"      .++++.+. .+++..+.+.       ",
"      .+.++.+. .+.+..+.+.       ",
"      .+.++.+..++.+..+.+.       ",
"      .+++..+..++++..+++.       ",
"      .+.++.+...+++..+++.       ",
"      .+.++.+++.+.++.+.+.       ",
"      .+++..+++.+.++.+.+.       ",
"      .... ............+.       ",
"                      ...       ",
"                                ",
"                                ",
"                                ",
"                                ",
"                                ",
"            .......             ",
"          ..@###@@@..           ",
"        ..@######@@@@..         ",
"       .@#####@@@@+++++.        ",
"      .@####@@@+++++++++.       ",
"      .##@@+++++++++++++.       ",
"     .@@@++++++++++++++++.      ",
"     .@@+++++++++++++++++.      ",
"    .@@@+++++++++++++++++$.     ",
"    .++++++++++++++++++++$.     ",
"    .+++++++..++...+++++$$.     ",
"    .++++++.%%..%%%.++++$&.     ",
"    .+++++.%%%%.%%%%.++$$&.     ",
"    .+++++.%%%%.%%%%.+$$&&.     ",
"    .+++++.%..%.%..%.$$&&&.     ",
"     .++++....%....%.$&&&.      ",
"     .$+++...........&&&&.      ",
"      .$$++...$$....&&&&.       ",
"      .$$$$$$$$$&&&&&&&&. ...   ",
"       .&&&&&&&&&&&&&&&. .#@$.  ",
"   ...  ..&&&&&&&&&&&..  .@+$.  ",
"  .#@@.   ..&&&&&&&..    .@+$.  ",
"  .@++.  .+&.......&$..  .@$.   ",
"  .++$...@+$&.   .&&&@@...@$.   ",
"   .+$.@+$&..     ..&&&@@@+$.   ",
"   .+++$&..         ...&&&+$.   ",
"   .+$$&.              ...&&.   ",
"   .+&..                  ..    ",
"    ..                          ",
"                                ",
"                                ",
"                                "};
