/* XPM */
static char * itHintergrund_xpm[] = {
"320 32 6 1",
" 	c None",
".	c #000000",
"+	c #2BCE3E",
"@	c #31963A",
"#	c #1A7527",
"$	c #14541B",
"                                                                                                                                                                                                                                                                                                                                ",
"                                                                                                                                                                                                                                                                                                                                ",
"                                     .    .                                                          .    .                                                          .    .                                                          .    .                                                          .    .                     ",
"                                     .   .+.    .                                                    .   .+.    .                                                    .   .+.    .                                                    .   .+.    .                                                    .   .+.    .               ",
"                                    .@.  .+.   .#.   .                                              .@.  .+.   .#.   .                                              .@.  .+.   .#.   .                                              .@.  .+.   .#.   .                                              .@.  .+.   .#.   .          ",
"                                    .@.  .++.  .#.   ..                                             .@.  .++.  .#.   ..                                             .@.  .++.  .#.   ..                                             .@.  .++.  .#.   ..                                             .@.  .++.  .#.   ..         ",
"                                    .@#. .++.  .##. .+#.                                            .@#. .++.  .##. .+#.                                            .@#. .++.  .##. .+#.                                            .@#. .++.  .##. .+#.                                            .@#. .++.  .##. .+#.        ",
"                                    .@#+.+++#..@##..#+#.                                            .@#+.+++#..@##..#+#.                                            .@#+.+++#..@##..#+#.                                            .@#+.+++#..@##..#+#.                                            .@#+.+++#..@##..#+#.        ",
"                                    .@@+.+++#.@@#.#+#++#.                                           .@@+.+++#.@@#.#+#++#.                                           .@@+.+++#.@@#.#+#++#.                                           .@@+.+++#.@@#.#+#++#.                                           .@@+.+++#.@@#.#+#++#.       ",
"                                   .#@#+.+++#..#..#+#$+#...                                        .#@#+.+++#..#..#+#$+#...                                        .#@#+.+++#..#..#+#$+#...                                        .#@#+.+++#..#..#+#$+#...                                        .#@#+.+++#..#..#+#$+#...     ",
"                                   .#@#+.#+#++.####+#$+####.                                       .#@#+.#+#++.####+#$+####.                                       .#@#+.#+#++.####+#$+####.                                       .#@#+.#+#++.####+#$+####.                                       .#@#+.#+#++.####+#$+####.    ",
"                         .         .#@@+.#+#@+.#@.#+@$+.##$#.                            .         .#@@+.#+#@+.#@.#+@$+.##$#.                            .         .#@@+.#+#@+.#@.#+@$+.##$#.                            .         .#@@+.#+#@+.#@.#+@$+.##$#.                            .         .#@@+.#+#@+.#@.#+@$+.##$#.   ",
"                         ....      .#@@@.#+#@++@@.@+$$@.##$##..                          ....      .#@@@.#+#@++@@.@+$$@.##$##..                          ....      .#@@@.#+#@++@@.@+$$@.##$##..                          ....      .#@@@.#+#@++@@.@+$$@.##$##..                          ....      .#@@@.#+#@++@@.@+$$@.##$##.. ",
"....                      .+#...    .@@@#$+#@.+@.@@+$@@.#@$+#$#.....                      .+#...    .@@@#$+#@.+@.@@+$@@.#@$+#$#.....                      .+#...    .@@@#$+#@.+@.@@+$@@.#@$+#$#.....                      .+#...    .@@@#$+#@.+@.@@+$@@.#@$+#$#.....                      .+#...    .@@@#$+#@.+@.@@+$@@.#@$+#$#.",
"++++..                    .+++++..  .@+@#$+@..#@.@.+$@#.##$+#$#+++++..                    .+++++..  .@+@#$+@..#@.@.+$@#.##$+#$#+++++..                    .+++++..  .@+@#$+@..#@.@.+$@#.##$+#$#+++++..                    .+++++..  .@+@#$+@..#@.@.+$@#.##$+#$#+++++..                    .+++++..  .@+@#$+@..#@.@.+$@#.##$+#$#+",
"#+$+++..                   .+#@@++..+@#@#$+@.##@@@$+@##.+#$+#$$##+$+++..                   .+#@@++..+@#@#$+@.##@@@$+@##.+#$+#$$##+$+++..                   .+#@@++..+@#@#$+@.##@@@$+@##.+#$+#$$##+$+++..                   .+#@@++..+@#@#$+@.##@@@$+@##.+#$+#$$##+$+++..                   .+#@@++..+@#@#$+@.##@@@$+@##.+#$+#$$#",
"###@@+++.                  .#+##@@@+++#@#$+@.#@@@@@+@##.+#$#+#$####@@+++.                  .#+##@@@+++#@#$+@.#@@@@@+@##.+#$#+#$####@@+++.                  .#+##@@@+++#@#$+@.#@@@@@+@##.+#$#+#$####@@+++.                  .#+##@@@+++#@#$+@.#@@@@@+@##.+#$#+#$####@@+++.                  .#+##@@@+++#@#$+@.#@@@@@+@##.+#$#+#$#",
"###+@@.++.                 .#++###@@@+@+#$+@.#@+@$@+@#+.##$#++#.###+@@.++.                 .#++###@@@+@+#$+@.#@+@$@+@#+.##$#++#.###+@@.++.                 .#++###@@@+@+#$+@.#@+@$@+@#+.##$#++#.###+@@.++.                 .#++###@@@+@+#$+@.#@+@$@+@#+.##$#++#.###+@@.++.                 .#++###@@@+@+#$+@.#@+@$@+@#+.##$#++#.",
"###+#@@$+.           .    .####+#++@@@@+#++@.#@+++@+.++.#@$##++.###+#@@$+.           .    .####+#++@@@@+#++@.#@+++@+.++.#@$##++.###+#@@$+.           .    .####+#++@@@@+#++@.#@+++@+.++.#@$##++.###+#@@$+.           .    .####+#++@@@@+#++@.#@+++@+.++.#@$##++.###+#@@$+.           .    .####+#++@@@@+#++@.#@+++@+.++.#@$##++.",
".+++..@$++.    .    .+.   ..###++#@@@@@##++++@+@++@+.+$##@+###+..+++..@$++.    .    .+.   ..###++#@@@@@##++++@+@++@+.+$##@+###+..+++..@$++.    .    .+.   ..###++#@@@@@##++++@+@++@+.+$##@+###+..+++..@$++.    .    .+.   ..###++#@@@@@##++++@+@++@+.+$##@+###+..+++..@$++.    .    .+.   ..###++#@@@@@##++++@+@++@+.+$##@+###+.",
".++#.#$#++.   .+.   .+.  .#..###+@@###@+##@.#@+@+$@+.+$#.@+####+.++#.#$#++.   .+.   .+.  .#..###+@@###@+##@.#@+@+$@+.+$#.@+####+.++#.#$#++.   .+.   .+.  .#..###+@@###@+##@.#@+@+$@+.+$#.@+####+.++#.#$#++.   .+.   .+.  .#..###+@@###@+##@.#@+@+$@+.+$#.@+####+.++#.#$#++.   .+.   .+.  .#..###+@@###@+##@.#@+@+$@+.+$#.@+####+",
".++#.#$$#+.   .+.  .#+.  .##..+##@####@@@#..+@+++$@+.+$##@@#++++.++#.#$$#+.   .+.  .#+.  .##..+##@####@@@#..+@+++$@+.+$##@@#++++.++#.#$$#+.   .+.  .#+.  .##..+##@####@@@#..+@+++$@+.+$##@@#++++.++#.#$$#+.   .+.  .#+.  .##..+##@####@@@#..+@+++$@+.+$##@@#++++.++#.#$$#+.   .+.  .#+.  .##..+##@####@@@#..+@+++$@+.+$##@@#++++",
".+##.#@$@++. .#+.  .++. .#$$#.+##+###++@@@.+@@@++$++.+#.##@++#$#.+##.#@$@++. .#+.  .++. .#$$#.+##+###++@@@.+@@@++$++.+#.##@++#$#.+##.#@$@++. .#+.  .++. .#$$#.+##+###++@@@.+@@@++$++.+#.##@++#$#.+##.#@$@++. .#+.  .++. .#$$#.+##+###++@@@.+@@@++$++.+#.##@++#$#.+##.#@$@++. .#+.  .++. .#$$#.+##+###++@@@.+@@@++$++.+#.##@++#$#",
".+#@.@@$@++#..++#..$+##..#$##..###+##+#@@@.+@@@$+++@.###++@###$#.+#@.@@$@++#..++#..$+##..#$##..###+##+#@@@.+@@@$+++@.###++@###$#.+#@.@@$@++#..++#..$+##..#$##..###+##+#@@@.+@@@$+++@.###++@###$#.+#@.@@$@++#..++#..$+##..#$##..###+##+#@@@.+@@@$+++@.###++@###$#.+#@.@@$@++#..++#..$+##..#$##..###+##+#@@@.+@@@$+++@.###++@###$#",
"++#@#.#$@++#.@+###.++##.#@##++..##+#+#$#@@.@$@+$+++@.#+++#@+####++#@#.#$@++#.@+###.++##.#@##++..##+#+#$#@@.@$@+$+++@.#+++#@+####++#@#.#$@++#.@+###.++##.#@##++..##+#+#$#@@.@$@+$+++@.#+++#@+####++#@#.#$@++#.@+###.++##.#@##++..##+#+#$#@@.@$@+$+++@.#+++#@+####++#@#.#$@++#.@+###.++##.#@##++..##+#+#$#@@.@$@+$+++@.#+++#@+####",
"+..@#.#$@+##.@@#$#.+###.$@#++##.##+++#$##@@@$@#+++#@##@###@++###+..@#.#$@+##.@@#$#.+###.$@#++##.##+++#$##@@@$@#+++#@##@###@++###+..@#.#$@+##.@@#$#.+###.$@#++##.##+++#$##@@@$@#+++#@##@###@++###+..@#.#$@+##.@@#$#.+###.$@#++##.##+++#$##@@@$@#+++#@##@###@++###+..@#.#$@+##.@@#$#.+###.$@#++##.##+++#$##@@@$@#+++#@##@###@++###",
"++.###.#$@##+#@#$$#+##.$$@#+##@##.++##$##@@@$@#++@#@##@+##@#+###++.###.#$@##+#@#$$#+##.$$@#+##@##.++##$##@@@$@#++@#@##@+##@#+###++.###.#$@##+#@#$$#+##.$$@#+##@##.++##$##@@@$@#++@#@##@+##@#+###++.###.#$@##+#@#$$#+##.$$@#+##@##.++##$##@@@$@#++@#@##@+##@#+###++.###.#$@##+#@#$$#+##.$$@#+##@##.++##$##@@@$@#++@#@##@+##@#+###",
"++..##.#$@$$@#@@###+#.#$#@#+#@@###.+##$##@#@#@#+@@#@##@@##@#+$##++..##.#$@$$@#@@###+#.#$#@#+#@@###.+##$##@#@#@#+@@#@##@@##@#+$##++..##.#$@$$@#@@###+#.#$#@#+#@@###.+##$##@#@#@#+@@#@##@@##@#+$##++..##.#$@$$@#@@###+#.#$#@#+#@@###.+##$##@#@#@#+@@#@##@@##@#+$##++..##.#$@$$@#@@###+#.#$#@#+#@@###.+##$##@#@#@#+@@#@##@@##@#+$##",
"+#@.####$@$#@#+@###..#$$@@##@@####..##$#@@@@###+###@###@##@##$##+#@.####$@$#@#+@###..#$$@@##@@####..##$#@@@@###+###@###@##@##$##+#@.####$@$#@#+@###..#$$@@##@@####..##$#@@@@###+###@###@##@##$##+#@.####$@$#@#+@###..#$$@@##@@####..##$#@@@@###+###@###@##@##$##+#@.####$@$#@#+@###..#$$@@##@@####..##$#@@@@###+###@###@##@##$##",
"##@.####$@$#@##@@#..##$#@###@######..#####@########@.##@@#@#$#####@.####$@$#@##@@#..##$#@###@######..#####@########@.##@@#@#$#####@.####$@$#@##@@#..##$#@###@######..#####@########@.##@@#@#$#####@.####$@$#@##@@#..##$#@###@######..#####@########@.##@@#@#$#####@.####$@$#@##@@#..##$#@###@######..#####@########@.##@@#@#$###",
"##@#####$#######@@.##################..#############.#####@#######@#####$#######@@.##################..#############.#####@#######@#####$#######@@.##################..#############.#####@#######@#####$#######@@.##################..#############.#####@#######@#####$#######@@.##################..#############.#####@#####",
"#################@###############################################################@###############################################################@###############################################################@###############################################################@##############################################"};
