/* XPM */
static char * gimp_temp_21846_xpm[] = {
"64 96 4 1",
" 	c None",
".	c #000000",
"+	c #FFCC00",
"@	c #FF6600",
"                                                                ",
"                                                                ",
"                                                                ",
"                                                                ",
"                                                                ",
"                                                                ",
"                                                                ",
"                                                                ",
"                                                                ",
"                                                                ",
"                                                                ",
"                                                                ",
"                                                                ",
"                                                                ",
"                                                                ",
"                                                                ",
"                                                                ",
"                                                                ",
"                                                                ",
"                                                                ",
"                                                                ",
"                                                                ",
"                                                                ",
"                                                                ",
"                                                                ",
"                 .......                .......                 ",
"               ..+++++++..            ..+++++++..               ",
"              .++++++@@@@@.          .++++++@@@@@.              ",
"             .++++@@@@@@@@@.        .++++@@@@@@@@@.             ",
"            .++@@@@@@@@@@@@@.      .++@@@@@@@@@@@@@.            ",
"           .++@@@@@@@@@@@@@@@.    .++@@@@@@@@@@@@@@@.           ",
"          .@@@@@@@@@@@@@@@@@@.   .@@@@@@@@@@@@@@@@@@.           ",
"          .@@@@@@@@@@@@@@@@@@@.  .@@@@@@@@@@@@@@@@@@@.          ",
"         .@@@@@@@@@@@@@@..@@... .@@@@@@@@@@@@@@..@@...          ",
"         .@@@@@@@@@@@@@@..@@..@..@@@@@@@@@@@@@@..@@..@.         ",
"         .@@@@@@@@@@@@@@@@@@@@@..@@@@@@@@@@@@@@@@@@@@@.         ",
"         .@@@@@@@@@@@@@@@@@@@@@..@@@@@@@@@@@@@@@@@@@@@.         ",
"         .@@@@@@@@@@@@@@@@@@..@..@@@@@@@@@@@@@@@@@@..@.         ",
"         .@@@@@@@@@@@@@@@@@@++...@@@@@@@@@@@@@@@@@@++..         ",
"          .@@@@@@@@@@@@@@@@@@++. .@@@@@@@@@@@@@@@@@@++.         ",
"          .@@@@@@@@@@@@@@.@@@@@. .@@@@@@@@@@@@@@.@@@@@.         ",
"           .@@@@@@@@@@@@@@.@@@@.  .@@@@@@@@@@@@@@.@@@@.         ",
"           .@@@@@@@@@@@@@@@....   .@@@@@@@@@@@@@@@....          ",
"            .@@@@@@@@@@@@@@@.      .@@@@@@@@@@@@@@@.            ",
"             .@@@@@@@@@@@@@.        .@@@@@@@@@@@@@.             ",
"             ....@@@@@@@....        ....@@@@@@@....             ",
"            .++@@.@@@@@.++@@.      .++@@.@@@@@.++@@.            ",
"            .@@@@.......@@@@.      .@@@@.......@@@@.            ",
"            .@@@@.     .@@@@.      .@@@@.     .@@@@.            ",
"            .@@@@.     .@@@@.      .@@@@.     .@@@@.            ",
"             .@@@.     .@@@.        .@@@.     .@@@.             ",
"              ...       ...          ...       ...              ",
"                                                                ",
"                                                                ",
"                                                                ",
"                                                                ",
"                                                                ",
"                                                                ",
"                                                                ",
"                                                                ",
"                                                                ",
"                                                                ",
"                                                                ",
"                                                                ",
"                 .......                .......                 ",
"               ..+++++++..            ..+++++++..               ",
"              .++++++@@@@@.          .++++++@@@@@.              ",
"             .++++@@@@@@@@@.        .++++@@@@@@@@@.             ",
"            .++@@@@@@@@@@@@@.      .++@@@@@@@@@@@@@.            ",
"           .++@@@@@@@@@@@@@@@.    .++@@@@@@@@@@@@@@@.           ",
"          .@@@@@@@@@@@@@@@@@@.   .@@@@@@@@@@@@@@@@@@.           ",
"          .@@@@@@@@@@@@@@@@@@@.  .@@@@@@@@@@@@@@@@@@@.          ",
"         .@@@@@@@@@@@@@@..@@... .@@@@@@@@@@@@@@..@@...          ",
"         .@@@@@@@@@@@@@@..@@..@..@@@@@@@@@@@@@@..@@..@.         ",
"         .@@@@@@@@@@@@@@@@@@@@@..@@@@@@@@@@@@@@@@@@@@@.         ",
"         .@@@@@@@@@@@@@@@@@@@@@..@@@@@@@@@@@@@@@@@@@@@.         ",
"         .@@@@@@@@@@@@@@@@@@..@..@@@@@@@@@@@@@@@@@@..@.         ",
"         .@@@@@@@@@@@@@@@@@@++...@@@@@@@@@@@@@@@@@@++..         ",
"          .@@@@@@@@@@@@@@@@@@++. .@@@@@@@@@@@@@@@@@@++.         ",
"          .@@@@@@@@@@@@@@.@@@@@. .@@@@@@@@@@@@@@.@@@@@.         ",
"           .@@@@@@@@@@@@@@.@@@@.  .@@@@@@@@@@@@@@.@@@@.         ",
"           .@@@@@@@@@@@@@@@....   .@@@@@@@@@@@@@@@....          ",
"            .@@@@@@@@@@@@@@@.      .@@@@@@@@@@@@@@@.            ",
"             .@@@@@@@@@@@@@.        .@@@@@@@@@@@@@.             ",
"              .@@@@@@@@@@@.          .@@@@@@@@@@@.              ",
"               ..@@@@@@@..            ..@@@@@@@..               ",
"                .........              .........                ",
"                ..     ..              ..     ..                ",
"                ..     ..              ..     ..                ",
"                ..     ..              ..     ..                ",
"                ..     ..              ..     ..                ",
"                ..     ..              ..     ..                ",
"               ....   ....            ....   ....               ",
"              .++@@. .++@@.          .++@@. .++@@.              ",
"              .@@@@. .@@@@.          .@@@@. .@@@@.              ",
"              ...... ......          ...... ......              "};
