/* XPM */
static char * gimp_temp_218416_xpm[] = {
"32 96 4 1",
" 	c None",
".	c #000000",
"+	c #FF00FF",
"@	c #FD8EFF",
"                                ",
"                                ",
"                                ",
"                                ",
"                                ",
"      ....      ... ...         ",
"      .++.....  .+. .+...       ",
"      .++++.+. .+++..+.+.       ",
"      .+.++.+. .+.+..+.+.       ",
"      .+.++.+..++.+..+.+.       ",
"      .+++..+..++++..+++.       ",
"      .+.++.+...+++..+++.       ",
"      .+.++.+++.+.++.+.+.       ",
"      .+++..+++.+.++.+.+.       ",
"      .... ............+.       ",
"                      ...       ",
"                                ",
"                                ",
"                                ",
"                                ",
"      ....      ... ...         ",
"      .++.....  .+. .+...       ",
"      .++++.+. .+++..+.+.       ",
"      .+.++.+. .+.+..+.+.       ",
"      .+.++.+..++.+..+.+.       ",
"      .+++..+..++++..+++.       ",
"      .+.++.+...+++..+++.       ",
"      .+.++.+++.+.++.+.+.       ",
"      .+++..+++.+.++.+.+.       ",
"      .... ............+.       ",
"                      ...       ",
"                                ",
"                                ",
"                                ",
"      ....      ... ...         ",
"      .++.....  .+. .+...       ",
"      .++++.+. .+++..+.+.       ",
"      .+.++.+. .+.+..+.+.       ",
"      .+.++.+..++.+..+.+.       ",
"      .+++..+..++++..+++.       ",
"      .+.++.+...+++..+++.       ",
"      .+.++.+++.+.++.+.+.       ",
"      .+++..+++.+.++.+.+.       ",
"      .... ............+.       ",
"                      ...       ",
"                                ",
"                                ",
"                                ",
"      ....      ... ...         ",
"      .++.....  .+. .+...       ",
"      .++++.+. .+++..+.+.       ",
"      .+.++.+. .+.+..+.+.       ",
"      .+.++.+..++.+..+.+.       ",
"      .+++..+..++++..+++.       ",
"      .+.++.+...+++..+++.       ",
"      .+.++.+++.+.++.+.+.       ",
"      .+++..+++.+.++.+.+.       ",
"      .... ............+.       ",
"                      ...       ",
"                                ",
"                                ",
"                                ",
"                                ",
"                                ",
"            .......             ",
"          ..@@@@@@@..           ",
"         .@@@@@@+++++.          ",
"        .@@@@+++++++++.         ",
"       .@@+++++++++++++.        ",
"      .@@+++++++++++++++.       ",
"     .++++++++++++++++++.       ",
"     .+++++++++++++++++++.      ",
"    .++++++++++++++++++++.      ",
"    .+++++++..++..++++++++.     ",
"    .+++++++..++..++++++++.     ",
"    .+++++++++++++++++++++.     ",
"    .+++++++++++++++++++++.     ",
"    .+++++++++++++++++++++.     ",
"     .++++++.@@@++.+++++++.     ",
"     .++++++.+@@++.++++++.      ",
"      .+++++.+@+++.++++++.      ",
"      .+++++.++++.++++++.       ",
"       .+++++.+++.+++++.        ",
"        .+++++...+++++.         ",
"         .+++++++++++.          ",
"         ...+++++++...          ",
"         .. ....... ..          ",
"        ..           ..         ",
"        ..           ..         ",
"       ..             ..        ",
"     ....             ....      ",
"    .@@+.             .+++.     ",
"    .++++.           .@@++.     ",
"    ...++.           .++...     ",
"       ...           ...        ",
"                                "};
