/* XPM */
static char * gimp_temp_21849_xpm[] = {
"64 96 4 1",
" 	c None",
".	c #000000",
"+	c #FD8EFF",
"@	c #FF00FF",
"                                                                ",
"                                                                ",
"                                                                ",
"                                                                ",
"                                                                ",
"                                                                ",
"                                                                ",
"                                                                ",
"                                                                ",
"                                                                ",
"                                                                ",
"                                                                ",
"                                                                ",
"                                                                ",
"                                                                ",
"                                                                ",
"                                                                ",
"                                                                ",
"                                                                ",
"                                                                ",
"                                                                ",
"                                                                ",
"                                                                ",
"                                                                ",
"                                                                ",
"                 .......                .......                 ",
"               ..+++++++..            ..+++++++..               ",
"              .++++++@@@@@.          .++++++@@@@@.              ",
"             .++++@@@@@@@@@.        .++++@@@@@@@@@.             ",
"            .++@@@@@@@@@@@@@.      .++@@@@@@@@@@@@@.            ",
"           .++@@@@@@@@@@@@@@@.    .++@@@@@@@@@@@@@@@.           ",
"          .@@@@@@@@@@@@@@@@@@.   .@@@@@@@@@@@@@@@@@@.           ",
"          .@@@@@@@@@@@@@@@@@@@.  .@@@@@@@@@@@@@@@@@@@.          ",
"         .@@@@@@@@@@@@@@@@@@@@. .@@@@@@@@@@@@@@@@@@@@.          ",
"         .@@@@@@..@@..@@@@@@@@@..@@@@@@@@..@@..@@@@@@@.         ",
"         .@@@@@@..@@..@@@@@@@@@..@@@@@@@@..@@..@@@@@@@.         ",
"         .@@@@@@@@@@@@@@@@@@@@@..@@@@@@@@@@@@@@@@@@@@@.         ",
"         .@@@@@@@@@@@@@@@@@@@@@..@@@@@@@@@@@@@@@@@@@@@.         ",
"         .@@@@@@@@@@@@@@@@@@@@@..@@@@@@@@@@@@@@@@@@@@@.         ",
"          .@@@@.+++@@.@@@@@@@@@. .@@@@@@@@.+++@@.@@@@@.         ",
"          .@@@@.@++@@.@@@@@@@@.  .@@@@@@@@.@++@@.@@@@.          ",
"           .@@@.@+@@@.@@@@@@@@.   .@@@@@@@.@+@@@.@@@@.          ",
"           .@@@.@@@@.@@@@@@@@.    .@@@@@@@@.@@@@.@@@.           ",
"            .@@@.@@@.@@@@@@@.      .@@@@@@@.@@@.@@@.            ",
"             .@@@...@@@@@@@.        .@@@@@@@...@@@.             ",
"             ....@@@@@@@....        ....@@@@@@@....             ",
"            .++@@.@@@@@.++@@.      .++@@.@@@@@.++@@.            ",
"            .@@@@.......@@@@.      .@@@@.......@@@@.            ",
"            .@@@@.     .@@@@.      .@@@@.     .@@@@.            ",
"            .@@@@.     .@@@@.      .@@@@.     .@@@@.            ",
"             .@@@.     .@@@.        .@@@.     .@@@.             ",
"              ...       ...          ...       ...              ",
"                                                                ",
"                                                                ",
"                                                                ",
"                                                                ",
"                                                                ",
"                                                                ",
"                                                                ",
"                                                                ",
"                                                                ",
"                                                                ",
"                                                                ",
"                                                                ",
"                 .......                .......                 ",
"               ..+++++++..            ..+++++++..               ",
"              .++++++@@@@@.          .++++++@@@@@.              ",
"             .++++@@@@@@@@@.        .++++@@@@@@@@@.             ",
"            .++@@@@@@@@@@@@@.      .++@@@@@@@@@@@@@.            ",
"           .++@@@@@@@@@@@@@@@.    .++@@@@@@@@@@@@@@@.           ",
"          .@@@@@@@@@@@@@@@@@@.   .@@@@@@@@@@@@@@@@@@.           ",
"          .@@@@@@@@@@@@@@@@@@@.  .@@@@@@@@@@@@@@@@@@@.          ",
"         .@@@@@@@@@@@@@@@@@@@@. .@@@@@@@@@@@@@@@@@@@@.          ",
"         .@@@@@@..@@..@@@@@@@@@..@@@@@@@@..@@..@@@@@@@.         ",
"         .@@@@@@..@@..@@@@@@@@@..@@@@@@@@..@@..@@@@@@@.         ",
"         .@@@@@@@@@@@@@@@@@@@@@..@@@@@@@@@@@@@@@@@@@@@.         ",
"         .@@@@@@@@@@@@@@@@@@@@@..@@@@@@@@@@@@@@@@@@@@@.         ",
"         .@@@@@@@@@@@@@@@@@@@@@..@@@@@@@@@@@@@@@@@@@@@.         ",
"          .@@@@.+++@@.@@@@@@@@@. .@@@@@@@@.+++@@.@@@@@.         ",
"          .@@@@.@++@@.@@@@@@@@.  .@@@@@@@@.@++@@.@@@@.          ",
"           .@@@.@+@@@.@@@@@@@@.   .@@@@@@@.@+@@@.@@@@.          ",
"           .@@@.@@@@.@@@@@@@@.    .@@@@@@@@.@@@@.@@@.           ",
"            .@@@.@@@.@@@@@@@.      .@@@@@@@.@@@.@@@.            ",
"             .@@@...@@@@@@@.        .@@@@@@@...@@@.             ",
"              .@@@@@@@@@@@.          .@@@@@@@@@@@.              ",
"               ..@@@@@@@..            ..@@@@@@@..               ",
"                .........              .........                ",
"                ..     ..              ..     ..                ",
"                ..     ..              ..     ..                ",
"                ..     ..              ..     ..                ",
"                ..     ..              ..     ..                ",
"                ..     ..              ..     ..                ",
"               ....   ....            ....   ....               ",
"              .++@@. .++@@.          .++@@. .++@@.              ",
"              .@@@@. .@@@@.          .@@@@. .@@@@.              ",
"              ...... ......          ...... ......              "};
