/* XPM */
static char * gimp_temp_35944_xpm[] = {
"96 288 34 1",
" 	c None",
".	c #8EB7B7",
"+	c #468282",
"@	c #71A3A3",
"#	c #246464",
"$	c #D6E6E6",
"%	c #0F2F2F",
"&	c #3E7B7B",
"*	c #113333",
"=	c #030B0B",
"-	c #1E5A5A",
";	c #081919",
">	c #010404",
",	c #0B2121",
"'	c #000000",
")	c #000202",
"!	c #000101",
"~	c #040C0C",
"{	c #020606",
"]	c #010303",
"^	c #020707",
"/	c #0B2323",
"(	c #071515",
"_	c #194C4C",
":	c #0F2E2E",
"<	c #154040",
"[	c #1D5757",
"}	c #649999",
"|	c #2D6C6C",
"1	c #030A0A",
"2	c #050F0F",
"3	c #0A1E1E",
"4	c #0D2929",
"5	c #020808",
"                                                                                                ",
"                                                                                                ",
"                                                                                                ",
"                                                                                                ",
"                                                                                                ",
"                                                                                                ",
"                                                                                                ",
"                                                                                                ",
"                               .                                +                               ",
"                             ..@                                @++                             ",
"                           ..@@@                                @@@++                           ",
"                         ..@@@@@                                @@@@@++                         ",
"                       ..@@@@@@#                                $@@@@@@++                       ",
"                     ..@@@@@@##%                                &$$@@@@@@++                     ",
"                   ..@@@@@@##%%@                                @&&$$@@@@@@++                   ",
"                 ..@@@@@@##%%@@@                                @@@&&$$@@@@@@++                 ",
"                .$$@@@@@@++@@@@@               +#               @@@@@..@@@@@@##%                ",
"                *&&$$@@@@@@++@@@             ..@@++             @@@..@@@@@@##%%=                ",
"                *--&&$$@@@@@@++@           ..@@@@@@++           @..@@@@@@##%%;;=                ",
"                *----&&$$@@@@@@+         ..@@@@@@@@@@++         .@@@@@@##%%;;;;=                ",
"                *------&&$$@@@@@       ..@@@@@@#$@@@@@@++       @@@@@##%%;;;;;;=                ",
"                *--------&&$$@@@     ..@@@@@@##%&$$@@@@@@++     @@@##%%;;;;;;;;=                ",
"                *----------&&$$@   ..@@@@@@##%%@@&&$$@@@@@@++   @##%%;;;;;;;;;;=                ",
"                *---***------&&$ ..@@@@@@##%%@@@@@@&&$$@@@@@@++ #%%;;;;;;>>,;;;=                ",
"                *---*;-**------&.@@@@@@##%%@@@@@@@@@@&&$$@@@@@@+%;;;;;;>>;,,;;;=                ",
"                *---*;---**-----@@@@@##%%@@@@@@@@@@@@@@&&$$@@@@@;;;;;>>;;;,,;;;=                ",
"                *---*;-----**---@@@##%%@@@@@@@@@@@@@@@@@@&&$$@@@;;;>>;;;;;,,;;;=                ",
"                *---*;-------**-@##%%@@@@@@@@@@@@@@@@@@@@@@&&$$@;>>;;;;;;;,,;;;=                ",
"                *---*;---------*#%%@@@@@@@@@@@@@@@@@@@@@@@@@@&&$>;;;;;;;;;,,;;;=                ",
"                *---*;----------%@@@@@@@@@@@@@@@@@@@@@@@@@@@@@@&;;;;;;;;;;,,;;;=                ",
"                *---*;----------@@@@@@@@@@@@@@@@@@@@@@@@@@@@@@@@;;;;;;;;;;,,;;;=                ",
"                *---*;----------@@@@@@@@@@@@@@@@@@@@@@@@@@@@@@@@;;;;;;;;;;,,;;;=                ",
"                *---*;----------@@@@@@@@@@@@@@@@@@@@@@@@@@@@@@@@;;;;;;;;;;,,;;;=                ",
"                *---*;----------@@@@@@@@@@@@@@@@@@@@@@@@@@@@@@@@;;;;;;;;;;,,;;;=                ",
"                *---*;----------@@@@@@@@@@@@@@@@@@@@@@@@@@@@@@@@;;;;;;;;;;,,;;;=                ",
"                *---*;----------+@@@@@@@@@@@@@@@@@@@@@@@@@@@@@@.;;;;;;;;;;,,;;;=                ",
"                *---*;----------@++@@@@@@@@@@@@@@@@@@@@@@@@@@..@;;;;;;;;;;,,;;;=                ",
"                *---*;----------@@@++@@@@@@@@@@@@@@@@@@@@@@..@@@;;;;;;;;;;,,;;;=                ",
"                *---*;----------@@@@@++@@@@@@@@@@@@@@@@@@..@@@@@;;;;;;;;;;,,;;;=                ",
"                *---*;----------$@@@@@@++@@@@@@@@@@@@@@..@@@@@@#;;;;;;;;;;,,;;;=                ",
"                *---*;----------&$$@@@@@@++@@@@@@@@@@..@@@@@@##%;;;;;;;;;;,,;;;=                ",
"                *---*;-----------&&$$@@@@@@++@@@@@@..@@@@@@##%%;;;;;;;;;;;,,;;;=                ",
"                *---*;-------------&&$$@@@@@@++@@..@@@@@@##%%;;;;;;;;;;;;;,,;;;=                ",
"                *---*;---------------&&$$@@@@@@+.@@@@@@##%%;;;;;;;;;;;;;;;,,;;;=                ",
"                *---*;----------*------&&$$@@@@@@@@@@##%%;;;;;;>;;;;;;;;;;,,;;;=                ",
"                *---*;-----------**------&&$$@@@@@@##%%;;;;;;>>;;;;;;;;;;;,,;;;=                ",
"                *----&&@-----------**------&&$$@@##%%;;;;;;>>;;;;;;;;;;;%%%;;;;=                ",
"                *------&&@-----------**------&&$#%%;;;;;;>>;;;;;;;;;;;%%%;;;;;;>                ",
"                 **------&&@-----------**------*,;;;;;;>>;;;;;;;;;;;%%%;;;;;;>>                 ",
"                   **------&&@-----------**----*,;;;;>>;;;;;;;;;;;%%%;;;;;;>>                   ",
"                     **------&&@-----------*---*,;;;>;;;;;;;;;;;%%%;;;;;;>>                     ",
"                       **------&-----------*---*,;;;=;;;;;;;;;;;%;;;;;;>>                       ",
"                         **----------------*---*,;;;=;;;;;;;;;;;;;;;;>>                         ",
"                           **--------------*---*,;;;=;;;;;;;;;;;;;;>>                           ",
"                             **------------*---*,;;;=;;;;;;;;;;;;>>                             ",
"                               *-----------*---*,;;;=;;;;;;;;;;;>                               ",
"                                -----------*---*,;;;=;;;;;;;;;;;                                ",
"                                -----------*---*,;;;=;;;;;;;;;;;                                ",
"                                -----------*---*,;;;=;;;;;;;;;;;                                ",
"                                -----------*---*,;;;=;;;;;;;;;;;                                ",
"                                -----------*---*,;;;=;;;;;;;;;;;                                ",
"                                -----------*---*,;;;=;;;;;;;;;;;                                ",
"                                -----------*---*,;;;=;;;;;;;;;;;                                ",
"                                -----------*---*,;;;=;;;;;;;;;;;                                ",
"                                -----------*---*,;;;=;;;;;;;;;;;                                ",
"                                -----------*---*,;;;=;;;;;;;;;;;                                ",
"                                -----------*---*,;;;=;;;;;;;;;;;                                ",
"                                &@---------*---*,;;;=;;;;;;;;;%%                                ",
"                                -&&@-------*---*,;;;=;;;;;;;%%%;                                ",
"                                ---&&@-----*---*,;;;=;;;;;%%%;;;                                ",
"                                -----&&@---*---*,;;;=;;;%%%;;;;;                                ",
"                                *------&&@-*---*,;;;=;%%%;;;;;;>                                ",
"                                 **------&&*---*,;;;=%%;;;;;;>>                                 ",
"                                   **----------*,;;;;;;;;;;>>                                   ",
"                                     **--------*,;;;;;;;;>>                                     ",
"                                       **------*,;;;;;;>>                                       ",
"                                         **----*,;;;;>>                                         ",
"                                           **--*,;;>>                                           ",
"                                             ***,>>                                             ",
"                                               ,>                                               ",
"                                                                                                ",
"                                                                                                ",
"                                                                                                ",
"                                                                                                ",
"                                                                                                ",
"                                                                                                ",
"                                                                                                ",
"                                                                                                ",
"                                                                                                ",
"                                                                                                ",
"                                                                                                ",
"                                                                                                ",
"                                                                                                ",
"                                                                                                ",
"                                                                                                ",
"                                                                                                ",
"                                               ''                                               ",
"                                             ''  ''                                             ",
"                                           ''      ''                                           ",
"                                         )'          '!                                         ",
"                                       ~{              ]^                                       ",
"                                     /(                  ~(                                     ",
"                                   _*                      ,:                                   ",
"                                 &#                          <[                                 ",
"                                }                              |                                ",
"                                                                                                ",
"                                                                                                ",
"                                                                                                ",
"                                                                                                ",
"                                                                                                ",
"                                                                                                ",
"                                                                                                ",
"                                               ''                                               ",
"                                             ''  ''                                             ",
"                                           ''      ''                                           ",
"                                         ''          ''                                         ",
"                                       ''              ''                                       ",
"                                     ''                  ''                                     ",
"                                   ''                      ''                                   ",
"                                 ''                          ''                                 ",
"               }               ''                              ''               |               ",
"             #&              ''                                  ''              [<             ",
"           *_              ''                                      ''              :,           ",
"         (/              ''                                          ''              (~         ",
"       {~              ''                                              ''              ^]       ",
"     ')              ''                                                  ''              !'     ",
"   ''              ''                                                      ''              ''   ",
" ''              ''                                                          ''              '' ",
"'               '                             ''''                             '               '",
"'               '                           ''@@@@''                           '               '",
"'               '                         ''@@@@@@@@''                         '               '",
"'               '                       ''@@@@#%$$@@@@''                       '               '",
"'               '                     ''@@@@#%%@@&$$@@@@''                     '               '",
"'               '                   ''@@@@#%%@@@@@@&$$@@@@''                   '               '",
"'               '                 ''@@@@#%%@@@@@@@@@@&$$@@@@''                 '               '",
"'               '               ''@@@@#%%@@@@@@@@@@@@@@&$$@@@@''               '               '",
"!               '               '$@@@@++@@@@@@@@@@@@@@@@..@@@@#'               '               '",
">               '               '-$$@@@@++@@@@@@@@@@@@..@@@@##;'               '               '",
"{               '               '---$$@@@@++@@@@@@@@..@@@@##;;;'               '               !",
"1               '               '-----$$@@@@++@@@@..@@@@##;;;;;'               '               !",
"2               '               '-------$$@@@@++..@@@@##;;;;;;;'               '               )",
"(               '               '--;**----$$@@@@@@@@##;;;;>>,;;'               '               >",
"3               '               '--;--**----$$@@@@##;;;;>>;;,;;'               '               {",
"4               '               '--;----**----$$##;;;;>>;;;;,;;'               '               5",
"4               '               '--;------**---**;;;>>;;;;;;,;;'               '               5",
"3               '               '--;--------*--**;;>;;;;;;;;,;;'               '               {",
"(               '               '--;--------*--**;;=;;;;;;;;,;;'               '               >",
"2               '               '--;--------*--**;;=;;;;;;;;,;;'               '               )",
"1               '               '--;--------*--**;;=;;;;;;;;,;;'               '               !",
"{               '               '--;--------*--**;;=;;;;;;;;,;;'               '               !",
">               '               '--;--------*--**;;=;;;;;;;;,;;'               '               '",
"!               '               '---&@------*--**;;=;;;;;;%%;;;'               '               '",
"'               '               ''----&@----*--**;;=;;;;%%;;;;''               '               '",
"'               '                 ''----&@--*--**;;=;;%%;;;;''                 '               '",
"'               '                   ''----&@*--**;;=%%;;;;''                   '               '",
"'               '                     ''-------**;;;;;;;''                     '               '",
"'               '                       ''-----**;;;;;''                       '               '",
"'               '                         ''---**;;;''                         '               '",
"'               '                           ''-**;''                           '               '",
"'               '                             ''''                             '               '",
" ''              ''                                                          ''              '' ",
"   ''              ''                                                      ''              ''   ",
"     ''              ''                                                  ''              ''     ",
"       '!              ''                                              ''              ''       ",
"         >{              ''                                          ''              ''         ",
"           12              ''                                      ''              !'           ",
"             (3              ''                                  ''              )!             ",
"               4               ''                              ''               ]               ",
"                                 ''                          ''                                 ",
"                                   ''                      ''                                   ",
"                                     ''                  ''                                     ",
"                                       ''              ''                                       ",
"                                         ''          ''                                         ",
"                                           ''      ''                                           ",
"                                             ''  ''                                             ",
"                                               ''                                               ",
"                                                                                                ",
"                                                                                                ",
"                                                                                                ",
"                                                                                                ",
"                                                                                                ",
"                                                                                                ",
"                                                                                                ",
"                                4                              ]                                ",
"                                 3(                          !)                                 ",
"                                   21                      '!                                   ",
"                                     {>                  ''                                     ",
"                                       !'              ''                                       ",
"                                         ''          ''                                         ",
"                                           ''      ''                                           ",
"                                             ''  ''                                             ",
"                                               ''                                               ",
"                                                                                                ",
"                                                                                                ",
"                                                                                                ",
"                                                                                                ",
"                                                                                                ",
"                                                                                                ",
"                                                                                                ",
"                                                                                                ",
"                               .                                +                               ",
"                             ..@                                @++                             ",
"                           ..@@@                                @@@++                           ",
"                         ..@@@@@                                @@@@@++                         ",
"                       ..@@@@@@#                                $@@@@@@++                       ",
"                     ..@@@@@@##%                                &$$@@@@@@++                     ",
"                   ..@@@@@@##%%@                                @&&$$@@@@@@++                   ",
"                 ..@@@@@@##%%@@@                                @@@&&$$@@@@@@++                 ",
"                .$$@@@@@@++@@@@@               +#               @@@@@..@@@@@@##%                ",
"                *&&$$@@@@@@++@@@             ..@@++             @@@..@@@@@@##%%=                ",
"                *--&&$$@@@@@@++@           ..@@@@@@++           @..@@@@@@##%%;;=                ",
"                *----&&$$@@@@@@+         ..@@@@@@@@@@++         .@@@@@@##%%;;;;=                ",
"                *------&&$$@@@@@       ..@@@@@@#$@@@@@@++       @@@@@##%%;;;;;;=                ",
"                *--------&&$$@@@     ..@@@@@@##%&$$@@@@@@++     @@@##%%;;;;;;;;=                ",
"                *----------&&$$@   ..@@@@@@##%%@@&&$$@@@@@@++   @##%%;;;;;;;;;;=                ",
"                *---***------&&$ ..@@@@@@##%%@@@@@@&&$$@@@@@@++ #%%;;;;;;>>,;;;=                ",
"                *---*;-**------&.@@@@@@##%%@@@@@@@@@@&&$$@@@@@@+%;;;;;;>>;,,;;;=                ",
"                *---*;---**-----@@@@@##%%@@@@@@#$@@@@@@&&$$@@@@@;;;;;>>;;;,,;;;=                ",
"                *---*;-----**---@@@##%%@@@@@@##%&$$@@@@@@&&$$@@@;;;>>;;;;;,,;;;=                ",
"                *---*;-------**-@##%%@@@@@@##%%@@&&$$@@@@@@&&$$@;>>;;;;;;;,,;;;=                ",
"                *---*;---------*#%%@@@@@@##%%@@@@@@&&$$@@@@@@&&$>;;;;;;;;;,,;;;=                ",
"                *---*;---***----%@@@@@@##%%@@@@@@@@@@&&$$@@@@@@&;;;;>>,;;;,,;;;=                ",
"                *---*;---*;-**--@@@@@##%%@@@@@@#$@@@@@@&&$$@@@@@;;>>;,,;;;,,;;;=                ",
"                *---*;---*;---**@@@##%%@@@@@@##%&$$@@@@@@&&$$@@@>>;;;,,;;;,,;;;=                ",
"                *---*;---*;-----@##%%@@@@@@##%%@@&&$$@@@@@@&&$$@;;;;;,,;;;,,;;;=                ",
"                *---*;---*;-----@++@@@@@@##%%@@@@@@&&$$@@@@@@..@;;;;;,,;;;,,;;;=                ",
"                *---*;---*;-----@@@++@@@@++@@@@@@@@@@..@@@@..@@@;;;;;,,;;;,,;;;=                ",
"                *---*;---*;---**+@@@@++@@@@++@@@@@@..@@@@..@@@@.>,;;;,,;;;,,;;;=                ",
"                *---*;---*;---*;@++@@@@++@@@@++@@..@@@@..@@@@..@,,;;;,,;;;,,;;;=                ",
"                *---*;---*;---*;@@@++@@@@++@@@@+.@@@@..@@@@..@@@,,;;;,,;;;,,;;;=                ",
"                *---*;---*;---*;@@@@@++@@@@++@@@@@@..@@@@..@@@@@,,;;;,,;;;,,;;;=                ",
"                *---*;---*;---*;$@@@@@@++@@@@++@@..@@@@..@@@@@@#,,;;;,,;;;,,;;;=                ",
"                *---*;---*;---*;&$$@@@@@@++@@@@+.@@@@..@@@@@@##%,,;;;,,;;;,,;;;=                ",
"                *---*;---*;---*;-&&$$@@@@@@++@@@@@@..@@@@@@##%%;,,;;;,,;;;,,;;;=                ",
"                *---*;---*;----&---&&$$@@@@@@++@@..@@@@@@##%%;;;%;;;;,,;;;,,;;;=                ",
"                *---*;---*;----------&&$$@@@@@@+.@@@@@@##%%;;;;;;;;;;,,;;;,,;;;=                ",
"                *---*;----&&@---*------&&$$@@@@@@@@@@##%%;;;;;;>;;;%%%;;;;,,;;;=                ",
"                *---*;------&&@--**------&&$$@@@@@@##%%;;;;;;>>;;%%%;;;;;;,,;;;=                ",
"                *----&&@------&&---**------&&$$@@##%%;;;;;;>>;;;%%;;;;;;%%%;;;;=                ",
"                *------&&@-----------**------&&$#%%;;;;;;>>;;;;;;;;;;;%%%;;;;;;>                ",
"                 **------&&@----**-----**------*,;;;;;;>>;;;;;>>;;;;%%%;;;;;;>>                 ",
"                   **------&&@----**-----**----*,;;;;>>;;;;;>>;;;;%%%;;;;;;>>                   ",
"                     **------&&@----**-----*---*,;;;>;;;;;>>;;;;%%%;;;;;;>>                     ",
"                       **------&*-----**---*---*,;;;=;;;>>;;;;;>%;;;;;;>>                       ",
"                         **------**-----*--*---*,;;;=;;>;;;;;>>;;;;;;>>                         ",
"                           **------**---*--*---*,;;;=;;=;;;>>;;;;;;>>                           ",
"                             **------*--*--*---*,;;;=;;=;;>;;;;;;>>                             ",
"                               *-----*--*--*---*,;;;=;;=;;=;;;;;>                               ",
"                                -----*--*--*---*,;;;=;;=;;=;;;;;                                ",
"                                -----*--*--*---*,;;;=;;=;;=;;;;;                                ",
"                                &@---*--*--*---*,;;;=;;=;;=;;;%%                                ",
"                                -&&@-*--*--*---*,;;;=;;=;;=;%%%;                                ",
"                                ---&&*--*--*---*,;;;=;;=;;=%%;;;                                ",
"                                --------*--*---*,;;;=;;=;;;;;;;;                                ",
"                                @-------*--*---*,;;;=;;=;;;;;;;%                                ",
"                                &&@-----*--*---*,;;;=;;=;;;;;%%%                                ",
"                                --&&@---*--*---*,;;;=;;=;;;%%%;;                                ",
"                                ----&&@-*--*---*,;;;=;;=;%%%;;;;                                ",
"                                ------&&*--*---*,;;;=;;=%%;;;;;;                                ",
"                                &@---------*---*,;;;=;;;;;;;;;%%                                ",
"                                -&&@-------*---*,;;;=;;;;;;;%%%;                                ",
"                                ---&&@-----*---*,;;;=;;;;;%%%;;;                                ",
"                                -----&&@---*---*,;;;=;;;%%%;;;;;                                ",
"                                *------&&@-*---*,;;;=;%%%;;;;;;>                                ",
"                                 **------&&*---*,;;;=%%;;;;;;>>                                 ",
"                                   **----------*,;;;;;;;;;;>>                                   ",
"                                     **--------*,;;;;;;;;>>                                     ",
"                                       **------*,;;;;;;>>                                       ",
"                                         **----*,;;;;>>                                         ",
"                                           **--*,;;>>                                           ",
"                                             ***,>>                                             ",
"                                               ,>                                               ",
"                                                                                                ",
"                                                                                                ",
"                                                                                                ",
"                                                                                                ",
"                                                                                                ",
"                                                                                                ",
"                                                                                                ",
"                                                                                                ",
"                                                                                                ",
"                                                                                                ",
"                                                                                                ",
"                                                                                                ",
"                                                                                                ",
"                                                                                                ",
"                                                                                                ",
"                                                                                                "};
