/* XPM */
static char * gimp_temp_35943_xpm[] = {
"96 288 72 1",
" 	c None",
".	c #E5E5E5",
"+	c #C9C9C9",
"@	c #DBDBDB",
"#	c #B7B7B7",
"$	c #F9F9F9",
"%	c #969696",
"&	c #C6C6C6",
"*	c #999999",
"=	c #686868",
"-	c #AFAFAF",
";	c #7F7F7F",
">	c #565656",
",	c #878787",
"'	c #000000",
")	c #0F0F0F",
"!	c #0D0D0D",
"~	c #2E2E2E",
"{	c #1F1F1F",
"]	c #1B1B1B",
"^	c #282828",
"/	c #4C4C4C",
"(	c #3D3D3D",
"_	c #363636",
":	c #434343",
"<	c #6B6B6B",
"[	c #5C5C5C",
"}	c #505050",
"|	c #5E5E5E",
"1	c #898989",
"2	c #7A7A7A",
"3	c #797979",
"4	c #A8A8A8",
"5	c #868686",
"6	c #939393",
"7	c #A1A1A1",
"8	c #AEAEAE",
"9	c #D6D6D6",
"0	c #BCBCBC",
"a	c #0A0A0A",
"b	c #070707",
"c	c #141414",
"d	c #0E0E0E",
"e	c #151515",
"f	c #292929",
"g	c #1C1C1C",
"h	c #333333",
"i	c #232323",
"j	c #2A2A2A",
"k	c #474747",
"l	c #313131",
"m	c #525252",
"n	c #373737",
"o	c #3E3E3E",
"p	c #666666",
"q	c #454545",
"r	c #707070",
"s	c #535353",
"t	c #858585",
"u	c #5A5A5A",
"v	c #8F8F8F",
"w	c #616161",
"x	c #060606",
"y	c #111111",
"z	c #0B0B0B",
"A	c #1D1D1D",
"B	c #171717",
"C	c #222222",
"D	c #343434",
"E	c #3F3F3F",
"F	c #393939",
"G	c #4B4B4B",
"                                                                                                ",
"                                                                                                ",
"                                                                                                ",
"                                                                                                ",
"                                                                                                ",
"                                                                                                ",
"                                                                                                ",
"                                                                                                ",
"                               .                                +                               ",
"                             ..@                                @++                             ",
"                           ..@@@                                @@@++                           ",
"                         ..@@@@@                                @@@@@++                         ",
"                       ..@@@@@@#                                $@@@@@@++                       ",
"                     ..@@@@@@##%                                &$$@@@@@@++                     ",
"                   ..@@@@@@##%%@                                @&&$$@@@@@@++                   ",
"                 ..@@@@@@##%%@@@                                @@@&&$$@@@@@@++                 ",
"                .$$@@@@@@++@@@@@               +#               @@@@@..@@@@@@##%                ",
"                *&&$$@@@@@@++@@@             ..@@++             @@@..@@@@@@##%%=                ",
"                *--&&$$@@@@@@++@           ..@@@@@@++           @..@@@@@@##%%;;=                ",
"                *----&&$$@@@@@@+         ..@@@@@@@@@@++         .@@@@@@##%%;;;;=                ",
"                *------&&$$@@@@@       ..@@@@@@#$@@@@@@++       @@@@@##%%;;;;;;=                ",
"                *--------&&$$@@@     ..@@@@@@##%&$$@@@@@@++     @@@##%%;;;;;;;;=                ",
"                *----------&&$$@   ..@@@@@@##%%@@&&$$@@@@@@++   @##%%;;;;;;;;;;=                ",
"                *---***------&&$ ..@@@@@@##%%@@@@@@&&$$@@@@@@++ #%%;;;;;;>>,;;;=                ",
"                *---*;-**------&.@@@@@@##%%@@@@@@@@@@&&$$@@@@@@+%;;;;;;>>;,,;;;=                ",
"                *---*;---**-----@@@@@##%%@@@@@@@@@@@@@@&&$$@@@@@;;;;;>>;;;,,;;;=                ",
"                *---*;-----**---@@@##%%@@@@@@@@@@@@@@@@@@&&$$@@@;;;>>;;;;;,,;;;=                ",
"                *---*;-------**-@##%%@@@@@@@@@@@@@@@@@@@@@@&&$$@;>>;;;;;;;,,;;;=                ",
"                *---*;---------*#%%@@@@@@@@@@@@@@@@@@@@@@@@@@&&$>;;;;;;;;;,,;;;=                ",
"                *---*;----------%@@@@@@@@@@@@@@@@@@@@@@@@@@@@@@&;;;;;;;;;;,,;;;=                ",
"                *---*;----------@@@@@@@@@@@@@@@@@@@@@@@@@@@@@@@@;;;;;;;;;;,,;;;=                ",
"                *---*;----------@@@@@@@@@@@@@@@@@@@@@@@@@@@@@@@@;;;;;;;;;;,,;;;=                ",
"                *---*;----------@@@@@@@@@@@@@@@@@@@@@@@@@@@@@@@@;;;;;;;;;;,,;;;=                ",
"                *---*;----------@@@@@@@@@@@@@@@@@@@@@@@@@@@@@@@@;;;;;;;;;;,,;;;=                ",
"                *---*;----------@@@@@@@@@@@@@@@@@@@@@@@@@@@@@@@@;;;;;;;;;;,,;;;=                ",
"                *---*;----------+@@@@@@@@@@@@@@@@@@@@@@@@@@@@@@.;;;;;;;;;;,,;;;=                ",
"                *---*;----------@++@@@@@@@@@@@@@@@@@@@@@@@@@@..@;;;;;;;;;;,,;;;=                ",
"                *---*;----------@@@++@@@@@@@@@@@@@@@@@@@@@@..@@@;;;;;;;;;;,,;;;=                ",
"                *---*;----------@@@@@++@@@@@@@@@@@@@@@@@@..@@@@@;;;;;;;;;;,,;;;=                ",
"                *---*;----------$@@@@@@++@@@@@@@@@@@@@@..@@@@@@#;;;;;;;;;;,,;;;=                ",
"                *---*;----------&$$@@@@@@++@@@@@@@@@@..@@@@@@##%;;;;;;;;;;,,;;;=                ",
"                *---*;-----------&&$$@@@@@@++@@@@@@..@@@@@@##%%;;;;;;;;;;;,,;;;=                ",
"                *---*;-------------&&$$@@@@@@++@@..@@@@@@##%%;;;;;;;;;;;;;,,;;;=                ",
"                *---*;---------------&&$$@@@@@@+.@@@@@@##%%;;;;;;;;;;;;;;;,,;;;=                ",
"                *---*;----------*------&&$$@@@@@@@@@@##%%;;;;;;>;;;;;;;;;;,,;;;=                ",
"                *---*;-----------**------&&$$@@@@@@##%%;;;;;;>>;;;;;;;;;;;,,;;;=                ",
"                *----&&@-----------**------&&$$@@##%%;;;;;;>>;;;;;;;;;;;%%%;;;;=                ",
"                *------&&@-----------**------&&$#%%;;;;;;>>;;;;;;;;;;;%%%;;;;;;>                ",
"                 **------&&@-----------**------*,;;;;;;>>;;;;;;;;;;;%%%;;;;;;>>                 ",
"                   **------&&@-----------**----*,;;;;>>;;;;;;;;;;;%%%;;;;;;>>                   ",
"                     **------&&@-----------*---*,;;;>;;;;;;;;;;;%%%;;;;;;>>                     ",
"                       **------&-----------*---*,;;;=;;;;;;;;;;;%;;;;;;>>                       ",
"                         **----------------*---*,;;;=;;;;;;;;;;;;;;;;>>                         ",
"                           **--------------*---*,;;;=;;;;;;;;;;;;;;>>                           ",
"                             **------------*---*,;;;=;;;;;;;;;;;;>>                             ",
"                               *-----------*---*,;;;=;;;;;;;;;;;>                               ",
"                                -----------*---*,;;;=;;;;;;;;;;;                                ",
"                                -----------*---*,;;;=;;;;;;;;;;;                                ",
"                                -----------*---*,;;;=;;;;;;;;;;;                                ",
"                                -----------*---*,;;;=;;;;;;;;;;;                                ",
"                                -----------*---*,;;;=;;;;;;;;;;;                                ",
"                                -----------*---*,;;;=;;;;;;;;;;;                                ",
"                                -----------*---*,;;;=;;;;;;;;;;;                                ",
"                                -----------*---*,;;;=;;;;;;;;;;;                                ",
"                                -----------*---*,;;;=;;;;;;;;;;;                                ",
"                                -----------*---*,;;;=;;;;;;;;;;;                                ",
"                                -----------*---*,;;;=;;;;;;;;;;;                                ",
"                                &@---------*---*,;;;=;;;;;;;;;%%                                ",
"                                -&&@-------*---*,;;;=;;;;;;;%%%;                                ",
"                                ---&&@-----*---*,;;;=;;;;;%%%;;;                                ",
"                                -----&&@---*---*,;;;=;;;%%%;;;;;                                ",
"                                *------&&@-*---*,;;;=;%%%;;;;;;>                                ",
"                                 **------&&*---*,;;;=%%;;;;;;>>                                 ",
"                                   **----------*,;;;;;;;;;;>>                                   ",
"                                     **--------*,;;;;;;;;>>                                     ",
"                                       **------*,;;;;;;>>                                       ",
"                                         **----*,;;;;>>                                         ",
"                                           **--*,;;>>                                           ",
"                                             ***,>>                                             ",
"                                               ,>                                               ",
"                                                                                                ",
"                                                                                                ",
"                                                                                                ",
"                                                                                                ",
"                                                                                                ",
"                                                                                                ",
"                                                                                                ",
"                                                                                                ",
"                                                                                                ",
"                                                                                                ",
"                                                                                                ",
"                                                                                                ",
"                                                                                                ",
"                                                                                                ",
"                                                                                                ",
"                                                                                                ",
"                                               ''                                               ",
"                                             )'  '!                                             ",
"                                           ~{      ]^                                           ",
"                                         /(          _:                                         ",
"                                       <[              }|                                       ",
"                                     12                  <3                                     ",
"                                   4*                      56                                   ",
"                                 &#                          78                                 ",
"                                9                              0                                ",
"                                                                                                ",
"                                                                                                ",
"                                                                                                ",
"                                                                                                ",
"                                                                                                ",
"                                                                                                ",
"                                                                                                ",
"                                               ''                                               ",
"                                             ''  ''                                             ",
"                                           ''      ''                                           ",
"                                         ''          ''                                         ",
"                                       ''              ''                                       ",
"                                     ''                  ''                                     ",
"                                   ''                      ''                                   ",
"                                 ''                          ''                                 ",
"               9               ''                              ''               0               ",
"             #&              ''                                  ''              87             ",
"           *4              ''                                      ''              65           ",
"         21              ''                                          ''              3<         ",
"       [<              ''                                              ''              |}       ",
"     (/              ''                                                  ''              :_     ",
"   {~              ''                                                      ''              ^]   ",
" ')              ''                                                          ''              !' ",
"'               '                             ''''                             '               '",
"'               '                           ''@@@@''                           '               '",
"a               '                         ''@@@@@@@@''                         '               b",
"c               '                       ''@@@@#%$$@@@@''                       '               d",
"{               '                     ''@@@@#%%@@&$$@@@@''                     '               e",
"f               '                   ''@@@@#%%@@@@@@&$$@@@@''                   '               g",
"h               '                 ''@@@@#%%@@@@@@@@@@&$$@@@@''                 '               i",
"(               '               ''@@@@#%%@@@@@@@@@@@@@@&$$@@@@''               '               j",
"k               '               '$@@@@++@@@@@@@@@@@@@@@@..@@@@#'               '               l",
"m               '               '-$$@@@@++@@@@@@@@@@@@..@@@@##;'               '               n",
"[               '               '---$$@@@@++@@@@@@@@..@@@@##;;;'               '               o",
"p               '               '-----$$@@@@++@@@@..@@@@##;;;;;'               '               q",
"r               '               '-------$$@@@@++..@@@@##;;;;;;;'               '               /",
"2               '               '--;**----$$@@@@@@@@##;;;;>>,;;'               '               s",
"t               '               '--;--**----$$@@@@##;;;;>>;;,;;'               '               u",
"v               '               '--;----**----$$##;;;;>>;;;;,;;'               '               w",
"v               '               '--;------**---**;;;>>;;;;;;,;;'               '               w",
"t               '               '--;--------*--**;;>;;;;;;;;,;;'               '               u",
"2               '               '--;--------*--**;;=;;;;;;;;,;;'               '               s",
"r               '               '--;--------*--**;;=;;;;;;;;,;;'               '               /",
"p               '               '--;--------*--**;;=;;;;;;;;,;;'               '               q",
"[               '               '--;--------*--**;;=;;;;;;;;,;;'               '               o",
"m               '               '--;--------*--**;;=;;;;;;;;,;;'               '               n",
"k               '               '---&@------*--**;;=;;;;;;%%;;;'               '               l",
"(               '               ''----&@----*--**;;=;;;;%%;;;;''               '               j",
"h               '                 ''----&@--*--**;;=;;%%;;;;''                 '               i",
"f               '                   ''----&@*--**;;=%%;;;;''                   '               g",
"{               '                     ''-------**;;;;;;;''                     '               e",
"c               '                       ''-----**;;;;;''                       '               d",
"a               '                         ''---**;;;''                         '               b",
"'               '                           ''-**;''                           '               '",
"'               '                             ''''                             '               '",
" 'a              ''                                                          ''              x' ",
"   c{              ''                                                      ''              yz   ",
"     fh              ''                                                  ''              AB     ",
"       (k              ''                                              ''              ^C       ",
"         m[              ''                                          ''              D~         ",
"           pr              ''                                      ''              EF           ",
"             2t              ''                                  ''              Gq             ",
"               v               ''                              ''               }               ",
"                                 ''                          ''                                 ",
"                                   ''                      ''                                   ",
"                                     ''                  ''                                     ",
"                                       ''              ''                                       ",
"                                         ''          ''                                         ",
"                                           ''      ''                                           ",
"                                             ''  ''                                             ",
"                                               ''                                               ",
"                                                                                                ",
"                                                                                                ",
"                                                                                                ",
"                                                                                                ",
"                                                                                                ",
"                                                                                                ",
"                                                                                                ",
"                                v                              }                                ",
"                                 t2                          qG                                 ",
"                                   rp                      FE                                   ",
"                                     [m                  ~D                                     ",
"                                       k(              C^                                       ",
"                                         hf          BA                                         ",
"                                           {c      zy                                           ",
"                                             a'  'x                                             ",
"                                               ''                                               ",
"                                                                                                ",
"                                                                                                ",
"                                                                                                ",
"                                                                                                ",
"                                                                                                ",
"                                                                                                ",
"                                                                                                ",
"                                                                                                ",
"                               .                                +                               ",
"                             ..@                                @++                             ",
"                           ..@@@                                @@@++                           ",
"                         ..@@@@@                                @@@@@++                         ",
"                       ..@@@@@@#                                $@@@@@@++                       ",
"                     ..@@@@@@##%                                &$$@@@@@@++                     ",
"                   ..@@@@@@##%%@                                @&&$$@@@@@@++                   ",
"                 ..@@@@@@##%%@@@                                @@@&&$$@@@@@@++                 ",
"                .$$@@@@@@++@@@@@               +#               @@@@@..@@@@@@##%                ",
"                *&&$$@@@@@@++@@@             ..@@++             @@@..@@@@@@##%%=                ",
"                *--&&$$@@@@@@++@           ..@@@@@@++           @..@@@@@@##%%;;=                ",
"                *----&&$$@@@@@@+         ..@@@@@@@@@@++         .@@@@@@##%%;;;;=                ",
"                *------&&$$@@@@@       ..@@@@@@#$@@@@@@++       @@@@@##%%;;;;;;=                ",
"                *--------&&$$@@@     ..@@@@@@##%&$$@@@@@@++     @@@##%%;;;;;;;;=                ",
"                *----------&&$$@   ..@@@@@@##%%@@&&$$@@@@@@++   @##%%;;;;;;;;;;=                ",
"                *---***------&&$ ..@@@@@@##%%@@@@@@&&$$@@@@@@++ #%%;;;;;;>>,;;;=                ",
"                *---*;-**------&.@@@@@@##%%@@@@@@@@@@&&$$@@@@@@+%;;;;;;>>;,,;;;=                ",
"                *---*;---**-----@@@@@##%%@@@@@@#$@@@@@@&&$$@@@@@;;;;;>>;;;,,;;;=                ",
"                *---*;-----**---@@@##%%@@@@@@##%&$$@@@@@@&&$$@@@;;;>>;;;;;,,;;;=                ",
"                *---*;-------**-@##%%@@@@@@##%%@@&&$$@@@@@@&&$$@;>>;;;;;;;,,;;;=                ",
"                *---*;---------*#%%@@@@@@##%%@@@@@@&&$$@@@@@@&&$>;;;;;;;;;,,;;;=                ",
"                *---*;---***----%@@@@@@##%%@@@@@@@@@@&&$$@@@@@@&;;;;>>,;;;,,;;;=                ",
"                *---*;---*;-**--@@@@@##%%@@@@@@#$@@@@@@&&$$@@@@@;;>>;,,;;;,,;;;=                ",
"                *---*;---*;---**@@@##%%@@@@@@##%&$$@@@@@@&&$$@@@>>;;;,,;;;,,;;;=                ",
"                *---*;---*;-----@##%%@@@@@@##%%@@&&$$@@@@@@&&$$@;;;;;,,;;;,,;;;=                ",
"                *---*;---*;-----@++@@@@@@##%%@@@@@@&&$$@@@@@@..@;;;;;,,;;;,,;;;=                ",
"                *---*;---*;-----@@@++@@@@++@@@@@@@@@@..@@@@..@@@;;;;;,,;;;,,;;;=                ",
"                *---*;---*;---**+@@@@++@@@@++@@@@@@..@@@@..@@@@.>,;;;,,;;;,,;;;=                ",
"                *---*;---*;---*;@++@@@@++@@@@++@@..@@@@..@@@@..@,,;;;,,;;;,,;;;=                ",
"                *---*;---*;---*;@@@++@@@@++@@@@+.@@@@..@@@@..@@@,,;;;,,;;;,,;;;=                ",
"                *---*;---*;---*;@@@@@++@@@@++@@@@@@..@@@@..@@@@@,,;;;,,;;;,,;;;=                ",
"                *---*;---*;---*;$@@@@@@++@@@@++@@..@@@@..@@@@@@#,,;;;,,;;;,,;;;=                ",
"                *---*;---*;---*;&$$@@@@@@++@@@@+.@@@@..@@@@@@##%,,;;;,,;;;,,;;;=                ",
"                *---*;---*;---*;-&&$$@@@@@@++@@@@@@..@@@@@@##%%;,,;;;,,;;;,,;;;=                ",
"                *---*;---*;----&---&&$$@@@@@@++@@..@@@@@@##%%;;;%;;;;,,;;;,,;;;=                ",
"                *---*;---*;----------&&$$@@@@@@+.@@@@@@##%%;;;;;;;;;;,,;;;,,;;;=                ",
"                *---*;----&&@---*------&&$$@@@@@@@@@@##%%;;;;;;>;;;%%%;;;;,,;;;=                ",
"                *---*;------&&@--**------&&$$@@@@@@##%%;;;;;;>>;;%%%;;;;;;,,;;;=                ",
"                *----&&@------&&---**------&&$$@@##%%;;;;;;>>;;;%%;;;;;;%%%;;;;=                ",
"                *------&&@-----------**------&&$#%%;;;;;;>>;;;;;;;;;;;%%%;;;;;;>                ",
"                 **------&&@----**-----**------*,;;;;;;>>;;;;;>>;;;;%%%;;;;;;>>                 ",
"                   **------&&@----**-----**----*,;;;;>>;;;;;>>;;;;%%%;;;;;;>>                   ",
"                     **------&&@----**-----*---*,;;;>;;;;;>>;;;;%%%;;;;;;>>                     ",
"                       **------&*-----**---*---*,;;;=;;;>>;;;;;>%;;;;;;>>                       ",
"                         **------**-----*--*---*,;;;=;;>;;;;;>>;;;;;;>>                         ",
"                           **------**---*--*---*,;;;=;;=;;;>>;;;;;;>>                           ",
"                             **------*--*--*---*,;;;=;;=;;>;;;;;;>>                             ",
"                               *-----*--*--*---*,;;;=;;=;;=;;;;;>                               ",
"                                -----*--*--*---*,;;;=;;=;;=;;;;;                                ",
"                                -----*--*--*---*,;;;=;;=;;=;;;;;                                ",
"                                &@---*--*--*---*,;;;=;;=;;=;;;%%                                ",
"                                -&&@-*--*--*---*,;;;=;;=;;=;%%%;                                ",
"                                ---&&*--*--*---*,;;;=;;=;;=%%;;;                                ",
"                                --------*--*---*,;;;=;;=;;;;;;;;                                ",
"                                @-------*--*---*,;;;=;;=;;;;;;;%                                ",
"                                &&@-----*--*---*,;;;=;;=;;;;;%%%                                ",
"                                --&&@---*--*---*,;;;=;;=;;;%%%;;                                ",
"                                ----&&@-*--*---*,;;;=;;=;%%%;;;;                                ",
"                                ------&&*--*---*,;;;=;;=%%;;;;;;                                ",
"                                &@---------*---*,;;;=;;;;;;;;;%%                                ",
"                                -&&@-------*---*,;;;=;;;;;;;%%%;                                ",
"                                ---&&@-----*---*,;;;=;;;;;%%%;;;                                ",
"                                -----&&@---*---*,;;;=;;;%%%;;;;;                                ",
"                                *------&&@-*---*,;;;=;%%%;;;;;;>                                ",
"                                 **------&&*---*,;;;=%%;;;;;;>>                                 ",
"                                   **----------*,;;;;;;;;;;>>                                   ",
"                                     **--------*,;;;;;;;;>>                                     ",
"                                       **------*,;;;;;;>>                                       ",
"                                         **----*,;;;;>>                                         ",
"                                           **--*,;;>>                                           ",
"                                             ***,>>                                             ",
"                                               ,>                                               ",
"                                                                                                ",
"                                                                                                ",
"                                                                                                ",
"                                                                                                ",
"                                                                                                ",
"                                                                                                ",
"                                                                                                ",
"                                                                                                ",
"                                                                                                ",
"                                                                                                ",
"                                                                                                ",
"                                                                                                ",
"                                                                                                ",
"                                                                                                ",
"                                                                                                ",
"                                                                                                "};
