/* XPM */
static char * gimp_temp_13501_xpm[] = {
"320 32 7 1",
" 	c None",
".	c #000000",
"+	c #DBDBDB",
"@	c #B7B7B7",
"#	c #F9F9F9",
"$	c #969696",
"%	c #C6C6C6",
"                                                                                                                                                                                                                                                                                                                                ",
"                                                                                                                                                                                                                                                                                                                                ",
"                                               ..                                                              ..                                                              ..                                                              ..                                                              ..               ",
"                                             ..++..                                                          ..++..                                                          ..++..                                                          ..++..                                                          ..++..             ",
"                                           ..++++++..                                                      ..++++++..                                                      ..++++++..                                                      ..++++++..                                                      ..++++++..           ",
"                                         ..++++++++++..                                                  ..++++++++++..                                                  ..++++++++++..                                                  ..++++++++++..                                                  ..++++++++++..         ",
"                                       ..++++++@#++++++..                                              ..++++++@#++++++..                                              ..++++++@#++++++..                                              ..++++++@#++++++..                                              ..++++++@#++++++..       ",
"                                     ..++++++@@$%##++++++..                                          ..++++++@@$%##++++++..                                          ..++++++@@$%##++++++..                                          ..++++++@@$%##++++++..                                          ..++++++@@$%##++++++..     ",
"                                   ..++++++@@$$++%%##++++++..                                      ..++++++@@$$++%%##++++++..                                      ..++++++@@$$++%%##++++++..                                      ..++++++@@$$++%%##++++++..                                      ..++++++@@$$++%%##++++++..   ",
"                                 ..++++++@@$$++++++%%##++++++..                                  ..++++++@@$$++++++%%##++++++..                                  ..++++++@@$$++++++%%##++++++..                                  ..++++++@@$$++++++%%##++++++..                                  ..++++++@@$$++++++%%##++++++.. ",
".                              ..++++++@@$$++++++++++%%##++++++..                              ..++++++@@$$++++++++++%%##++++++..                              ..++++++@@$$++++++++++%%##++++++..                              ..++++++@@$$++++++++++%%##++++++..                              ..++++++@@$$++++++++++%%##++++++.",
"+..                          ..++++++@@$$++++++++++++++%%##++++++..                          ..++++++@@$$++++++++++++++%%##++++++..                          ..++++++@@$$++++++++++++++%%##++++++..                          ..++++++@@$$++++++++++++++%%##++++++..                          ..++++++@@$$++++++++++++++%%##+++++",
"+++..                      ..++++++@@$$++++++++++++++++++%%##++++++..                      ..++++++@@$$++++++++++++++++++%%##++++++..                      ..++++++@@$$++++++++++++++++++%%##++++++..                      ..++++++@@$$++++++++++++++++++%%##++++++..                      ..++++++@@$$++++++++++++++++++%%##+++",
"+++++..                  ..++++++@@$$++++++++++++++++++++++%%##++++++..                  ..++++++@@$$++++++++++++++++++++++%%##++++++..                  ..++++++@@$$++++++++++++++++++++++%%##++++++..                  ..++++++@@$$++++++++++++++++++++++%%##++++++..                  ..++++++@@$$++++++++++++++++++++++%%##+",
"#++++++..              ..++++++@@$$++++++++++++++++++++++++++%%##++++++..              ..++++++@@$$++++++++++++++++++++++++++%%##++++++..              ..++++++@@$$++++++++++++++++++++++++++%%##++++++..              ..++++++@@$$++++++++++++++++++++++++++%%##++++++..              ..++++++@@$$++++++++++++++++++++++++++%%#",
"%##++++++..          ..++++++@@$$++++++++++++++++++++++++++++++%%##++++++..          ..++++++@@$$++++++++++++++++++++++++++++++%%##++++++..          ..++++++@@$$++++++++++++++++++++++++++++++%%##++++++..          ..++++++@@$$++++++++++++++++++++++++++++++%%##++++++..          ..++++++@@$$++++++++++++++++++++++++++++++%",
"+%%##++++++..      ..++++++@@$$++++++++++++++++++++++++++++++++++%%##++++++..      ..++++++@@$$++++++++++++++++++++++++++++++++++%%##++++++..      ..++++++@@$$++++++++++++++++++++++++++++++++++%%##++++++..      ..++++++@@$$++++++++++++++++++++++++++++++++++%%##++++++..      ..++++++@@$$+++++++++++++++++++++++++++++++++",
"+++%%##++++++..  ..++++++@@$$++++++++++++++++++++++++++++++++++++++%%##++++++..  ..++++++@@$$++++++++++++++++++++++++++++++++++++++%%##++++++..  ..++++++@@$$++++++++++++++++++++++++++++++++++++++%%##++++++..  ..++++++@@$$++++++++++++++++++++++++++++++++++++++%%##++++++..  ..++++++@@$$+++++++++++++++++++++++++++++++++++",
"+++++%%##++++++..++++++@@$$++++++++++++++++++++++++++++++++++++++++++%%##++++++..++++++@@$$++++++++++++++++++++++++++++++++++++++++++%%##++++++..++++++@@$$++++++++++++++++++++++++++++++++++++++++++%%##++++++..++++++@@$$++++++++++++++++++++++++++++++++++++++++++%%##++++++..++++++@@$$+++++++++++++++++++++++++++++++++++++",
"+++++++%%##++++++++++@@$$++++++++++++++++++++++++++++++++++++++++++++++%%##++++++++++@@$$++++++++++++++++++++++++++++++++++++++++++++++%%##++++++++++@@$$++++++++++++++++++++++++++++++++++++++++++++++%%##++++++++++@@$$++++++++++++++++++++++++++++++++++++++++++++++%%##++++++++++@@$$+++++++++++++++++++++++++++++++++++++++",
"+++++++++%%##++++++@@$$++++++++++++++++++++++++++++++++++++++++++++++++++%%##++++++@@$$++++++++++++++++++++++++++++++++++++++++++++++++++%%##++++++@@$$++++++++++++++++++++++++++++++++++++++++++++++++++%%##++++++@@$$++++++++++++++++++++++++++++++++++++++++++++++++++%%##++++++@@$$+++++++++++++++++++++++++++++++++++++++++",
"+++++++++++%%##++@@$$++++++++++++++++++++++++++++++++++++++++++++++++++++++%%##++@@$$++++++++++++++++++++++++++++++++++++++++++++++++++++++%%##++@@$$++++++++++++++++++++++++++++++++++++++++++++++++++++++%%##++@@$$++++++++++++++++++++++++++++++++++++++++++++++++++++++%%##++@@$$+++++++++++++++++++++++++++++++++++++++++++",
"+++++++++++++%%#@$$++++++++++++++++++++++++++++++++++++++++++++++++++++++++++%%#@$$++++++++++++++++++++++++++++++++++++++++++++++++++++++++++%%#@$$++++++++++++++++++++++++++++++++++++++++++++++++++++++++++%%#@$$++++++++++++++++++++++++++++++++++++++++++++++++++++++++++%%#@$$+++++++++++++++++++++++++++++++++++++++++++++",
"+++++++++++++++%$++++++++++++++++++++++++++++++++++++++++++++++++++++++++++++++%$++++++++++++++++++++++++++++++++++++++++++++++++++++++++++++++%$++++++++++++++++++++++++++++++++++++++++++++++++++++++++++++++%$++++++++++++++++++++++++++++++++++++++++++++++++++++++++++++++%$+++++++++++++++++++++++++++++++++++++++++++++++",
"++++++++++++++++++++++++++++++++++++++++++++++++++++++++++++++++++++++++++++++++++++++++++++++++++++++++++++++++++++++++++++++++++++++++++++++++++++++++++++++++++++++++++++++++++++++++++++++++++++++++++++++++++++++++++++++++++++++++++++++++++++++++++++++++++++++++++++++++++++++++++++++++++++++++++++++++++++++++++++++++",
"++++++++++++++++++++++++++++++++++++++++++++++++++++++++++++++++++++++++++++++++++++++++++++++++++++++++++++++++++++++++++++++++++++++++++++++++++++++++++++++++++++++++++++++++++++++++++++++++++++++++++++++++++++++++++++++++++++++++++++++++++++++++++++++++++++++++++++++++++++++++++++++++++++++++++++++++++++++++++++++++",
"++++++++++++++++++++++++++++++++++++++++++++++++++++++++++++++++++++++++++++++++++++++++++++++++++++++++++++++++++++++++++++++++++++++++++++++++++++++++++++++++++++++++++++++++++++++++++++++++++++++++++++++++++++++++++++++++++++++++++++++++++++++++++++++++++++++++++++++++++++++++++++++++++++++++++++++++++++++++++++++++",
"++++++++++++++++++++++++++++++++++++++++++++++++++++++++++++++++++++++++++++++++++++++++++++++++++++++++++++++++++++++++++++++++++++++++++++++++++++++++++++++++++++++++++++++++++++++++++++++++++++++++++++++++++++++++++++++++++++++++++++++++++++++++++++++++++++++++++++++++++++++++++++++++++++++++++++++++++++++++++++++++",
"++++++++++++++++++++++++++++++++++++++++++++++++++++++++++++++++++++++++++++++++++++++++++++++++++++++++++++++++++++++++++++++++++++++++++++++++++++++++++++++++++++++++++++++++++++++++++++++++++++++++++++++++++++++++++++++++++++++++++++++++++++++++++++++++++++++++++++++++++++++++++++++++++++++++++++++++++++++++++++++++",
"++++++++++++++++++++++++++++++++++++++++++++++++++++++++++++++++++++++++++++++++++++++++++++++++++++++++++++++++++++++++++++++++++++++++++++++++++++++++++++++++++++++++++++++++++++++++++++++++++++++++++++++++++++++++++++++++++++++++++++++++++++++++++++++++++++++++++++++++++++++++++++++++++++++++++++++++++++++++++++++++",
"++++++++++++++++++++++++++++++++++++++++++++++++++++++++++++++++++++++++++++++++++++++++++++++++++++++++++++++++++++++++++++++++++++++++++++++++++++++++++++++++++++++++++++++++++++++++++++++++++++++++++++++++++++++++++++++++++++++++++++++++++++++++++++++++++++++++++++++++++++++++++++++++++++++++++++++++++++++++++++++++",
"++++++++++++++++++++++++++++++++++++++++++++++++++++++++++++++++++++++++++++++++++++++++++++++++++++++++++++++++++++++++++++++++++++++++++++++++++++++++++++++++++++++++++++++++++++++++++++++++++++++++++++++++++++++++++++++++++++++++++++++++++++++++++++++++++++++++++++++++++++++++++++++++++++++++++++++++++++++++++++++++"};
