/* XPM */
static char * ivBerge_xpm[] = {
"320 96 8 1",
" 	c None",
".	c #FFFFFF",
"+	c #E0E0E0",
"@	c #C6C6C6",
"#	c #99805E",
"$	c #BA5534",
"%	c #873925",
"&	c #BC9E71",
"..................................................................++......................................................................................................................................................++....................................................................................................",
"..................................................................+.......................................................................................................................................................+.....................................................................................................",
"................................................................++......................................................................................................................................................++......................................................................................................",
"...............................................................+++.....................................................................................................................................................+++......................................................................................................",
"..............................................................++++....................................................................................................................................................++++......................................................................................................",
"..............................................................++++...................................................................................................................................................+++++......................................................................................................",
"..............................................................++++..................................................................................................................................................++++++......................................................................................................",
"..............................................................+++++.................................................................................................................................................+++++.......................................................................................................",
"..............................................................@@++++................................................................................................................................................++++........................................................................................................",
"..............................................................@@+++++..............................................................................................................................................+++++........................................................................................................",
"..............................................................@@..++++............................................................................................................................................++++++........................................................................................................",
"..............................................................@@@.++++............................................................................................................................................++++++........................................................................................................",
"..............................................................@@@@++++............................................................................................................................................++@@++........................................................................................................",
"...............................................................@@@@+++............................................................................................................................................++@@++........................................................................................................",
"................................................................@@@@++............................................................................................................................................++@@++........................................................................................................",
"................................................................@@@@++...........................................................................................................................................+++@@++........................................................................................................",
"................................................................@@@@++..........................................................................................................................................++++@@++........................................................................................................",
"................................................................@@@@+++.........................................................................................................................................++++@@++........................................................................................................",
"................................................................@@..++++........................................................................................................................................++++@@..++......................................................................................................",
"................................................................@@@.++++.........................................................................................................................................+++@@@.++......................................................................................................",
"................................................................@@@@@@++..........................................................................................................................................++@@@@++......................................................................................................",
".................................................................@@@@@++..........................................................................................................................................+++@@@+++.....................................................................................................",
"....................................................................@@++..........................................................................................................................................++++@@++++....................................................................................................",
"....................................................................@@@+...........................................................................................................................................+++@@++++....................................................................................................",
"....................................................................@@@@............................................................................................................................................++@@..++....................................................................................................",
"....................................................................@@@@.............................................................................................................................................+@@........................................................................................................",
"....................................................................@@..@@..............................................................................................................................................@@......................................................................................................",
"....................................................................@@@@@@..............................................................................................................................................@@......................................................................................................",
"..................................................................++++@@@@............................................................................................................................................++@@......................................................................................................",
"..................................................................++++@@@@............................................................................................................................................++@@@.....................................................................................................",
"..................................................................++++@@++............................................................................................................................................++@@@@....................................................................................................",
"..................................................................+++@@@++.............................................................................................................................................++@@@....................................................................................................",
"..................................................................++@@@@++..............................................................................................................................................++@@....................................................................................................",
"..................................................................++@@@@++..............................................................................................................................................+@@@....................................................................................................",
"..................................................................++@@@@++..............................................................................................................................................@@@@....................................................................................................",
"..................................................................++@@@@+..............................................................................................................................................@@@@.....................................................................................................",
"..................................................................++@@@@..............................................................................................................................................@@@@......................................................................................................",
"..................................................................++@@@@.............................................................................................................................................@@@@@.................................................................####.................................",
"................................................................$$$$%%%%%%..........................................................................................................................................@@@@++..@@..........................................................&&&&######..............................",
"...............................................................$$$$$%%%%%%.........................................................................................................................................@@@@@++.............................................................&&&&&&########...........................",
"..............................................................$$$$$$%%%%$$$$......................................................................................................................................@@@@@@++............................................................&&&&&&&&##########........................",
".............................................................$$$$$$$$%%$$$$$$.....................................................................................................................................@@@@@@@+...........................................................&&&&&&&&&&###########......................",
"............................................................$$$$$$$$$$$$$$$$$$$...................................................................................................................................@@@@..@@..........................................................&&&&&&&&&&&&&###########....................",
"...........................................................$$$$$$$$$$$$$$$$$$$$$..................................................................................................................................@@@@..@@.........................................................&&&&&&&&&&&&&&&&##########...................",
"...............&&&&&##....................................$$$$$$$$$$$$$$$$$$$$##..................................................................................................................................@@@@++++........................................................&&&&&&&&&&&&&&&&&&##########..................",
".............&&&&&&####..................................$$$$$$$$$$$$$$$$$$$$$###.................................................................................................................................@@@@++++.......................................................&&&&&&&&&&&&&&&&&&&&###########................",
".........&&&&&&&&&&#######..............................$$$$$$&&&&&&&&$$$$%%%%####...................................................&&&&&&&&&###...............................................................%%%%%%%%$$......................................................&&&&&&&&&&&&&&&&&&&&&&&###########..............",
".......&&&&&&&&&&&&########............................$$$$$$&&&&&&&&&&$$$%%%%####.................................................&&&&&&&&&&&#####.............................................................%%%%%%%%%$$....................................................&&&&&&&&&&&&&&&&&&&&&&&&&###########.............",
"......&&&&&&&&&&&&&&########.........................&&&&&&&&&&&&&&&&&&&$$%%%%####................................................&&&&&&&&&&&&########........................................................$$$$%%%%%%%%$$..................................................&&&&&&&&&&&&&&&&&&&&&&&&&&&###########............",
"......&&&&&&&&&&&&&&#########......................&&&&&&&&&&&&&&&&&&&&&$$%%%%#####..............................................&&&&&&&&&&&&&&########.......................................................$$$$$%%%%%%$$$$................................................&&&&&&&&&&&&&&&&&&&&&&&&&&&&&###########...........",
"......&&&&&&&&&&&&&&#############...............&&&&&&&&&&&&&&&&&&&&&&&&$$%%%%######............................................&&&&&&&&&&&&&&&##########.....................................................$$$$$$$$$$$$$$$$..............................................&&&&&&&&&&&&&&&&&&&&&&&&&&&&&&&&##########..........",
".....&&&&&&&&&&&&&&&&##############............&&&&&&&&&&&&&&&&&&&&&&&&&&$%%%#######...........................................&&&&&&&&&&&&&&&&&###########..................................................$$$$$$$$$$$$$$$$$.............................................&&&&&&&&&&&&&&&&&&&&&&&&&&&&&&&&&&##########.........",
".....&&&&&&&&&&&&&&&&&##############..........&&&&&&&&&&&&&&&&&&&&&&&&&&&&&&########..........................................&&&&&&&&&&&&&&&&&&############................................................$$$$&&&&$$$$##$$$$............................................&&&&&&&&&&&&&&&&&&&&&&&&&&&&&&&&&&&&##########........",
"....&&&&&&&&&&&&&&&&&&&#############.........&&&&&&&&&&&&&&&&&&&&&&&&&&&&&&&#########........................................&&&&&&&&&&&&&&&&&&&#############..............................................$$$$$&&&&$$$$###$$$$..........................................&&&&&&&&&&&&&&&&&&&&&&&&&&&&&&&&&&&&&&##########.......",
"....&&&&&&&&&&&&&&&&&&&&############.....&&&&&&&&&&&&&&&&&&&&&&&&&&&&&&&&&&&##########.......................................&&&&&&&&&&&&&&&&&&&##############..............................&&&&####......$$$$$$&&&&$$$$&&##$$$$.......................................&&&&&&&&&&&&&&&&&&&&&&&&&&&&&&&&&&&&&&&&&############....",
"...&&&&&&&&&&&&&&&&&&&&&&############..&&&&&&&&&&&&&&&&&&&&&&&&&&&&&&&&&&&&&&##########.....................................&&&&&&&&&&&&&&&&&&&&&##############............................&&&&&&####....&$$$$$&&&&&$$$$&&###$$$......................................&&&&&&&&&&&&&&&&&&&&&&&&&&&&&&&&&&&&&&&&&&&############...",
"...&&&&&&&&&&&&&&&&&&&&&&&############&&&&&&&&&&&&&&&&&&&&&&&&&&&&&&&&&&&&&&&&##########....................................&&&&&&&&&&&&&&&&&&&&&&##############..........................&&&&&&&&######&&$$$$&&&&&&$$$$&&########...................................&&&&&&&&&&&&&&&&&&&&&&&&&&&##&&&&&&&&&&&&&&&&##############",
"..&&&&&&&&&&&&&&&&&&&&&&&&&###########&&&&&&&&&&&&&&&&&&&&&&&&&&&&&&&&&&&&&&&&###########..................................&&&&&&&&&&&&&&&&&&&&&&&###############........................&&&&&&&&&&######&&$$&&&&&&&$$$$&&#########.................................&&&&&&&&&&&&&&&&&&&&&&&&&&&####&&&&&&&&&&&&&&&&#############",
"..&&&&&&&&&&&&&&&&&&&&&&&&&&##########&&&&&&&&&&&&&&&&&&&&&&&&&&&&&&&&&&&&&&&&############.................................&&&&&&&&&&&&&&&&&&&&&&&################......................&&&&&&&&&&&&######&&&&&&&&&&$$$$&&############.............................&&&&&&&&&&&&&&&&&&&&&&&&&&&######&&&&&&&&&&&&&&&&############",
".&&&&&&&&&&&&&&&&&&&&&&&&&&&&########&&&&&&&&&&&&&&&&&&&&&&&&&&&&&&&&&&&&&&&&&&############...............................&&&&&&&&&&&&&&&&&&&&&&&&&################....................&&&&&&&&&&&&&&#####&&&&&&&&&&&$$$&&&############...........................&&&&&&&&&&&&&&&&&&&&&&&&&&&#######&&&&&&&&&&&&&&&&&###########",
"&&&&&&&&&&&&&&&&&&&&&&&&&&&&&&&&&&##&&&&&&&&&&&&&&&&&&&&&&&&&&&&&&&&&&&&&&&&&&&&############..............................&&&&&&&&&&&&&&&&&&&&&&&&&##################.................&&&&&&&&&&&&&&&&####&&&&&&&&&&&&$$&&&&############.........................&&&&&&&&&&&&&&&&&&&&&&&&&&&#########&&&&&&&&&&&&&&&&&##########",
"&&&&&&&&&&&&&&&&&&&&&&&&&&&&&&&&&&&&&&&&&&&&&&&&&&&&&&&&&&&&&&&&&&&&&&&&&&&&&&&&#############............................#&&&&&&&&&&&&&&&&&&&&&&&&&&###################..............&&&&&&&&&&&&&&&&&&###&&&&&&&&&&&&&&&&&&&###########........................&&&&&&&&&&&&&&&&&&&&&&&&&&&&#########&&&&&&&&&&&&&&&&&&#########",
"&&&&&&&&&&&&&&&&&&&&&&&&&&&&&&&&&&&&&&&&&&&&&&&&&&&&&&&&&&&&&&&&&&&&&&&&&&&&&&&&##############..........................##&&&&&&&&&&&&&&&&&&&&&&&&&&#####################..........&&&&&&&&&&&&&&&&&&&&&##&&&&&&&&&&&&&&&&&&&&##########.......................&&&&&&&&&&&&&&&&&&&&&&&&&&&&&########&&&&&&&&&&&&&&&&&&&&########",
"&&&&&&&&&&&&&&&&&&&&&&&&&&&&&&&&&&&&&&&&&&&&&&&&&&&&&&&&&&&&&&&&&&&&&&&&&&&&&&&&&##############........................###&&&&&&&&&&&&&&&&&&&&&&&&&&&######################.....##&&&&&&&&&&&&&&&&&&&&&&&&&&&&&&&&&&&&&&&&&&&&&##########.....................&&&&&&&&&&&&&&&&&&&&&&&&&&&&&&&#######&&&&&&&&&&&&&&&&&&&&&#######",
"&&&&&&&&&&&&&&&&&&&&&&&&&&&&&&&&&&&&&&&&&&&&&&&&&&&&&&&&&&&&&&&&&&&&&&&&&&&&&&&&&&##################..........&&&&&&&&####&&&&&&&&&&&&&&&&&&&&&&&&&&&&############################&&&&&&&&&&&&&&&&&&&&&&&&&&&&&&&&&&&&&&&&&&&&&&&&#######...................&&&&&&&&&&&&&&&&&&&&&&&&&&&&&&&&&&######&&&&&&&&&&&&&&&&&&&&&&######",
"&&&&&&&&&&&&&&&&&&&&&&&&&&&&&&&&&&&&&&&&&&&&&&&&&&&&&&&&&&&&&&&&&&&&&&&&&&&&&&&&&&&###################.....&&&&&&&&&&&#####&&&&&&&&&&&&&&&&&&&&&&&&&&&&##########################&&&&&&&&&&&&&&&&&&&&&&&&&&&&&&&&&&&&&&&&&&&&&&&&&&#######.................&&&&&&&&&&&&&&&&&&&&&&&&&&&&&&&&&&&&####&&&&&&&&&&&&&&&&&&&&&&&&#####",
"&&&&&&&&&&&&&&&&&&&&&&&&&&&&&&&&&&&&&&&&&&&&&&&&&&&&&&&&&&&&&&&&&&&&&&&&&&&&&&&&&&&&##################&&&&&&&&&&&&&&&&######&&&&&&&&&&&&&&&&&&&&&&&&&&&&&#####################&&&&&&&&&&&&&&&&&&&&&&&&&&&&&&&&&&&&&&&&&&&&&&&&&&&&&&######................&&&&&&&&&&&&&&&&&&&&&&&&&&&&&&&&&&&&&&##&&&&&&&&&&&&&&&&&&&&&&&&&&&&##",
"&&&&&&&&&&&&&&&&&&&&&&&&&&&&&&&&&&&&&&&&&&&&&&&&&&&&&&&&&&&&&&&&&&&&&&&&&&&&&&&&&&&&&#################&&&&&&&&&&&&&&&&&####&&&&&&&&&&&&&&&&&&&&&&&&&&&&&&&###################&&&&&&&&&&&&&&&&&&&&&&&&&&&&&&&&&&&&&&&&&&&&&&&&&&&&&&&#######..............&&&&&&&&&&&&&&&&&&&&&&&&&&&&&&&&&&&&&&&&&&&&&&&&&&&&&&&&&&&&&&&&&&&&&&#",
"&&&&&&&&&&&&&&&&&&&&&&&&&&&&&&&&&&&&&&&&&&&&&&&&&&&&&&&&&&&&&&&&&&&&&&&&&&&&&&&&&&&&&&&###############&&&&&&&&&&&&&&&&&###&&&&&&&&&&&&&&&&&&&&&&&&&&&&&&&&&&################&&&&&&&&&&&&&&&&&&&&&&&&&&&&&&&&&&&&&&&&&&&&&&&&&&&&&&&&########...........&&&&&&&&&&&&&&&&&&&&&&&&&&&&&&&&&&&&&&&&&&&&&&&&&&&&&&&&&&&&&&&&&&&&&&&&&",
"&&&&&&&&&&&&&&&&&&&&&&&&&&&&&&&&&&&&&&&&&&&&&&&&&&&&&&&&&&&&&&&&&&&&&&&&&&&&&&&&&&&&&&&&##############&&&&&&&&&&&&&&&&&&###&&&&&&&&&&&&&&&&&&&&&&&&&&&&&&&&&&##############&&&&&&&&&&&&&&&&&&&&&&&&&&&&&&&&&&&&&&&&&&&&&&&&&&&&&&&&&&########.........&&&&&&&&&&&&&&&&&&&&&&&&&&&&&&&&&&&&&&&&&&&&&&&&&&&&&&&&&&&&&&&&&&&&&&&&&&",
"&&&&&&&&&&&&&&&&&&&&&&&&&&&&&&&&&&&&&&&&&&&&&&&&&&&&&&&&&&&&&&&&&&&&&&&&&&&&&&&&&&&&&&&&###############&&&&&&&&&&&&&&&&&####&&&&&&&&&&&&&&&&&&&&&&&&&&&&&&&&&&&&##########&&&&&&&&&&&&&&&&&&&&&&########&&&&&&&&&&&&&&&&&&&&&&&&&&&&&&########......&&&&&&&&&&&&&&&&&&&&&&&&&&&&&&&&&&&&&&&&&&&&&&&&&&&&&&&&&&&&&&&&&&&&&&&&&&&&",
"&&&&&&&&&&&&&&&&&&&&&&&&&&&&&&&&&&&&&&&&&&&&&&&&&&&&&&&&&&&&&&&&&&&&&&&&&&&&&&&&&&&&&&&&&##############&&&&&&&&&&&&&&&&&###&&&&&&&&&&&&&&&&&&&&&&&&&&&&&&&&&&&&&&########&&&&&&&&&&&&&&&&&&&&&&&&########&&&&&&&&&&&&&&&&&&&&&&&&&&&&&&########....&&&&&&&&&&&&&&&&&&&&&&&&&&&&&&&&&&&&&&&&&&&&&&&&&&&&&&&&&&&&&&&&&&&&&&&&&&&&&",
"&&&&&&&&&&&&&&&&&&&&&&&&&&&&&&&&&&&&&&&&&&&&&&&&&&&&&&&&&&&&&&&&&&&&&&&&&&&&&&&&&&&&&&&&&&#############&&&&&&&&&&&&&&&&&##&&&&&&&&&&&&&&&&&&&&&&&&&&&&&&&&&&&&&&&&&&&&##&&&&&&&&&&&&&&&&&&&&&&&&&&########&&&&&&&&&&&&&&&&&&&&&&&&&&&&&&########..&&&&&&&&&&&&&&&&&&&&&&&&&&&&&&&&&&&&&&&&&&&&&&&&&&&&&&&&&&&&&&&&&&&&&&&&&&&&&&",
"&&&&&&&&&&&&&&&&&&&&&&&&&&&&&&&&&&&&&&&&&&&&&&&&&&&&&&&&&&&&&&&&&&&&&&&&&&&&&&&&&&&&&&&&&&&############&&&&&&&&&&&&&&&&&&&&&&&&&&&&&&&&&&&&&&&&&&&&&&&&&&&&&&&&&&&&&&&&&&&&&&&&&&&&&&&&&&&&&&&&&&&#########&&&&&&&&&&&&&&&&&&&&&&&&&&&&&&########&&&&&&&&&&&&&&&&&&&&&&&&&&&&&&&&&&&&&&&&&&&&&&&&&&&&&&&&&&&&&&&&&&&&&&&&&&&&&&&",
"&&&&&&&&&&&&&&&&&&&&&&&&&&&&&&&&&&&&&&&&&&&&&&&&&&&&&&&&&&&&&&&&&&&&&&&&&&&&&&&&&&&&&&&&&&&&############&&&&&&&&&&&&&&&&&&&&&&&&&&&&&&&&&&&&&&&&&&&&&&&&&&&&&&&&&&&&&&&&&&&&&&&&&&&&&&&&&&&&&&&&&&###########&&&&&&&&&&&&&&&&&&&&&&&&&&&&&##########&&&&&&&&&&&&&&&&&&&&&&&&&&&&&&&&&&&&&&&&&&&&&&&&&&&&&&&&&&&&&&&&&&&&&&&&&&&&",
"&&&&&&&&&&&&&&&&&&&&&&&&&&&&&&&&&&&&&&&&&&&&&&&&&&&&&&&&&&&&&&&&&&&&&&&&&&&&&&&&&&&&&&&&&&&&&###########&&&&&&&&&&&&&&&&&&&&&&&&&&&&&&&&&&&&&&&&&&&&&&&&&&&&&&&&&&&&&&&&&&&&&&&&&&&&&&&&&&&&&&&&&&&###########&&&&&&&&&&&&&&&&&&&&&&&&&&&&&###########&&&&&&&&&&&&&&&&&&&&&&&&&&&&&&&&&&&&&&&&&&&&&&&&&&&&&&&&&&&&&&&&&&&&&&&&&&",
"&&&&&&&&&&&&&&&&&&&&&&&&&&&&&&&&&&&&&&&&&&&&&&&&&&&&&&&&&&&&&&&&&&&&&&&&&&&&&&&&&&&&&&&&&&&&&&&&&#######&&&&&&&&&&&&&&&&&&&&&&&&&&&&&&&&&&&&&&&&&&&&&&&&&&&&&&&&&&&&&&&&&&&&&&&&&&&&&&&&&&&&&&&&&&&&############&&&&&&&&&&&&&&&&&&&&&&&&&&&&############&&&&&&&&&&&&&&&&&&&&&&&&&&&&&&&&&&&&&&&&&&&&&&&&&&&&&&&&&&&&&&&&&&&&&&&&",
"&&&&&&&&&&&&&&&&&&&&&&&&&&&&&&&&&&&&&&&&&&&&&&&&&&&&&&&&&&&&&&&&&&&&&&&&&&&&&&&&&&&&&&&&&&&&&&&&&&&####&&&&&&&&&&&&&&&&&&&&&&&&&&&&&&&&&&&&&&&&&&&&&&&&&&&&&&&&&&&&&&&&&&&&&&&&&&&&&&&&&&&&&&&&&&&&&&############&&&&&&&&&&&&&&&&&&&&&&&&&&&&###########&&&&&&&&&&&&&&&&&&&&&&&&&&&&&&&&&&&&&&&&&&&&&&&&&&&&&&&&&&&&&&&&&&&&&&&&",
"&&&&&&&&&&&&&&&&&&&&&&&&&&&&&&&&&&&&&&&&&&&&&&&&&&&&&&&&&&&&&&&&&&&&&&&&&&&&&&&&&&&&&&&&&&&&&&&&&&&&&&&&&&&&&&&&&&&&&&&&&&&&&&&&&&&&&&&&&&&&&&&&&&&&&&&&&&&&&&&&&&&&&&&&&&&&&&&&&&&&&&&&&&&&&&&&&&&&&&############&&&&&&&&&&&&&&&&&&&&&&&&&&&&&&########&&&&&&&&&&&&&&&&&&&&&&&&&&&&&&&&&&&&&&&&&&&&&&&&&&&&&&&&&&&&&&&&&&&&&&&&",
"&&&&&&&&&&&&&&&&&&&&&&&&&&&&&&&&&&&&&&&&&&&&&&&&&&&&&&&&&&&&&&&&&&&&&&&&&&&&&&&&&&&&&&&&&&&&&&&&&&&&&&&&&&&&&&&&&&&&&&&&&&&&&&&&&&&&&&&&&&&&&&&&&&&&&&&&&&&&&&&&&&&&&&&&&&&&&&&&&&&&&&&&&&&&&&&&&&&&&##############&&&&&&&&&&&&&&&&&&&&&&&&&&&&&&########&&&&&&&&&&&&&&&&&&&&&&&&&&&&&&&&&&&&&&&&&&&&&&&&&&&&&&&&&&&&&&&&&&&&&&&",
"&&&&&&&&&&&&&&&&&&&&&&&&&&&&&&&&&&&&&&&&&&&&&&&&&&&&&&&&&&&&&&&&&&&&&&&&&&&&&&&&&&&&&&&&&&&&&&&&&&&&&&&&&&&&&&&&&&&&&&&&&&&&&&&&&&&&&&&&&&&&&&&&&&&&&&&&&&&&&&&&&&&&&&&&&&&&&&&&&&&&&&&&&&&&&&&&&&&&################&&&&&&&&&&&&&&&&&&&&&&&&&&&&&&########&&&&&&&&&&&&&&&&&&&&&&&&&&&&&&&&&&&&&&&&&&&&&&&&&&&&&&&&&&&&&&&&&&&&&&",
"&&&&&&&&&&&&&&&&&&&&&&&&&&&&&&&&&&&&&&&&&&&&&&&&&&&&&&&&&&&&&&&&&&&&&&&&&&&&&&&&&&&&&&&&&&&&&&&&&&&&&&&&&&&&&&&&&&&&&&&&&&&&&&&&&&&&&&&&&&&&&&&&&&&&&&&&&&&&&&&&&&&&&&&&&&&&&&&&&&&&&&&&&&&&&&&&&&&&&################&&&&&&&&&&&&&&&&&&&&&&&&&&&&&#######&&&&&&&&&&&&&&&&&&&&&&&&&&&&&&&&&&&&&&&&&&&&&&&&&&&&&&&&&&&&&&&&&&&&&&&",
"&&&&&&&&&&&&&&&&&&&&&&&&&&&&&&&&&&&&&&&&&&&&&&&&&&&&&&&&&&&&&&&&&&&&&&&&&&&&&&&&&&&&&&&&&&&&&&&&&&&&&&&&&&&&&&&&&&&&&&&&&&&&&&&&&&&&&&&&&&&&&&&&&&&&&&&&&&&&&&&&&&&&&&&&&&&&&&&&&&&&&&&&&&&&&&&&&&&&&&&#################&&&&&&&&&&&&&&&&&&&&&&&&&&####&&&&&&&&&&&&&&&&&&&&&&&&&&&&&&&&&&&&&&&&&&&&&&&&&&&&&&&&&&&&&&&&&&&&&&&&&&",
"&&&&&&&&&&&&&&&&&&&&&&&&&&&&&&&&&&&&&&&&&&&&&&&&&&&&&&&&&&&&&&&&&&&&&&&&&&&&&&&&&&&&&&&&&&&&&&&&&&&&&&&&&&&&&&&&&&&&&&&&&&&&&&&&&&&&&&&&&&&&&&&&&&&&&&&&&&&&&&&&&&&&&&&&&&&&&&&&&&&&&&&&&&&&&&&&&&&&&&&&&###############&&&&&&&&&&&&&&&&&&&&&&&&&&&###&&&&&&&&&&&&&&&&&&&&&&&&&&&&&&&&&&&&&&&&&&&&&&&&&&&&&&&&&&&&&&&&&&&&&&&&&&",
"&&&&&&&&&&&&&&&&&&&&&&&&&&&&&&&&&&&&&&&&&&&&&&&&&&&&&&&&&&&&&&&&&&&&&&&&&&&&&&&&&&&&&&&&&&&&&&&&&&&&&&&&&&&&&&&&&&&&&&&&&&&&&&&&&&&&&&&&&&&&&&&&&&&&&&&&&&&&&&&&&&&&&&&&&&&&&&&&&&&&&&&&&&&&&&&&&&&&&&&&&&&###############&&&&&&&&&&&&&&&&&&&&&&&&&&##&&&&&&&&&&&&&&&&&&&&&&&&&&&&&&&&&&&&&&&&&&&&&&&&&&&&&&&&&&&&&&&&&&&&&&&&&&",
"&&&&&&&&&&&&&&&&&&&&&&&&&&&&&&&&&&&&&&&&&&&&&&&&&&&&&&&&&&&&&&&&&&&&&&&&&&&&&&&&&&&&&&&&&&&&&&&&&&&&&&&&&&&&&&&&&&&&&&&&&&&&&&&&&&&&&&&&&&&&&&&&&&&&&&&&&&&&&&&&&&&&&&&&&&&&&&&&&&&&&&&&&&&&&&&&&&&&&&&&&&&&&############&&&&&&&&&&&&&&&&&&&&&&&&&&&&&&&&&&&&&&&&&&&&&&&&&&&&&&&&&&&&&&&&&&&&&&&&&&&&&&&&&&&&&&&&&&&&&&&&&&&&&&&",
"&&&&&&&&&&&&&&&&&&&&&&&&&&&&&&&&&&&&&&&&&&&&&&&&&&&&&&&&&&&&&&&&&&&&&&&&&&&&&&&&&&&&&&&&&&&&&&&&&&&&&&&&&&&&&&&&&&&&&&&&&&&&&&&&&&&&&&&&&&&&&&&&&&&&&&&&&&&&&&&&&&&&&&&&&&&&&&&&&&&&&&&&&&&&&&&&&&&&&&&&&&&&&&&#####&&&&####&&&&&&&&&&&&&&&&&&&&&&&&&&&&&&&&&&&&&&&&&&&&&&&&&&&&&&&&&&&&&&&&&&&&&&&&&&&&&&&&&&&&&&&&&&&&&&&&&&&&",
"&&&&&&&&&&&&&&&&&&&&&&&&&&&&&&&&&&&&&&&&&&&&&&&&&&&&&&&&&&&&&&&&&&&&&&&&&&&&&&&&&&&&&&&&&&&&&&&&&&&&&&&&&&&&&&&&&&&&&&&&&&&&&&&&&&&&&&&&&&&&&&&&&&&&&&&&&&&&&&&&&&&&&&&&&&&&&&&&&&&&&&&&&&&&&&&&&&&&&&&&&&&&&&&&&##&&&&&&##&&&&&&&&&&&&&&&&&&&&&&&&&&&&&&&&&&&&&&&&&&&&&&&&&&&&&&&&&&&&&&&&&&&&&&&&&&&&&&&&&&&&&&&&&&&&&&&&&&&&&",
"&&&&&&&&&&&&&&&&&&&&&&&&&&&&&&&&&&&&&&&&&&&&&&&&&&&&&&&&&&&&&&&&&&&&&&&&&&&&&&&&&&&&&&&&&&&&&&&&&&&&&&&&&&&&&&&&&&&&&&&&&&&&&&&&&&&&&&&&&&&&&&&&&&&&&&&&&&&&&&&&&&&&&&&&&&&&&&&&&&&&&&&&&&&&&&&&&&&&&&&&&&&&&&&&&&&&&&&&&&&&&&&&&&&&&&&&&&&&&&&&&&&&&&&&&&&&&&&&&&&&&&&&&&&&&&&&&&&&&&&&&&&&&&&&&&&&&&&&&&&&&&&&&&&&&&&&&&&&&&&&",
"&&&&&&&&&&&&&&&&&&&&&&&&&&&&&&&&&&&&&&&&&&&&&&&&&&&&&&&&&&&&&&&&&&&&&&&&&&&&&&&&&&&&&&&&&&&&&&&&&&&&&&&&&&&&&&&&&&&&&&&&&&&&&&&&&&&&&&&&&&&&&&&&&&&&&&&&&&&&&&&&&&&&&&&&&&&&&&&&&&&&&&&&&&&&&&&&&&&&&&&&&&&&&&&&&&&&&&&&&&&&&&&&&&&&&&&&&&&&&&&&&&&&&&&&&&&&&&&&&&&&&&&&&&&&&&&&&&&&&&&&&&&&&&&&&&&&&&&&&&&&&&&&&&&&&&&&&&&&&&&&",
"&&&&&&&&&&&&&&&&&&&&&&&&&&&&&&&&&&&&&&&&&&&&&&&&&&&&&&&&&&&&&&&&&&&&&&&&&&&&&&&&&&&&&&&&&&&&&&&&&&&&&&&&&&&&&&&&&&&&&&&&&&&&&&&&&&&&&&&&&&&&&&&&&&&&&&&&&&&&&&&&&&&&&&&&&&&&&&&&&&&&&&&&&&&&&&&&&&&&&&&&&&&&&&&&&&&&&&&&&&&&&&&&&&&&&&&&&&&&&&&&&&&&&&&&&&&&&&&&&&&&&&&&&&&&&&&&&&&&&&&&&&&&&&&&&&&&&&&&&&&&&&&&&&&&&&&&&&&&&&&&",
"&&&&&&&&&&&&&&&&&&&&&&&&&&&&&&&&&&&&&&&&&&&&&&&&&&&&&&&&&&&&&&&&&&&&&&&&&&&&&&&&&&&&&&&&&&&&&&&&&&&&&&&&&&&&&&&&&&&&&&&&&&&&&&&&&&&&&&&&&&&&&&&&&&&&&&&&&&&&&&&&&&&&&&&&&&&&&&&&&&&&&&&&&&&&&&&&&&&&&&&&&&&&&&&&&&&&&&&&&&&&&&&&&&&&&&&&&&&&&&&&&&&&&&&&&&&&&&&&&&&&&&&&&&&&&&&&&&&&&&&&&&&&&&&&&&&&&&&&&&&&&&&&&&&&&&&&&&&&&&&&",
"&&&&&&&&&&&&&&&&&&&&&&&&&&&&&&&&&&&&&&&&&&&&&&&&&&&&&&&&&&&&&&&&&&&&&&&&&&&&&&&&&&&&&&&&&&&&&&&&&&&&&&&&&&&&&&&&&&&&&&&&&&&&&&&&&&&&&&&&&&&&&&&&&&&&&&&&&&&&&&&&&&&&&&&&&&&&&&&&&&&&&&&&&&&&&&&&&&&&&&&&&&&&&&&&&&&&&&&&&&&&&&&&&&&&&&&&&&&&&&&&&&&&&&&&&&&&&&&&&&&&&&&&&&&&&&&&&&&&&&&&&&&&&&&&&&&&&&&&&&&&&&&&&&&&&&&&&&&&&&&&",
"&&&&&&&&&&&&&&&&&&&&&&&&&&&&&&&&&&&&&&&&&&&&&&&&&&&&&&&&&&&&&&&&&&&&&&&&&&&&&&&&&&&&&&&&&&&&&&&&&&&&&&&&&&&&&&&&&&&&&&&&&&&&&&&&&&&&&&&&&&&&&&&&&&&&&&&&&&&&&&&&&&&&&&&&&&&&&&&&&&&&&&&&&&&&&&&&&&&&&&&&&&&&&&&&&&&&&&&&&&&&&&&&&&&&&&&&&&&&&&&&&&&&&&&&&&&&&&&&&&&&&&&&&&&&&&&&&&&&&&&&&&&&&&&&&&&&&&&&&&&&&&&&&&&&&&&&&&&&&&&&",
"&&&&&&&&&&&&&&&&&&&&&&&&&&&&&&&&&&&&&&&&&&&&&&&&&&&&&&&&&&&&&&&&&&&&&&&&&&&&&&&&&&&&&&&&&&&&&&&&&&&&&&&&&&&&&&&&&&&&&&&&&&&&&&&&&&&&&&&&&&&&&&&&&&&&&&&&&&&&&&&&&&&&&&&&&&&&&&&&&&&&&&&&&&&&&&&&&&&&&&&&&&&&&&&&&&&&&&&&&&&&&&&&&&&&&&&&&&&&&&&&&&&&&&&&&&&&&&&&&&&&&&&&&&&&&&&&&&&&&&&&&&&&&&&&&&&&&&&&&&&&&&&&&&&&&&&&&&&&&&&&",
"&&&&&&&&&&&&&&&&&&&&&&&&&&&&&&&&&&&&&&&&&&&&&&&&&&&&&&&&&&&&&&&&&&&&&&&&&&&&&&&&&&&&&&&&&&&&&&&&&&&&&&&&&&&&&&&&&&&&&&&&&&&&&&&&&&&&&&&&&&&&&&&&&&&&&&&&&&&&&&&&&&&&&&&&&&&&&&&&&&&&&&&&&&&&&&&&&&&&&&&&&&&&&&&&&&&&&&&&&&&&&&&&&&&&&&&&&&&&&&&&&&&&&&&&&&&&&&&&&&&&&&&&&&&&&&&&&&&&&&&&&&&&&&&&&&&&&&&&&&&&&&&&&&&&&&&&&&&&&&&&"};
