/* XPM */
static char * vfeuer3_xpm[] = {
"128 128 4 1",
" 	c None",
".	c #FFBF00",
"+	c #FFD968",
"@	c #FFFFFF",
"                                                                                                                                ",
"                                                                                                                                ",
"                                                                                                                                ",
"                                                                          ..                                                    ",
"                                                                                                                                ",
"                                                                         ....+   ..                                             ",
"                                                                        ....++.......                                           ",
"                                                                        .....+....++                                            ",
"                                                                       .........++++++                                          ",
"                                                                      ......+..+++.+++ .                                        ",
"                                                                        . ...+.++++++++                                         ",
"                                                                     .......+++++@..+++..                                       ",
"                                                                     ........++++@++++. ..                                      ",
"                                                                      .....++++.@@@..  . .                                      ",
"                                                                     ......+...+@+++. . ..                                      ",
"                                                                     . ... ...+.@@+...  .                                       ",
"                                                                        ......++@@+.....  .                                     ",
"                                                                        ..  ..++@@@.....                                        ",
"                                                                       ...  ..++@@++......                                      ",
"                                                                         . ..++++@+.........                                    ",
"                                                                       ...  ...@@++.+...... .                                   ",
"                                                                       . ..+.+++@@+  .  .. .                                    ",
"                                                                       ....+++++@+      . .                                     ",
"                                                                         +++++++@@+ ... ..                                      ",
"                                                                        +.++..+++@ . .. .                                       ",
"                                                                      .. ++..++++@+......                                       ",
"                                                                     . .++++++.+@@+++....                                       ",
"                                                                    ....++.++@+++@@.+....                                       ",
"                                                                   .. . ++++++@@@@+.....                                        ",
"                                                                    .. .+++++@@@@@@.  ..                                        ",
"                                                                     .   ++@++@@@@@.... .                                       ",
"                            .   . .                                ......+++@@@@@@@. ...                                        ",
"                          ... .. ..                               ........++@@@@@@++.....                                       ",
"                ..      .  ...... . ..  .                         ..... ..+++@@@@++.+....                                       ",
"                         ....      .  ....                     ..  .... .+++@@@@@@++.... ..                                     ",
"                ....     ....    . .... .    .  .    ...  .    ... ++..@++++@@@@@@+.+....                                       ",
"               . .. . . .... .  .    .. .. ... ...    . .. . . ..+++.++++++++@@@@@+.......                                      ",
"             . ........ ...........   . ............ ....... ..++..++@@@+++++@@@@@+......                                       ",
"             .  ..... . .... .    ...... .   ..... ........    ..++++@@@++++@+@@@.+......                                       ",
"             ....+....+. +...++. . .....     ...+..+........++++++.@@@@+@++++@@@@@@.+...                                        ",
"        .  ... ...+++ ++ ++++ ++......... ...+..+++.++.+..+++++++.. @@@++++++@+@@+@+....                                        ",
"        . .  .+.+.++++++..+++++++....+@..++.++++++++...+++++++....+  +@@++++++@@@@+++..                                         ",
"       ... +++++...++ . +..+++++..+++.+.@+..++++++++++++++++..++++.++@@@++++++@@@@@+++.. ..                                     ",
"       .  .+++.++++@@ @ @..+++.+++.+++++@+++++++++++@++++++.+.++++++++@@@++@++@@@@+++.....                                      ",
"     . ...  ..+@+@@@@.@.@@.@@.......++@@@@+++++++@+@+++++++....+++++++@@@@+@@@+@@@@+++.. .                                      ",
"       ..... ..@@@@@@@@@@@@@@.@....@+@@+@@@+@++++@@@.++@+@++..+++++++@@@@@@@@@@@@@@+ .   .                                      ",
"        ........@@@@@@@@@@@@@@.@@@@.+++@@@@@@+@@@@+..@+@@@@@.@@@@@@+++@+++@@@+@++@+ ..   ..                                     ",
"       . . ......@@@@+++@@+@@@@@@@@@@++@@@@@@@@@@@@@.@@@@@@@@@@@@@@@@+@@++++@@+@+@..  ..                                        ",
"        .........@@@++@+++@@+@@@@@@+@@@+@@@@@@@@@@@.@@@@@++++@@@@@+@@+@++@+@@@++@.@.                                            ",
"       . .. .....@@@.+++++++@@++@@@@@@@@@@@+@@@@@@@@@@@+++++@@+@@..@@++@+@@@@@+++.... .                                         ",
"      . . . ++........  +.++++@+..+++@@@@@@+@..@@@@@@+++++++++++@.@....@@@@@@@+@@.@.  . .                                       ",
"     ..      ...........  ++++++...+@@@@@@+++++...@..@..+..+.++.......++.+@@@@@@@@....  .                                       ",
"      .       + ...... .  ++ ++++.+..@@@@@@+++++@++++.@++....+.++...+++++@.@@@@@@@+++. ..                                       ",
"               ...........  ..++++.@+@@++@+++++@+++..+@+.........++...++.+.@@@@@@@+++....                                       ",
"                 ..........  ...+++@..@@+++...+++@.++++@...@.......+.+.++..++@+@@@@......                                       ",
"                 ........... ....++++@@++++....@@.+.+++@@@@.............+...+@@@@@+.. .. .                                      ",
"               ..........  ......+++++@++++.+.++@@@++++@@@@@@..........++++..@@@@@+.. ....                                      ",
"                 .... . ..... . ..+++++++++...@@+@+++@@@@@.@..........+++++@@@@@@@++.. .                                        ",
"                   .  . ...  .   ...+++++  ...+@@@+++++@@@@.@ .........++++.@@@@@@+.......                                      ",
"                         .....   ...++++++++..@@@++++@@@@  . .........++++..@@@@@@+..+....                                      ",
"                       .  . .. . . .+.+++++ ..@@@@@@@+@@  ...  .....   ..++..@@@@++++++....                                     ",
"                            ..... ...++.+++. .@@@@@@@@@+. ....... ... ..+..@@@@+@ @+++... .                                     ",
"                             . ... ..+..+.+    @@@@@@@@.  ...  ..... . ++++@@@@@@   ++....                                      ",
"                             .. . . .......+ @@@@@@.@+@++....     .  .  ++@@+@@++ @++.....  .                                   ",
"                               .    .. ....++@@@@@@@@@++..+.     ......  +@@@@@++ @  ++.... .                                   ",
"                                ... ......+.+@.@@...@@+++.+..  . . ....@ @@@@@+++@  +@+@.....  .                                ",
"                               ... .......+++@@@@@@..@@+++.. .    .. ....@@@@..+++  ..@.......                                  ",
"                                . .........+.@.@@@++.++++++......  .  ..@@@.@.++++  . @@@....... .                              ",
"                                 ........++++.@@@+@.@+@++........ .  .....@@+.++++ .  +.+@..@..... .                            ",
"                                   ......+.+..@@@@@@@+++++ ++...........@@..+++.+.....++@@@@@.......                            ",
"                                  .......+++.@@@@@@@@+++++ ++....... .......++++....  .+ @@@@@@.........                        ",
"                                    ..... ++..@@@@@@@@++@++ ++@@  ........@++++++..++++@++@@@.@.@....... .                      ",
"                                    ..... +  @@@@@@@@+@@+  @@@@ @.......@@..++++.+.++ +++@@@@@.......... ....      .            ",
"                                    ....... @@@@@.+++@@@@@ @@@@@@.+..+.+.++++++++++++++ .++@@@@@@@@..........   .  .   ++       ",
"                                    .......@@@@@@@+.++....@@@@++++++.+++.@++++++++++..+.+++++@@.@@@@@...... ...   .       .     ",
"                                     . .....@@+@@+.++++.@@@@@+++++++++++@+@+@+++++++.+.  +++@@@@@@@@@@.............+ +++...     ",
"                                     .. ...+++@@@@@++@...@.@@@@..++++++++@@@@@+@+@@++..+.@@@@@@@@@@..@.  ..... .....++ .        ",
"                                   ... ..+++++@@@@@@++@@@@.@@..@ .@..@+@@@@@@.@@@++++@@@++@++@@@@@@@@@   + ..++.++++++          ",
"                                    . ...++.++.++@+@@+@@@@@....@@@@@.+@+@@@@@@@.@@+@+@+@@@++@@@@@@@@@@+++ +....++.+++...        ",
"                                    . ...+.+...++@@@@@@@@@@@..@@@@@@@@@@@@@@@.++.@@@@@@@@@++++@@@@@@@@+++@+@..@++@@+++...       ",
"                                    .  ...++++++@@@@@@@@@@@.@@@@@@+@@@@@@@@@@++.+++@@@@@@+@@@@@@@@@@@@@@@+++@@@@@@+++++.. .     ",
"                                        ...++.+@+@@@@@.@@@@+@@@@@+++@.@.@@@@@ ++.@+@@@@@@@+@+@@@@++@@@++@@@@@@@@@@++++...       ",
"                                        ..+..+..@@@@@@@++@+++@++@++..@.@..@@@..+++++++++@+++++++++++@++@@@@@@@@+@@@+++. .       ",
"                                         ...++..+@@@@.++++ +++++++........... .++++++++++++++.+++++++++...@@...++++++++.        ",
"                                       ......++@@@@@@++++ +.++................ ++++++++++....+..+  +++..+.....@.++++++  .       ",
"                                       . ...++++@@@@@@@+ .+ .. .... .   .........+++++............+++..+.....++.+++++   .       ",
"                                       .......++@@@@@+@+ ..++. .....   ............+..++......... .....+..+.+..++++....  .      ",
"                                   .   .  ....++@@@@@+@++..+  .  ....    .....  ..... ... ......... ..+...++...++...   .  .     ",
"                                    ... ..  ..@++@+@@@@+..++.  ......   ...  .. . .. .  . ......  .......+.+.+.+..+ . . ..      ",
"                                    ....  . .@.@@@++.+++..+.............   ..            .......      ..  . .  ....             ",
"                                 .. .... ...+@@@@@..@@@@..+.......  .. ..   .         . . ....      .   .      ....             ",
"                                  .....    ..+@@+.+.@@@@...++..                      . ... .                     .              ",
"                                   .. .. .. @++@@@.@.@@@@+++.                      ..  ..   .                                   ",
"                                   .   ...  @@@++@+@+@@++++.. .                                                                 ",
"                                       ...   @+++@+++++@@++...                                                                  ",
"                                       ....@@++@++@++++@+... .                                                                  ",
"                                    ......+++@+@+@@..@@+@...                                                                    ",
"                                 . . ... ++@@@++@@@.++@@@++.                                                                    ",
"                                  .....  + +++@@@@.+++@@@+@                                                                     ",
"                                   .. ... ++++@@@+++.@.@@@@+                                                                    ",
"                                   ...  .  ++@@@@@+++..@@@+++                                                                   ",
"                                 ...  .. ..+++@@@+@++. .@@++ +                                                                  ",
"                                      ....+@@@@+@@++...@..++                                                                    ",
"                                   ..  . .+@+@+++@+  . ...++++                                                                  ",
"                                 .. .. ...++@+@++++   ..   ++++                                                                 ",
"                                  .. .....+@@@+.++++  ...  +. +                                                                 ",
"                                     ...+++@+..+.+++.  .. +++.+                                                                 ",
"                                    ...+.+++.@..++++....   . ...                                                                ",
"                                    ....++++...++++++ ..     . ..                                                               ",
"                                     ..+++++.....+++   ..     ..                                                                ",
"                                   ....+.++++...+++   ..                                                                        ",
"                                   .....  .+ +...++++ .                                                                         ",
"                                    .. ...  ++++++++  ...                                                                       ",
"                                  . ..   .. ++++++++.. ..                                                                       ",
"                                 .. .    ....++....+... .                                                                       ",
"                                  ..... .........+......                                                                        ",
"                                   ..... ..........+...                                                                         ",
"                                       .. ..  . . .....                                                                         ",
"                                       .    ....    .                                                                           ",
"                                               .  .                                                                             ",
"                                               .   ..                                                                           ",
"                                                    .                                                                           ",
"                                                                                                                                ",
"                                                                                                                                ",
"                                                                                                                                ",
"                                                                                                                                ",
"                                                                                                                                ",
"                                                                                                                                "};
