/* XPM */
static char * vfeuer1_xpm[] = {
"128 128 3 1",
" 	c None",
".	c #FFBF00",
"+	c #FFD968",
"                                                                                                                                ",
"                                                                                                                                ",
"                                                                                                                                ",
"                                                                                                                                ",
"                                                                                                                                ",
"                                                                                                                                ",
"                                                                                                                                ",
"                                                                                                                                ",
"                                                                                                                                ",
"                                                                                                                                ",
"                                                                                                                                ",
"                                                                                                                                ",
"                                                                                                                                ",
"                                                                                                                                ",
"                                                                                                                                ",
"                                                                                                                                ",
"                                                                                                                                ",
"                                                                                                                                ",
"                                                                                                                                ",
"                                                                        .                                                       ",
"                                                                        .                                                       ",
"                                                                       .   ..     .                                             ",
"                                                                         .....  ..                                              ",
"                                                                           ..   .+   .                                          ",
"                                                                           .... +.+                                             ",
"                                                                             ..+.+++. .                                         ",
"                                                                           . ...+++....                                         ",
"                                                                             .+++++++..                                         ",
"                                                                           . ..++.. +                                           ",
"                                                                            ..+++.. .                                           ",
"                                                                            .++++..                                             ",
"                                                                           . ++++++..                                           ",
"                                                                            ..++++...                                           ",
"                                                                            .+.++++..                                           ",
"                                                                             ..+++++..                                          ",
"                                                                           . . ..+++.                                           ",
"                                                                          . .  ..+++.                                           ",
"                                                                           ....  ..+...                                         ",
"                                                                         ....      +..                                          ",
"                                                   .  +.                 ....    . ....                                         ",
"                                                  . + +  .              .. .       .  .                                         ",
"                         .                        ...++...+... .   +   ....        ..                                           ",
"                        .              .          ..+.+++    . ..+++.  ...                                                      ",
"                    .  ....   ..   . ...           .  .+.+ . ...+.+..  . .                                                      ",
"                     .. .....  .     ..              ....... .+++.+++   ..                                                      ",
"                      .. .......+.....                .. .....++++++++..  .                                                     ",
"                       ........++...                   .....+++++++++...                                                        ",
"                     .   .+++..+++++++.                .....+++.+++++.+.                                                        ",
"                   .  ...+++++++++++ ++..              .....+.+.+++++... ..                                                     ",
"                    .......++.++++++++..+              ......+.++++.+......                                                     ",
"                    . ....+.+....+.+++.++.           ...........+.+......                                                       ",
"                   ...    .........++.+  ..            ..  ........ . ....        .                                             ",
"                    ... .  .......+.+++++              .    ..... ..             ...                                            ",
"                    ...        .. ...           .            .. .                 ....                                          ",
"                              .  ..             ..                           . . .... .                                         ",
"                                             .. .+                         ...  +....                                           ",
"                                           ....... .                        ...+..+.                                            ",
"                                           ........                          . ....                                             ",
"                                            .+.+.++..                         +++.. .                                           ",
"                                            ...++....                        ++++.+                                             ",
"                                            .++++.... .                      ++++++ .                                           ",
"                                            ..+.+++..                       ++++++.                                             ",
"                                           .  .+..+. .                      +.+++                                               ",
"                                              .++... .                       +++.+.                                             ",
"                                               .+++ .                        .++++                                              ",
"                                              .+.++ ...                     ..++..                                              ",
"                                              .+.+. .                        +.++..                                             ",
"                                            .....+...                       ...+.   .                                           ",
"                                              ..+.+.                         ..+....                                            ",
"                                              .. ....                        . .....                                            ",
"                                            .. .....                         . ....                                             ",
"                                          ..     .. ..                            .      . . .                                  ",
"                                            .    .  ..                                    ....                                  ",
"                                                    ...                                   ..... ....                            ",
"                                                      .                 .                 ....... ... .                         ",
"                                                      ..  .       ..  ....                ......+.+...                          ",
"                                                    .    . ..    ..   .                  .......+.+..                           ",
"                                                    ...+..+..  .....+...                  .+++++++.....  .                      ",
"                                                   ......+... .....+++..               . .++.+++++..+. . .                      ",
"                                                    ...++++.+....+.+++..  .            ..+++++++++++......                      ",
"                                                    ...+++++..+.+++++++...           ...++++++++++++.....                       ",
"                                                   .. .....++++++++.+.....         .....++++++++..+.+..+....                    ",
"                                                    .  . .+.+++++++.+.+..          ....+.++.+..+.+++++.+....                    ",
"                                         .  .             .++++++++... ...        .......+++..   ...++..++. .                   ",
"                                                ..        .  ...+..  .  .         .......++..................                   ",
"                                            . . ....       ..... . ..     .        . ... ...     ..  . ...                      ",
"                                          ...   ..            ..    .    .         .    .. ..    .   ..  ..                     ",
"                                            ........                                                                            ",
"                                            . . ...                                                                             ",
"                                            ...+....                                                                            ",
"                                           . ..++...                                                                            ",
"                                           ...++++. .                                                                           ",
"                                            ..++++.                                                                             ",
"                                            .+++.+..                                                                            ",
"                                            ..++..... .                                                                         ",
"                                           ...++.+...                                                                           ",
"                                          ....+.++....                                                                          ",
"                                          ...+++++......                                                                        ",
"                                          .++.+++........                                                                       ",
"                                           ..++++++..                                                                           ",
"                                          ....+++++.. .                                                                         ",
"                                         .  .+++++.....                                                                         ",
"                                           .....+..                                                                             ",
"                                             .. .....                                                                           ",
"                                             ..+...                                                                             ",
"                                           . .....                                                                              ",
"                                             ......                                                                             ",
"                                                ..                                                                              ",
"                                                                                                                                ",
"                                                                                                                                ",
"                                                                                                                                ",
"                                                                                                                                ",
"                                                                                                                                ",
"                                                                                                                                ",
"                                                                                                                                ",
"                                                                                                                                ",
"                                                                                                                                ",
"                                                                                                                                ",
"                                                                                                                                ",
"                                                                                                                                ",
"                                                                                                                                ",
"                                                                                                                                ",
"                                                                                                                                ",
"                                                                                                                                ",
"                                                                                                                                ",
"                                                                                                                                ",
"                                                                                                                                ",
"                                                                                                                                "};
