/* XPM */
static char*astein[]={
"32 32 6 1",
"b c #808080",
"a c #a0a0a0",
"# c #000000",
"d c #303030",
". c None",
"c c #585858",
"................................",
"................................",
"................................",
"................................",
"............#######.............",
"...........#aaaaaa#.............",
"........###aaaaaaa#####.........",
"........#aaaaaaaaabbbb#.........",
"........#aaaaaaabbbbbb###.......",
".......#aaaaaaabbbbbbbcc#.......",
"......#aaaaaaabbbbbbcccc#.......",
".....#aaaaaaabbbbbbbcccc#.......",
"....#aaaaabbbbbbbbbbcccc#.......",
"....#aaaabbbbbbbbbbbbccc#.......",
"....#aaabbbbbbbbbbbbbbcc#.......",
"...#aaaabbbbbbbbbbbbbcccd#......",
"..#aaaaabbbbbbbbbbbbccdddd#.....",
"..#aaaabbbbbbbbbbbbbccdddd#.....",
"..#aaabbbbbbbbccbbbbccdddd#.....",
"..#aaabbbbbbbccccbbcccdddd#.....",
"..#cccbbbbbbccddccccccdddd#.....",
"..#ccccbbbbcccdddccccddddd#.....",
"..#cccccccccccdddddddddd###.....",
"..#ccccccccccddddddddddd#.......",
"..###dddccccdddddddd#####.......",
".....#ddcccdddddddd#............",
"......###ddddddd###.............",
".........#ddddd#................",
"..........#####.................",
"................................",
"................................",
"................................"};
