/* XPM */
static char * ivTintenfisch_xpm[] = {
"128 128 4 1",
" 	c None",
".	c #000000",
"+	c #F25FF4",
"@	c #C910C9",
"                                                                                                                                ",
"                                                                                                                                ",
"            .....                                                                                                               ",
"          ..+++++.                                                                                                              ",
"         .++++++++.                                                          .......                                            ",
"        .++++++++@@.                                                       ..@@@@@@@..                                          ",
"        .++++@@@@@@.                                      .               .@@@@@@@@@@@.                                         ",
"       .@+@@..@@..@@.                                    ..              .@@@@@@@@@@@@@.                                        ",
"       .@@@@..@@..@@.                                   .@.              .@@@@.....@@@@.                                        ",
"       .@@@@@@@@@@@@.                                  .@.              .@@@@.     .@@@@.                      .                ",
"       .@@@@@@@@@@@@.                 .........       .@.               .@@@.       .@@@.                      .                ",
"       .@@@@@@@@@@@@.               ..+++++++++..   ..@@.               .@@@.       .@@@.                     ..                ",
"       .@@@@@@@@@@@@.              .++++++++++++@...@@@.    ...         .@@@.       .@@@.                     ..                ",
"       .@@@@@@@@@@@@.              .++++++@@@@@@@@@@@@.   ..@.          .@@@.      .@@@@.                     .@.               ",
"       .@@@@@@@@@@@@.             .+++@@@@@..@@@@@@@@@....@@.           .@@@.     .@@@@.                      .@.               ",
"       .@@@@@@@@@@@@.             .++@@..@@..@@@@@@@@@@@@@@.             .@@@.   .@@@@@.                     .@@.               ",
"       .@@@@@@@@.@@@.             .@@@@..@@@@@@@@@@@@@@@@@.              .@@@@. .@@@@@.                     .@@.                ",
"       .@@@@@@@@.@@@@.            .@@@@@@@@@@@@@@@@@@@@@..                .@@@@.@@@@@.                     .@@@......           ",
"      .@@@@@@@@@.@@@@.            .@@@@@@@@@@@@@@@@@....                   .@..@@@@@.                     .@@@.@@@@@@..         ",
"      .@@@@@.@@@.@@@@@.           .@@@@@@@@@@@@@@@@@@.                     ..@@@@@@.                     .@@@.@@@@@@@@@..       ",
"      .@@@@@.@@@.@@@@@.            .@@@@@@@@@@@@@@@@@@..              .....@@@@@@@...                  ..@@@.@@@@.....@@@.      ",
"     .@@@@@..@@@@.@@@@@.            ..@@@@@@@@@@@@@@@@@@...         ..@@@@@@@@@@@.@@@....           ...@@@@.@@@..     .@@.      ",
"    .@@@@@. .@@.@@.@@@@@.             .......@@@@@.@@@@@@@@.........@@@@@@@@@@@..@@@@@@@@...........@@@@@@.@@@.        .@@.     ",
"   .@@@@@.  .@@.@@@.@@@@@.                   .@@@@.@@@@@@@@@@@@@@@@@@@@@@@@@@.. ..@@@@@@@@@@@@@@@@@@@@@@..@@..         .@@.     ",
"...@@@@@.   .@@@.@@@..@@@@.                   .@@@.....@@@@@@@@@@@@@@@@@@@...     ...@@@@@@@@@@@@@@@@@@@@@@@@.          .@.     ",
" .@@@@..     .@@..@@@...@@@.                  .@@@.   ..@@@@@@@@@@@@@@....           ....@@@@@@@@@@@@@@@@@@@@@..        .@.     ",
"  ....       .@@. .@@.  .....                ..@@@.     ..............                   ..................@@@@@..       ..     ",
"              .@.  .@@.                      .@.@@@.                                                       ....@@@..     .      ",
"              .@.   .@.                     .@@@..@.                                                           .......   .      ",
"               ..    ..                    .@@@.  ..                                                                            ",
"                .     .                   .....                                                                                 ",
"                                                                                                                                ",
"                                                                                                                                ",
"                                                                                                                                ",
"                   ....                  .....                              .....                                               ",
"                 ..++++..              ..+++++..                           .+++++.                                              ",
"                .++++++++.            .+++++++++.                         .+++++++.                                    ....     ",
"               .+++++++@@@.          .++++++..++@.                       .++++++++@.                               ....@@@@...  ",
"              .++++@@@@@@@@.         .++++@@..@@@@.                      .++++@@@@@@.                            ..@@@@@@@@@....",
"             .+++@..@@@@@@@.        .+++..@@@@@@@@@.                    .+++..@@..@@.                          ..@@@@@@.....    ",
"            .+++@@..@@@@@@@@.       .+++..@@@@@@@@@..                   .@@@..@@..@@.                         .@@@@@...         ",
"            .++@@@@@@@..@@@@.       .+++@@@@@@@@@@@@.                   .@@@@@@@@@@@.                        .@@@@..            ",
"           .@@@@@@@@@@..@@@@.       .@@@@@@@@@@@@@@@.                   .@@@@@@@@@@@.                       .@@@..              ",
"  .        .@@@@@@@@@@@@@@@@.       .@@@@@@@@@@@@@@@.                   .@@@@@@@@@@@.                      .@@@.                ",
"  ..      .@@@@@@@@@@@@@@@@@.       .@@@@@@@@@@@@@@@@.                  .@@@@@@@@@@@.                     .@@@.                 ",
"  ..      .@@@@@@@@@@@@@@@@.         .@@@@@@@@@@@@@@@.                  .@@@@@@@@@@@.                    .@@@.                  ",
"  .@.    .@@@@@@@@@@@@@@@@@.          .@@@@@@@@@@@@@@.                  .@@@@@@@@@@@.                   .@@@.                   ",
"  .@@.   .@@@@@@@@@@@@@@@@.           .@@@@@@@@@@@@@@@.                 .@@@@@@@@@@@.                  .@@@.                    ",
"  .@@@...@@@@@@@@@@@@@@@@@.            .@@@@@@@@@@@@@@.                 .@@@@@@@@@@@.                  .@@.                     ",
"  .@@@@@.@@@@@@@@@@@@@@@@.             .@@@@@@@@@@@@@@@.               .@@@@@@@@@@@@@.                .@@@.                     ",
"  .@@@@.@@@@@@@@@@@@@@@@.             .@@@@@@@@@.@@@@@@@.             .@@@@@@@@@@@@@@@.               .@@.                      ",
"   .@@@.@@@@@@@@@@@@@@@.              .@@@@@@@@.@.@@@@@@@.           .@@@@@@@@@@@@@@@@@.             .@@@.                      ",
"    .@.@@@@@@@@@.@@@@@.              .@@@@.@@@.@@@.@@@@@@@.         .@.@@@@@@@@@@@@@@@@@..           .@@.                       ",
"     .@@@@@@@@@@.@@@@@.              .@@@@.@@@.@@@@.@@@@@@@..      .@@.@@@@@@@@@@@@@@@@@@@..        .@@@.                       ",
"     .@@@@.@@@@@.@@@@@.             .@@@@@.@@@.@@@@@.@@@@@@@@......@@.@@@@.@@@@@@@@@.@@@@@@@.........@@@.......                 ",
"    .@@@@@.@@@@@.@@@@@.             .@@@@@.@@. .@@@@.@@@@@@@@@@@@@@@@.@@@.@@@@@@@@@@.@@@@@@@@@@@@@@@.@@.@@@@@@@..               ",
"    .@@@@@.@@@.@@.@@@@.             .@@@@@.@.   .@@@@.@@@@@@@@@@@@@@@.@@.@@..@.@@@@@.@@@@@@@@@@@@@...@@.@@@@@@@@@..             ",
"    .@@@@@..@@.@@.@@@@.             .@@@@@.@.   .@@@@....@@@@@@@@@@@.@@@...@@. .@@@@@...@@@@@@@@@@@@.@@.@@@@@@@@@@@.            ",
"    .@@@.@..@@..@.@@@@.             .@@@@@.@.   .@@@@.   ............@@@.@@@.   .@@@@.  .........@@@.@@........@@@@@.           ",
"    .@@@.@. .@. ..@@@@.             .@@@@. ..    .@@@.              .@@.@@@.    .@@@@.           ..@.@@.       .@@@@@.          ",
"    .@@.@@. .@. .@.@@@..            .@@@@. ..    .@@@@.             .@@.@@.     .@@@@.             ..@@..       .@@@@.          ",
"    .@@.@.   ..  ..@@@.@....        .@@.@.  .    .@@@@.             .@@.@@.      .@@@@.             .@@..        .@@@@.         ",
"    .@@.@.    .   .@@@.@@..         .@@.@.        .@@@.             .@@.@@.      .@@@@.             .@@.@.        .@@@.         ",
"    .@@.@.        .@@@...           .@@.@.        .@@@.             .@@.@.        .@@@.             .@@.@.        .@@@.         ",
"    .@@.@.        .@@@.             .@@.@.        .@@@.             .@@.@.        .@@@.             .@@.@.        .@@@.         ",
"    .@@.@.        .@@@.             .@@.@.        .@@@.             .@@.@.        .@@@.             .@@@..        .@@@.         ",
"   .@@@.@.        .@@@.             .@@.@.        .@@@.             .@@.@.        .@@@.            .@.@@.......   .@@@.         ",
"   .@@@.@.        .@@@.             .@@@..        .@@@@.            .@@..          .@@@.           .@.@..@@@@@@...@@@@.         ",
"   .@@@.@.        .@@@.             .@@@.         .@@@@.           .@@@..          .@@@.          .@@..@@@@@@@@@.@@@@.          ",
"   .@@.@@.        .@@@.             .@@@.          .@@@.          ..@@@.            .@@@.         .@@.@@@@@@@@@.@@@@@.          ",
"   .@@.@@@.       .@@@.             .@@@@.         .@@@.          ..@@..            .@@@.         .@.@@@@@@....@@@@@.           ",
"  .@@@.@@@.      .@@@@.            .@.@@@.         .@@@.         .@.@@.              .@@.         .@.@@@@..@@..@@@@.@.          ",
"  .@@@.@@@.      .@@@.             .@.@@@.         .@@@.         .@.@@.               .@@.         .@@@@.@@@@@@..@.@@@.         ",
" .@@@. .@@@.     .@@@.            .@@.@@@@.        .@@@.        .@@.@@.                .@@.        .@@@@..@@@@@@@.@@@@@.        ",
" .@@@. .@@@.    .@@@.             .@@@.@@@.         .@@@.       .@@.@@.                 ..@.       .@@@@....@@@@@@.@@@@.        ",
" .@@.   .@@@.   .@@@.             .@@..@@@@.        .@@@.       .@.@@@.                   ...      .@@@@.@@@..@@@@@.@@@@...     ",
" .@@.   .@@@@.  .@@@.            .@@@. .@@@.        .@@@.       .@.@@@.                             .@@@.@@@...@@@@.@@@@.@@.    ",
" .@@.    .@@@@..@@@.             .@@.  .@@@@.       .@@@.       .@.@@@.                             .@@.@@@..@@.@@@@.@@@.@@@.   ",
" .@@.     .@@@@.@@@.             .@@.   .@@@@.      .@@@.       .@.@@@.                              .@.@@@.@@@@.@@@.@@@.@@@@.  ",
"  .@@.     .@@@@.@.              .@@.    .@@@@.     .@@@.       .@@.@.                                .@@@.@@@@@.@@@..@@.@@@@.  ",
"  .@@@.     .@@@@..              .@@.     .@@@@.   .@@@@.        .@.@.     .                          .@@@.@@@...@@@.@....@@@@. ",
"   ..@@..    .@@@@.              .@@.      .@@@@.  .@@@.         .@.@.    ..                         .@@@.@@@.  .@@@.@@@...@@@. ",
"     .....  .@.@@@@.             .@@.       .@@@@. .@@@.          ..@.   .@.                         .@@@.@@.   .@@@.@@@@..@@@. ",
"           .@@@.@@@.             .@@.        .@@@@..@@@.          .@@.  .@.                          .@@.@@.@.. .@@@.@@@@@.@@@. ",
"          .@@@@..@@@.            .@@.         .@@@@..@@.          .@@...@@.       ........           .@@.@@.@@@.......@@@@.@@.  ",
"         .@@@@. .@@@.            .@@.          .@@@@@...         ....@@@@.    ....@@@@@@@@....      .@@@.........@@@@@.@@@.@@.  ",
"         .@@@@.  .@@@.            .@@.          .@@@@@@@.........@@@@@@@.   ...@@@@@@@@@@@@@@@.......@@@.@@@@@@@@@@@@@.@@@.@.   ",
"        .@@@@.   .@@@.            .@@.           .@@@@@@@@@@@@@@@@@@@@@.   .@@@@@@@@@@@...@@@@@@@@@@.@@.@@@@@@@@@@@@@@.@@@..@.  ",
"       .@@@@.    .@@@.            .@@.            ...@@@@@@@@@@@@@@@@..   .@@@@@.......@@@@@@@@@@@@@.@@.@@@@@@@@@.....@@@@.@@.  ",
"      .@@@@.      .@@@.           .@@@.           .@@....@@@@@@@@@@...   .@@@@..     .@@@@@@@@@@@@@@.@@..........@@@.@@@@.@@@.  ",
"      .@@@.       .@@@.            .@@.           .@@@.  ..........@@.  .@@@..      .@@@@@...........@@.@@.     .@@@@....@@@@.  ",
"     .@@@@.       .@@@.            .@@@.          .@@@.           .@@@..@@@.       .@@@@..          .@@.@@.      .@@@@@@@@@@.   ",
"     .@@@.        .@@@.         ....@@@.          .@@@.            .@@..@@.        .@@@.            .@@.@.       .@@@@@@@@@@.   ",
"    .@@@@.        .@@@.          ..@..@@.         .@@@.            .@@@.@.        .@@@@.            .@@.@.        ..@@@@@@..    ",
"    .@@@@.        .@@@.            .@@.@.         .@@@.            .@@@.@.        .@@@.             .@@.@.        .@......      ",
"    .@@@@.        .@@@.             .@@.@.        .@@@.             .@@.@.        .@@@.             .@@.@.        .@@@.         ",
"    .@@@@.        .@@@.             .@@.@.        .@@@.             .@@.@.        .@@@.             .@@.@.        .@@@.         ",
"    .@@@@.        .@@@.              .@@.@.        .@@@.            .@@.@.        .@@@.             .@@.@.        .@@@.         ",
"     .@@@.        .@@@.              .@@.@@..      .@@@.            .@@.@@.       .@@@.             .@@.@@.       .@@@.         ",
"     .@@@@.       .@@.               .@@@.@@@..     .@@@.           .@@.@@@.      .@@@.            .@@.@@@.      .@@@@.         ",
"      .@@@.      .@@@.                .@@.@@@@@.    .@@@.           .@@.@@@@.     .@@@.            .@@.@@@@.     .@@@.          ",
"      .@@@@.    .@@@.                 .@@.@@@@@@..   .@@@.          .@@.@@@@@.    .@@@.            .@@.@@@@@.   .@@@@.          ",
"       .@@@@. ..@@@@.                 .@@...@@@@@@.  .@@@.     .    .@@..@@@@.    .@@@.            .@. .@@@@@.. .@@@@.          ",
"       .@@@@@.@@@@@.                 .@@@.  .@@@@@@.  .@@.    ..    .@@. .@@@@.   .@@@.           .@@.  .@@@@@@.@@@@@.          ",
"        .@@@.@@@@@.                  .@@.    ..@@@@@. .@@@.  .@.    .@@.  .@@@.   .@@@.           .@.    .@@@@.@@@@@.           ",
"         .@.@@@@@.                   .@@.      .@@@@@..@@@. .@.     .@@.  .@@@.   .@@@.           .@.     .@@.@@@@@@.           ",
"          .@@@@@.                    .@@@.      .@@@@@.@@@..@@.     .@@.  .@@@.   .@@@.          .@.       ..@@@@@@..           ",
"          .@@@@..                     .@@@...... .@@@@.@@@.@@.      .@@.  .@@@.   .@@@.         ...     .....@@@@@.@.           ",
"         .@@@@.@@.                    .@@@@@@@@@...@@@.@@@.@.       .@@@. .@@@.   .@@@.              ...@@@@..@@@.@@@.          ",
"         .@@@.@@@@..                   ..@@@@@@@@@@.@@@@@.@@.        .@@. .@@@.    .@@.             .@@@@@@@@@...@@@@.          ",
"        .@@@. .@@@@@..                   .......@@@@.@@@@.@@.        .@@@.@@@@.    .@@@.           .@@@@@@@@@@@@.@@@@.          ",
"       .@@@.   ..@@@@@..                        .@@@.@@@.@@@.        .@@@.@@@.     .@@@.          .@@@@@@@@@@@@@@@@@@.          ",
"       .@@.      ..@@@@@.             .........  .@@.@@@.@@@.         .@.@@@@.      .@@@.         .@@@.....@@@@@@@@@.           ",
"      .@@.         ..@@@@.          ..+++++++++. .@.@@@@.@@@.         ..@@@@.       .@@@.         .@@.@@@@...@@@@@@.            ",
"      .@.            ..@@@.        .++++++++++++...@@@@@@@@.          .@@@@@.       .@@@@.        .@.@@@@@.  ......             ",
"     .@@.              ..@@.       .++++++@@@@@@@@@@@@@@@@@.         .@@@@@.@..      .@@@.         .@@@@@.                      ",
"     .@.                 .....    .++++@..@@..@@@@@@@@@@@@.         .@@@@@.@@@@...    .@@@.       .@@@@@.                       ",
"    .@@.                          .++@@@..@@..@@@@@@@@@@@.         .@@@@@...@@@@@@... .@@@@.     .@@@@@.@.                      ",
"    .@.                           .@@@@@@@@@@@@@@@@@@@@@. .........@@@@@.   ..@@@@@@@...@@@@.....@@@@@.@@.                      ",
"    ..                            .@@@@@@@@@@@@@@@@@@@@...@@@@@@@@@@@@@.      ..@@@@@@@@.@@@@@@@@@@@@.@@@@.                     ",
"    ..                            .@@@@@@@@@@@@@@@@@...@@@@@@@@@@@@@@..         ...@@@@@@..@@@@@@@@@. .@@@.                     ",
"    .                              .@@@@@@@@@@@@@@@@@@@@@@@@@@@@@@@..              ......@@@@@@@@@..   .@@.                     ",
"    .                               ...@@@@@@@@@@@@@@@@@@@@@.......                      .........      .@.                     ",
"                                       ...@@@@@@@@@@@@@.....                                            .@.                     ",
"                                          .............                                                  ..                     ",
"                                                                                                         ..                     ",
"                                                                                                          .                     ",
"                                                                                                          .                     "};
