/* XPM */
static char * ivVulkan_xpm[] = {
"224 64 14 1",
" 	c None",
".	c #000000",
"+	c #C1712A",
"@	c #ED893D",
"#	c #FF1919",
"$	c #8E4D1F",
"%	c #FF6D19",
"&	c #C11313",
"*	c #8C0E0E",
"=	c #FF9532",
"-	c #FFBF00",
";	c #DD381F",
">	c #FFD968",
",	c #7C5858",
"                                                                                                                                .                                                           .....                             ..",
"                                                                                                                                +.                                                         .+++++.                           .@@",
"                                  ...................                                                                           ++.                                                     ...+++++++...                     ...@@@",
"                                 .###################.                                                                          +++.                                                   .++@++++++++++.                   .+++@@@",
"                      ...........#####################.........................                                                 $$++.                         ...                     .+++@@++++++++++.....         .....+++++@@",
"                     .################################%%%%%%%%#################.                                                $++++.                       .###.                   .+++@@@+++++++++++++++.       .++++@+++++@@",
"             ........#####################%%%%%%%%%%%%%%%%%%%%##################...                     ...........             ++++++.                   ...#####.                 .+++@@@@++++++@@$$++++++.   ...+++++@@++@@++",
"           ..#####%%%%###################%%%%%%%%%%%%%%%%%%%%%##################&**.                 ...##%%====%%#.            ++++++$.                  .#######.                .@@++@@@@+++++++@$$+++++++. .++++++++@+++++++",
"        ...*&#####%%%%%%====------====%%%%%%========--------------====%%%%####&&****.               .**###%%====%%##.....       ++$$++$$.             .....###%%--.               .@@@@@++@@++++++++$$++$$++++.+++++++@@++$$++++",
"       .;;;**&&###%%%%%%===--------===%%%%%%=======----------------===%%%%##&&******.               .***##%%====%%##*****.      +++++++$+.           .*****%#%%%--*.              .@@@@@@+@@+++++++++++++++++.++++++++++++++++++",
"       .;;;;***&&&&&%%------>>>>---------------------->>>>>>>>>>>>------&&&&****&&***.              .*********----==****;.      ++++++++++...........*******%%==>>**.             .@@@@@@@++@@++++++++++++...+++++@@++++++++++++",
"       .;;;;;;;*****&&&&&--->>>>--------------------->>>>>>>>>>>>>---&&&*****&&&&&&**.              .**********---=****;;.      ++++++++++$$$$$$+++++&*******%==>***.             .@@@@@@++++++++++++++++.++++++++++++++++++++++",
"       .;;;;;;;;;;*******&&&&&&&&&&&&&&&>>>>>>>>>>>>>>>>>>>>>>>>&&&&&*****;;;;&&&&&&*.              .&&&&&&&&&******;;;;;.      ++++$$++++$$$$$$++++++&&&&&&********.             .@@@@@++++++++++++$$++.+++++++++++++@@@@++++++",
"       .&&&;;;;;;;;;&&&&****************&&&&>>>>>>>>>>>>>>&&&&&&*******;;;;;;&&&&&&&*.              .&&&&&&&&&*****;;;;;;.      +++++++++++$$$$$+++++&&&&&&&&********.            .@@@@@+++++++++++++++++++++++++++++++@@+++++++",
"      .&&&&&;;;;;;&&&&&&;;;;;;;;;;&&&*******&&&&&&&&&&&&&&*******;&&&&;;;;;;&&&&&&&&**.             .&&&**&&;;;;;;;;;;&&&.      ++++++++++++$$$$++++&&&&&&&&&&;;&&****.           .+++@@++$$++++,,,,++++++++++@@++++++++++++++++",
"      .&&&&&;;;;;&&&&&&&&;;;;;;;;&&&&&&&;;;*****************&&&;;&&&&&&;;;;;&&&&&&&&&*.            .&&&***&&;;;;;;;;;&&&&.      +++++++++++++$$$++++&&&&&&&&&&&&&&****.          .+++++++++++++,,,,,,+++++++++++++++++++++++++++",
"      .&&&&&;;;;&&&&&&&&&&;;;;&&&&&&&&;;;;;;&&;;;;;;;;&&&&&&&&&&&&&&&&&&;;;;&&&&&&&&&&.           .&&&**++&&;;;;****&&&&&&.     ++++@@++++++++$$++++&&&&&&**&&&&&&**$$.       ...+++++++++++++,,,,,,,,++++++++++++$$++++@@++,,,,",
"      .&&&&&;;;&&&&&&&&&&&&;;&&&&&&&&;;;;;;&&&;;;;;;;;&&&&&&&&&&&&&&&&&&&;;;;&&&&&&&&&.           .&&&**+++&;;;*****&&&&&&.     ++++++++++++++++++++&&&&&***&&&&&&**$$$.     .@@@@+++++++++++,,,,,,,,,+++++++++++++++++++++,,,,,",
"     .&&&&&&;;&&&&&&&&&&&&&&&&&&&&&&;;;;;;&&&&;;;;;;;;&&&&****&&&&&&&&&&&&;;;;&&&&&&***.          .&&&$$++++;;**$$++++&&&&.     ++++++++$$++++++++@@&&&&**$$++&&&&**$$$$.   .@@@@@@@++$$++,,,,,,,,,,,,++++++$$++++++++++++,,,,,,",
"     .&&&&&&;;;&&&&&&&&&&&&&&&&&&&&&;;;;;;;&&&;;;;;;;&&&&******&&&&&&&&&&&;;;;&&&&&&**$.          .&&&$+++++;**$$+++++&&&&.     ++++++++$$+++++++++@&&&**$$+++&&&***$$$$$. .++@@@@@@++++++,,,,,,,,,,,++++++++++++++++++++,,,,,,,",
"     .&&&&&&;;;;&&&&&&&&&&&&&&****$$;;;;;;;;&&;;;;;;&&&&**$$++****&&&&&&&&;;;;&&&&&&**$$.         .+++++++++**$$++++++&&&&*.    ++++,,,,,,++++++++++****$$++++****++++++$$.+++++++@@++++++,,,,,,,,,,++++++++++++++++++++,,,,,,++",
"     .+*&&&&&;;&&&&&&&&&&&&&&*****$$;;;;;;;;&;;;;;;&&&&&**$$++****&&&&&&&&;;;;&&&&&**$$$.         .++++++++++*$++++++&&&&&*.    ++++,,,,,,,++++++++++***$$++++***++++++$$$$.++++++++++++++,,,,,,,,,++++++++++++++++++++++,,,,+++",
"    .+++****&&&&&&****&&&&****$$++++&&;;;;&&;;;;;;&&&&&&**$$++$$++&&&&&&&&****&&&&**$$$$.         .@@@++++++++++++++&&&&&&**.   ++++,,,,,,,,++++@@++++++@@++++$$++++$$$$$$$$.+++++++++@@++$$++++++++++@@++++@@,,,,,,++++++++++++",
"    .+++****&&&&&&*****&&****$$+++++&&;;;;;;;;;;;;&&&&&**$$++++++++&&&&&&&&**&&&&***$$$$$.        .@@@++++++++++++++&&&&&&**.   +++++,,,,,,,++++@@+++++++++++++++++++$$$$$$$$$+++++++++++++++++++++++++++++++@,,,,,,,+++++++++++",
"    .+++@@++++&&&&**$$******$$++++++**;;;;;;;;;;;;&&&&**$$++@@++++++&&&&&&&&&&&&****++++$$.      .++++@@++++++$$++++&&&&&&+++.  ++++++,,,,,,++,,,,++@@++++++++++++++++++++++$$$$++++++++++++++++++++++++++++++,,,,,,,,++@@++++++",
"   .++++@@+++++&&***$$******$+++++++**;;;;;;;;;;;;&&&**$$++++++++++++&&&&&&&&&&&***+++++$$$.     .++++++++++++++++++&&&&&&++++. +++++++,,,,,++,,,,+++++++++++++++++++++++++++$$$+++++++++++++++++++++++++++++++,,,,,,+++++++++++",
"  .+++,,,,,,++++****++++++++++++++++$$;;;;;;;;**$$****$$++++++++++++++**&&&&&&&&**++++++$$$$.   .+++++++++++@@++++++**&&**++++. ++@@++++++$$++,,,,++++++++$$++++++++$$++$$++++$$++++$$++$$++++++++++++@@++++++++++++++++++++$$++",
"  .++++,,,,++++++**++++++++++++++++++$;;;;;;;**$$$****$$+++++++++++++++*&&&&&&&***+++++++$$$$.  .+++++++++++@@+++++++*****+++++.++++++++++++++,,,+++++++++++++++++++++++++++++++++++++++++++++++++++++++++++++++++++++++++++++++",
"  .@@@++,,++@@++++++++++++++$$++@@++++&&;;;;**$$$$++++@@++++$$++++$$++++$$&&&&**$$++$$++++$$$.  .+++@@$$,,,,,,++@@++++**$$+++++.++++++++++++++@@++++@@$$++++++++++++++++++,,,,++++++++++++@@++++++++++++++$$++@@++++++++++++++++",
" .++@@+++++++++++++++++++++++++++++++++&&;;;**$$$++++++++++++++++++++++++$&&&***$++++++++++$$$. .++++@$$,,,,,++++++++++*$++++++.+++++++++++++++++++++@$++++++++++++++++++,,,,,,+++++++++++++++++++++++++++++++++++++++++++++++++",
".+++++@@++++++++++++++++++++++++++++++++&&&&**$$++++++++++++++++++++++++++++****++++++++++++$$$..+++++++,,,,++++++++++++++++$$+.++++++++++++++++++++++++++++++++++++++++,,,,,,,,++++++++++++++++++++++++++++++++++++++++++++++++",
".+++++@@+++++++++++++++++++++++++++++++++&&&**$+++++++++++++++++++++++++++++****++++++++++++$$$..+++++++,,,,,++++++++++++++++$+.+++++++++++++++++++++++++++++++++++++++++,,,,,,+++++++++++++++++++++++++++++++++++++++++++++++++",
"                               .++@@++++++++++++++++++++++++++++.                               .+++++++,,,,,,++++++++++++++++++++$$+++++++++++++++++++++++++++..++++++++++++++++++++++++++++++.                                ",
"                             ..++++++++++++++++++++++++++++++++++.                              .++++++++,,,,,+++++++++++++++++++++++++++++++++++++++++++++++++. .+++++++++++++++++++++++++++$$.                                ",
"                            .+++++++++++++++++++++++++++++++$$++++..                            .+++++++++++,,++++++++++++++++++++++++++++++$$++++++@@++$$+++++.  .+++++++++@@++++++++@@++++$$.                                 ",
"                           .++++++++++++++++++++++++++++++++$$++++++..                          .++++++++++++++++++++++++++++++++++++++++++++++++++++++++++++++.   .++++++++++++++++++++++++$$.                                 ",
"                         ..+++++++++@@++++@@++++++++++$$++++$$++++++++.                         .+++@@++++++++++++$$++$$++++++$$++++++@@++++++++++++++++++++$$.     .++++++++++++++++++++++++.                                  ",
"                        .+@++++++++++++++++++++++++++++++++++++++++++++.                        .++++++++++++++++++++++++++++++++++++++++++++++++++++++++++++$.     .+++++++++++++++++++++++.                                   ",
"                       .++@@++@@++++++++++++++++++++++++++++++++$$++$$++..                      .+++++++++@@++++++++++++++++++++++++++++++++++++++++++++++++++.     .+++++@@++++++$$++++@@++.                                   ",
"                     ..++++@++@++++++++++++++++++++++++++++++++++$++$+++++.                      .++++++++++++++++++++++++++++++++++++++++++++++++++++++++++++.      .+++++@++++++++++++++++.                                   ",
"                    .+++++++@@++++++++++$$++++++,,,,,,++++++++++++$$+++++++....                  .++++@@++++++++@@++++++++++@@++++++++++++++++@@++++$$++@@++++.       .+++++@@++++++++++++++.                                   ",
"                   .++++++++@+++++++++++++++++++,,,,,+++++++++++++++++++++++++@.                 .++++++++++++++++++++++++++++++++++++++++++++++++++++++++++++.        .++++++++++++++++++++.                                   ",
"                  .+++++@@@@++++++++++++++++++++,,,,++++++++++++++++++++$$++++@@..                .+++++++++++++++++++++,,,,++++++$$++++++++++++++++++++++++++.         .+++++,,,,++@@++++$$.                                   ",
"                 .+++++++@@++++++++++++++++++++,,,,,+++++++++++++++++++++$+++@@@@@.               .++++++++++++++++++++,,,,,++++++++++++++++++++++++++++++++++.         .+++++,,,,++++++++$.                                    ",
"                .+++@@++++++++++++++++@@++++++,,,,,,++++++++++++++,,,,++++$$@@@@@@@.              .,,,++++@@++++++$$++,,,,,,++++++++++++++++++++++++++@@++++$$.         .+++++,,,,++++++++.                                     ",
"               .,,+++@+++++++++++++++++++++++,,,,,,+++++++++++++++,,,,,++++$@@@@@@@@.             .,,,,++++++++++++++++,,,,,+++++++++++++++++++++++++++++++$$$.         .+++++,,,,,+++++++.                                     ",
"              .,,,,,++@@++++++++,,++++++++++,,,,,,++++@@++++,,,,++,,,,,,++++++++++$$.             .,,,,,++++++++++++++++,,,,++@@++++++++++++++++$$++++++++$$$$.         .+++@@,,,,,,++++++.                                     ",
"             .+@,,,,,+++++++++++,,,+++++++++,,,,,+++++++++++,,,,+++,,,,,+++++++++++$+.            .,,,,,++++++++++++++++,,,,+++++++++++++++++++++++++++++$$$$.          .++++@,,,,,+++++++.                                     ",
"            .+++@@,,,,++++@@++++,,,,++++++++,,,,++++++++++++,,,,++++,,,,++++$$++++++$.            .,,,,,@@++++++++@@++++$$,,++++++++++,,,,,,,,++++++++$$$$$$.          .++++++,,,,++++@@++.                                     ",
"            .++++@,,,,+++++++++++,,++++++++++,,,,++++++++++++,,,+++++,,,+++++++++++$$$.           .,,,,,@++++++++++++++++$,+++++++++++,,,,,,,,++++++++$$$$$.           .++++++,,,,++++++++.                                     ",
"           .++++++,,,,++++++++++++++++++++++++,,,,++++++++++++,,++++++,,++++++++++$$$$.           .+++++++++++++++++++++++++++++++++++,,,,,,,,++++$$.......           .+++$$@@,,,,++++++++.                                     ",
"          .++++++,,,,++++++++++++++++++++++++++,,,,++++++++++++++++++++++++++++++$$$$$.           .++++++++++++++++++++++++++++++++++++,,,,,,,+++++$,,$$.             .+++$$@@,,,,++++++++.                                     ",
"          .+++@@,,,,++++++$$++++++++++$$++++++++,,,,++++@@++++++++++++++++++@@++$$$$$$$.          .+++@@++++++++++++++@@++++++++++++++++++,,,,++++++,,$$.             .$$$++++++,,++++++++.                                     ",
"         .++++@,,,,++++++++++++++++++++++++++++++,,++++++++++++++++++++++++++++++$$$$$+.          .+++++++++++++++++++++++++++++++++++++++,,,+++++++,,,$,.            .$$+++++++++++++++++.                                     ",
"        .+++++,,,,++++++++++++++++++++++++++++++++++++++++++++++++++++++++++++++++++++++.         .+++++++$$++++++++++++++++++++++$$++++++,,++@@++++,,,,,,.           .+++@@++++++$$++$$++.                                     ",
"        .++++++,,+++++++++++++++++++++++++++++++++++++++++++++++++++++++++++++++++++++++$.        .++++++++++++++++++++++++++++++++++++++++++++++++++,,,,,,.          .+++++++++++++++++++,.                                    ",
"        .+++++++++++++@@++$$++++++++++++,,++++@@++++++++++++++++++++$$++++++,,,,,,++++++$$.       .+++@@++++++++++++$$++++++++++++++++++++++++++++++++,,,,,,.         .+++++++++++++++++++,,.                                   ",
"       .++++++++++++++@@+++++++++++++++,,,,+++++++++++++++++++++++++++++++++,,,,,,,++++++$$.     .++++++++++++++++++++++++++++++++++++++++++++++++++++,,,,,,.        .+++++++++++++++++++++,.                                   ",
"     ..+++@@++++++++++$$++++++++++++++,,,,,,++++++++$$++++++++++++++++++++++,,,,,,,,$$++++$$.    .++++++++$$++++++++++++++@@++++++++++@@++$$++++++++++$$+++++.      .+++++@@++++@@++@@++++++.                                   ",
"    .+++++++++++++++++++++++++++++++++,,,,,,+++++++++++++++++++++++++++++++++,,,,,,,$++++++$+.  .++++++++++++++++++++++++++++++++++++++++++++++++++++++++++++.      .+++++++++++++++++++++++.                                   ",
"   .++++++++++++@@++++++++++++++++++++,,,,,,++++++++++++++++++++++++++@@++++++++,,,,+++++++++.  .+++@@++++++,,,,++++++++++++++++++++++++++++++++++++@@++++$$++.    .+@@@++++++++++++++++@@++.                                   ",
"  .++++++++++++++++++++++++++++++++++++,,,,++++++++++++++++++++++++++++++++++++++,,+++++++++++. .+++++++++++,,,,,+++++++++++++++++++++++++++++++++++++++++++++.    .++@+++++++++++++++++++++.                                   ",
" .++++@@++++++++++++++++++++++++++++++++++++++++++++++++++++++++++++++++++++++++++++++++++$$+++..+++++++++++,,,,,,++++++++++$$+++++++++++++++++++++++++++++++++.  .+++++++++++++++$$+++++++++..                                 ",
".+++++@@++++++++++++++++++++++++++++++++++++++++++++++++++++++++++++++++++++++++++++++++++$$+++..+++++++++++,,,,,,++++++++++$$+++++++++++++++++++++++++++++++++.  .+++++++++++++++$$+++++++++@@.                                "};
