/* XPM */
static char * iwRaute_xpm[] = {
"64 64 8 1",
" 	c None",
".	c #000000",
"+	c #A5A5A5",
"@	c #DBDBDB",
"#	c #7A7A7A",
"$	c #939393",
"%	c #848484",
"&	c #BABABA",
"                                                                ",
"               ..              ..              ..               ",
"              .++.            .++.            .++.              ",
"             .++++.          .++++.          .++++.             ",
"            .+++@++.        .+++@++.        .+++@++.            ",
"           .++++#+++.      .++++#+++.      .++++#+++.           ",
"          .++@+++++++.    .++@+++++++.    .++@+++++++.          ",
"         .+++#+++++@++.  .+++#+++++@++.  .+++#+++++@++.         ",
"        .++++++#$++#+++..++++++#$++#+++..++++++#$++#+++.        ",
"       .++@+++#++$++++++++@+++#++$+++@++++@+++#++$++++++.       ",
"      .+++#++#++++$+++@+++#++#++++$++#++++#++#++++$+++@++.      ",
"     .++++++#++++++$++#+@+++#++++++$++++++++#++++++$++#+++.     ",
"    .++@+++#++++++++$+++%++#++++++++$++++++#++++++++$++++++.    ",
"   .+++#++#++++++++++$++++#++++++++++$++++#++++++++++$+++@++.   ",
"  .++++++#++++++++++++$++#++++++++++++$++#++++++++++++$++#+++.  ",
" .+++@++#++++++++++++++$#++++++++++++++$#++++++++++++++$+++@++. ",
" .+++#++&++++++++++++++@&++++++++++++++@&++++++++++++++@+++#++. ",
"  .++++++&++++++++++++@++&++++++++++++@++&++++++++++++@++@+++.  ",
"   .+++@++&++++++++++@++++&++++++++++@++++&++++++++++@+++#++.   ",
"    .++#+++&++++++++@+++@++&++++++++@++++++&++++++++@++++++.    ",
"     .++++++&++++++@++@+#+++&++++++@++++++++&++++++@++@+++.     ",
"      .+++@++&++++@+++#++++++&++++@++@++++@++&++++@+++#++.      ",
"       .++#+++&++@+++++++++@++&++@+++#++++#+++&++@++++++.       ",
"        .+++@++&@++@+++..++#+++&@++@+++..+++@++&@++@+++.        ",
"        .+++#++#$++#+++. .+++@+++++#++. .+++#++#$++#+++.        ",
"       .++@+++#++$++++++. .++#+++++++. .++@+++#++$++++++.       ",
"      .+++#++#++++$+++@++. .++++@+++. .+++#++#++++$+++@++.      ",
"     .++++++#++++++$++#+++. .+++#++. .++++++#++++++$++#+++.     ",
"    .++@+++#++++++++$++++++. .++++. .++@+++#++++++++$++++++.    ",
"   .+++#++#++++++++++$+++@++. .++. .+++#++#++++++++++$+++@++.   ",
"  .++++++#++++++++++++$++#+++. .. .++++++#++++++++++++$++#+++.  ",
" .+++@++#++++++++++++++$+++@++.  .+++@++#++++++++++++++$+++@++. ",
" .+++#++&++++++++++++++@+++#++.  .+++#++&++++++++++++++@+++#++. ",
"  .++++++&++++++++++++@++@+++. .. .++++++&++++++++++++@++@+++.  ",
"   .+++@++&++++++++++@+++#++. .++. .+++@++&++++++++++@+++#++.   ",
"    .++#+++&++++++++@++++++. .++++. .++#+++&++++++++@++++++.    ",
"     .++++++&++++++@++@+++. .+++@++. .++++++&++++++@++@+++.     ",
"      .+++@++&++++@+++#++. .++++#+++. .+++@++&++++@+++#++.      ",
"       .++#+++&++@++++++. .++@+++++++. .++#+++&++@++++++.       ",
"        .+++@++&@++@+++. .+++#+++++@++. .+++@++&@++@+++.        ",
"        .+++#++#$++#+++..++++++#$++#+++..+++#++#$++#+++.        ",
"       .++@+++#++$+++@++++@+++#++$+++@++++@+++#++$++++++.       ",
"      .+++#++#++++$++%++++#++#++++$++#++++#++#++++$+++@++.      ",
"     .++++++#++++++$++++@+++#++++++$++++@+++#++++++$++#+++.     ",
"    .++@+++#++++++++$+++%++#++++++++$+++#++#++++++++$++++++.    ",
"   .+++#++#++++++++++$++++#++++++++++$++++#++++++++++$+++@++.   ",
"  .++++++#++++++++++++$++#++++++++++++$++#++++++++++++$++#+++.  ",
" .+++@++#++++++++++++++$#++++++++++++++$#++++++++++++++$+++@++. ",
" .+++#++&++++++++++++++@&++++++++++++++@&++++++++++++++@+++#++. ",
"  .++++++&++++++++++++@++&++++++++++++@++&++++++++++++@++@+++.  ",
"   .+++@++&++++++++++@++++&++++++++++@++++&++++++++++@+++#++.   ",
"    .++#+++&++++++++@+++@++&++++++++@+++@++&++++++++@++++++.    ",
"     .++++++&++++++@++++#+++&++++++@++++#+++&++++++@++@+++.     ",
"      .+++@++&++++@++@+++++++&++++@++@+++++++&++++@+++#++.      ",
"       .++#+++&++@+++#+++++@++&++@+++#+++++@++&++@++++++.       ",
"        .++++++&@++@+++..++#+++&@++@+++..++#+++&@++@+++.        ",
"         .+++@+++++#++.  .+++@+++++#++.  .+++@+++++#++.         ",
"          .++#+++++++.    .++#+++++++.    .++#+++++++.          ",
"           .++++@+++.      .++++@+++.      .++++@+++.           ",
"            .+++#++.        .+++#++.        .+++#++.            ",
"             .++++.          .++++.          .++++.             ",
"              .++.            .++.            .++.              ",
"               ..              ..              ..               ",
"                                                                "};
