/* XPM */
static char * jhBallons_xpm[] = {
"128 128 60 1",
" 	c None",
".	c #020202",
"+	c #FED602",
"@	c #320202",
"#	c #EABA02",
"$	c #CE9E02",
"%	c #0A0266",
"&	c #A69AFE",
"*	c #9A0202",
"=	c #9E0202",
"-	c #FEDE56",
";	c #FE2E2E",
">	c #16028A",
",	c #CE0202",
"'	c #FECACA",
")	c #D20202",
"!	c #1E02D2",
"~	c #FEF6D6",
"{	c #FE2626",
"]	c #1E02AA",
"^	c #FE1A1A",
"/	c #DA0202",
"(	c #FE1212",
"_	c #E20202",
":	c #7A0202",
"<	c #E60202",
"[	c #AE0202",
"}	c #EA0202",
"|	c #720202",
"1	c #FE0E0E",
"2	c #B20202",
"3	c #EE0202",
"4	c #F60202",
"5	c #3A0202",
"6	c #FE0A0A",
"7	c #BA0202",
"8	c #460202",
"9	c #FA0202",
"0	c #820202",
"a	c #FE1E1E",
"b	c #BE0202",
"c	c #FE0606",
"d	c #C20202",
"e	c #520202",
"f	c #FE1616",
"g	c #C60202",
"h	c #FE0202",
"i	c #FE2A2A",
"j	c #AA0202",
"k	c #FE3232",
"l	c #920202",
"m	c #FE2222",
"n	c #5A0202",
"o	c #CA0202",
"p	c #A60202",
"q	c #D60202",
"r	c #DE0202",
"s	c #A20202",
"t	c #960202",
"u	c #B60202",
"       ;;;;          -----            ;;;;1       -----           -----            ;;;;                   ;;;;;;;               ",
"     ;;;;;;;;i      -------         ;;;ii(hhhh   -------         -------         ;;;;;;;;i              ;;;;;;;;;;;             ",
"   ;;;im(a({fh     ------+++       ;;m{6hhhhhhh ---------       ---------      ;;;im(a({fh             ;;iiiiiih;;;;            ",
"  ;;ii;fhhhhhh4   ------++++      ;ii^hhhhhhhhhh---------       ----------    ;;ii;fhhhhhh4           ;ii;;;hhhhhh;;;    -----  ",
" ;i;;^chhhhhhhh, -----#+++++     ;;;i(hhhhhhhhhh---+---+#       ---+------   ;i;;^chhhhhhhh,          ;;;'h'hhhhhhhhh   ------- ",
" i;;;'h'hhhhhh9/,-~-~+++++++     i;;fhhhhhhhhhhh--~-~+++#       --~-~------  i;;;'h'hhhhhh9/,        ;;hhhhhhhhhhhhhh  ------+++",
";;;h(hhhhhhhhh3,---+++++#+++     i;;a'h'hhhhhhhh----#+++#       -------#+++ ;;;h(hhhhhhhhh3,o        hhhh'h'hhhhhhhhh,------++++",
";;;hh'h'hhhhhhr---~+~++++++     ;;iih{hhhhhhhhhh--~-~+++# !!!!!!!!!-~-++++++;;;hh'h'hhhhhh!!!!!!!!! hhhhhhhhhhhhhhhhh---+-++++++",
"imh(hhhhhhhhhh}--#+++#++++      ;;khh'h'hhhhhhhh----++++#!!!!!!!]]!!-+++++++imh(hhhhhhhhh!!!!!!!]]!!hhhhhhhhhhhhhhhho-~-~+#+++++",
";fhhhhhhhhhhhh--++++++++#       ;;ihhhhhhhhhhhhh---#+++!!!!!]]]]]]]]]]++++++;fhhhhhhhhh!!!!!]]]]]]]]]]hhhhhhhhhhhhh,---+++++++++",
"chhhhhhhhhhhh--+++!!!!!!!!!     ;;^hhhhhhhhhhhhh---++++!!!!]]]]]]]]]]]+++++++hhhhhhhhhh!!!!]]]]]]]]]]]hhhhhhhhhhhhh---~#~+++#++ ",
"hhhhhhhhhhhhh-+++!!!!!!!]]!!     ;fhhhhhhhhhhhhh---+++!!!&]&]]]]]]]]]]]+#++++#hhhhhhhh!!!&]&]]]]]]]]]]]hhhhhhhhhhh,--+++++++++  ",
"hhhhhhhhhhhh-++!!!!!]]]]]]]]]]   ;6hhhhhhhhhhhhh---+#!!!]]]]]]]]]]]]]]>>+++++#hhhhhhh!!!]]]]]]]]]]]]]]>>hhhhhhhhhh--++++++++#   ",
"1hhhhhhhhhh-+++!!!!]]]]]]]]]]]   hhhhhhhhhhhhhhh---++!!!]&]&]]]]]]]]]]>%+++++##hhhhhh!!!]&]&]]]]]]]]]]>%hhhhhhhhh--#+++#+++##   ",
"1hhhhhhhhhh+++!!!&]&]]]]]]]]]]]  hhhhhhhhhhhh9h,---++!!]]]]]]]]]]]]]]]>%+++++##hhhhhh!!]]]]]]]]]]]]]]]>%hhhhhhhh,-++++++++##    ",
"hhhhhhhhhh+++!!!]]]]]]]]]]]]]]>>  hhhhhhhhhhhhqo--+++!!]]]]]]]]]]]]]]>>%++#++###hhhhh!!]]]]]]]]]]]]]]>>%hhhhhh,,-++++++++##     ",
" hhhhhhhh++++!!!]&]&]]]]]]]]]]>%   fhhhhhhhhh_,o,-+++!]]]]]]]]]]]]]]]>>%+++++####hhhh!]]]]]]]]]]]]>]]>>%hhhh,oo-++++++++###     ",
" hhhhhhhh++++!!]]]]]]]]]]]]]]]>%   6hhhhhhhh,oo,*-+++!]]]]]]]]]]]]]]>>%%+++++####hhhh!]]]]]]]]]]]]]]>>%%,,,,o,,++++#++++##      ",
"  hhhhhh+++++!!]]]]]]]]]]]]]]>>%    h,,hhh,o,,o7=-+++!]]]]]]]]]>]]>>>>%%++++#####hhh}!]]]]]]>]]]]]]>>>%%ooo,oo++++++++++#       ",
"  h344_++#+++!]]]]]]]]]]]]]>]>>%     oo,,,o,oob**++++]]]]]>]]]]]]]>>>%%%+++++#####_o,]]]]]]]]]]]]]%>>%%%,,,*=++++++++++##       ",
"   o),o++++++!]]]]]]]]]]>]]]>>%%      ooo,o,,*=*=++++]]]]]]]]]]]]>>>>%%%+++++####$oo,]]]]]]]]]]]]>>>>%%%****=++#++++#+##        ",
"   ,oo,++++++!]]]]]>]]]]]]]>>>%%       ,,*=**s** #++++>]]]]]]]]>>>>>%%% ++++#####$$,d2>>]]]>]]]>>>>>%%%***=*+++++++++##         ",
"     ob######]]]]]]]]]]]]]>>>%%%          ***88  +++++#>>>>]>>>>>%>%%%  +++#####$$$p*==>>>>]>>>>>>>%%%=    ++++++++####         ",
"      :#####$]]]]]]]]]]]]>>>>%%%            :@t* ++++##>>>>>>>>>%%%%%%   +$#####$$$@|* >>>>>>>>>%%%%%%*    +++++#+###$          ",
"     *ee$$$$$$>]]]]]]]]>>%>>%%%             *t=*=++++##$$%%%%%%%%%%%      ######$$$el    %%%%%%%%%%% **    +++#++###$           ",
"     =$$..$$$$ >>>>]>>>>>>>%%%              *=*=.+#+###$$$%%%%%%%%%       ####$#$$$*=  %%.%%%%%%%%%  .     ########$$           ",
"     $$$$$     >>>>>>%>>%%%%%%               * . #####$$$$   ..            ####$$$t**  %%%.          .     #####$$$$            ",
"     . .$$       %%%%%%%%%%%                   ...####$$$   %%%%            ###$$.$$  ..%%%.        .       $$$$$$$             ",
"     . .$$     %%.%%%%%%%%%                   .    ###$$    %%%%              ...$$$..   %% .      .      $$..$$$$              ",
"     ..     ...%%%.                          .       ....      .           ...  $$           .    .    ...$$$$                  ",
"..   .   ...    %%%             ..         ..       $$$  .......     ......     $$            .........     $$                  ",
".........        %%             ...........        $$$$$        .....                                       $$                  ",
"                     ;;-----      -----    ;;;;1                        ;;;;        -----                    -----   ;;;;       ",
"                   ;;i-------    ------- ;;;ii(hhhh                   ;;;;;;;;i    -------                  -------;;;;;;;;i    ",
"                 ;;;;------+++  ---------im{6hhhhhhh                ;;;im(a({fh   ------+++                ---------im(a({fh    ",
"     !!!!!!!!!  ;;ii------++++  ----------^hhhhhhhhhh              ;;ii;fhhhhhh4 ------++++                ---------;fhhhhhh4   ",
"    !!!!!!!]]!!;i;i-----#+++++  --+-------1hhhhhhhhhh             ;i;;^chhhhhhhh-----#+++++                ---+---+#hhhhhhhhh,  ",
"  !!!!!]]]]]]]]]];{-~-~+++++++, --~-~+-----hhhhhhhhhhh            i;;;'h'hhhhhh9-~-~+++++++                --~-~+++#h'hhhhhh9/, ",
"  !!!!]]]]]]]]]]]h---+++++#+++o -------#+++h'hhhhhhhhhh          ;;;h(hhhhhhhhh---+++++#+++                ----#+++#hhhhhhhh3,o ",
" !!!&]&]]]]]]]]]]!+-~+~++++++o,* -~-~-++++++hhhhhhhhhhh,  !!!!!!!!!;hh'h'hhhhh---~+~++++++!!!!!!!!!        --~-~+++#h'hhhhhhro,*",
"!!!]]]]]]]]]]]]]]>>+#+++++++3o,*  ---+++++++'hhhhhhhhhh, !!!!!!!]]!!(hhhhhhhhh--#+++#++++!!!!!!!]]!!       ----++++#hhhhhhhh3o,*",
"!!!]&]&]]]]]]]]]]>%+++#+++#h/,o=  ---+++++++hhhhhhhhhho!!!!!]]]]]]]]]]hhhhhhh--++++++++!!!!!]]]]]]]]]]     ---++#++#hhhhhhhh/,o=",
"!!]]]]]]]]]]]]]]]>%++++++##h_,d*   --#+++#+++hhhhhhhhho!!!!]]]]]]]]]]]hhhhhh--++++++++#!!!!]]]]]]]]]]]     ---#++++#hhhhhhhh_,d*",
"!!]]]]]]]]]]]]]]>>%+++++##hhro7=   --++++++++#hhhhhhhh!!!&]&]]]]]]]]]]]hhhhh-++++++++#!!!&]&]]]]]]]]]]]    ---+++++#hhhhhhhhro7=",
"!]]]]]]]]]]>]]]]>>%++++##9h9)o[*   --++++++++#hhhhhhh!!!]]]]]]]]]]]]]]>>hhh-++#+++#+#!!!]]]]]]]]]]]]]]>>   ---+++++#hhhhhhh9)o[*",
"!]]]]]]]]]]]]]]>>%%+#++##hh3,,b=    --+++++++##hhhhhh!!!]&]&]]]]]]]]]]>%hh-+++++++++#!!!]&]&]]]]]]]]]]>%   ---+++++##hhhhhh3,,b=",
"!]]]]]]]]]]]]]>>>%%+++##hh<)o[**    ---#+++++##hhh9h,!!]]]]]]]]]]]]]]]>%hh+++++++++##!!]]]]]]]]]]]]]]]>%   ---#++++##hhhhh<)o[**",
"]]]]>]]]]]]]]%>>%%%+++#hhhqodp*=     --+++#++###hhhq)!!]]]]]]]]]]]]]]>>%h+++++#++++# !!]]]]]]]]]]]]]]>>%   --+++#++##hhhhhqodp*=",
"]]]]]]]]]]]]>>>>%%%++##h4,,g***       -++++++####h_o,!]]]]]]]]]]]]]]]>>%++++++++++## !]]]]]]]]]]>]]]]>>%    -++++++##hhh4,,g*** ",
" >]]]]>]]]>>>>>%%%++##hh},o2==*       -++++++####,o,,!]]]]]]]]]]]]]>>>%%++#++++++##  !]]]]]]]]]]]]]>>>%%    -++++++##hhh},o2==* ",
"  >>>>]>>>>>>>%%%++##4<)o,gp**         +++++#####oo,7!]]]]]]]>]]]]]>>>%%+++++++###   !]]]]]]]]]]]]]>>>%%    -++++++##9<)o,gp**  ",
"  >>>>>>>>>%%%%%.####,oooj*=*=         #+++++#####,b=]]]]]]]]]]]]]>>>%%%++++++####   ]]]]]>]]]]]]]>>>%%%    ++++#+###,,ooj*=*=  ",
"    %%%%%%%%%%%.%%%$g,,,gs***           +++++####$t==]]]]>]]]]]]]>>>>%%%+++#+###$    ]]]]]]]]]]]]>>>>%%%    ++++++###o,,gs***   ",
"     %%%%%%%%%.%%%%o,obj***=            ++++#####$$** >]]]]]]]]>>%>>%%%+++++###$      >]]]]]]]]>>>>>%%%     #+++++###obj***=    ",
"         #####.%%%$obj===*              +++#####$$$8   >>>>]>>>>>>>%%%########$$       >>>>]>>%>>%>%%%      +++++###$p===*      ",
"         #####.%%$  :@|*                 +$#####$$$t*  >>>>>>%>>%%%%%%#####$$$$        >>>>>>>>>%%%%%%      +++####$$5|*        ",
"          $$$$.$$  =nel                   ######$$$***   %%%%%%%%%%%  *$$$$$$$           %%%%%%%%%%%        ++++##$$$el         ",
"        $$..$$.$   *=**                   ####$#$$$*=     %%%%%%%%%  $$..$$$$          %%.%%%%%%%%%         +++###$$$**         ",
"       $$$$$. .    .***                    ####$$$l         ...     $$$$$.             %%%.                 #####$$$$t*         ",
"          $$ .    .                         ###$$.$$      ..%%%%       $$ .            .%%%.               ..###$$$$.           ",
"          $$ .   .                              .$$$......  %%%%     ..$$  .       ....  %% .            ..   ###$$.            ",
"             .  .i;;;1                          $$iii1 .      .     .       ..   ;;ii1       .        ...      ...ii;1          ",
"             ..i;iii(hhhh                      i$$i;(hhhh      .....          .;;ii;(hhhh     ........        .$$$ii(hhhh       ",
"             .i;mi6chhhhhh                    ;;m{6hhhhhhh                    i;mi6hhhhhhh                   .$$$$$chhhhhh      ",
"     -----  i;;;i;hhhhhhi;;        -----     iii^hhhhhhhhhh          -----   ;i;i;^hhhhhh4,                 iiiiiihhhhhhi;;     ",
"    ------- ;;;'h'hhhhhhhhh       -------   ;;;;(hhhhhhhhhh         ------- ;;;iachhhhhhhh,                 ;;;'h'hhhhhhhhh     ",
"   ---------ihhhhhhhhhhhhhh      ---------  ;;;(hhhhhhhhhhhh       ---------i;;i'h'hhhhhh9/,               ;;hhhhhhhhhhhh-----  ",
"   ---------hhh'h'hhhhhhhhh,     --------- ;i;;m'h'hhhhhhhhhh      ----------;h(hhhhhhhhh4oo               hhhh'h'hhhhhh------- ",
"   ---+---+#hhhhhhhhhhhhhhh,     ---+---+# ;iiih{hhhhhhhhhhhh,     ---+------ihh'h'hhhhhh/o,*             hhhhhhhhhhhhh------+++",
"   --~-~+++#hhhhhhhhhhhhhhoo     --~-~+++# ;;khh'h'hhhhhhhhhho     --~-~------(hhhhhhhhhh3,o=             hhhhhhhhhhhh------++++",
"   ----#+++#hhhhhhhhhhhhh,,,     ----#+++# ;;ihhhhhhhhhhhhhh,,     -------#+++hhhhhhhhhhh/oo*            ihhhhhhhhhhh----+++++++",
"   --~-~+++#hhhhhhhhhhhhhooo     --~-~+++# ;iahhhhhhhhhhhh!!!!!!!!! -~-~-++++++hhhhhhhhhh_!!!!!!!!!      hhhhhhhhhhhh-~-~++#++++",
"   ----++++#hhhhhhhhhhhh,,,      ----++++#  ;(hhhhhhhhhhh!!!!!!!]]!! ---+++++++hhhhhhhhhh!!!!!!!]]!!     hhhhhhhhhhh---#++++++++",
"   ---++#++#hhhhhh!!!!!!!!!      ---+#+++#  i1hhhhhhhhh!!!!!]]]]]]]]]]--+++++++hhhhhhhh!!!!!]]]]]]]]]]   hhhhhhhhhh---~+~++++++ ",
"   ---#++++#hhhhh!!!!!!!]]!!     ---+++++#  hhhhhhhhhhh!!!!]]]]]]]]]]]--#+++++++hhhhhhh!!!!]]]]]]]]]]]   hhhhhhhhhh--+++++++#+  ",
"   ---+++++#hhh!!!!!]]]]]]]]]]   ---+++++#   hhhhhhhhh!!!&]&]]]]]]]]]]]-+++#++++#hhhhh!!!&]&]]]]]]]]]]]  hhhhhhhhh--++++#+++#   ",
"   ---+++++#hhh!!!!]]]]]]]]]]]   ---+#+++#   hhhhhhhh!!!]]]]]]]]]]]]]]>>++++++++#hhhh!!!]]]]]]]]]]]]]]>> hhhhhhhh--++#+++++##   ",
"   ---+++++##h!!!&]&]]]]]]]]]]]  ---+++++##   fhhhhhh!!!]&]&]]]]]]]]]]>%-+++++++##hhh!!!]&]&]]]]]]]]]]>% ,,hhhhhh-++++++++##    ",
"   ---#++++##!!!]]]]]]]]]]]]]]>> ---+++++##   6hhhhhh!!]]]]]]]]]]]]]]]>%--+#++++##hhh!!]]]]]]]]]]]]]]]>% o,,,,,,-++++++++##     ",
"   --+++#++##!!!]&]&]]]]]]]]]]>% --++#+++##    h,,hhh!!]]]]]]]]]]]>]]>>%--+++#++###<q!!]]]]]]]]]]]]]]>>%  ooooo-+#+++++++##     ",
"    -++++++##!!]]]]]]]]]]]]]]]>%  -++++++##     o,,,,!]]]]]]]]]]]]]]]>>% -++++++####,!]]]]]]]]]]>]]]]>>%  ,,,,,+++++++#+##      ",
"    -++++++##!!]]]]]]]]>]]]]]>>%  -++++++##      ooo)!]]]]]]]]]]]]]]>>%% -++++++####)!]]]]]]]]]]]]]>>>%%   ***++++++++++#       ",
"    -++++++##!]]]]]]]]]]]]]]]>>%  -+++#++##       ,o=!]]]]]]]>]]]]]>>>%%  +++++#####[!]]]]]]]]]]]]]>>>%% **..+++++#++++##       ",
"    ++++#+###!]]]]]]]]]]]]]>>>%%  ++++++###          ]]]]]]]]]]]]]>%>%%%  ++++++#####]]]]>]]]]]]]]>>>%%% ==**+++++++++##        ",
"    ++++++###!]]]]]]]]]]>]]>>>%%  ++++++###          ]]]]>]]]]]]]>>>>%%%   +++++####$]]]]]]]]]]]]>>>>%%% .**+++++++++##         ",
"    #+++++###]]]]]]]]]]]]]>>>%%%  ++++++###           >]]]]]]]]>>>>>%%%    #+++#####$$>]]]]>]]]>>>>>%%%  . +++#+++#####         ",
"    +++++###$]]]]>]]]]]]]>>>>%%%  ++#++###$           .>>>>]>>>%>>>%%%.    +++#####$$$ >>>>]>>%>>%>%%%. .  +++++++###$          ",
"    ++#+###$$ >]]]]]]]]>>>>>%%%   ++++###$$          . >>>>>>>>>%%%%%% .    +######$$$ >>>>>>>>>%%%%%%. .  ++++++###$           ",
"    ++++##$$$ .>>>>]>>>>%>>%%%    ++++##$$$         .    %%%%%%%%%%%    .    ######$$$   %%%%%%%%%%%   .   ########$$           ",
"    +++###$$$ .>>>>>>>>>%%%%%.    +++$##$$$       .....%%.%%%%%%%%%      ..  ####$#$$$    %%%%%%%%%     .. #####$$$$            ",
"    #####$$$$ .  %%%%%%%%%%%.%%%  #####$$$$     ..     %%%.                .. ####$$$       ...           ..$$$$$$$             ",
"     ###$$$$  .   %%%%%%%%%.%%%%   ####$$$     .        %%%                  ..###$$.$$    .%%%%          $$..$$$$              ",
"      ###$$    .          . %%%     ###$$     .          %%.                      ..$$$   . %%%%        .$$$$$.                 ",
"        .........;;;;1....  %%        ........   ;;;;1      ..                   ;{$$1....    .       ..    $$ . ;;;;1          ",
"       $$$    .i;iii(hhhh            $$$      .;;iii(hhhh     ..        .......;;;i$$9hhh      .   ...      $$ ;;iii(hhhh       ",
"      $$$$$   i;mi6chhhhhh          $$$$$     i;mi6chhhhhh      ........      i;m{c9hhhhhh      ...           ;;mi6chhhhhh      ",
"             ;;;i;fhhhhhh4,                  ;i;fhhhhhhhhhh           ----- ;;i;;;hhhhhhi;;                  ;i;i;fhhhhh-----   ",
"  -----     ;;;iahhhhhhhhh,       -----     ;;;i(hhhhhhhhhh          -------;;;'h'hhhhhhhhh                 ;i;iahhhhhh-------  ",
" -------    ;i;i'h'hhhhhh9/,     -------    ;;;fhhhhhhhhhhhh        ---------hhhhhhhhhhhhhh                 ;;;i'h'hhh--------- ",
"---------  ;ikh(hhhhhhhhh4oo    ---------  ;i;;a'h'hhhhhhhhhh       ---------hh'h'hhhhhhhhh,               ;;;h(hhhhhh--------- ",
"---------- ;;ihh'h!!!!!!!!!,*   ---------- ;i;;h{hhhhhhhhhhhh,      ---+---+#hhhhhhhhhhhhhh,               ;;ihh'h'hhh--+----+# ",
"--+------- ;ac(hh!!!!!!!]]!!=   --+------- ;;;hh'h'hhhhhhhhhho      --~-~#++#hhhhhhhhhhhhhoo               imc(hhhhhhh--~-~+++# ",
"--~-~------;fhh!!!!!]]]]]]]]]]  --~-~------i;ihhhhhhhhhhhhhh,,      ----++++#hhhhhhhhhhhh,,,               ;fhhhhhhhhh----#+++# ",
"-----+-++++hhhh!!!!]]]]]]]]]]]  -----+-++++;;ahhhhhhhhhhhh!!!!!!!!! --~-~+++#hhhhhhhhhhhho!!!!!!!!!        hhhhhhhhhhh--~-~+++# ",
" -~-~-#+++++hh!!!&]&]]]]]]]]]]]  -~-~-#+++++i(hhhhhhhhhhh!!!!!!!]]!!----++++#hhhhhhhhhhh,!!!!!!!]]!!       hhhhhhhhhhh----++++# ",
"  ---+++++++h!!!]]]]]]]]]]]]]]>>  ---+++++++;1hhhhhhhhh!!!!!]]]]]]]]]]-+#+++#hhhhhhhhhh!!!!!]]]]]]]]]]     hhhhhhhhhhh---+#+++# ",
"  ---+++#+++h!!!]&]&]]]]]]]]]]>%  ---+++#+++hhhhhhhhhhh!!!!]]]]]]]]]]]-+++++#hhhhhhhhhh!!!!]]]]]]]]]]]     1hhhhhhhhhh---+++++# ",
"   --++++++++!!]]]]]]]]]]]]]]]>%   --++++++++hhhhhhhhh!!!&]&]]]]]]]]]]]+++++#hhhhhhhhh!!!&]&]]]]]]]]]]]    (hhhhhhhhhh---+++++# ",
"   --++++++++!!]]]]]]]]>]]]]]>>%   --++++++++#hhhhhhh!!!]]]]]]]]]]]]]]>>++++#hhhhhhh,!!!]]]]]]]]]]]]]]>>   hhhhhhhhhhh---#++++# ",
"   --++++++++!]]]]]]]]]]]]]>]>>%   --++++++++#fhhhhhh!!!]&]&]]]]]]]]]]>%+#++##hhhh,,,!!!]&]&]]]]]]]]]]>%    hhhhhhhhh4---+#+++##",
"    --#+++#++!]]]]]]]]]]]]]]>>%%    --#++#+++##hhhhhh!!]]]]]]]]]]]]]]]>%++++##,,,ooo,!!]]]]]]]]]]]]]]]>%    hhhhhhhhh}---+++++##",
"    ---++++++!]]]]]]]]]]]]]>>>%%    ---++++++##h,,hhh!!]]]]]]]]]]]]]]>>%++++##ooo,,,s!!]]]]]]]]]]]]]]>>%     hhhhhh<),--++++++##",
"     --++++++]]]]>]]]]]>]]>>>%%%     --++++++###o,,,,!]]]]]]]]]]>]]]]>>%++++##,,o***=!]]]]]]]]]]>]]]]>>%     h344r,ooo[-++++++##",
"      -++++++]]]]]]]]]]]]>>>>%%%      -+++#++####ooo)!]]]]]]]]]]]]]>>>%%+#++##**=***=!]]]]]]]]]]]]]>>>%%      ,),,o,,gs-+++#++##",
"      -++#+++#>]]]]]]]]>>>>%%%%       -++++++#### ,o=!]]]]]]]]]]]]]>>>%%++++##**==** !]]]]]]]]]]]]]>>>%%      ooo,od[*=-++++++##",
"       ++++++##>>>>]>>>>>>>%%%         ++++++####    ]]]]]>]]]]]]]>>>%%%+++###       ]]]]>]]]]]]]]>>>%%%        ,bj***s#+++++###",
"       ++++++##>>>>>>>>%%%%%%%         ++++#+#####   ]]]]]]]]]]]]>>>>%%%+++###.      ]]]]]]]]]]]]>>>>%%%        .:5|*  ++++++###",
"        +#+++####%%%%%%%%%%%            +++++####$    >]]]]]]]]>>>>>%%%++++### .      >]]]]>]]]>>>>>%%%        .*nel   +++#++###",
"        ++++###%%.%%%%%%%%%             ++++#####$$    >>>>]>>%>>%>%%%+++####$  ..     >>>>]>>%>>%>%%%        . ****   +++++###$",
"        +++####%%%.*                    +++#####$$$    >>>>>>>>>%%%%%%+++###$$    ..   >>>>>>>>>%%%%%%       .   **=   ++++###$$",
"         +######%%%.                     +###$##$$$   .  %%%%%%%%%%% ++++##$$$    . .....%%%%%%%%%%%        .       .  ++++##$$$",
"          ######$%%.                      ######$$$   .   %%%%%%%%%  +++###$$$  ..     %%.%%%%%%%%%        .        .  +++$##$$$",
"          ######$$$.                      ######$$$   .    ....      #####$$$$..       %%%.               .         .  #####$$$$",
"           ####$$$.                        ####$$$....    . %%%%      ####$$$.          %%%             ..          .   ####$$$ ",
"            ###$$.$$                        ###$$.$$  ....  %%%%       ###$$.            %%.          ..             .   ###$$  ",
"                .$$$                            .$$$          .      ......                 ...   ....                .......   ",
"..      ........$$              ..       .......$$             .   ..   $$$                    ...                        $$$   ",
"........        $$              .........       $$              ...    $$$$$                                             $$$$$  "};
