/* XPM */
static char * jhWolke_xpm[] = {
"32 32 37 1",
" 	c None",
".	c #C6C6C6",
"+	c #C5C5C5",
"@	c #C2C2C2",
"#	c #C0C0C0",
"$	c #C1C1C1",
"%	c #C3C3C3",
"&	c #BBBBBB",
"*	c #B4B4B4",
"=	c #B6B6B6",
"-	c #BCBCBC",
";	c #C4C4C4",
">	c #BFBFBF",
",	c #B2B2B2",
"'	c #A8A8A8",
")	c #AAAAAA",
"!	c #B1B1B1",
"~	c #B7B7B7",
"{	c #BABABA",
"]	c #B8B8B8",
"^	c #BEBEBE",
"/	c #A6A6A6",
"(	c #A5A5A5",
"_	c #ACACAC",
":	c #ABABAB",
"<	c #B9B9B9",
"[	c #A7A7A7",
"}	c #ADADAD",
"|	c #A4A4A4",
"1	c #A9A9A9",
"2	c #AFAFAF",
"3	c #BDBDBD",
"4	c #B5B5B5",
"5	c #B0B0B0",
"6	c #B3B3B3",
"7	c #AEAEAE",
"8	c #A3A3A3",
"                                ",
"                                ",
"                 .....          ",
"               .........        ",
"       ....   ...........       ",
"     ....... ......++++...      ",
"    ..............+@#$%+...     ",
"   ++++..........+@&*=-@;;%     ",
"  +;$#@;.+++++...;>,')!~{{{     ",
"  ;>~*]>%@#>>$;..;^!/(')_:)     ",
"  @<_[}*]~*,,]$+.+$=:((|((|1    ",
"  @]:(/1)1[[/23;..;^4})///'2&   ",
"   -5[||(||//23;...;#&~6!!4&$+  ",
"  ;@<21//[1_5]$+....+;@#>>$%+.. ",
" $;;@-4!!6~{3$;.......+++++.... ",
" -$;;;$>>#@;;+..............++++",
"2~3#;++++++................+%@@@",
"_,~-#%+.........+;;;+.....;@>3-^",
"1_76{>%+....+++%@@$$@%;++%$3]*64",
"[(/)6{#;+++;%%#>3&<{&3>##^&=5)'_",
"[88(_*&#%%@#>-&<=!25,4~]]=,71(8[",
" |88'74{-3&<=6,571/[1:}77})'(||'",
" (88(1}566,2_1111(8|(([[[/((8|[ ",
"  (||([1)))'/|8(1[(|88||||8||/: ",
"   |8|||(((|888/  )'/((||((/1_  ",
"    ((|8|8||8(     5}:)''1)}5   ",
"      [//(/           6!,,*~    ",
"                                ",
"                                ",
"                                ",
"                                ",
"                                "};
