/* XPM */
static char * jhSonne_xpm[] = {
"160 96 4 1",
" 	c None",
".	c #FFE100",
"+	c #FFFFFF",
"@	c #E1F7F4",
"............................++++++++++++++++++++++++++++++++++++++++++++++++++++++++++++++++++++++++++++++++++++++++++++++++++++++++++++++++++++++++++++++      ",
".............................++++++++++++++++++++++++++++++++++++++++++++++++++++++++++++++++++++++++++++++++++++++++++++++++++++++++++++++++++++++++++++++     ",
"..............................++++++++++++++++++++++++++++++++++++++++++++++++++++++++++@+++++++++++++++++++++++++++++++++++++++++++++++++++++++++++++++++++    ",
"...............................+++++++++++++++++++++++++++++++++++++++++++++++++++++++++@++++++++++++++++++++++++++++++++++++++++++++++++++++++++++++++++++++   ",
"................................++++++++++++++@@++++++++++++++++++++@@@@@@+++++++++++++@++++++++++++++++++++++++++++++++++++++++++++++++++++++++++++@@++++++++  ",
"................................++++++++++++++@@@++++++++++++++++++@@@@@@@+++++++++++@@+++++@++++++@@+++++++++++++++++++++++++++++++++++++++++++++@@++++++++++  ",
"................................++++++++++++++@@@@@@++++++++++@@@@@@@@++@@+++++@++++@@+++++++@@@@@@++++++++++++++++++++++++++++++++++@+++++++++++@@++++++++++++ ",
".................................++++@+++++++++@@@@@@+++++++++@@@@@@@+++@@@+++++@@@@+++++++++++++++++++++++++++++++++++++++++++++++++@@++++++++@@++++++++++++++ ",
".................................++++@@+++++++++++@@@@@@@@@@@@++++++++++@@@@++++++++++++++++++++++++++++++++++@@@@+++++++++++++++++++++@@@@@@@@++++++++++++++++ ",
"..................................+++++@@@+++++++++@@@@@@@@@@++++++++++++@@@+++++++++++++++++++++++++++++++++++@@@@++++++++++++++++++++++++++++++++++++++++++++ ",
"...................................+++++++@@@@@+++++++++++++++++++++++++++@@++++++++++++++++++++++++++++++++++++@@@@@@@@++++++++++++@@@@+++++++++++++++++++++++ ",
"....................................+++++++++++++++++++++++++++++++++++++++@+++++++++++++++++++++++++++++++++++++@@@@@@@@+++++++++++@@@++++++++++++++++++++++++ ",
".......................................+++++++++++++++++++++++++++++++++++++@@@@++++++++++++++++++++@@++++++++++++++++@@@@@@@@@@@@@@++++++++++++@@++++++@@+++++ ",
"...........................................++++++++++++++++++++++++++++++++++@@@++++++++++++++++++++@++++++++++++++++++@@@@@@@@@@@@+++++++++++++@@@++++@@@++++  ",
".............................................+++++++++++++++++++++++++++++++++++@@@@@@@@@@@@@@@@@@@@++++++++@+++++++++++++++++++++++++++++++++++@@@@@@@@@@++++  ",
"...............................................++++++++++++++++++++++++++++++++++@@@@@@@@@@@@@@@@@@++++++++++@+++++++++++++++++++++++++++++++++++@@@@@@@@+++++  ",
"...............................................++++++++++++++++++++++++++++++++++++++++++++++++++++++++++++++@@+++++++++++++++++++++++++++++++++++++++++++++++  ",
"...............................................++++++++++++++++++++++++++++++++++++++++++++++++++++++++++++++++@+++++++++++++++++++++++++++++++++++++++++++++   ",
"................................................++++++++++++++++++++++++++@@++++++++++++++++++++++++++++++++++++@@@@@@@+++++++++++@+++++++++++++++++++++++++    ",
"................................................+++++++++++++++++++++++++@@@+++++++++++++++++++++++++++++++++++++++++++++++++++++++@+++++++++++++++++++++++     ",
"...........................................   ..++++++++++++++++@@@@@@@@@@@@+++++++++++++++++@+++++++++++++ +++++++++++++++++++++++@++++++++++++++++++++        ",
"..........................................      +++++++++++++++++++++++++@@++++++++++++++++@@+++++++++++++   ++++++++++++++++++++++@++++++++++++++++++          ",
"...........................................     ++++++++++++++++++++++++++++++++++++++++++@@++++++++++++++   +++++++++++++++++++++++@@++++++++++@++++           ",
".............................................   +++++++@@@++++++++++++++++++++++++++++++@@+++++++++++++++     ++++++++++++++++++++++++@++++++++@+++++           ",
"............................................... +++++++@@@@+++++++++++++++++++++++++@@@@+++++++++++++++++     ++++++++++++++++  +++++++@@++++++@+++++           ",
".................................................++++++@@@@@+++++++@@@++++++++++++@@+++++++++++ ++++++++       ++++++++++++++   +++++++++@@@@@@+++++            ",
".................................................+++++++@@@@@@++@@@@@@+++++++++++++++++++++++++  ++++++         ++++++++++++    ++++++++++++++++++++            ",
"........................................ .........+++++++@@@@@@@@@@@@@++++++++++++++++++++++++    +++            ++++++++++      ++++++++++++++++++             ",
".......................................    ........+++++++@@@@@@@@@@@++++++++++++++++++++++++                      ++++++         ++++++++++++++++              ",
"........................................     ......+++++++++@@@@@@+++++++++++++++++++++++++++                                       +++++++++++++               ",
".........................................     ......++++++++++++++++++++++++++++++++++++++++                                           ++++++                   ",
".........................................       .....+++++++++++++++++++++++++++++++++++++++                                                                    ",
"..........................................       ......++++++++++++++++++++++++++ +++++++++     ++++++++++++++++++++++++++++++++++++++++++++++++++++++++++++++++",
"...........................................        ....+++++++++++++++++++++++++   +++++++      ++++++++++++++++++++++++++++++++++++++++++++++++++++++++++++++++",
"............................................          .++++++++++++++++++++++++      ++         ++++++++++++++++++++++++++++++++++++++++++++++++++++++++++++++++",
"...................................  .........         .+++++++++++++++++++++++                 +++++++++++++++++++++++++++++++++++++++++++++++++@@@@@+++++@@@@+",
"..................................     ........         ++++++++++++++++++++++                  ++++++@@@@++++++++@@++++++++++++++++++++++++++++++++++@@@@@+++++",
"...................................     ........         ++++++++++++++++++++                   +++++++@@@@++++++@@@++++++++++++++++++++++++++++++++++++++++++++",
"....................................     ........         ++++++++++++++++++                    ++++++++@@@@@@@@@@@@++++++++++++++++++++++++++@@@@++++++++++++++",
".....................................     .........         +++++++++++++                       +++++++++@@@@@@@@@@++++++++++++++++++++++++++++@@@@+++++++++++++",
".............................  .......      ........           ...........                      ++++++++++++++++++++++++++++++++++++++++++++++++@@@@++++++++++++",
"...........................     ......       ........             ..........                    +++++++++++++++++++++++++++++++++++++++++++++++++@@@++++++++++++",
"............................     ......       ........             ..........                   ++++++++++++++++++++++++++++++++++@@++++++++++++++++@@@@@@@@@@++",
"............................     .......       .........             ..........                 ++++++++++++++++++++++++++++++++++@@+++++++++++++++++@@@@@@@@+++",
"...................... ......     .......        ........              .........                ++++++++++++++++++++++++++++++++++@@++++++++++++++++++++++++++++",
"....................   ......      .......        ........              .........               +++++++++++++++++@@@@++++++++++++@@@++++++++++++++++@+++++++++++",
".....................   ......      ......         ........               .......               +++++++++++++++++++++@@@@@++++++@@@@++++@++++++++++@++++++++++++",
"............ ........   .......      ......         ........               ......               +++++++++++++++++++++++++++++++@@@@++++++@@+++++++@+++++++++++++",
"...... .....  .......    ......      .......          .......                ...                ++++++++++++++++++++++++++++@@@@@@+++++++++@@@@@@@++++++++++++++",
".....  .....    ......    ......      ........         .......                                  ++++++++++++++++++++++++++++@@@@@+++++++++++++++++++++++++++++++",
".....  .....    ......    ......       ........         .......                                 ++++++++++++++++++++++++++++@@+++++++++++++++++++++++++++@+++++ ",
".....  .....     ......    ......       .......          ........                               +++++++++++++++++++++++++++@@@+++++++++++++++++++++++++++@++++  ",
".....  ......    ......     .....        .......          ........                              @+++++++++++++++++@@@@@@@@@@@@++++++++++++++++++++++++++@+++++  ",
".....   .....     .....     ......        .......          ........                             +@+++++++++++++++++@@@@@@@@@@++++++++++++++++++++++++++@+++++   ",
".....   .....     ......    ......         .......          ........                            +@+++++++++++++++++++++++++++++ ++++++++++++++++++@@@@@+++++    ",
".....   .....     ......     ......         .......          ........                           ++@@++++++++++++++++++++++++++   ++++++++++++++ ++++++++++      ",
".....   .....      .....     .......         ......            .......                          +++@@+++++@++++++++++++++++++     ++++++++++++    ++++++        ",
".....   .....      ......     ......          ......            ......                           ++++@@@@@++++++++++++++++++       +++++++++                    ",
".....   ......     ......      ......         .......            .....                            +++++++++++++++++++++++++          +++++                      ",
".....   ......      .....      .......         .......            ...                             ++++++++++++++++++++++++                                      ",
".....    .....      ......      ......          .......                                             ++++++++++++++++++++                                        ",
".....    .....      ......       ......          ......                                              ++++++++++++++++++                                         ",
".....    .....       ......      ......           ......                                               ++++++++++++                                             ",
".....    .....       ......       .....           .......                                                  ++++                                                 ",
".....    ......       .....       ......           .......                                                                                                      ",
".....    ......       .....        ......           .......                                                                                                     ",
".....     .....       ......       ......            .......                                                                                                    ",
".....     .....        .....        ......            .......                                                                                                   ",
".....     .....        ......       .......           ........                                                                                                  ",
".....     .....        ......        ......            .......                                                                                                  ",
".....     ......        ......        ......             .....                                                                                                  ",
".....     ......        ......        ......              ...                                                                                                   ",
".....      .....         .....         ......                                                                                                                   ",
".....      .....         .....         .......                                                                                                                  ",
".....      .....         ......         ......                                                                                                                  ",
".....      ......        ......          ......                                                                                                                 ",
".....      ......         ......         ......                                                                                                                 ",
".....       .....         ......          ......                                                                                                                ",
".....       .....          ......          .....                                                                                                                ",
".....       .....          ......          .....                                                                                                                ",
".....       .....           .....          .....                                                                                                                ",
".....       ......          ......          ...                                                                                                                 ",
".....       ......          ......                                                                                                                              ",
".....        .....           .....                                                                                                                              ",
".....        .....           ......                                                                                                                             ",
".....        .....           ......                                                                                                                             ",
".....        .....            .....                                                                                                                             ",
".....        ......            ...                                                                                                                              ",
".....        ......                                                                                                                                             ",
".....         .....                                                                                                                                             ",
".....         .....                                                                                                                                             ",
".....         .....                                                                                                                                             ",
" ...           ...                                                                                                                                              ",
"                                                                                                                                                                ",
"                                                                                                                                                                ",
"                                                                                                                                                                "};
