/* XPM */
static char * jhVoegel_xpm[] = {
"128 128 3 1",
" 	c None",
".	c #000000",
"+	c #00000A",
"                                                                                                                                ",
"                                                                                                                                ",
"      ....                                                                    ....       ......                                 ",
"         ...                 .                   ..........                  ..  ...   ....                                     ",
"           ...            ......      ....      ....      ..                       ......                                       ",
"             ...        ....       ..........  ...         ..                       ...                                         ",
"              ...     ....       ...       ......            .                      ..                           ...         ...",
"               ....  ...         .          ....                                     .                             ...    ....  ",
"                .......                      ..                                                                      ......     ",
"                 .....                       .                                                                         ...      ",
"                  ...                                                                                                   .       ",
"                   .                                                                                                            ",
"...         ...                                     .......         .........                                                   ",
"  ...    ....                                    ............     ..............                        ...                     ",
"    ......                                    ....         .... .....          ...   .......      ..............                ",
"      ...                                                   .......               ............. .........      ....             ",
"       .                                                     .....              ...        .........                            ",
"                                                              ...              ..            ....                               ",
"                                                               .                              ..                                ",
"                                                               .                              .                                 ",
"  ...                                                                                                                           ",
"    ....                                                        .....                    ..                                     ",
"       ...            ......                                        ...               ....                                      ",
"        ...          ...   ...                                        ..            ...                                         ",
"         ...       ....          ......       ....                     ..         ...                                           ",
"          ....  .....                ....   ...  ..                     ...      ...                    .....        ......     ",
"           ........                    ......                            .... .....                   ...  ...     ....   ..    ",
"            ......                       ...                              ........                   ..      ... ....      ..   ",
"            .....                         ..                               ......                   ..        ......        ..  ",
"             ...                          .                                 ...                     .          ....          .  ",
"              .                                                             ..                      .           ..           .  ",
"              .                                                              .                                  .               ",
"                                                                                                                                ",
"                                ....               .....                                                                        ",
"                                  ....           ....                                                                           ",
"                                    ...         ...                 ...         ...                         ....       ......   ",
"                                     ...       ...                    ...    ....                       ..........   ....   ....",
"                                      ...     ...                       ......                        ...      .... ...        .",
"   ......                              .... ....                          ...                                   ......          ",
"  ..   ...                              .......                            .                                     ....           ",
"...     ...    ......                    .....                                                                    ...           ",
".        ... .........                    ...                                                                      .            ",
"          .....     ...                    .                                                                                    ",
"          ...         ....                                                                                                      ",
"           ..            .                            ......        .......   ............          ........                    ",
"           .                                       ..........     ...........         .......     ......   ......               ",
"                                                ....       .... .....       ...          ...... .....           ..              ",
"                                             ....           .......           ...           .......                             ",
"                                                             .....              ...          .....                              ",
"                                                              ...                             ...                               ",
"             ....       ......                                 .                               .                                ",
"            ..  ...   ....                                     .                               .   ...         ...              ",
"                  ......                                                                             ...    ....                ",
"                   ...                                                                                 ......                   ",
"                   ..                                                                                    ...                    ",
"                    .                                                                                     .                     ",
"                                                                                                                                ",
"                                                                                                                                ",
"                                                                  ..                       ...                                  ",
"                           .....                                   ...                  ....                                    ",
"  ....                   ...      ..........                  ..     ....              ..                                    .. ",
"     .....             ....           ........          .......        .....         ...           .....                ......  ",
"        .....        ....                 .....     ........             .....     ....                ........     .....       ",
"           .....  .....                     .... ........                  ..... .....                      ....   ...          ",
"             ........                        ........                        ........                        ........           ",
"              ......                          .....                           .....                            .....            ",
"               ....                            ...                             ...                              ...             ",
"                ..                              ..                              .                                .              ",
"                 .                               .                                                                              ",
"                                                                                                                                ",
"                                                                               ....       ......                                ",
"                                                                              ..  ...   ....                                    ",
"                                                                                    ......                                      ",
"                                                                                     ...                                        ",
"                                                                                     ..                                         ",
"                                                .......                               .                                         ",
"                                            .....   .......         ..............                                              ",
"                                                       ......     .......                             .......                   ",
"    .....      ............                                .... .....           .............      .....    ....                ",
"............  ......      ..                                .......                      ....... .....                          ",
".       ..... ...                                            .....                          .........                           ",
"           .....                                              ...                             ....                              ",
"            ...                 ...         ...                .                               ..           ...         ...     ",
"             .                    ...    ....                  .                               .              ...    ....       ",
"                                    ......                                                                      ......          ",
"                                      ...                                                                         ...           ",
"                                       .                                                                           .            ",
"                                                                                                                                ",
"                                                                                                                                ",
"                                                                                                                                ",
"    ...                                                                                                                         ",
"      ....                ....                                                                                               .. ",
"         ...            ...         .....              ........                         ......     ......                 ....  ",
"          ...         ...               .....        ....            ......           ...               .....        ......     ",
"           ....     ...                   .....    ....                   ....     ....                    ....   .....         ",
"            .... .....                      ....  ....                      ....  ....                       ........           ",
"             ........                        ........                        ........                        ........           ",
"              .....                           .....                            ....                            .....            ",
"               ...                             ...                             ...                              ...             ",
"               ..                               .                               ..                               .              ",
"                .                               .                               .                                               ",
"                                                                                                                                ",
"                                                                                                                                ",
"                                                                                                                                ",
"                                                                                                                                ",
"                ...         ...                                                                                                 ",
"                  ...    ....                                                                                                   ",
"                    ......                                                    ..........                                        ",
"                      ...                                                     .        ....         .......                     ",
"                       .                               ....                             .....     ......  ....                  ",
"                                                   ..........      ............            .... .....        ..                 ",
"            ...                                  ...      ...... ........     ....          .......           .+.               ",
"           ..                                .....          .........            ..          .....                              ",
" .....   ...                                                  ....                            ...                               ",
"..   .....                                                     ..                              .                                ",
"       ...                                                     .                               . ...                   ....     ",
"        .                                                                                          ..                ...        ",
"                                                                                                    ...           ....          ",
"                                .....                     ...                                         ...       ....            ",
"                                    ......          .......                                            ...    ....              ",
"                                        .....     .....                                                 .... ....               ",
"   ......       ........                  ..... ....                       ......       ....             .......                ",
"  ..  ......  ......   ...                  ......                             ....   ...  ..             .....                 ",
" ..      .... ...        ..                   ...                                ......                    ...                  ",
"..         .....          .                    .                                   ...                      .                   ",
"            ...                                                                     ..                                          ",
"             .                                                                      .                                           ",
"                                                                                                                                "};
