/* XPM */
static char * jjErde_xpm[] = {
"96 64 18 1",
" 	c None",
".	c #3E1A02",
"+	c #521E02",
"@	c #4E1A02",
"#	c #421A02",
"$	c #461A02",
"%	c #461E02",
"&	c #562602",
"*	c #5A2202",
"=	c #522202",
"-	c #4A1E02",
";	c #562202",
">	c #4A1A02",
",	c #4E2202",
"'	c #5E2602",
")	c #5A2602",
"!	c #561E02",
"~	c #4E1E02",
"                                                                                                ",
"                                          )==);,))                                              ",
"                                        );;~-=)=;;~)                                            ",
"                                      )====-$~;,=;=;))                                          ",
"                                     )==~--#$~~$~;;;));)                                        ",
"                                    )===~--~-~~~+**;;;;&)                                       ",
"                                   ;=~=;=-~=+--~+;;;~-~===;)                                    ",
"                                ));;;=;;=--=+-$-~+;~$##~==;)))  )                               ",
"                              );));=;;*;=~-~++-$-+==~-$~;)))))))))))                            ",
"                            )*;;~);=;;**~=~~;+$#>~+*;-$~+;))))))))))))                          ",
"                   ));==;*))***;+-=====-+=~~=+$#%~+;+~--~+)))*))))))))                          ",
"                  =&*;=~=;***;;=~%$--~%~=,-~=+-$$-+;+~--~;;;;!;)))))))                          ",
"                 ~~=;;=~~=))&;=-$####$-==~--+;~$>-~+~--~~+++++;;))))))))                        ",
"                )--~=;=+~~+;;=~$###..$~==---~;+++++~--~;++----~~;))))))))                       ",
"              )==-~~==~~~~+)==-$$%$###~;;~--~+;;~~+~~~!*!~------+));;;*))                       ",
"             )=;;=~~;,---~====,~~~%###%=;=~~~~=~--~++++;++~~~---~+;+==;*))                      ",
"            )=;;;=+~--$$%+==;;;;;--$#$--;++~-~+~--~+~+===;;,--~-~~~++;=;*))                     ",
"           )~~=;*+~-$##$-====;;;~~-$#%~+~++--~++~--@~--~~+=~-------~+;~++;*)                    ",
"           )~-~*;;~$###%-,==~=+=~~-----=+~---+;++--~~~--------%--%%-~~~~~;**                    ",
"           ;~-~;;=~>###$~,==~~~~~+~~~--~~-%%~~;;+~-~!~---%$$----%$%--~--~*;=)                   ",
"          );=~=;;=~-$$$-~~=;=~~~~~~~~~--~>%--~==~~~~+~---%#$-->-$%----$%~;~--                   ",
"         );;;=+==~>----~~~~=+~~-~~~~~~--~->$%~~~~~~~~~---$#%--%-~--%---------)                  ",
"       )););;++~~->>>$$-~-$>~>>~;=~~~~~-~->$~~~~--~~~~~------%%~==-$%-~=-$--~+                  ",
"      )=;**;++--$###$$$$$$#$-$$~=;=~--~---~~~~--$$~~~~---~~~->$-~--$$$>~-$-%-~)                 ",
"     )===;;=~~$#...#$$>$$##$~-$>-~=~--~$$-~~-->>$$%--~--$-->--$$-$####$%---%-~-)                ",
"     ===+==~~-####.##~+-$##-++--$$--$--%$---$$->>$#$-~~~-$###$$$$#####$##%-%--$$                ",
"     -~===~~-$#$$$#.#~;+-$$~;=~$#$>-$$%%-$$$$#$$$#$$$%-~$######$$########$%$$>----))            ",
"     $-===~~-->---#.#-;=~>~=~~~$$$--$$%%-%$$$$##$###$##%#######$$########$$#$$-------)          ",
"   )$#$+;~-------%#.#-;=~~==--$$$$>-%$#$%####$################$-%$##$###$%%%$$%------;)         ",
"  )$##%==-$#$-~###..$~+~>-~+~-$##$---$####..#$######$#####$$$##$$$$#####$###$$$###$%%~~+)       ",
"  $###-==-$##-~$$$###$->$$$-=+$#$$#$$$$###..#$#########$###-%################$$####)%-~~~~)     ",
" +%$##%=~--$#>-$$-$######$##>~>###..#$#####.####..#####$$##%-##..######$$$#.#$%$$##))-----~~+;) ",
")        ))))                   ##..############.#####$##..###...)               $$-~---)       ",
"~=)))   )-$#$~)))  ))))))))   )#$############.##.###.#$######....#))           $$$--~++=+;++~-~)",
",~$###%+~-%--~~%#%-%$-$$$$$$~#.#$$##.######....#...#.#$###########..#))$)    )#$>--$=~~~~~~~~---",
";=-$#$-=,--~----$-+-$##$$$$$#..#$##.....##.....#.....##########$$#....###..####$$--$##$-$---~~-$",
"~;=~-~,~--~~~~-~~=+~$##$$##$$###$$##....##.....###....#########$$#...#####.####$$--$##$$%--$$--)",
"-,=~-~~$#$--~~-%~=~~-$#$$#.#$$##$$$$#.......#..######....###..####...##########$%%--$#$----$#$-)",
"-~=+-~-$$$,;=-##-----$$%$#.###..#$#$#....#..##.###.##....##....####.#%#########$---%$$>----$$--$",
"-$-=~~--$$~;=-####$$%-%$###$#..####$$#...#####...#...##..##....##$$#####$$$$###$-$##$>->-~-$-=~$",
"-$-;+---->-~-$#...##%--$##$$#######$$#....####.......#..######.#$-%$####$>--$$$$$$###-~-~=~%-==~",
"=~~=~>-~~-$$########-~-##.$$##%$######.....###.....###..#$$$$$$$$-%##$###-+>$#$$>$%$$-~~~,-$-~~-",
");=~->-=;+>$#$-~%###-~-#..$$#$~~$#$$###....##.#....#######$$$$-%-~~$##$$$$--$$$--->%$---~-##-~-$",
"';=~--+;*;~--~;~$###$$$$##$$#.$>$#######...#..#...#.##########$%-=-###$->$$$##$%$$%-%---~~%$-~--",
";~-%$-;'));=++;-#####$$>-%$$###$#..#$#........##....#..#####.#$--~-$$$$-$$#$###$$$----%-~+~-~-%%",
"=-##$~*));;;;;+>$##$>>$$$>$$$$$$#...##........##.......#$$$$##$-~---%--$###$$###------%%----~-%%",
";-##%=;;!+~~~~~~-->---$##$$$$-~-##.....##.....###......####$##$>-$$$--$###$--$#$---~-%>---->-~%$",
"*~$$-=+~@-----~+~~~---$##$#.#-~~$##....##....#.........###$$$$$$$$$$,=$#$-----$$---$$$$%$$$---$$",
"'=-%-=~~~------~;=;~~=--$>$##%-->#########.#.##.........#$$-$####$$%~~$#$%---~-%%$$###$$#$$-%$$$",
"';~$-~~==~-%$--~;=+=~~,~~->##$$##########$#..###.........###$####---->$$$$----~--$$###---$$$%$%-",
"*;~%%-~===~%$$--+=~->--~~~-$#$$#.#########................#$####$~~~->-++~~~-%~~--%$#$--~-$$$%#$",
";=~-%-~==;=-$%%----$>>>-=+--->$#.##$###.##........##......$-$$$$$-~~>$>++~~+-$-=-%$$%~%$$$$$$$$$",
"==~---=;;+~--%$-%$-----~;~$>->$#.#$$###.##.#......###..#..$---->>>-->$>~~--~-$%--%$%--###$$#$---",
"==~--~===-#$-%----~----~;~$$>%$###$#######.###...##########$---$$%>->$$>-$$-~$$$%---%#.##$##%---",
";=~---~~-##$~~~,~~~--~~~=>$$>-----$$$#############$$$$$$####$$$$$$$>-$-%>$$$--$$$---%###$$$$-~~~",
";=+~~~~~$##-~--~~~~-~~~~~-$$>-==+~--$$#######.#####$$$-%$##.#$$$>$$$$>$$$-%$$$$$$$$$$$%$$---==,-",
"==+~==~~-$-~~~~===~~=~~~~~~~-~~~->$-$$$##############$-->##.#$$$$$#$--##$$$$$$$$$####$--$%$$--%#",
"~=+;;=~~~~~~--~~~~~---~,=;;~-------%%%$#$###$#########$---####$$#$$$%%###$$#$##$$#####$%--#$%$#$",
"-=;;;,----~------$$##---===------%$$%$$$-$#$#$$###..##$%-$$-$$$##$---%$$$$#####$$###.######$%$$%",
"~=;=~--%-----%---$%$#%--~~->-~-~--$$-$%--$####$$#####$$%$$$--$##.$-$$#$%%$###.#$$$##########%%--",
",=;=~----%--$#$-----$%---~->-~~~~-%$-----$####$$%%###$$$$#$--$###--$##$$######$-%%%%$###$$#$---~",
"&&);=~~~-%--$#-~~-~-----~~-~==~=~---~~-$%$###$$$-~%$$-$$##--%$$$%~~%#$%$##$%%%-~-----$$--%%--$%-",
"')&;;=++~~+;~-~===~~~~~~==,=====~~====~----$$$$$--~--$$$#$--%%-~~~-----%##$%%%%%%%$$$####$%-%###",
"')))))*;;&)')====;==;)))'*;;===+~;)==;;=~~~-$$%--~+-$#$$$$-~--~==-$%---%###$$###$########$$$-%##"};
