/* XPM */
static char * jjHerbst4_xpm[] = {
"128 128 74 1",
" 	c None",
".	c #562206",
"+	c #D6B616",
"@	c #8E5A1A",
"#	c #562606",
"$	c #2A1206",
"%	c #5E2A0A",
"&	c #A25A12",
"*	c #5A2606",
"=	c #829656",
"-	c #D27A16",
";	c #CE7616",
">	c #622E0A",
",	c #8E4E0E",
"'	c #662E0A",
")	c #A65E12",
"!	c #CE7A16",
"~	c #6A320A",
"{	c #8E4A0E",
"]	c #AA5E12",
"^	c #7E420E",
"/	c #CE361A",
"(	c #86460E",
"_	c #AE6212",
":	c #9A520E",
"<	c #622A0A",
"[	c #D68672",
"}	c #BE7A6E",
"|	c #AE6E62",
"1	c #9E625A",
"2	c #66260A",
"3	c #6A260A",
"4	c #762A0E",
"5	c #6A3E0A",
"6	c #6E360A",
"7	c #924E0E",
"8	c #BE6E16",
"9	c #62320A",
"0	c #72460A",
"a	c #5A2206",
"b	c #8E2A12",
"c	c #7A2A0E",
"d	c #7A3E0A",
"e	c #A65A12",
"f	c #C2321A",
"g	c #9E2E12",
"h	c #5E260A",
"i	c #060606",
"j	c #664A42",
"k	c #463A3A",
"l	c #9A766A",
"m	c #463632",
"n	c #5E2E06",
"o	c #8A620E",
"p	c #BA9612",
"q	c #6E3E0A",
"r	c #6A3A0A",
"s	c #865E0E",
"t	c #7A4E0A",
"u	c #B69212",
"v	c #5A2A06",
"w	c #764A0A",
"x	c #926A0E",
"y	c #CA7616",
"z	c #5E2E0A",
"A	c #B26212",
"B	c #56260A",
"C	c #562A0E",
"D	c #A62E16",
"E	c #C6321A",
"F	c #964E0E",
"G	c #B66612",
"H	c #723A0A",
"I	c #C26E16",
"                       .            ..                                   ...........         .                         .        ",
"                  .    .           .  ....           ...             .....          ...      .                       ..         ",
"                 .     .                 ...     ....     ..       ...          .      .     .     .......          ..          ",
"                 .    ..                   ..   ..+++     .      ...@@@...      ..      .    .   ...     ..+++     ..           ",
"        .         #   .                  ...... .+++++   ..     .. @@@@@ ....    ..          .  ..        +++++.......          ",
"       .    .  @@  # ....              ...    . . ++++.. .     ....@@@@@  . ...   .         .. ..         +++++.      .         ",
"       .     .@@@@ # .   .        .   ..      ...  +++  ...   ..  .@@@@@. .   .. ..         . ..       .  +++++.       .        ",
"    ....      @@@@@#.$            ..           ..         %   .     @@@.. .    ...  ..     ....        .   +++ ..           .   ",
"   .   ...     @@@%#$    .         ..           ..         & *.     .  .  .     ....       ..          .   .    .....     ..    ",
"       ===.    # ##      .          ...          ..   ..# -;&>      .  .  .     .===      ..          ..   ..       ......    . ",
"      =====.   .....    ..            .............. ..   --,%      .  .        =====   ...           .     .                 . ",
"      ==== ..  ... ......            ...   ..     ....      '#      . ..       .====  ..........     ..     .          .     .  ",
"      ===   . ...   .        .      ..  ===.       ...      #        ..        .==== ....      .     .....  ..         .     .  ",
"      .=    ....    ..       .     ..  =====       ...     ..      ...         ..== ..              ..    . . .        ..   .   ",
"            ..$.%   ...      .   ..   .===          ..     .     ...        ........              ...       .          ..  .    ",
"            .$   ) %. .     .          ===          ...   ..    ..  ...................*         ..                    . ..     ",
"           ..$  -!-~  ..   ..          .==           .. .............##......      ...#>{]^*.............   ====   --  ...      ",
"    ...... .$   ---~   ..... .         .   ...       ...............%~~%.              >{]^*......///.......===== --- #.        ",
"   ..    ...$    -(    .     .         .             .....         * -- *...               #.    /////  ....=====%(_:~#.        ",
" ...      ..           .               .             ....          % --    ..       .       .    /////.      == ..%'<#.         ",
" .    [[}}..}}}        ..              .          [[}...}}}        * --     ..     .++      .    /////..            ......      ",
"     [[$$$..$$}}        .                        [[$$...$$}}       .*>>*..   ......++++     .     /// ...                ....   ",
"     [[[[[[[[[}}        ..                       [[[[[[[[[}}       .     ..  ..    ++++     .        .. ..                  ....",
"     |}}}}}}}}||         ..                      |}}}}}}}}||       ..      .  ...  +++  .   .       ..   .........              ",
"      ||||||||1         .  .                      ||||||||1         .           ..  +   .  ..      ..     .      ....           ",
"      }}}}}}|||                                   }}}}}}|||         .            .         .      ..      ..     .. ....        ",
"      }}}}}}}||                                   }}}}}}}||         .            .        ..     .         .      .    .        ",
"      }}}}}}}|1                                   }}}}}}}|1         .            .       ..                ..     ..    .       ",
"       }}}}}}|                                     }}}}}}|         .             ..                         .      .            ",
"       }}}}}||                                     }}}}}||                        .                         .      .            ",
"       }}}}}|1                                     }}}}}|1                                                  .                   ",
"       }}}}||1                                     }}}}||1                                                                      ",
"                   .                                                 .               .                                          ",
"                   .                                                .                .                                          ",
"                   .                                              ..         .       .                        .                 ",
"                   .                                             @@@   .     ..      . .         ......       .                 ",
"                   .         .                 .        ...     @@@@   .      ..    ..  ..      ..    ..     .                  ",
"                  ..        ..                  .         ..   .@@@@   .       .    .    ..    ..   .   .    .                  ",
"       ..         .         .        .          .          .  ..@@    ..       ..   .     .   ..    .        .                  ",
"         2        .        ..        .          .          . ..       .     ..  .  ..     .  ..     .        .       .       .  ",
"       ///3  ..   .       ..         ..         ..         ...       ..    . ....  .      . ..     ..       ..      .        .  ",
"       ///4 .    ..      ..           .     ..   .         ..       ..         .. ..      . .      .       ..    ...        .   ",
"       ///3..    .       .            .    . ..  .        ..        .           . .       ...      .       .   ...     .  ..    ",
"          ..    ..       .            ..      ....        .        ..           ...       ..       .      ......       . ..     ",
"           .    .        .            ..        ..       ..       ..           ...         .       .      ...         ....      ",
"           .   ..        .             ..       .. ...   .  +     .           .. ..===    ..       .     ..          ..         ",
"           ..  ..       .              ..        ..     .. +++   ..           ....=====.. .        .   ...         ...          ",
"            .  .        .               .        ..     .  +++   $$         ...   ===    ..        .....          ....       .  ",
"...         . ..        .         .     ..      ..     ..    5#..............     ==     .   ........%6   .      ...        .   ",
"  ..        ....       ..    .    .     ..   .  .     .....#*#..........           =    ..  ........ ---  .     .........  .    ",
"   ..       ...       ..    ..     ..   ..   .  .  ...........   $$$  ...         .     .  ...       ---- .    .....    ...     ",
"    ...     ...       .    ..       .......  .. .......           $$.  ...       ..    ......     .. ----6.   ...         ..    ",
"      ..    ..     .  .    .       ..   ...   ......               ...  ....     .    ......        %788-%    ....         .    ",
"    .....   ..     .  .   ..       .     ..   ....===          .    ...  .....  .. .......  .          6%.   ... ..       ...   ",
"    .   .  ... ... .===  .....    ..     ... ... =====         .     ...   .............   .            ..   ..   ..     .. .   ",
"   .    .. ..    ..====  ..   .          ......    ===        .       ...    ..........   .              .. ...    ..    .  ..  ",
"         . .$       === ..                ....      ==        .        ..      .....      .        .      . ..      .    .   .. ",
"         . .$       === .                 .....     =.       .         ...   ...         ..        .      ....      .         . ",
"         ...$       === .       .......   ... ...    ..    ..    .........  ..       .   .         ..     ...  ...  ..        ..",
"          ..$        .. .       .     ... ..    .     .   ..    .      ....#*       ..  ..          .     ...    ... ..        #",
"          ..          ...               ....     .    ........           .#9        .   .         ....... ..       .....        ",
"          ..          ..                 ...           ..     .          .*0++0   ...  ..        ..     ....         ...        ",
"          ..           .                  ..           .                  *0++0  ..    .                  ..           .        ",
"          ..           .                  ..           .                  #9009#..     .                  ..           .        ",
" .        ..           .                  ..           .                  .#         . .                  ..           .        ",
"  ..      ..           .                  .. .         .                  ..        .  .  .....           ..  @@@     ..        ",
"   .  ..  ..  .       ..  .               ..  ...      .     ..     ...   ..   ...  .  ....   .       .......@@@@@   ..       . ",
"    ..    ..  .   --  .   ..    ..   .    ..    ..     a .....   ...   .  ...    ....  ..         .....  ...   @@@....       .  ",
"    ..    ..  .  ----%.    .      .. .    ..     .    bc .      ..         ..       .  .        ...      ..    @@@.          .  ",
"     .    .. ...*de- *     .        ..    ..     ..   fg3.     ..        .......  .... .       ..        ..   @@@ ..         .  ",
"      .   ....    ''*. ..  .         ...  ...  .....  bch     ..  ..    .. ..   ...  ...      ..        ...    .   ..       .   ",
"       .  ...      ..   .  .          ...  .. ..   . aha     ..    ..  ..  ..  ..     ..     ..         ..    ..    ..      .   ",
"     .... ...     ..    . .         ... .. ....    . ..     ..      . ..   .. ..      ..     .         ...    .      ..     .   ",
"   ...  . ..     ..     ...         .    .....     ....    ..       ...    .. iiiiiiiiiiii ...         ..    ..       .     .   ",
"   .    ....    ..      ..         ..     ...       ...    .        .    iiiiiijjjiijjjijiiii  .      ...   ..        .     .   ",
"   .     ...   ..      ..          .       ..       ...    ...      .iiiiijjijjiijjiijjjiiikiii.      ..  ...         ..    .   ",
"   ...   ...  ..      ..      .@@@         ...       ..   .. ...    iilkliiimimmimimmimiiikkllii     ......                 .   ",
"   .  .  n.  ..........     ..@@@@@        ...   ... ..  ..    .    illkllkiiimmiimmmmiilkkllkki    ........===..           .   ",
"   .    +on ......    ..   .. @@@@          #nn#..   .. ..         .illklllkkiiiiiiiiiiklklkkkli   ...     =====....  ..    .   ",
"       ++pq...         .......@@@@        . rssr    ... .         ..illlllllklllkllllllklllkllli ....      === = . ... ..  ..   ",
"       ++pq..      .    .      @@@       .. tuu     .. ..     ......ikklllklkllllllkklllllllllii....  .    ===   ..  ..... .    ",
"        +on.        .   .        .    .. .  rs      .... @@@........iikkkkklllkkklllkkkkkllllii...    .    .==    .    ... .    ",
"         n.         .. .         .     ...  #n      ... @@@@@..  ....iilllllllllkkllllllkkkiii.        .  ..      .      . .    ",
"...      ..       .. ..          .      ..  ..     ... .@@@         ..iiiikkkllllklll===llii..         .. .       ..     . .    ",
"  ...   ...    .   .. .      .   ..      .. ..     .....@@@          .   iiiiiiiiiii=====ii             ...        .     ...    ",
"    ..  ..    ..    ....    ..  ....      ....     ..... @@          ..       ......=====               ..               ..     ",
"   .... ..    .   ......    .      ...     ...   .....               ..        $$$  =            ...    ..               ..     ",
"  ..  ....    . ...  ....   .        ...   ...  ....     .  .     .....       ..$          .       .......               .      ",
" ..    ...    .        ..  ....       ...  ... ...       . ..     .   .      ...          .        ..  ....      ......  .      ",
" .      ...   .         .  ..       ... .  ...........   ...     .    ..    ...    ..     .       ..     ..+++....       .      ",
"         ..  ......#    # ..       ..   .. .....     .....      .     ....  ..       .   .......  .      .++++  ...     ..      ",
"   ...   .....     vw++ v..        .    .......          ..          ..    ...        .  .                +++     .     .       ",
"  .  ... ...         x  #.               .....       -y-  ..         .     .......... . ..                +++     ..    .       ",
"       .....            ..                ...        --y   ..             ...       .. ..                 z++     ..   ..       ",
"         ...            .                 ..         --A                  ..         . .                  #v       .   .        ",
"          ..           ..                 ..           ~                  ..           .                  ..           .        ",
"          ..           .                  ..           .  .       .       ..           .                  ..          ..   .    ",
"          ..           ........           ..           .  .       .       ..          ..                . ..          .   ..    ",
"          ..   ..     ...  .   .          ..          ..   .     ..       ..          .  .            ..  ..          .  ..     ",
"          ...   ...   .     .          .  ..   ..     .    .     .        ...        ..  .  .     ....    ..     ...  . ..      ",
"           ..     ..@@@         ..    ..  ..    ..   ..    .    ..         ...       .   ....   ...       ...  ..     ...       ",
"           ..      @@@@@         ..   .   ..     .. ..     .   ..      .   ....     ..   ..    .. ..       .. ..      ..        ",
"       .......     @@@@@..        .. ..   ..      . .      .  ..       ..   ....   ..    ..   .v   ..      ....       ..        ",
"     ...  ....     @@    ...       . .    ..      ...      . ..         .    .......     .   .v ++  ..     ...       ..         ",
"  ....  === B..     @@     .       ...    ..     ...       ...          .      .....     .  .. ++++  .     ..       ..          ",
"...    ===== B..   ..      ..       ..    ..     ..   ==  ...     ..    .         ...    .  .  ++++  ..... ...     ..           ",
"       ===== C...  ..      .         .   .........    ===..        ..   .          ...   . ..   ++   2 . .. ..    ..            ",
"       =====  .... ..      .         ..  .......      ===.          .  ...........  ..   ...       //D .  . ..    .             ",
"     .  ====   ......     .          ... ...        =====           ....   ...      ..   ...       //E  .   ..   ..             ",
" ...  .     B........               .......    ......===             ..      ..    ...  ...        //D      .. ...    .         ",
"   ....   ...    ....              .   .... ............            ..        ..   ..   ...          2      .....     .         ",
"      ..... .     ....            ..    ..........  .......       %~%             ...   ===                .....     ..         ",
"        .   .      ...            .      .....   ..    ..........%FGF%...       ....   =====  .....       ....       .          ",
"       ..    .     ...           .       ....     ..      .......HI-IH.................=====.................       .......     ",
"       .            ...                  ...       .              ---H.................=====...   .........         ..          ",
"      ..            ...                  ...       .              ---  ..                           ....         + ..           ",
"    ...         [[}}...}}            [[}}...}}     ..          .        .                              ..     ++++..      ...   ",
"    . .        [[$$$...$}}          [[$$$...$}}     ..        .         ..             .  ...           .....+++++.  ......     ",
"   .   .       [[[[[[[[[}}          [[[[[[[[[}}      ..     ..           ..            . ..              .. ..+++.....          ",
"       .       |}}}}}}}}||          |}}}}}}}}||       ..   ..             ..           ...                .                     ",
"       .        ||||||||1            ||||||||1         .....              ....        ...                 ..                    ",
"                }}}}}}|||            }}}}}}|||          ..                 . ...........                   .                    ",
"                }}}}}}}||            }}}}}}}||           ..                .      ...                      .                    ",
"                }}}}}}}|1            }}}}}}}|1            .                .        ...                    ..                   ",
"                 }}}}}}|              }}}}}}|             ..               .                                .                   ",
"                 }}}}}||              }}}}}||                                                                                   ",
"                 }}}}}|1              }}}}}|1                                                                                   ",
"                 }}}}||1              }}}}||1                                                                                   "};
