/* XPM */
static char * gimp_temp_210217_xpm[] = {
"128 128 133 2",
"  	c None",
". 	c #509607",
"+ 	c #469707",
"@ 	c #3D9706",
"# 	c #5D7D06",
"$ 	c #58A00B",
"% 	c #8BB314",
"& 	c #6FA10B",
"* 	c #629707",
"= 	c #479E0A",
"- 	c #64A10B",
"; 	c #447506",
"> 	c #592F06",
", 	c #589607",
"' 	c #6EAD10",
") 	c #828C07",
"! 	c #349706",
"~ 	c #628E07",
"{ 	c #448D06",
"] 	c #5E8607",
"^ 	c #A6A50C",
"/ 	c #7FA80D",
"( 	c #6E9907",
"_ 	c #378E06",
": 	c #799A09",
"< 	c #E87125",
"[ 	c #6F8808",
"} 	c #824E09",
"| 	c #869A08",
"1 	c #538D06",
"2 	c #D39F09",
"3 	c #46A20A",
"4 	c #7D920C",
"5 	c #5E6806",
"6 	c #938C08",
"7 	c #B79614",
"8 	c #C5821A",
"9 	c #B6840B",
"0 	c #9F9108",
"a 	c #829908",
"b 	c #C67418",
"c 	c #A4840F",
"d 	c #D67620",
"e 	c #7C7309",
"f 	c #B8A008",
"g 	c #AA9811",
"h 	c #92A409",
"i 	c #7BA20C",
"j 	c #7A8A08",
"k 	c #8C7F10",
"l 	c #8A9A0C",
"m 	c #929D09",
"n 	c #DE861D",
"o 	c #727D0A",
"p 	c #787E0A",
"q 	c #8F640B",
"r 	c #C49D0B",
"s 	c #B0980D",
"t 	c #6E9209",
"u 	c #CE5A11",
"v 	c #A8720D",
"w 	c #8E720C",
"x 	c #4F8606",
"y 	c #AB630E",
"z 	c #A09B0A",
"A 	c #929511",
"B 	c #EE9E0E",
"C 	c #77840A",
"D 	c #A6710C",
"E 	c #81740E",
"F 	c #709607",
"G 	c #76AE0E",
"H 	c #788608",
"I 	c #5B4F0A",
"J 	c #5C9507",
"K 	c #639406",
"L 	c #7F950E",
"M 	c #6E8808",
"N 	c #96800F",
"O 	c #77910B",
"P 	c #552306",
"Q 	c #809807",
"R 	c #5D8C08",
"S 	c #848C07",
"T 	c #5F7C08",
"U 	c #B68E0C",
"V 	c #929510",
"W 	c #7C920B",
"X 	c #867908",
"Y 	c #4C8D06",
"Z 	c #E2561D",
"` 	c #6C950C",
" .	c #89940A",
"..	c #2E1606",
"+.	c #D65812",
"@.	c #808C07",
"#.	c #6D9706",
"$.	c #4D9508",
"%.	c #545F08",
"&.	c #658907",
"*.	c #8FA108",
"=.	c #8C9D08",
"-.	c #5E8009",
";.	c #6C4007",
">.	c #5E8A08",
",.	c #CF9E08",
"'.	c #719907",
").	c #A49E07",
"!.	c #BB6217",
"~.	c #578406",
"{.	c #7F5809",
"].	c #AE9312",
"^.	c #818B06",
"/.	c #619106",
"(.	c #A1A30B",
"_.	c #5A8B06",
":.	c #4B8806",
"<.	c #729209",
"[.	c #589507",
"}.	c #D6866E",
"|.	c #BE7A6E",
"1.	c #BE7B6A",
"2.	c #6E9309",
"3.	c #479607",
"4.	c #3B5D06",
"5.	c #7E7E56",
"6.	c #A87064",
"7.	c #A3665B",
"8.	c #020202",
"9.	c #FEFEFE",
"0.	c #4A3C31",
"a.	c #947668",
"b.	c #867A5E",
"                                              .                         + @ @                   + # + + + + $   % & *                             # = + . - ; + * * . .                   >         . , ,                               , $   '                 ",
"              $ ) ,                 !       + .                       # . . . , ~ , + !         { ! ] $ , . $ ' ^ / *                     + . ( ] $ # * (     @ + - ' ' # @ + = !         _     %   , . +     ^ : +                   ( * - + -                 ",
"            , < < [     , ,       }       : $ ( |                   %   . ( & . 1 { + _ =   . = ! _ _ [ # ( 2 2 2 2 = >             = - : & $ $ =   ! # =   3 ! + ' % 4 $ . _ + + @       _       $ . + . 5 6 ^ : ,                 ( : / + 3 =                 ",
"          7 8 < 9     . + +       0   + , * 1 a : ~                         ( * . . { + @ < b c b d , { e a f g     ~           + + = - h i & $ 3 + @ _ ] ! @ ! ; ; | % - , 1 d c         ;       ; @ _ $ h ^ 0 ( , a j         @ . . $ b k 6 c                 ",
"      l m 4 6 n o + p ( + +   q l r a 0 s s , % , 1                       , * ( * . t ( u v ] 1 k v u k p w 9 0   2 5         , - & & / / h / ( $ & , @ @ ] 3 ! @ ] 4 l t ~ w k p       @ @ ' 3 @ ! 6 6 6 & i & ] = ~ # _ ! + , , 1 ( u j . + j 8 g t           ",
"    . , * * ~ k k 1 ] & * ( ( m r r 0 g 7 s + x e 1                     a ( * j : . ( 6 y t , , j k k c v v w [ ) *       / - , - & % ^ % % h i $ m h , , . # { o + t : j w k w p [ w 3 ! = ! ; _ ! 0 0 0 3 3 3 $ 1 ] = { _ , | z m u 6 : * + . 6 , . .         ",
"      * t : ( ~ ~ . x / m z z z 7 r 0 0 0 0 @ @ . ]                 - | f m a ) 4 * j * w . 1 t t [ w v 9 9 w ) ~ ~ } : i - . , - & ^ f / : n n 7 z i * 0 0 0 [ a 5 ( 4 w v b v k j [ u * @ ! _ ! _ 6 0 z $ + @ . * ~ * . + 4 g r r b A a * { @ o @ @ +         ",
"    * ( c 0 A : ( , $ h h f f m 0 s 0 ] ~ 1 @ 6 0 7                 j ^ 7 g g s l k ~ 0 e ] ~ w k ) 6 c 8 9 c ) 4 & - , 1 . @ & & | ^ f i & n B 2 h & 3 A 0 g * ) a | l k v v v k j x y . + _ ! ! ! @ + + . C b D E F [ + 1 ( m z 2 7 0 4 . + x k _ {   !       ",
"    : a A 8 s 0 ) p A 0 0 0 f s m A l 4 t l & 0 0 r                   ^ s s g s A 1 p ~ t 1 t j # ~ A 0 7 c p 4 l i G ] . { @ 2 : h ^ z - & n B B 2 o / 6 0 0 . - p m z 0 c v v p ~ 1 v * @ { @ @ @ _ !   . v v v k H ( # x * * g r 7 g 4 ~ 1 ] c ] 4 { @       ",
"    a 7 g s s f a t 0 0 0 ( z ^ s A 0 a ^ % % 0 s }               + * ) z 7 s 0 ) j ] e j ) 4 ~ t ~ [ j 6 j ] 1 , $ % G , . * 2 ^ i h / ' & n B B = I % 4 ~ j ~ , * ) 4 A A 6 j j 1 [ b { . 3 ' ' ' = @ ! J c v v p ~ K 1 o ~ j a g 7 z A t ] k o o [ ] 1   %   ",
"      7 7 g s g j [ 6 c 0 . l g r g s f f / i t 3 ; :             . * * ) A 0 A ) p w v 9 7 g 4 ( ( ( ) t ] ~ . . $ % m A m ^ 2 % B % % % G - - { _ A f f z s 7 7 4 t j a 0 A m A a 0 ( . $ % % % $ + { @ L A 6 j j 1 M N O ] , [ 4 4 A 4 ] o k q w k o 1   P   ",
"        0 ) A 0 ) k k ) ~ 1 ] g g g s f f : - , . @ ,             . , t : ) 4 l ) v y v 8 7 r   t 4 m / . . 1 , , , & / z f 2 2 % ^ h G h i * 0 0 0 0 f f r 7 s r z 4 : ) t : z z | A a * * 0 0 6 x @ ! ! Q 0 A m A a 0 ( R . # 1 0 0 0 ~ [ k q y y v c 1 {     ",
"          4 4 c w v w c A j ~ 4 m A A z ^ | | & , @ ! 0 0 0             o [ 6 A ) v y y v c       ] & & @ _ . * * 0 0 0 4 A ^ f f s * + . ( : z 6 0 ( h ^ f s 0 7 f A z c A 4 6 t t a : t ( 0 0 0 $ = 7 j S t : z z | A a * T 1 # 0 6 6 1 o k y y q v c ] x     ",
"        . : A 6 q y y k 0 4 ~ * ( i l ^ g z ^ l & . @ 6 0 0           j ~ 4 z s 6 c v v w k 0         , . + ( m i 0 6 6 1 [ 0 s 0 z , @ . m z 0 c c . , | z | h f f z f 9 c g A ) ~ 1 ] 1 , s s 0 & q { , U V W 6 t t a : t ( X Y 6 6 6 1 ] e v y v v c ]       ",
"        , i m w q y y w A l ~ * & h l r 2 ^ ^ g i ~ + 6 6 6       = ] & : 4 g s 6 k k p e [ ]           . + : m h 0 0 0 1 1 , 0 0 s , + ~ A 0 j ] [ ~ 1 ( : m ^ ^ f f g m z f g ) [ * ( * - : ( & Z w _ + : ^ ^ ` ) ~ 1 ] 1 , s  .! ! _ + ] k c y c k j ]       ",
"      @ 6 c 6 p k w q o o ..  1 ^ ^ 2 r ^ 7 7 ^ : . { ! , G           - : A s 7 l ) j o 1 { @           @ + ] i h % a ( , . + . * , . . ~ ) 0 k v w # ] 1 * h ^ a j 4 j ) l m 6 [ ) ^ ^ h ^ ^ % h +.w ! _ . g ^ | @.[ * ( * - : #.$.! ! @ ~ 4 6 c c k t 1       ",
"      + A 6 c # p e o %.> ..{ x B B B ^ A 7 g A ( . @ ! @           = - g g g 7 a ( ~ , . +             3 P . * * 5 % l & $ . @ . * t t ] p c v v v k ~ ] i ^ ^ 4 t ~ j 4 A c c c 7 r 2 r f ^ ^ / Z w 1 { w u ^ , &.) ^ ^ *.^ ^ % =.-.! { A   6 j 6 [ 1 {       ",
"    $ ! 6 6 > > > > ] > ..      { B B 2 m A 6 t , + @ !   *         = &   7 A A 4 p + # { _           %   P { @ @ %.;./ ) / & * ( i i [ ] p w y y w 6 [ [ ( m z z l t j 0 0 c v v 9 7 f 2 f ^ ( , * q 1 @ ] w y + >.7 r ,.'.).^ ^ / !.x @ 6 0 0 ] ] o _ {       ",
"      ! ! _ ! #   > P P ..        { _ , $ j ] ] 1 @ {     *         =     0 4 4 ) * @                     > _ @ @ %.      / i | m % A . ] # k v w y [ [ ~ ~ n < < b u 8 r 9 9 9 v v 9 f g z l , _ { { o { @ { @ { ~.{.].^.x /.(.( , _.:.{ 6 6 A { x x # {       ",
", . @ _             P P                   + 0 I 6 { !                     . , p * * =                     P P P >         $ ' m z z i . { ] ] w k e # # [ m d 6 6 6 A r r r 8 9 b y 6 6 a A l , + { { { _ . . ] x o e e e o ] <.[._ { { _ _ ! _ x _ _ _ #       ",
". { {       }.}.|.|.P P |.|.|.            @   > 6 # @ =                       =     !               }.}.|.P P P 1.1.1.      $ ( l ^ h . * a [ p [     ~ a ^ 0 * : a a g r 7 7 8 v c 6 ) t : t ,       { _ ~ ( [ # q y y q k ) 4 2.3.4.{ x _ { { { { _ _         ",
"    +     }.}.......P P ....|.|.                6 @ ] @                                           }.}.....P P P ....1.|.      t i % g 0 s m j t # #     g 7 : * m a * : g 7 r 7 0 c ) [ ~ * *         _ _ 0 0 k o e y y q 5.c 0 A : * . . @       P q ; ;       ",
"          }.}.}.}.}.}.}.}.}.|.|.                ; ; ! #                                           }.}.}.}.}.}.}.}.}.1.|.      | & h 0 0 0 ( 1 {   # ] ( a a , + ( * , ~ 4 A 0 7 g A ) [ ( & -         @   _ _ x # q y y q c 6 7 g & * =                 P P P > ",
"          6.|.|.|.|.|.|.|.|.6.6.              ! ! @ _ !                                           6.|.|.|.|.|.1.1.1.6.6.      i   i 7 0 0 1 1 _       e     ~ ] ~ j , . : A z z ^ h A a m h :       +   ! _     x # e v c k 0 g A ( - $                         ",
"            6.6.6.6.6.6.6.6.7.                _ @ ! ! _                                             6.6.6.6.6.|.6.6.7.            ( : . { $ , .       (       * v v ) 4 a f r f ^ | m A A ^ 7     - x @ ! !       x ] c 0 ) A A l : 4 + =                       ",
"            |.|.|.|.|.|.7.6.6.                + . ! ! ! '                                           |.|.|.|.|.|.6.6.6.              , { + $ ( (               . - * ( / ^ ^ f f h * & t l 0 7 7     . @ _           x c c i ( : ( 2 g . = = = ;                 ",
"            |.|.|.|.|.|.|.6.6.                  = 3 !                                               |.|.|.|.|.|.|.6.|.              - + ; ( m                 a m 4         h ^ l * , i l 7 7 7 7 ~ { { @             @ + + = - $ n 2 * = = 3 + . .             ",
"            |.|.|.|.|.|.|.6.7.                                                                      |.|.|.|.|.|.|.6.7.              & , { * l                     e           : : 5 t t h 9 7 7                   ! ! _ @ . $ = ^ B B 2 & = = . ,               ",
"              |.|.|.|.|.|.6.                                                                          |.|.|.|.|.|.6.                  5                           e %.          * ( t ~ ( 7 7                     @ = . 1       B B B B @                       ",
"              |.|.|.|.|.6.6.                                                                          |.|.|.|.|.6.6.                &                               &                                               { . x         B B @                         ",
"              |.|.|.|.|.6.7.                                                                          |.|.|.|.|.6.7.                                                                                                    +                                       ",
"              |.|.|.|.6.7.7.                                                                          |.|.|.|.7.6.7.                                                                                                                                            ",
"                                      1                                                                                                 ( I                               P                                                                                     ",
"                            ~ ( , { { 1                                                                             @ @                 ,                                 P                                             _ { {                                   ",
"                      0 0 0 0 ~ ] x { 1 ]                                                 _ * *                 = 3 3 @   , *       ] o 1   ,         $   ;               %.                        =               x x 1 _ !                                   ",
"                # 3 $ s s 0 0 1 ~ ~ x x #             x 1 1                               # _ 4                 +.3 + + . a 4 1 . , j 4 ~     >       & # %.P             q   - &   & : )         , { @ @ 1 # ]     1 1 x @ _                                   ",
"              0 0   $ 0 s s 0 ( & : [ x 1 @           x 1 _                               1 { x ~             Z +.q = = = $ * ( # , 0 0 0     >   1         P P         A m   : p > $ i |       * *       { , ]     1 + _ !                                     ",
"            . 0 0   [ , 0 0 s j t l j ~ 1 +           { . {               -             * * ] ] 1             u u e + ] @ $ * a [ ~ 0 0 6 , { }   6           ;.      * * i   ^ s } t : & -   i -   ~ 1 [ , , * 1     + ! ! !         @ { @                     ",
"            + A 4 a m ) . . , 1 j 6 j 1 . +     @ + + . +                 1           1 ] : t ~ ~       < ( $ [ c [ $ j . $ , t a : 0 6 0 ] 1 >   6   ~ 1 { . 1 & t t j $ - |   f   6 z m - ( $ = = * [ * * , , & G - ' $ #         _ @ x _                     ",
"            ! + + ( h h [ , ( * [ [ 1 + . ,   , . + + . +                 j t         x ] t , , t : * . < * * ( 0 : ( c * , ] * (     ~ : ( ~         { 6 0   : { 1 ~ z l & h       9 r m * - & $ $ , . , , ] , i ' ' - G ' G G G G       1 ,         a a t     ",
"            ! s : m f s - 4 | j ] ~ . @ , *   + + { 1 x x               4 j (         + 1 + + , t z A ~ d   , t 4 * ) v * a m &     j ~ a | 5   . 1   { 0 6 ^ 1 , * a z m & i       8 B * ] * : i : - . { + , # x x + . # %.' ' ' G G   I * (         ( a a     ",
"              2 a : l ( $   j 1 x x ] * ~ ~ + . @ + x #               + , j (         , 1 . . ( A s A * : a $ ~ , [ y - * m f     4 : , ( *     [ *           { . ( z ^ m & m       B : [ [ ~ & z ^ h : * ( * ~ # @ { ] ~ ' G ' ' ' & P 1 ~ t (       ( * :     ",
"                m , * , $ $ 1 [ { ] a m m a ~ * . I                     , { [       | : ~ , , : z g 0 t ( : . . j w $ , : z       m 4 . . 1 @ @ + [ ,   ] { _ _ { 1 t m a t &     : ( * t [ ] a s f f a * : ( , . ] 1 t - & G & $ I     ] 1 1 1     c q =       ",
"                  a * $ * $ | , # ~ 0 f f A 4 ( $ >                       ] , [ - & | ( , * ( 4 0 A A j * * . + 3 * * &       * * | ( ; x . + {     # ] x x _ _ { @ . 1 p ( t [ ] + ( m z A 0 4 m z f ( + * * t 0 0 g ~ ] x . . {     ] x { @ . : z m & &       ",
"            $ $     . 3 $ ( 4 ~ 1 [ 7 r r 0 [ 1 , I                       * [ p j * , { 1 * : m g 7 0 A a * & , $ a z       : * , * %.# + , t       ( a ~ ] 1 { 1 1 , ] 0 0 s ) ~ [ m r f r z a g s 7 * . . * ( 0 0 0 ] x ~ 1 ]       { { _ _ + & l m . $       ",
"      @ @     = $   $ . : m 4 [ [ # 9 0 7 A ~ 1 * ]   $                     m 0 | 1 , ] 1 ~ | s 7 7 s 0 ) t * $ $ l z   z * , * * ( p * , t m   ^ | h h c c c c 1 , o . 6 0 s s ~ ( z f g f z ( 0 0 g * * + t a s 0 0 ] # ] x {     x x { ! _ + , i ( , =       ",
"  ] - - 3     = $ $ $ * a z ) p w p c 9 0 j ] ~ ~                         @ ( G ] + { . 1 ~ a 7 7 7 z 0 m 4 * + - e   g h * + . * t q $ . m m f f h i ^ c c c c x [ t ~ 0 6 7 s 0 * 4 6 h z m , 0 0 0 ( : * . * ( t   ] t [ 1     { x x . { + + & ~ ~ ( $ &     ",
"  + h % G     + + $ = + t 6 6 v y v k x # . * , @                       - { & - * x + j A m z s 7 7 l l z | 1   . $ j a | & . . 4 k - = j * ( z 8 a 4 ) v v v v e ~ ( ] , 7 r s 0 , j | j m : * , , . , ~ i t . + t :   4 l       x , { { , , * * ( $ , - e     ",
"= . A 6 6 ! _ ] @ { ! @ . j k v b y e # { # + . +       @   %   [ , + @ . 0 0 0 * , ( m r r g l | | * : m : . 1 +   - , ( & * * m z , 4 , , j 9 d ( a 6 v y y q o ~ * * - i 7 0 0 p * * + x . ( & , + . . ) z ( . ~ *   4 s     1 ~ : 1 . + = . * t * * q       ",
"    6 6 A @ ! _ x = = . , ] w y y w w ] { ! _ { {     @ $ ]       . . @ + 0 s 0 * * ( A l g ^ & . 6 0 0 : ( , . 1 + @ - * * = $ | m * * * c k p j v j p v y y w o e * [ % - ( & j ( $ , . @ @ , * . . , * z 7 ( . ( 4   . 0 6 0 0 i , ~ 1 - ; 0 0 0 , 5         ",
"    6 0 6 4 ! # _ = ~ G . { p w e o # x { ! ! @ + ! @ = 3 ,       + , $ . 0 r 7 4 4 4 : 4 m h - . 6 6 0 . . 1 1 + 1 @ { . + = 3 & a ( a 6 9 ] . + [ ~ # k v q q e ~ a ' i $ = . + _ + = , , . . ~ * ~ ( l f A ~ * m ( @ @ 0 0 6 0 ] + + . + { A 0 0 , ( m       ",
"    3 - % ' ] ! ! $ G - $ 1 ] [ ] x { { + ! _ @ @ _   { @ =         = = . i z m A g 7 A a t ( - * 0 0 6 ! { ] @ _ @ @ . , $ + . $ : : m b c , . @ 1 y x e p u e [ 4 l : * . , $ . ; _ @ . . . ~ : ) : t d 8 9 p [ * . ! _ , 0 0 0 . ] + { { { 6 6 6 1 * :       ",
"  ' G ' ' | # # _ & - ' + { 1 1 ] . @ { + ! _ { { x x x           %   @ + & | m g 7 g ^ m . ] $ , . + _ @ ] { @ ! _ @ + , t ( : * , , c d k . . { o - * x ] o ] [ 4 0 k j ] , # 1 _ { . . + .   g g 0 b b v w w [ [ 1 @ _ ~ m z a ( * [ 1 1 x 1 , @ . . *       ",
"    ' & t ; x ' ] $ & . _ , ~ , 7 * + = _ _ _ x # o o ]               ! = - ( m z g 7 A : - 4 I = i ' ' - + . 0 6 A       * 4 m ( , . + + v p ] ~ _ { , %.# 1 ~ [ k v w k I %.1 . { . ~ . @ , 7 g 7 7 8 9 y y w k j t { _ h z r s 4 , ( * = = = = = { . 1       ",
"    * # * - ' ' I i - - ; ( . $ ( b c [ + { 1 o q q w e # %.        _ @ = + , * : 4 a j   } ' & G G - ' i G h / 0         t ( 4 l a ( , * ] + @ + + + { # %.. ] [ q y y } } # @ { 3 . x { @ .   g 7 7 c v v y q k 6 ~ { ~ , 4 m f ( + = = = = =   3 =   ,       ",
"    # + . % $ $ - & [ 1 - x @ @ . ~ ~ + + { x e q y y e     P     %   3 = = , , , , , ] I ( & i & $ . . + . & h s s ( : a A A a a l ( * : ( , + + + + # _ ' & i j } y y q v c @ ! @ ! _ { 6 0   l l 6 c v v q c 9 g ~ @ @ 0 0 0 l ( $ = = = = = = + - $ 1 .     ",
"        & ' i & & * ~ # + ! ! + + @ @ @ @ x x o w y q p [           = = 3 = = . * , , 4 ) : : ~ ~ A * - , + . * a ( , , a 7 7 g l : * : i ( , , * - * 0 6 6 % l [ e q q e k 8 + @ . + ! ! 6   G & ( ~ ~ j 6 e k 0 z * 6 0 0 6 0 - * - , 3 * 8 7 - + $ + ~ + +   ",
"          ' % % i 0 ) 1 x ! _ @ , { { @ @ _ x x e q e p [           ! = = x + + + ~ , ) 9 c k p [ j ) a : * , ~ ( : a | g r r s g l ( * ~ . = & h | & 0 0 0 & % : [ [ k 6 7 r ' ' ' 3 ! ! 6 G G ' . x x [ ] x ] 4 a , 0 0 0 0 6 + $ - $ c < < n 8 & . , t , ~   ",
"          4 % % 4 7 c ~ { _ ! t k ] @ + { @ { 1 ] e   ) ~       ; _ # ! { + . . + . * : j k w v k 6 0 z l i ( * . ~ l z f 2 r 7 s s a ~ ( . & / z l $ 0 0 0 i ' i ~ t ( ^ 2 % ' % ' = ! !   / / G , + * * . @ + * ( , 0 0 0 0 ! = = $ * 7 - - 7 B r _ ! 1 ~ * , ",
"            z % A j 4 * * - - 8 b   o + @ @ @ @ ,               3   ! # 0 4 * , * * , ~ p w y y v c c A 4 & m z * ~ ) ) z f 7 A A A a : j a / A m / ] + + 1 . . . . $ & ' $ * = = @ { _ { G G - | - . , ~ . @ @ + . @ { @ { . ! = = = & ' ' ' G B +   ! . , , - ",
"      &           6 % 0 0 A % h Z   ] @ @ _ _ = -                   ! ! 0 6 ( * : ( * ] o q y y v 9 c z 0 : m z ( ~ 6 A ~ : : ~ a a : ( a 0 7 f m g 0 0 + _ ! _ ! @ . $ $ + ! _ { _ { 6 i /   j | & . l ~ . @ { . 1 + @ { { { @ = = G ' G - ' i B       + . . . ",
"      i       0 6 0 % 6 0 6 * -       @ x ! ! = '                       0 0 0 , ( ( ( 9 9 9 v w k 6 6 )   z r m t A z 4 t * 4 4 4 A a * a s 2 r z s s s . . @ ! ! _ + 3 3 @ ! _ { { _ A h G   { 4 ( * 0 6 4 + _ { + + + + { + + - G ' * A = G ' +               ",
"    + * :   , 0 6 0 $ 6 6 6 ! {         @ ! ! @ + !                       : ) : , * : t o A c k ) j : t   ( a t ] , t t , ] 1 4 A | : ( a A z 7 s s s s $ ' & 3 + ! _ @ _ ! ! _ _ { * 0 0       . . ( g 0 0 ( ~ + + { 0 0 0 & ' ' G   . 3 - / & +               ",
"    + . & i h * . , ] + { ! { _ _         ! _ { ! _ _ !                   A z s l * , t ~ l | t [ a 4     $ + 1 . { { t p ~ a z f     A 0 ( 4 z z ( a : ( i G & $ + { ! ! ! _ + . * x . 1   %           /     ( * . . 0 0 0   G G     - ~ , [ ] 1               ",
"( ( * , $ / h ( * : ( , + + _ _ _         ! = ; ! ! _ @                   z f 2 0 m A (     . {           & . 1 ~ ~ 1 j j t       r m s f A t A m j ( , , 1 & / h i = I I I , ; , * { { @ 1             / h   - , * ( s s s / G G     h 4 [ 4 # t               ",
"~ : m ) & $ - - ( ( [ 1 ] . ~ 1 { _         = ! . , - -               . i f 2 r g 0 z a   . *       *     ~ . { + ~ 4 * . ,         f f z ( ( z : ( * , + . . - ' / I 8.8.8.I 4 , * x + 1 ] 0   a , a : - % / & , : a *   ( i - 1 : A A 0 z e j [           -   ",
": A z 6 * ( ( - - : + # 1 t ( j 1 { _ + + @ = ! * ( G #             = $ - z s 7 z 4 : * +   . . , . + + 1 * , + , m l 1 . . @ * m z m < Z Z < d * . 0 0 0 + $ $ - & 8.8.9.8.I t { # 1 x + ( ) h & & ( ( + . i / G ( a t : [ . . * 4 A 7 g 0 k l (       f 2 2   ",
"    ^ i t : | * ] & a . ] i 6 0 0 _ { . $   = = ( : # %.        P - $ $ * ( h 6 A 4 * ~ + + * l m ) : ~ * * ~ 1 * z A ~ 1 1 + + * ( u +.u u 8 6 ( t 0 0 s h h h / - 8.8.8.8.8.+ # { # , @ . * ( * * * ~ 1 * ( m h a ( a 4   j | # 4 A g 7 A ( l m     - 2 )     ",
"    & j + ~ , + @ p ' i * % 0 6 0 # + , $ > , $ & j 3 ! 3           * ( ( : j 4 ( : ( ( * , a f f f : ( ( . 1 1 1 a ) t ~ ~ . . , * +.b k k ) * * p A s I I I h | ( B B ..8.8.8.8.[ , , * * ( 4 t ~ * ( * , ( z r f a a l   l A 4 ) 4 A l 4 : z z     (   2     ",
"    k , * t * . + . ( ^ h ^ 0 g 0 + 1 $ - : i * $ - = = $ ,         . , * o & , ( : A 4 * * : h ^ z * + @ { 1 ] o j ) p j ~ 1 + . * +.k . , , * . [ , I 8.8.8.q 1 B B P P P 8.8.8.8.I ( : ( ~ ~ ~ t ( * * . d ^ r f m : : (   : ~ * ( : a | m f z     s ( +     ",
"    : ~ ( ( ( * . t l f f f h * * 1 = = - i i & $ $ $ f & *           + ] * , , : 7 r z ) ( , * ^ ^ * _ + . ] p w w e p x 1 1 + + . +.k . * i | . ] . I 8.9.8.8.@ B ! ! ! P 8.8.8.8.I I a a ~ { 1 ) l ( [ 8 7 s f f a | : , . ] + x . * * ( : | :     g , +     ",
"    , * a A A 4 4 6 d : ^ ^ : . . * * , $ ( a | | & : w               # + , , . n r r g A A * * / h : , . 1 [ 9 v y w w 4 i . ! _ + , y ] ( m m . + { 8.8.8.8.8.= + @ ! ! 8.8.8.8.8.8.8.t a | ~ t m 7 ( ~ k 0 m z l : i : , x . { { . . . , , . .   0 0 1 {     ",
"    ( 4 s f z A 4 s @ , | h - , . . * ( i , $ i m | m m &               1 { * , n n 7 7 A A , + : % h a * ~ j 9 v u y k p i i ! ! @ + @ w ~ | | * 8.8.8.8.8.B B ~ = !   { . 8.8.8.8.8.8.8.8.| t : z r A t t ( , ( * * ( : o + . * t t t ~ t , + + . ] ~ k       ",
"  & 4 z 7 r s 4 ( ~ + + * * ( * . @ + a 2 m , ( | i m h                 { + = 3 n n 7 z A : * . $ % h a | 4 ) v v y y q 5 * $ ! ! ! { ! _ . ( : 8.8.8.8.8.{ 8.B B 8.8.8.8.8.8.8.8.8.8.8.8.8.o , ( z n c 4 : ( , , ~ , ( t + { ~ m z z l ) : * + @ + ~ t 2       ",
"  1 4 z 7 s g a t ( ~ , . 0 g z . . ( g f f & m m & z i * ,         + _ +   + 3 n n d 4 * * * , * % % 4 z m A 6 c v v } j . @ _ @ @ @ { %.@ + * 8.8.8.8.8.8.8.0.B 0.0.0.0.0.8.8.} 8.8.8.8.8.8.~ , , < u 6 : i ( * , , t ] ;.. * m f f m ( : ( , + ~     2       ",
"  ~ l A z g A A a 4 a ( , 0 0 0 { t 0 f ^ : l f f z * a * (         . + +   @     n d v o ~ . , ( h % h A A z s c 7 9 0 4 , + + @ { @ @ ] 8.8.8.8.8.8.8.8.0.0.0.0.0.0.0.0.0.8.I 8.8.8.0.8.8.8.* 1 . - Z y t ( ( t A ( q ;.  + . * | z l 4 t t , , :     ~ 1 ~ i ",
"  * ( ( 4 : * 4 : A 0 A 4 0 k 0 j 4 t 4 a , ( z m ~ , : ( : :   >     . ,         n d v [ { + , , : z s 0 0 7 r 7 r r g m i i $ , * . + 8.8.8.8.8.8.8.8.0.0.0.0.0.0.0.0.0.0.8.8.8.8.0.0.a.8.8.5 @ = $ $ - w ( , , . | z * @ + $ . : z ^ m m l ( ~ * l   ~ , *   ",
"    . . , , 4 4 4 A g 0 4 p 1 ~ 0 l , { . ( m ^ z * : m z z m   e             . + + @ + + @ @ + , * g r r s 7 7 7 r 7 s f % % i $ * ( : 8.8.8.8.8.8.0.8.0.0.0.0.0.0.8.0.0.0.8.8.a.0.0.b.a.* 8.8.@ + ( h m a ( * . . : l * + + + . ( m g r s z l : ( ( : ( a ~   ",
"    * . , * : A 4 A g g 0 ( & o 4 a a * 1 l z q m * ( 0 f f f a *           + @ { @ + ! @ @ = ! * : s r 7 g s s 7 7 7 g m l a ( * , : 8.8.8.8.0.a.a.a.8.0.8.8.8.8.8.8.8.8.8.8.0.a.0.5.0.0.0.8.8.. - m f r ^ i ( , + , ( * , . . + - a s 7 f ^ a & , . . , 1 ,   ",
"  ( a . ( l l l a ) 0 A A 4 ) t 1 1 A l , |   c j , , i a | f a (   t       + { + + + + + + = +   h r f g A g z A A A 4 * ( ( , * . ( 8.8.8.a.a.a.a.a.a.0.a.a.a.0.a.a.a.a.a.a.0.a.5.5.I ! a.a.8.$ $ i h z ^ * + @ _ + * . + . + ~ & : A 7 7 ^ : - , * * 1 1 +   ",
"  ~ t 1 : l h i : a 4 ) ] ] | z t 1 4 4 t z   f j ( * ( * : m m z ^         + + 6 6 6 . G G ' + .   h % a * 4 ( t 4 4 : ( ( * * * ( : 8.8./ } a.|.a.0.b.0.a.6.a.a.6.a.0.0.a.a.a.a.b.a.a.1 $ 8.8.= + x / m a . + 1 + @ @ $ { @ + ( & i i z 7 m | & * ( ( [ * ,   ",
"  l 4 ~ . + $ - ( 4 6 k ) j A f : 1 A A t a z m ~ ( | a : * :     f   *     > ; 6 0 ' ' ' ' - , 1   & % / * , ( * , 4 m f z | ( | z ^ 8.% % 5 0.0.0.0.5.b.b.q 6 5.b.a.a.0.0.0.0.0.a.a.a.b.m > > 1 = = . * ~ ~ o ~ { @ @ [ + { $ , & & A z 0 A i ( : a A 4 a     ",
"        + . + { ~ j p c k 9 7 g [ 4 z a + * m l * : m a * + .     m   . @ @   P [ ' G - ' i - t (   , / % i ( i / % ^ f 2 f ^ h ^ s z 8.^ ^ - a.1.[ 5.5.. - l ^ m * 5.b.3 a.a.b.0.0.0.8.8.8.}   $ # 3 = 1 9 9 w w x { # + = @ 1 = . & 2 r ( : a ( z : a t o z   ",
"$ * ,   , $ { 1 ] p w q y w c ) [ ~ a * + * s s s m z | * +       :   , { @ ! G G - + ' l l 7 7   ( i i / i i h % % % ^ ^ f h l f f A / ^ ^ 8.8.P ] . { , & ^ g A * b.= a.a.b.b.b.b.8.8.;.q : & $ = # , , v v y } o # { + = = + ~ , r 2 7 : A s 2 B . 1 #     % ",
"    , . @ . : m A 0 c v v y w k A j 4 ( * t 0 r 7 z ^ A 4 e       + 1 1 1 + _ - ' ; { G l A A A m z % - & m ^ # %.& & & h ^ ( : a l a [ i / $ @ @ { 1 # . * i A - . $ 8.8.8.8.8.8.( , , - i ~ . = + . # p v y y q w ] . $ = _ @ = & m 2 7 : z 2 B $ , [ {       ",
"        . * g 2 2 9 9 8 b v k c 0 0 A A 4 a r r 2 r z 0 q e     . { 1 . 1 + ! - G   + & i A 7 0 ^ m & $ $ c } ;.  * & & & a a ( * a l a 6 l ( , * : z h l : j * 1 $ . ( * > , ( m m : ( / h / ~ 3 ! + # e e y y y e [ , . 3 ! + + $ - & 2 $ 2 , . { # , ~       ",
"      1 + , : 9 7 A k k w c k c 7 7 z A 0 0 g z z f | t 5 ~           _ _ _ . .     . & l A g g ^ 4 } > > ;.  n 7 g , $ , a z m * ( ( ( m 0 a ( ( z r f z 6 : ] ~ , , * ( ( : m f f m ( i h / - ] ; x x ] w e y q k t . . ! ! + $ $ + x + & . { . # ]           ",
"    ~ 1 + + * z z a ~ ] w 6 0 0 7 7 r A A s g g z z ( * ] .               _ . ~     . & i l l A o e %.} - l 7 A A 7 : $ - m f m ( ( ( s 7 7 ~ , * |     g : # + + , * * * | l l m z m 0 0 0 % - @ # _ { { o k p 6 6 : ~ +     , $ * , @ [ ~ ( ~ o { (           ",
"  m * { 1 . ( : a : ( t k c 0 A A s 7 A A g g A a i ~ ( ~ 1 _           { _ _ . >   1 1 , 4 l 5.# 1 + & % 2 7 6 * m a - i z z : ( l | s 7 7 * 1 ,       l * * , * n b +.+.* ( : h m m s 0 0 % G , _ x _ . o 8 c g 0 4 , + !       , . ~ { o ( ) . { ~           ",
"  | * 1 1 * 4 4 A A A : ) : t ~ ( m z A A 0 A t 0 0 0 t , @ _         { # _ _ @ x ! { @ ' ' ' & x . 1 ~ 7 B 2 z ~ . $ $ ( i i , * ( * 7 r 7 , .         ~ ( ( * v 9 n 9 c b +.( l l l r 0 0 / % $ ! _ # ] < d 8 7 0 4 , + _ 6 6 6 + : . 1 ( 0 l & 1 1           ",
"    ~ * ~ 4 g 0 0 z z 6 v , . + , : l j a a ( * 6 6 0 1 { @ @     { x # x # _ { _ _ _ # ' & G & . 1 ] p e 2 r ^ | $ + = . . . * + + . , ( : | v } e     - * * . [ 4 l z f c u * i * | l ( * 4 % / = @ 1 < < d 8 A A t , + { A 6 6 & 1 . 1 ) g ) ] ( ,           ",
"    _ ] 1 a A 7 7 g g 9 ~ t . , . + , # . ~ ~ ~ 6 A 6 ! @ _ !         > x _ ] _ _ ! # { G G ( & : # e w v k j ( * . $ , . . + , ( . , * ( a z         e ~ . . e . * l ^ s z b f : = , , + ] & i i * . n < < 8 c 4 t [ * + { 0 6 0 * ] + # ~ A 4 [ [ 1           ",
"  { { 1 1 j A 7 7 A a : : : + ( ( 1 ~ . # 1 1 x x { { ! ! !                 @ ] { # { { G / A & i o y y y v o 1 { + $ - , + { 1 ~ ( * + , : |         > 5 @ ] p { . | f z 9 < ^ : @ @ . ] @ = $ + , $ n n 8 6 ~ . ~ - m - + @ + & t ] # * ( : t [ [ ~           ",
"  _ 1 1 ] * m m g g : , t ( . : l ~ ~ j * # ~ ~ x x 6 6 6 _         { _       + x _ _ . * 1 { i ( y y q y q o ] { . - - , , +     m : * (           > > 6 _ @ j @ + , a 9 d 2 i 3 = @ 1 . - = + . , , B n 0 ] + @ 1 & ' ( + + $ ( 4 o x t [ ] ] x ~ #           ",
"    1 1 1 [ - % f f ( . * *           ~ t t o , x 1 6 A 6 @ @                   1 1 + * * 1 x & : [ w q y y o [ ~ * & * , * 1 t     a ~           & q 0 0 { @ + . * j c < n , + , @ @ * m z ^ 4     % ' 0 * + @ @ @ . , , t ,         ~ ~ ] [ ] ~ * -           ",
"            ) h f f : . | :             , , ~ ] 1 , 6 6 6 @                       * . . . @   G i ~ ] q v c k [ [ ~ . . . , 1 ~     m ( ~       . ( 0 0 6 . ~ * , g d n + s * $ , . $ h ^ f r h   %   . . , ] 1 + _ @ _ . :           ] ] x ~ ] t ~ $           ",
"              z ^ f * 1 4 ( + @ [ ] @ + + + { { # { { { {   .                     a . + _     / i { 1   c 6 0 6 4 * , 1   a t       l l (     . 6 0 0 * . * : 4 * * * * @ , : ( ~ = ' h h h ^ h %   $ * t ( ~ . , , . = + *           ~ x ] { 1 ( ~ * %.    ~   ",
"              0 0 z ( , . 1 { ( : & A * * , . + { ] { { _ %.1         ~ 0 l A A A : ( , .     A 0 {     7 g 0 g ) ( # ~ ~     %     [ 4 : , : i 0 0 0 . * 4 A A 4 * * * _ $ m z $ - G ' ' h h /     : 4 A A h a - * . * * +           l ~ 1 ] 1 6 6 k %.        ",
"                0 6 : . * . 4 m / r f z 4 t ( . + 1 ] . 1     P       k l 0 7 g l * ( ( ,             t A 0 7 g A j , # + .       a 1 ( * . a | A 0 0 * 4 A g g A i ( , { . 0 z - G / & A 0 0 * / % m A g g g p - $ $ & h , {         z ~ ] ] ] 0 0 k x         ",
"      #         0 % G & * : i & d 7 7 r A w k , . * t [ t             t 4 g r r A t * * . :   } ;.  . & : l A A t ( o ] . * t z r 4 [ 7 l * * $ + _ . ( a g g g g 4 0 * + 1 & i - i - . 6 0 0 = & & : A g g A h / , t l f ( { ( t | A t 1 ; ] [ 0 0 0           ",
"      .       . * $ & / m : G , v 6 0 f a w w , ~ 4 A A 4 t     + # { ~ : A 7 2 s 0 l : . ,     _ { * h l : t * ~ ( ( o * t m f s j 8 s m ~ ] , + + . * ( z 0 g 0 0 0 0 x + [ - $ - $ + 0 6 6 @ + + * 4 A A 4 * , + | z z * , A a 1 t [ x x ] [ ~ ~             ",
"      . . # + * $ = - m ^ i $ 1 . . ) A a j j [ a 6 g g A         { . , & m f f m : l a , + .     { . & ~ * 1 ] , * ~ t ) * ( a i < 9 a : ] 1 . ~ . , , t ) g 7 7 g m ) 4 o ! 1 = ! ! { + = 3 = = # . ~ t 0 A 0 @ , ( a i . , t , + { 1 ] 1 ] # ] 1             ",
"  1 . * $ - ] * $ = - m m 4 ~ + . . j ) 0 c k k k c g g A       @ . * , ( ( A m t * * , @ ! + +   + @ + { 1 { . , 1 t j a ( * . * ~ c . ~ + + + a a : : ( l g 7 7 0 0 ) a 4 t , 1 _ ! ! _ + $ - $ . = + . 0 6 6 { . * 1 1 ~ 1 + . @ @ , A 0 7 o [ ~             ",
"  _ _ * & & - $ = 3 & : | [ ~ , . j c c c 9 v v v b.c 0 )       x 1 1 t * + c A ~ . + . + ! + (   ( t , 1 1 . 0 0 0 [ ( ( : : ( * a 0 ( ( , @ ( z f s i 4 4 A 6 g g 0 4 4 t ( t 4 t ! ! . @ + ' ' ' $ + { 6 0 0 . ~ [ j ~ o ~ * * , . : g r 7 ^ t               ",
"  _ x { 4 G & $ $ & % G ) + { ] , ~ b c c v y y y w k A :       @ x ~ ( * . d v t * , j w + * z f f a t t 1 1 0 0 g l a ( : a t : A l 0 j , , ( h m f l 1 t 5.6 c 6 ) 4 t t t , ( 4 t , { { 1 1 * t & $ , %.@ , ( [ k w q p j 4 4 1 1 ) A z f :                 ",
"= %.%.t h l : - * i % % & { { + j ( a c c v q y y k [ e %..           . , * $ y y w v b u , ( m m s 4 ~ 1 1 { 0 0 s s g 4 : a : j A z 0 9 w k - * | z h ] p k k 6 h h G G t ( ! _ e ~ [ ] o o 5.] , 4 % i * + - : ) c v y v 0 z 4 . . [ j m g (                 ",
"        i l l h A & G % ' { 0 6 6 l h g 0 c v y q e t I G             _ @ 1 , 3 +.u u +.1 1 ] ~ a z 4 , { 1 x p l s r f 0 l m : * j z m ( ( ( t , j 4 m A w q q b.k [ t * t t 4 _ w 1 j o e q w e b.* & % t - & m k v v v v r s 4 + + , . ( : *                 ",
"        0 g g A t , $ ' $ ] 0 6 6 &   0.6 k w k   ] 1 ; h t {         ! ! # G + & A P > ] { 1 t t j ~ 1 1 { # ~ A s r 7 A a l ( , * A m * , ( , . 1 j A c v y y w b.[ t t t t ( . t t [ e q y y v 4 : * - 1 - & h c c v b 9 0 z 4 , . + + @ *                   ",
"    $ h A g 0 A t $ : ^ # { 0 A 6 > > > 0.j 4 ]     ; * t ] x         ! _ + + _   P P ;.. , . x { t ~ ~ 1 # 1 4 A 0 s 0 A t ( , . . : 7 s s : : ( 4 4 6 9 v y y w k [ t t t t t t ( 1 x o q y q v 4 t + { ] $ G l j k 9 9 9 0 0 ( 6 j ~ ~ $ { 1                 ",
"1 1 , : l g 7 0 A g     P > ; ;.; P P > > * x x x       x # #         ! ! @ _ ; P 0.I   ~ 1 . %.%.{ ~ ~ 1 1 ] : 4 A A A 4 4 ~ 1 . ( l r r 7 4 j i A 6 c c v v v w o [ t t t t ( o x @ { # q v v k ]   _ { 1 $ A ^ ) 0 9 9 7 0 6 [ t ~ ~ 1 x x x 1               ",
"    . $ : 4 2 2 r   0.8 I         P P > P   { # x @                   3 + + @ 0.P > P   P P P P P P . Z Z +.+.u j t t t t j j ~ + t | r r r ~ ~ t ) z 0 6 c k k k [ 4 & G t 0 6 @ _ @ x x k v c [ ] { { { ~ [ & & l 0 r 7 7 s 6 j a t ~ ~ * # { {               ",
"      * . 5.t q > ;.' - = =         P > P P x x 1 $   %             %.. , , 3   P P > P P > 0.%.x . < Z Z u y w ~ ~ 1 ] [ A j 1 { 1 [ 4 z m ~ 1 4 A 0 7 g A A 4 1 [ 6 i ' t ) 6 ! ! ! ! x k c c [ ] . { + # - + . : z r 7 7 ) )   a j ~ & 0 0 0 o {             ",
"      $ ] 1 . , >       [ - .         P P 0.]                       ;       =     P P P P P   # x < < Z u 5 x { k , 1 ~ ) z ) 1 1 ] 1 ( a : ~ ~ j A g g g 6 l l & { A & G { 6 ) _ ! _ { 1 A A g A 4 , . # . { 1 ~ l f 7 g s A 4 0 0 0 , & 0 0 0 o 1 { {         ",
"  7     4 ] t ( 1 x ]     '         ( P P P   %                   %               P P P P     # # Z Z +.w { @ ] w 1 { { t 7 s 0 %.I . . . , 0 0 0 ) A 6 0 4 4 & ' ' - ' ' 6 6 = ! _ { _ ] 4 A g g A * ] + x { 1 ( m g a t ) l ~ 0 0 0 , * 0 0 0 ] %.I . {       ",
"7 7 7 7   t 4 ) t [ ]     %             P P P                                     P P P     x x x . +.} o @ ] q u x 1 { 1 s s 0     + _ @ + a 4 4 4 5.4 A 4 4 ( ( $ G ' - 4 { _ { x { _ . [ 6 g 0 A [ 1 @ { x x ] # }   1 1 p { 6 0 0 o # o 1 [ ] ] ~ , ,       ",
"7 7 7 7 4 4 A 6 A m                     P P P                                     P P P   . . { x x Z y ] x q u < # x x 1 0 0 0 ~     @ ! { 4 4 ( ( [ 4 4 t t t x { { 6 6 6 x { # _ { + + 5.) A 0 g 4   ; x x ]         ] 1 . o 1 ] 4 A z a t 4 j [ ] * $ '     ",
"7 c 7 6 A 0 g g ^               }.}.|.|.P P P |.|.                        }.}.|.|.P P > |.|.. + @ ~ x u y y u ] # p p # ] 1 + x       @ !     1 t t ( ( t t ~ x x { x 6 A 6 { x x { _ { # . * 4 0           1 ;.>   x ~ * ~ [ ~ 1 j A 7 f 0 t ~ ~ 1 ; %.+       ",
"7 7 7 A ) 0 7 7 7             }.}.......P P P ..|.|.                    }.}.......P P P ..|.|.@ @ { x x ; _ { ] o e w e # 1 5 1               { %.%.] , + @ 1 x # x { 0 g 0 x ;     > x { {                     ] 1 1 { + t ( 1 { [ ) 4 z A [ { ; { { {         ",
"  4 4 4 4 A 7 b.7             }.}.}.}.}.}.}.}.}.|.|.                    }.}.}.}.}.}.}.}.}.|.|.        {   > I ] e q y q e ] * ~                 _ { x x @ . ] ] x x { x x     P   P P                           { ~ # . t m [ ; + # ] o l 4 ~ ] . _ _ {         ",
"    , ,     4 4 4             6.|.|.|.|.|.|.|.|.6.6.                    6.|.|.|.|.|.|.|.|.6.6.              > # q y y q e # ~                   ! _ x x @ . * 1 1 _ { x #     P > #                               1 1 * : 0 h ~ o (       [ 4 ~ # { { {         ",
"            ( t t               6.6.6.6.6.6.6.6.7.                        6.6.6.6.7.6.6.6.7.          1     ] o } q y q e # ~                   _   %.%.%.# , 1 x { ! x x x > P ; x x @                       - { 1 * - & A a [ i             :                 ",
"                                |.|.|.|.|.|.7.6.6.                        |.|.|.|.|.|.7.6.6.                .   } } q e ] { .                         >   I %.; ; { { x # . ; # x x x                           { , - & / 4 j 4                                 ",
"                                |.|.|.|.|.|.|.6.6.                        |.|.|.|.|.|.|.6.6.                    1 0.;.x , + @                         P         { _ ; %.# , # x #                                   . . + # x                                   ",
"                                |.|.|.|.|.|.|.6.7.                        |.|.|.|.|.|.|.6.7.                    . + > ~ . +                           P                 ;.0.>                                         %.;                                       ",
"                                  |.|.|.|.|.|.6.                            |.|.|.|.|.|.6.                    ! 3 + . {                               P                                                                 { +                                     ",
"                                  |.|.|.|.|.6.6.                            |.|.|.|.|.6.6.                        . . + 3                                                                                               + .                                     ",
"                                  |.|.|.|.|.6.7.                            |.|.|.|.|.6.7.                        + @ @                                                                                                 . ,                                     ",
"                                  |.|.|.|.6.7.7.                            |.|.|.|.6.7.7.                                                                                                                                                                      "};
