/* XPM */
static char * gimp_temp_210241_xpm[] = {
"128 128 195 2",
"  	c None",
". 	c #3E9607",
"+ 	c #389206",
"@ 	c #319207",
"# 	c #349607",
"$ 	c #3A9808",
"% 	c #567D02",
"& 	c #4E9E0C",
"* 	c #82B212",
"= 	c #4D9408",
"- 	c #459D0C",
"; 	c #4FA80D",
"> 	c #397807",
", 	c #5C960A",
"' 	c #44A30A",
") 	c #449407",
"! 	c #72AE10",
"~ 	c #2D9708",
"{ 	c #318C06",
"] 	c #388C05",
"^ 	c #66A70F",
"/ 	c #96B61D",
"( 	c #447605",
"_ 	c #5CA50E",
": 	c #3E9F09",
"< 	c #349E07",
"[ 	c #EC731D",
"} 	c #418C05",
"| 	c #C8AC10",
"1 	c #35A206",
"2 	c #72950C",
"3 	c #475A06",
"4 	c #F8723A",
"5 	c #E7601C",
"6 	c #E05216",
"7 	c #508503",
"8 	c #E9681E",
"9 	c #A89908",
"0 	c #968E02",
"a 	c #5B8B05",
"b 	c #526A05",
"c 	c #8DA00D",
"d 	c #F66939",
"e 	c #F18520",
"f 	c #E35819",
"g 	c #DA4612",
"h 	c #4A8C05",
"i 	c #508E05",
"j 	c #5A8204",
"k 	c #468503",
"l 	c #A19719",
"m 	c #DE4914",
"n 	c #96BE14",
"o 	c #8EB213",
"p 	c #6FA20E",
"q 	c #5C9E0D",
"r 	c #D59310",
"s 	c #C6911D",
"t 	c #4B6307",
"u 	c #DA4212",
"v 	c #F59511",
"w 	c #399508",
"x 	c #928A02",
"y 	c #918902",
"z 	c #399707",
"A 	c #429207",
"B 	c #899813",
"C 	c #EFA30F",
"D 	c #379306",
"E 	c #428705",
"F 	c #59A30D",
"G 	c #A8AB11",
"H 	c #524B0C",
"I 	c #329407",
"J 	c #5AA40D",
"K 	c #549909",
"L 	c #309607",
"M 	c #4A8E07",
"N 	c #4E9D0B",
"O 	c #629C0B",
"P 	c #588103",
"Q 	c #562306",
"R 	c #768604",
"S 	c #A7950C",
"T 	c #489708",
"U 	c #51A10C",
"V 	c #4E980A",
"W 	c #E86C14",
"X 	c #E5691C",
"Y 	c #3D9607",
"Z 	c #7B8F03",
"` 	c #8C8502",
" .	c #958D02",
"..	c #5BA20D",
"+.	c #368E06",
"@.	c #3D6308",
"#.	c #DD4813",
"$.	c #4C4802",
"%.	c #696402",
"&.	c #50710C",
"*.	c #858F03",
"=.	c #6B8F03",
"-.	c #7B9003",
";.	c #349507",
">.	c #85A30D",
",.	c #DC5A18",
"'.	c #322F02",
").	c #79940C",
"!.	c #95BD13",
"~.	c #429006",
"{.	c #758E08",
"].	c #389407",
"^.	c #4C9D0B",
"/.	c #389707",
"(.	c #369507",
"_.	c #E6601B",
":.	c #6EA10D",
"<.	c #71AD0F",
"[.	c #3C8F05",
"}.	c #988E0A",
"|.	c #529A0B",
"1.	c #437605",
"2.	c #8E8E02",
"3.	c #4A9405",
"4.	c #E05317",
"5.	c #E7651A",
"6.	c #3E9506",
"7.	c #4E8C04",
"8.	c #503106",
"9.	c #2A1606",
"0.	c #DB4A13",
"a.	c #E15518",
"b.	c #578E08",
"c.	c #418D05",
"d.	c #408C05",
"e.	c #557D02",
"f.	c #419105",
"g.	c #379207",
"h.	c #3E8D05",
"i.	c #367504",
"j.	c #3C8C05",
"k.	c #458603",
"l.	c #398C05",
"m.	c #319106",
"n.	c #348F06",
"o.	c #41950B",
"p.	c #D68671",
"q.	c #BE7A6D",
"r.	c #3E9709",
"s.	c #3D9207",
"t.	c #AE6E62",
"u.	c #9E625A",
"v.	c #020202",
"w.	c #75820D",
"x.	c #DA4A12",
"y.	c #FEFEFE",
"z.	c #060606",
"A.	c #473937",
"B.	c #96766A",
"C.	c #837C56",
"D.	c #121506",
"E.	c #547F02",
"F.	c #369707",
"G.	c #369F08",
"H.	c #4E8102",
"I.	c #3A9A09",
"J.	c #54A10D",
"K.	c #329607",
"L.	c #488803",
"M.	c #489E0C",
"N.	c #F77338",
"O.	c #488003",
"P.	c #E87436",
"Q.	c #EE771E",
"R.	c #ED751F",
"S.	c #E8621D",
"T.	c #E5861E",
"U.	c #EA6A1E",
"V.	c #E55F1A",
"W.	c #349206",
"X.	c #C8881A",
"Y.	c #E0751B",
"Z.	c #EA6E1C",
"`.	c #E45E17",
" +	c #489207",
".+	c #3A9407",
"++	c #F18B1B",
"@+	c #EE8914",
"#+	c #5A7E02",
"$+	c #408903",
"%+	c #4A8E06",
"&+	c #528804",
"*+	c #408E05",
"=+	c #388D05",
"-+	c #DA5212",
"                                              .                         + @ +               # $ . % $ $ $ $ &   * & =                             % - - - ; > - , , & &                   '         . ) .                           , , , ;   !                 ",
"              $ % ~   { @ @         +       - #                       > # # # + ] ] @ #     # # + $ % $ $ # - ! * ^ )             /       # # ~ ( ; % , ,     $ & _ ! ^ % . . $ : <       {     /   = . .     : $ # # @ . & $ $ $ - , , = ^ - ;                 ",
"            $ [ [ %   @ @ @   % } ] @ + @ + $ # @                   *   + . ~ @ ] ] + + $   . $ # { ~ % > ' | | | | - %   - ^ !     < - - - - - :   ~ % 1   : # - ! * 2 _ - $ . $ $       {       _ ) $ . 3 ( ' } @ # @ + $ $ # # $ = = ; # & -                 ",
"          4 [ [ 5 6   + @ @ # # 7 @ + # # . ] @ @ ]                         # # + + } + ~ 8 [ [ [ [ $ ~ % ' 9 0     a # : _ ! _ # $ & & _ _ & & - $ # # % < : $ > b c * _ ; # 4 9 -       >       > $ { : & ; % $ + # + + # # # # # $ ; 5 d 4 e                 ",
"        [ [ [ 8 f 6 g , @ + # # ~ h $ 0 0 0 . ! & i                       # + + # # ] ] 6 f 5 5 5 f 6 $ ~ % 0 0   | $ $ _ ! ^ $ $ & _ ! * ! _ & - - # # ~ % - # + j 2 * ^ ' d 8 8 5     $ $ _ : $ # 0 0 0 ; ; ' k $ h > ] # @ # # ] , f f f 5 [ e l 2           ",
"        [ [ 5 f 6 g g ^ . @ @ # 0 0 0 0 0 0 $ 7 b h k }                 ~ ~ ] % # # # % g m 6 6 6 m g $ @ % % { k ~ ~ - ^ ! - # - _ ! n / o p & & 2 $ # ) $ % ) % ) 2 * * d 5 5 f 6 6 ; ~ _ # > # # 0 0 0 ' : : - k k $ { ] + + $ # 6 m m 6 f 5 [ q = =         ",
"        [ 5 f 6 g g g * - + $ 7 0 0 0 0 0 0 < . . % ] }             - # ) ] k k % # 7 ] g g g g g g g + 7 + @ } # $ $ . & & # ~ - & _ ^ _ q e r s p & - 0 0 0 % , t & ! d 5 f 6 m g u 6 q ~ # { # # 0 0 0 : ~ ~ $ $ } + # + h } ) ) g u u g m 6 8 - . .         ",
"    # # 5 6 m g g g ! * & $ h - 0 0 0 } } ] $ 0 0 0 { }             > ~ ) } k k . % } s m g g g g u g = & & h @ . & _ $ ] + # & - - - - - - r v r c _ _ 0 0 0 @ % q = ^ 8 f 6 m g g m f $ # @ # # # # # $ ~ w x x y z A + } $ . > % u u u u u m [ . +   #       ",
"    # # $ g g g g 6 0 0 0 } . B ! 2 } } h a _ 0 0 0 @                 < - . = + % ~ % # 1 6 m m m g 6 q ! 2 @ # - ! ! k # ] + | q & & & & & v v C | % ! 0 0 0 @ - % , 2 5 6 m g u g 6 5 , @ $ $ - - # #   D E 0 0 0 - F % k ) + } @ % m m g 6 5 e , 2 ) +       ",
"    $ + h + } - = _ 0 0 0 + q ! 2 = - & ^ * o 0 0 0 ~ ~           # # % } % - % + & ~ % ~ # 5 5 f + - ! c - ] @ $ _ o ! + + ) | G ^ ^ ^ ^ _ r C C & H * a } k } @ ) % $ f g g g g 6 5 [ } & & ^ ! _ - $ # I k . # # = J K % = 7 + k % ) 5 5 8 [ , , , , =   *   ",
"      h   } . 7 ) + 0 0 0 # & 2 & & - & _ ! ^ , & # $ #           # + $ % = % # ) + + # 7 { ] ] ] + _ c ^ k h @ + & o B j - _ | | n n n * ^ & & # + B o _ h 0 0 0 } ] % % 6 m 6 f 5 [ . + & * * * ^ - . $ L M k + + - i N O P { 7 } . % ) = , , , q , , )   Q   ",
"        } + - & h & j p & $ h & & - - - & & & $ # # # # h         @ @ . . % ] . @ 0 0 0 # % + % } h p ! - @ { { @ $ ^ ! j j p ! ! ! ! ! ! _ - 0 0 0 R ! p = 0 0 0 } { ~ % j = 8 & i } + # $ 0 0 0 7 $ $ # @ S T # # . - . & U % ] 0 0 0 7 i = , , 0 0 0 ) +     ",
"          - ^ ^ & } $ _ * , ] + - - - - - - - - # # # 0 0 0             % k % { { 0 0 0 : $ % ~ } j q & + @ @ @ # 0 0 0 } % j 0 0 0 $ $ - - $ 0 0 0 . _ p = 0 0 0 - { @ H 2 R b ] } } } ] # 0 0 0 & V W X [ = Y Z `  .$ - & ..+.% 0 0 0 + } } } ) 0 0 0 ) k     ",
"        $ _ ! ! h @ 7 _ o p h ) & & & q _ _ _ & - # # 0 0 0           % @ ) { % @.0 0 0 - 7 # % %     . + @ @ . $ 0 0 0 k k % 0 0 0 # # # # # 0 0 0 + . ) ) & ^ ! & ] } H 3 B j k } } h } # 0 0 0 & #.6 8 [ 9 0 0 $.%.^ p * p &.} *.=.-.;.# + + ] 0 0 0 }       ",
"        - ^ o R + $ # a ! ! , = _ ! * | | o * ! & # # 0 0 0       : % & & # ~ @ 7 ( } $ k # #           $ # $ - _ 0 0 0 h h . 0 0 0 # # # # + @ + + + + + ) _ ! p h } } = >.>.a 7 } . = & & , q _ g g ,.8 [ 5 6 0 0 '.).!.p , ~.{.].^./.(.# # + } . - } +       ",
"      ) 0 0 0 = ) . 7 $ , p = i G | | | n o * ^ & # # # = !           ' < ~ ~ ~ @ k + k # # #           $ : > - _ ! 2 , - . $ - # # # # # # # . + } } ] + . ^ ! , k } > } , >.2 7 a ^ ! ! >.* * * u g f 8 [ _.6 = :.<.! p = [.] }.|.1.2.3.# # # } k 7 - +       ",
"      - 0 0 0 h } k # @.3 ( ) j C C C G _ & >.= $ # # # $           < 1 : ~ ~ ~ @ @ 7 ~ ~ #             ' Q $ + - 3 * >.q & ) + $ - = + + # # ] } k h } } q ! q h k k k ] i , a 7 , p * >.! ! ^ _ g g 4.[ 5.f 6 ) = = h } } @ @ . 6.. 0 7.0   0 ] 7 ] ] ]       ",
"    & @ 0 0 8.Q Q Q   Q 9.  k } ] C C | p p 7 } + # # #   ,         : ^ : ~ ~ @ { % # % { #           /   Q $ # + 3 H ! R ! q . & ^ _ h + # # ] k ) h } } = , , i = } ] ] k k k k } ) i + + @ @ @ - u u g 0.a.b.c.} } } d.} e.# } h } 0 f.0 0 0 ] k % { }       ",
"      @ @ ~ + %   Q Q Q 9.  # 7 , ] ] + $ % k k ] + +     ,       $ ' ' < < ~ + % $ :                     Q # # # 3       ! ^ , p / B + + # # } % ( } { ] } e [ 8 5 f f i h k ] k } k = k $ @ @ ] ] ) m m g g # g.h.i.j.k.l.m.% } h h h ] 0 0 0 ] ] ] % k       ",
", = . ]             Q Q               @ k + 0 0 0 ] #             < : $ ~ ~ ~ % ) . :                     Q Q Q Q         & ^ p p c ^ # # + $ } 7 k ] k > . [ 8 5 f 6 6 f , h ] ] 7 = + } k + + + } k } ] 0 0 0 # # @ ] k k n.$ = - - o.$ ] @ + } } ] { %       ",
"= k .       p.p.q.q.Q Q q.q.q.            # 0 0 0 % $ :           < $         :     1               p.p.q.Q Q Q q.q.q.      & , 2 o ^ # # - } } k     } } & 8 5 6 6 g g ! >.2 = % = + ) } . ] +       } ] 0 0 0 # # = } k } ) r.- - o.s.k } ] h h } ] ]         ",
"    .     p.p.9.9.9.Q Q 9.9.q.q.            0 0 0 $ % $                                           p.p.9.9.Q Q Q 9.9.q.q.      i p * 0 0 0 ) } k ] k     + 8 f 6 m g g g _ 2 >.B _ = i h = ) $         ] + 0 0 0 # # # , @ ) @ ) . - - - - . } } 0 0 0 > (       ",
"          p.p.p.p.p.p.p.p.p.q.q.            @ # > > $ %                                           p.p.p.p.p.p.p.p.p.q.q.      - _ ! 0 0 0 } ] {   > > # . & 6 g u g m 6 5 h 2 ! ! q a 7 , ^ &         +   ] @ @ # @ @ # . - - - q - - - - - h h 0 0 0   ( 3 8.% ",
"          t.q.q.q.q.q.q.q.q.t.t.            # # # $ { ~                                           t.q.q.q.q.q.q.q.q.t.t.      -   - 0 0 0 } } ]       @.    g g g m f 8 [ 7 , _ * ! 2 2 p >.,       .   + #     # @ ] 0 c - - - - - - - - - - k 0 0             ",
"            t.t.t.t.t.t.t.t.u.                $ $ # ~ {                                             t.t.t.t.t.t.t.t.u.            # $ $ ) - ) +       =     $ & 6 5 8 [ a ^ ! ^ _ p p 2 >.>.      & k + + #       @ + 0 c & - - - & 2 & - - - = h }             ",
"            q.q.q.q.q.q.t.t.t.                = = # ~ < ;                                           q.q.q.q.q.q.t.t.t.              ) $ . & = +             + ~ @ + , p o o * ! & ) & , ! !         ) + +           @ 0 0 q - - q r l - - - - ) = =             ",
"            q.q.q.q.q.q.q.t.t.                  & : <                                               q.q.q.q.q.q.q.t.t.              & $ > . .               # + = a         q & - - . & !         = h } +             # $ - - - q r s q - - - ) = =             ",
"            q.q.q.q.q.q.q.t.u.                                                                      q.q.q.q.q.q.q.t.u.              & ) k # ~                     t           & - @.= - _                         # # $ . - - & 9 C C r 2 - - = ,               ",
"              q.q.q.q.q.q.t.                                                                          q.q.q.q.q.q.t.                  @.                          3 3           ) - a ) $                         $ - = i       C C C C $                       ",
"              q.q.q.q.q.t.t.                                                                          q.q.q.q.q.t.t.                p                               '                                               - = j         C C .                         ",
"              q.q.q.q.q.t.u.                                                                          q.q.q.q.q.t.u.                                                                                                    )                                       ",
"              q.q.q.q.t.t.u.                                                                          q.q.q.q.t.t.u.                                                                                                                                            ",
"                                      i                                                                                                 = a j               o             = h                                                                                   ",
"                            h + } } + }                                                                             ~ ~ $               = a a           p     o           h                                             } } }                                   ",
"                      0 0 0 0 } k 7 h h 7                                                 { , ,                 : - : ~ . & ,       ( ( h i = ^       q   %     p       - >                         -               7 7 h } #                                   ",
"                % ' - 0 0 0 0 i a a 7 7 %             7 a h                               % ] 2                 6 ; ' # $ 2 , i ) + % k i , & 3     _ p % . = q % ,   =   k   - - - - - %         = ) + . i % a     i i h + +                                   ",
"              0 0 0 ' 0 0 0 0 , q q j 7 h )           7 i }                               i k k ,           8 f 6 g ; & 1 - - = > + 0 0 0 = = h i h , % & . . . . % q = h -   - - - - - -       - =       h i a     i = ) +                                     ",
"            ~ 0 0 0 % - 0 0 0 i i a % k } +           i = +               ^             = = k k i         d 8 f m g g f < & - . > i 0 0 0 = h 0 0 0 % , = + . + $ + % = - -   - - - - - - -   - -   i } k ) & , a     ) + # #         + } +                     ",
"            ~ 0 0 0 $ 7 + + @ ] k % 7 } + + # # + . ) & .                 i           i i = ] } h       d d 5 f 6 g g f . q - { - , 0 0 0 7 k 0 0 0   a h h ) } q ] } 7 - - - - - - - - - - - - - - ) 7 . ) = = 7 % h + + # + # # # # + } }                     ",
"          - ~ ~ ' ' : $ 7 @ @ ] % k } + + . + + # . - = )                 k h 7 7     7 7 h - ) } # # . d d 5 f 6 g g 6 # # > . = i j a & . k 0 0     } 0 0   p ) } h i - - - - & s r l q - - - - - - + . - 7 7 % % h + + + ] + # # # ) % } )         = = i     ",
"        # ~ # v v e e s - 7 @ % 7 h ) ) = = . + # . h j j               k ( ) h 7 ) . ) h + . ) k } } } 4 d 5 f 6 g g f # # $ & i 7 7 h . + } % + h   } 0 0 9 h = ) . ) - - - & s v v v ) i - - - - - ] ] . = % j 7 ) = ( ( + # # # # } t , ,         , , ,     ",
"      ~ ~ ~ C v v v r & -   % h 7 7 i , a i ) + # . h % %             # + k # % ) ) . + k + $ . h 7 7 }   8 5 f m g g 1 ~ ~ # # = i h + # + k $ % .           ] } ) } ) - - - 2 v v C q k % i - - - - $ # . , a % + } 7 i } + @ # # + k a a a ,       , , =     ",
"      ~ ~ $ p c r v s - - - } % h 7 , q q = h + # } i j %             + ] ] 7 . : - + + ) ) . ) 7 % % 7 h = f 6 g u ' { ~ ~ ~ 7 . = h . + } + $ < % )   7 } ] ] ] } } , , h $ r C , - # k 7 % h - - - $ # ) , , = 7 } k k h + @ @ + } k 7 i h }     3 H &       ",
"      ~ @ - - & 9 C c - - - ^ $ % h a q , 7 h + - & _ p a             . ] k } % - $ $ + } . $ } k 7 % % h - - ' < < { < # ~ } + $ . ) ( k + + @ $ . % 7 7 k ] ] ] @ + i % - ] k 7 + # @ + } % h + $ $ + # . = , 0 0 0 } k 7 = ] } } } k k } + ~ ~ ~ + - :       ",
"          - - - p | & - - - h = @ 7 0 0 0 j k } & q q p ,         /     7 @ 7 ( % - + } h . $ $ ] h 7 7 ) . _ = ' { { # # } @ @ $ ) H % . ) ] @ . ) , 2 , h { { { { . % 0 0 0 7 k k ~ ) - % = } 0 0 0 # # + ) ) 0 0 0 k % a h 7 k k k k } ] @ ~ ~ # & + :       ",
"      $ $ v.- - - - - - - - @ + $ ] 0 0 0 7 7 h , , q &             /   @ @ & % p h + ] } } . 0 0 0 . k % > = _ < { # # } # # # $ & % , , h } ~ $ & * * 0 0 0 0 { @ % + 0 0 0 0 k ) 7 = % _ - $ 0 0 0 # @ + ] } 0 0 0 k % i 7 h k k k } ] + { @ - ^ = ) :       ",
"  j _ p & - - - - - - - - @ @ # # + 0 0 0 h 7 h h                     _ { @ , ! 7 ) } + } } = 0 0 0 # $ + k : . ; @.  k $ # # # $ k H _ = 4 [ ; $ _ p / 0 0 0 0 + % = i 0 w.0 0 0 = i % q , ) # 0 0 0 + - . + + + ]   7 k k } } } h 7 } ) ] + # _ a , = & ;     ",
"  - B o ! $ - - - - - - + @ @ # $ . _ + % @ + . $                     { & { ^ _ = k + } } h , 0 0 0 ~ # # # }   + _ % # # $ $ $ k @.- ' 4 4 4 8 f , 2 ! 0 0 0 0 % - , i ) 0 0 0 0 ) % = % a + @ # $ # # } q ] + @ ] }   k ] k } } h , h } ) + . ) , q & - 3     ",
"- = 0 0 0 # @ % ~ h $ $ # @ # - - _ . ] { % + . $       $   *   7 @ @ @ { 0 0 0 # # h @ 7 - % - $ $ ~ ~ ~ ~ # ] @   _ $ # $ $ $ $ - # 4 d d d 5 6 - q p ! ! - % $ & , , q ^ 0 0 0 % . , _ % + # $ ~ # # . % . + + ] )   ] 0 0 0 } } q } ) . & $ ) a , & H       ",
"    0 0 0 - @ @ 7 - - - $ @ ] , = _ ] { @ ~ # } +     $ _ j     $ # # $ $ 0 0 0 ~ # # h # 7 ' ' $ 0 0 0 ~ # @ @ } @ @ _ . ~ ~ $ $ # # 4 d d 5 f 6 g . . ^ ! _ $ - % _ R * & $ - % . & = . # # $ # # # # # # % # # @ }   @ 0 0 0 0 q + ] } q ( 0 0 0 = 3         ",
"    0 0 0 2 + % # & , ^ - ~ ] % - # { + # # # . . ~ $ : _ ,     . # # ' $ 0 0 0 $ $ # $ } + & ' . 0 0 0 # @ { k @ } @ ] $ ~ < : : # # 4 4 d 5 f m u @ + q ! ^ - 7 & ^ * ^ & : & ) $ - ^ . # $ # # @ @ # # # # # # k # @ # 0 0 0 0 % @ @ . . . 0 0 0 = = )       ",
"    - _ * ! j @ # _ ! ^ _ ] + ) - @ @ # - # # $ < ~   ~ + '         : < # # # # $ . : ] $ ] & - $ 0 0 0 # { % @ @ @ + # + $ $ $ $ $ $ 4 [ 8 5 6 m g x.{ . _   7 & ^ * ! _ & & & q & & & . $ $ # @ @ @ ~ 4 4 d d 8 # # @ @ . 0 0 0 @ % # } h } 0 0 0 h = =       ",
"  ! ! ^ ^ c % % ] ^ _ ^ - ] ] ] ) $ # $ . # @ ~ ~ ~ @ @           /   ~ # ' # @ $ - - - $ # k ~ ~ $ $ # # % { @ @ @ @ # # ] # . $ # + [ [ 8 f 6 g g _ q { . j - _ ! ! _ & & _ ! ! >.! p = # # # @ { { 4 4 4 d 5 f 6 + @ { ] = ] { @ @ % } h h h = ) = = =       ",
"    ! p 2 b 7 ! j q p q ] , , & s _ & - . ~ ~ ~ ~ ~ ~ ~               ~ ' ' ~ $ - - - - - - - ) - $ $ # } @ @ 0 0 0 # # @ # } & + # # # - f 6 m g } ] , ( % . & _ ! ^ q & & _ ! ! ^ 2 , = # # @ @ ^ @ e [ 4 8 f 6 m + { { q ] , ] { @ $ = - - - - - $ . k       ",
"    , % , ^ ! _ H c q q ( 2 , ! 9 d 4 [ 8 ' ~ ~ < < < $ k 3         ~ # ' : - - - - - - - - - - - - - } @ # ~ 0 0 0 # # # } # k # # # # + 7 $ . 7 q = } % @.& & & _ B 4 e 9 l & - & = k $ # # $ $ $ ~ e [ 8 f 6 m g # @ , ] k k = + . - - - - -   - -   =       ",
"    % = , o p ^ _ ! R a p % _ * 8 8 [ [ 8 5 8 ~ < < 1 1     Q     *   ' - - - - - & & & - - - - - - - - $ # $ 0 0 0 # # # + k # } # # # h h + . q p & % . ^ ^ ^ & - q.e e e v # # - # # } 0 0 0 ^ $ # [ [ 5 6 m g g @ . @ 0 0 0 + - - - - - - - - - q q i )     ",
"        ^ p p ! ^ & ) % & , ) [ 8 8 8 8 f 6 6 & < 1 < : -           : - ' - - - - s e r B q - - - 9 - - - . . $ @ # # # + = k k . + # } h h - , p ! , 0 0 0 * * _ - B e e v v $ $ & . ~ # 0 0 0 _ $ @ % 5 6 m g u # # 0 0 0 0 0 $ - - - - , q.s q - q = a ) )   ",
"          ! / * _ h } { % ] + [ [ 8 5 f 6 g 6 ^ - $ : . ,           ~ : & 7 - $ # 4 4 e e v s & - - - - - - . + + + $ # ) k . - - ) } } } ) - ^ * 2 : 0 0 0 p * ^ & & G C C C ^ ! ^ q # # 0 0 0 ! - ] @ # g g g : # # 0 0 0 0 0 - - - & 0 [ 4 e s p - , 2 , ,   ",
"          2 / * q 7 k ] ] j + [ 8 5 f 6 m m 6 o & _ @ ! ,       > { % @ h $ $ # # 4 4 4 e e v l - - - - - - . + ) h h ) k . $ - ) 7 + 7 - . p ! B q & 0 0 0 p ! ^ & _ * | C n * * ! - # # # : >.! & # # $ # @ @ @ # # 0 0 0 0 + - - - , s q q 9 v r @ # a , , , ",
"        _ ! c * 2 7 i , q p ^ [ 8 f 6 6 g 6 f / _ {             1   ~ % 0 0 0 # ~ # 4 4 4 e v v ) - - - - - - $ ) h 7 % ) $ # $ 7 = ) ) 7 - _ B 2 _ i . + ] ) & & & _ ! ! ^ , _ & - } ] + # $ q 2 & # # # # # & ] + # $ ) } + # - - - 2 2 - - 2 v $ ~ $ = = , ^ ",
"      _ _ ^ ! 0 0 0 * 0 0 0 * >.5 f 6 m m 6 - ! !                   ~ < 0 0 0 # ~ # 4 4 4 e v v C } $ - - - - + ) h % i ] + + } , , = . . % j q q 0 0 0 # # # # # $ & & & - + { ] + ] 0 0 0 { j q ) # 0 0 0 { { = } + # ) } + # - - - 2 2 - - & v #     . ) = = ",
"      & & - & 0 0 0 * 0 0 0 , ^   f m g g + + ^ ^ + {               $ $ 0 0 0 ~ ~ @ # 4 e e v $ . $ # - - - - + } k ] ] h + ] } i = ) + + k % i = 0 0 0 $ - $ # # # - - - $ # ] } } + 0 0 0 % { h # # 0 0 0 { ] k + @ # + } ) - - - - q l - - & $ @       + } h ",
"    # # $ . ) 0 0 0 & 0 0 0 + h { k 7 7 h + + - - @ { _             $ $ - = k . : ~ @ ~ } # # # . . # $ - - - } } ] { ] } k ] } h . + + } k h % } 0 0 0 - _ _ - $ # + ) $ # # @ } } , 0 0 0   } @ # # 0 0 0 # ] + + # 0 0 0 _ & - - - - & q q - +               ",
"    @ @ - _ q = @ @ k @ ] @ ] { { k k 7 h # # k # @ { @               $ & & ; % & $ ~ } # # # # . . + $ - - - } } ] ] } % } = + .     k 7 ) h h k . # # = _ ! ^ & ) } + @ # + ) ) , h + ]   /   # # # # @ # : . # # # 0 0 0 ^ & $ - - - = . 7 k }               ",
"= ) @ # & ! ! & + { @ } + + @ { { ] , a h # : > # @ # $               ~ : ' ' & % ) h $     $ # . ) ) $ - - ) ] ] } ] % 7 }       # # k . i i i = k + + - i & ^ ! _ - H H H , % , , ) } + }   /     # # # k - - # # # 0 0 0 = . + - - - = % i b i         - - , ",
", = ) > _ ^ ! ^ - + 7 ] k + h { { { { ] +   - ~ = , _ _             $ < < - & = & k . )   - ) . . - . . $ } ) + + } k + ) $         + + ) . . & # $ # # . - . & ^ ! H v.v.v.H 2 , , k + } > >   - + # # @ + % = $ # # +   = = . } - - - h , H j j       & & &   ",
", , = > - g ^ ! ^ , . % k a = j { { { + - - $ ~ , , * %             ' : : - _ - % - h - .   . . . - . . } + ) $ # + } ] + + # # # # + u f 6 8 [ = . 0 0 0 $ - & _ ^ v.v.y.v.H 2 } % i k + + > : - q + @ @ @ ) % q # # ] = % $ + ] . - - } ( t i =       G | |   ",
"    & ; u g g u g ! 2 ) h p 0 0 0 { { - -   & $ , , % 3         Q _ ; ' - - - % - - . k . $ $ $ $ > $ ] + + h ) + + ] } k } + @ # # g g g 6 8 [ 9 0 0 0 0 ^ p * p & v.v.v.v.v.& % } % & ~ # # $ - & . { { # $ , q . # ] h   % q ( ] h + @ @ @ + - - - - | w.    ",
"    ' 6 g m m m g g ^ _ & ! 0 0 0 % # - - Q - - - j ' < < ~         - - - ) % $ ~ ~ # $ h $ $ - - # } $ # @ } ) + { ] } } } # + @ # g g m f 8 [ 5 6 0 0 0 >.n p , ) v v v.v.v.v.v.% @ @ - @ ] } h i i } + # # . - $ # + +   q 7 ] % ] # # # # $ - - - .   |     ",
"    8 f f f f 6 6 m & _ q * 0 0 0 # i - - - - - - & - - - $         ) . ) % & . - ' f g u g ) ^ ! = # $ # # + } ] { } } } } } # # @ g g m f 8 [ 5 6 = p ! ! p = } v v ] & v.v.v.v.v.H + # @ ] } k 7 i i . # [ # # # # # + .   - k + @ # # # $ - - 0 0 0 + +     ",
"    8 5 8 8 [ 8 5 5 + $ & * p + @ ] - - - - - - - - - 9 - -           $ % $ $ # . 5 f m g g 6 p o _ . # # # + + @ @ + ] ] ] ] ] # # g g 6 5 [ [ f 6 ) v.v.v.H } } v } } h v.v.v.v.v.H H } } } } } k = m 6 5 8 d d # # # @ $ . k + ] # # # # $ - - 0 0 0 + +     ",
"    _ e [ e e e [ [ [ # & ! q + # # - - - - - - - - - H               % - $ # # e 5 f m g u m , o ! - # $ # $ 0 0 0 ] + } + @ @ + # # g 6 5 [ [ 5 = v.y.v.y.v.} } } } } } v.v.v.v.v.v.v.} } } } } h 8 g 6 f 5 5 5 # # # ~ $ k + } ] + @ @ + # $ $ 0 0 0 } h     ",
"    - & e e v v e r + # $ & & $ # # $ - q & & - - - - - -               k } , $ 4 4 5 6 g g m q c o ^ . . . $ 0 0 0 ] k } } } @ @ + # # 6 5 [ [ ) k v.v.v.v.v.} } } } } } } v.v.v.v.v.v.v.v.} } + } 5 g m 6 f f f 6 # ~ & % + + + ] ] k { { # # # + h h b       ",
"  & @ # e e v v G } + @ - . . $ # # # # v v C r c p & - - -             ] $ : ' e [ 5 6 g u m - p n B & = ) ) 0 0 0 h ~ $ . . # @ # ] # # $ . - 7 . v.v.v v.v.v.v.v.v.v.v.v.v.z.v.v.v.v.v.v.% # # $ 5 g g 6 f f f f # $ % # } ] @ # . $ % @ # # # + k 7 |       ",
"  ] + # # # @ { ] ] + @ # 0 0 0 # # ~ k ' C C C C C | $ $ #         # # $   ~ 1 e e 8 f g u m . q * o , . ) = , ! _ $ $ + . . # ~ ~ ~ } t ~ # $ - z.A.v.v v.v.A.A.A.A.A.A.A.v.z.H z.z.z.v.v.v.k # # [ u g m 6 f 5 # # } ~ > . + + ) $ . $ ] # # @ ]     |       ",
"  } + # # # @ { { $ # # # 0 0 0 ] ] % ] @ - C C C C $ # ~ ~         # # #   # $ v e [ f m g G . ) ^ * _ } $ = ! p $ # # + + $ # # # ~ ~ 7 z.z.z.z.z.A.v.v.v.A.A.A.A.A.A.A.A.v.H z.z.z.A.v.v.v.# } $ - 6 g g m f 5 0 @ @ { # # . ) . $ $ . + ] @ @ ]     k h h p ",
"  $ # # # # + + + # # # # 0 w.0 k k ] ] ] # # # # ] # . # # #   #   # # #   $ - : e [ f g - $ $ . & _ & # ) ^ ! & - # - _ ^ ^ & $ . $ # > k B.A.B.z.v.v.v.v.v.A.A.A.A.A.A.A.v.z.z.z.A.A.B.v.v.@.# : ' : ' u s # 0 # # # ~ # $ & + + - - - - - h + $ )   } } &   ",
"    # # # $ = , = @ # # # @.] k % ] @ { + # # ~ ~ # } # $ # #   #       ~ # . - . # # # ] ; : $ $ $ . $ 7 _ ! _ $ # _ _ * n * ^ $ $ ) ) . w.C.A.B.B.A.v.v.v.v.A.A.A.v.A.A.A.z.z.B.A.A.C.B.= v.v.$ $ $ 1 < ~ ~ $ # # # # ~ ~ # # + . - - - - - - . . . + + = h   ",
"    # # # + = q h + # # > + _ % k ] @ @ ] + # Q ~ # # k # # # # ~       @ + $ . . . . $ . # : ~ $ . . 7 $ & _ + # # # _ _ _ & $ # # . . > w.C.A.B.B.B.A.A.z.z.z.z.z.z.v.v.v.z.A.B.A.C.A.A.H v.z.. : - $ < ~ & # # # # # ~ # # # @ - - - - - - - - ) . + . h )   ",
"  + $ # # . q q h } + @ + } % ] ] ] ] ] ] +   3 > $ ] - } @ @ # #   2   + ) . . . . . ) ) & ; $   - , _ $ # # $ ] # # ~ . $ $ # # # . & & ) C.C.B.B.B.B.A.B.B.B.A.B.B.B.B.B.B.A.B.C.C.H # # v.z.- : ' - ) _ ~ # # # # - ~ # # # $ - - - & 2 - - - - = = } h )   ",
"  i i } # - ^ ^ ) } ] } ] ] } ] { ] } ] ] 7   & > $ # + + { @ # # .       . . . 0 0 0 ) q ! ! - .   ^ * & # $ $ . } # ~ # $ # # # # - p ! & # # C.B.A.C.A.B.B.B.B.B.B.A.A.B.B.B.B.C.C.# ~ $ . D.- $ k ; _ ~ ~ # } # # ~ & } # # - - - - & 0 q - - & = = h = =   ",
"  , h } # # & _ . } ) k k { { ] ] ] } ] ] @ @ + ] + @ + + + @     $   ~ # # @.> 0 0 0 - ^ * _ # }   & * ^ ) . - - $ i $ & & - # # # - ! n _ # # A.A.A.C.w.C.H t ( C.B.B.A.A.A.A.A.B.B.] ~ $ . - k : < : $ ~ # 7 # # # ~ % # ~ $ - - - q B s 0 - - & - , h 2     ",
"        . # + + } } } ) # k { ] } } + + # # # # # @ @ @ @ @ @     #   @ # ~ ~ > 0 0 0 & ! ! - } #   - ! * _ & ^ ! * * * * * ! - # # = p o ! $ # C.w.w.C.~ # $ $ ~ # C.C.' B.B.C.A.# # # ] @ . - : % 1 < $ 0 0 0 # # # % ~ ~ # h - - - v v v r q & B ) , = % l   ",
"& . $   , & @ + } k } ] + . k { } } } # # # 0 0 0 # @ @ @ @       #   { { @ # # ( h ) ^ * _       # . _ ! _ & ! n n n * ! ! ; # $ $ % q * 2 z.z.D.k . { # : $ $ k ~ C.1 B.B.C.C.C.# # # ] h - - 1 < % ; - 0 0 0 # $ k ~ ~ < < $ i . 9 v v v v r r C + h %     o ",
"    ) ) ) ) ) ] } k k ] . @ @ 7 ] k @ # # # 0 0 0 # + ] ] 3       + { ] ] + # # . + } q p & . $ : . ) - & & & & _ & & & - - # ~ # ) = % p ^ $ # ~ ] ] > $ $ - k ~ ~ < z.z.z.z.z.z.# # $ & ^ a - < < < % k 0 0 0 $ % # - _ : # $ - - - s C C C C C & ) % h       ",
"        } ] { 4 4 4 8 5 @ k + k % + @ # @ $ 0 0 0 # + % H H     & + ] ] ] + + - $ & $ h ) . . . - h & - - - & 0 s & - - - - $ # # $ ) = % ) . . . - - ) $ $ % $ ] - # $ # Q # # # # # $ _ ! ^ j < $ # 7 7 ~ ~ < % # . = ) ' ~ $ - - - : C ; C - + ) % ) }       ",
"      k ] ] { 4 4 [ 8 f + ] % % h 7 ] { + ] + # # # + h b h           ] { ] = = p q = . } + . k = _ ^ _ & - 0 e v l & - - - $ ~ # $ # . - % ) . . . - . $ % . > $ { # # # # # # # # # # & * ! ; % ( % @ # % $ % ~ ~ : : : # # $ - - - 7 @ q ] ] ] % h           ",
"    ] k k ] 4 4 4 [ 8 f m } % % } ] % ] ] } + # # # # = k )               ] = a a q ) ) . h 7 } ) ^ * * _ 2 e e v v p - - - ~ ~ ~ # # 0 0 0 7 . . . . & 7 . > # @ # # # # # # # # # # 0 0 0 * ^ $ % @ { # - % < ~ < ~ $ ~     $ - - - # % } , } % ] =           ",
"  + + ] ] ] e e [ [ 5 6 m % k ] k ] ] 7 + } + # # # + } } ] ]           } { ] , h + h } ) 7 } ] @ & ^ * * C v v v C c & & - # ~ ~ ~ # 0 0 0 . k $ $ $ k $ # # # # 8 g g u # # ~ - # @ 0 0 0 * ! = # % { $ j e j $ $ ~ ~ # @       + + , ] % } % ] } h           ",
"  + + ] { { e e [ 8 f 6 g . ] ] @ k $ . 7 + @ # 0 0 0 ] ] @ @         h % ] + + } + ] + % } ] i ] - & _ | C C C C C ^ ! & - . # ~ @ ~ 0 0 0 # # } $ k $ { $ # # m g g g m m g ~ & & @ 0 0 0 * >._ # ~ 7 j 4 4 4 [ < ~ ~ # @ 0 0 0 { q } } ) % = q } h           ",
"    ] ] { { [ [ 8 f 6 m g + # + + + } k + } + + 0 0 0 ] { @ +     } k 7 % % + } ] @ { % k ] 0 0 0 . - - & C C C C C * * & . ) . # @ @ @ # ~ ~ # # k $ - - # # ) g g m 6 6 6 6 ~ _ - @ # # $ 2 * ^ $ # h 4 4 4 [ 8 5 # . # { 0 0 0 _ ] + } % a % h , )           ",
"    ] j ] q } 5 f 6 g g { , $ + # + + % ) k h } 0 0 0 + + @ +     k 7 7 k } % + + @ % k } + 0 0 0 , ) & ^ * _ ^ ^ _ * ! $ + + ) = + @ @ # # # # k $ k $ $ # # m g m 6 f 5 5 5 B < ~ # # # 7 & ^ _ $ $ e e 4 [ [ 5 6 x.= = } 0 0 0 , h ) % i a h % k }           ",
"  { { ] ] } i & . + # @ ] + # # + } } + % h h 7 h } ] + # # $     k k ] q . $ % . % ] ] } } 0 0 0 p o o n ^ . $ - , * ^ $ # + ] } ) # # # # # ] ~ # # 7 # ~ % f 6 6 f 5 d [ [ _ < ~ ~ @ % # : $ $ + - v e e [ 8 f m ! >.p - $ - q a j % , , , h 7 % i           ",
"  { { ] ] + _ ! & # # @ + + # # + } } 7 . % = a 7 k 0 0 0 # .       k { { + : - 7 } + + h h h q * / * ! & ) . . + & * p + @ +     + . # # # @ ~ ~ ~ 0 0 0 ~ ~ 8 5 5 d d 4 4 r q < ~ ~ } # - : $ } & & v e [ 8 f 6 g ! ^ , - $ $ . h % k 2 j 7 7 7 , %           ",
"    ] k ] % _ * ! $ # @ @ + # # + } } } } h % = 7 h 0 0 0 . .       ] { { { . % } } # + + } h , ^ q q $ & % ) h = & ! , ) + } }     + ] @ @ # # $ $ 0 0 0 } $ ~ k d d 4 4 e - < ~ # . - & & ; i     * ; e [ 5 6 m 6 - + $ h #         a a j j 7 a , q           ",
"          @ j ! o _ # ~ # $ . # # k } + } k ] % i , 0 0 0 +         ] ] { { % } # # + # # # } + + - # $ $ & % h h = = ) ) = h i     } + ] + # # $ ) 0 0 0 ~ } ~ # l 4 e # 9 # ~ # . & _ & & ; !   /   $ : [ f 6 f ~ @ { # #           7 7 j a h a a q           ",
"        @ + . 2 o >.= { ] + $ $ j 7 } } } ] ] ] % h h ] ]   =       ] { { % k } @ # # + # # 0 0 0 @ # $ . . = 7 h ) = h   , a       + k + # # # 0 0 0 - # # $ ] # # # # # & , # ] - ^ ! _ & ' ^ n   & # # # # # $ $ $ $ # #           h k 7 k } , , , t     a   ",
"        ] + + 0 0 0 , = ] ] $ 2 2 ; [ 8 5 f ] ] k % ] ] ] 3 a         { % @ } ] @ @ @ @ + # 0 0 0 @ @ . = ) h h 7 ) ( h h     /     7 ] # # # # 0 0 0 # - # $ # ] # # + $ : $ k $ _ ! ^ ^ _ : ;     _ $ $ - & * _ ^ ^ , - +           = } k k k 0 0 0 3         ",
"      + + + ] 0 0 0 q $ - ] 2 c ! [ [ 5 f m g ] k k % + }     Q       % { # + ] + ] { @ # + 0 0 0 @ # - . ) ) } + 7 = ( + )       , k + # # # $ 0 0 0 $ # $ # # # - $ $ } < % $ ' ! ! _ 0 0 0 $ ; ! ^ $ - ^ ! 3 * * * p ' + ]         , } k k k 0 0 0 7         ",
"      % . $ $ 0 0 / ! & - = 2 ^ 8 8 5 f m g g , k k ) % h             { { # $ + @ @ @ @ # # } ~ { @ # _ q & # # # . % k $ $ } + i 7 h d d 5 f - , # # . $ # $ # & # - : : 7 < ~ ' ^ _ $ 0 0 0 ~ : ; - # - _ ^ ! ! & i - # @ { { h 2 B 2 7 % k k 0 0 0           ",
"      = % $ . + ) _ _ & & p * & f f 6 m g u g = k } + + } }     $ % ] ] & - : 4 4 [ [ 5 # #     { ] $ _ _ h ] @ # + . % + } # + } k 4 d d f 6 g a h + + + $ 0 0 0 # : 1 k < k < : ' $ # 0 0 0 ~ ~ # # # # $ $ # - @ - @ @ + # ] k 7 a j % % % % 7 7             ",
"      = & % ) . - - - & q p q j - m g g g g 6 i k } } } +         { ) ) _ - 4 4 4 8 5 f m +       { ] _ ] + ] { $ , h k 7 @ # @ + 4 4 d 5 f m g g = . + + . 0 0 0 $ - E.F.G.# } $ # @ # # : ' - $ % # # # 0 0 0 # $ - @ # $ $ k ] k % % k k % % 7 h             ",
"  i = , q q j - - & & & ) , a @ } g g g m 6 5 k k k k k }       ) = , , q $ 4 4 8 8 f 6 g = } +   # $ @ { { { ] + } i % ] } @ # . } 4 8 5 6 m g g = ) - . & 0 0 0 & E.H.~ ~ I.# } { # ~ # : & _ ^ - + # @ 0 0 0 # # & + # @ } ] ] } 6 6 g f [ % k h             ",
"  { ] , p p _ & & _ ^ , ) % % @ + m m 6 f h k j 7 k a 2 =       h i i 2 q # [ [ 8 f 6 m g = ] ]   # ] { { { { 0 0 0 k ) + @ + $ ) h [ 5 f 6 g g g - # - - $ $ $ # 7 E.~ J.~ F.$ # k @ @ & # ' ^ ! ^ & . ] 0 0 0 # # # & # } ] } h f m g m f [ G h               ",
"  { k i 2 ! _ & & ^ * ! j @ { % + + 5 k 7 k k k 7 h , 2 _       ) i i , = # [ 8 f 6 m g g & ] } ) + ] k ] ] ] 0 0 0 + + # # # } = i = f 6 g g g & . ) = $ # # # k k K.J.~ J.F.# # # } - # ) . - _ ^ ^ _ = b $ - & - # ] % + ] k 8 6 g u m 5 [ }                 ",
"& @.t , ! ! & - & p * * _ + ] ) R = , 2 2 2 h k k h , t H $           $ + + - f 6 m g g m - = = ) } k k } } ] 0 0 0 ] ] ] + @ $ 7 a i ) g g u _ k $ + + + # ~ k L.F.K.~ E.M.N.[ 8 u u } + , . + ) = 2 >.>., - _ ! & + % ] ) } } 8 6 g g 6 5 e                   ",
"        * _ & & B & ! * ^ } 0 0 0 c >.o o ! q h = . & H o             # # { $ ' g g g 6 7 h i i h h } ] ] ] ] % k k ] { = { ) + = % ) + $ & . ) + 7 $ # # & 7 O.K.K.K.~ ' P.Q.R.S.u u # % = ) } ) 2 _ ^ * 2 _ ! * & k + ] } h ] 8 6 g m f [ e                   ",
"        R & & B l & _ ^ & h 0 0 0 ! c p p q = , ) . - b >., k         @ ~ > _ # ; ] k 7 k } h a i h } ] { ] % ] k k } , { @ ] = = . % # # # & + } } % # q @.@.K.K.F.F.K.T.e [ U.V.u u # $ - & q >.! ^ & q a _ ! * , + + ] k k } 8 6 u m 5 [ r                   ",
"    & ^ _ & B v s p p 9 % h 0 0 0 = h b ( , q h h ) ( , 2 j 7         ~ ~ $ + { { { ] k } + ) h h a } ] { % } a a a a ] ] + + + = + + 0 0 0 ) & & ) . % @.E.F.K.K.W.F.F.X.Y.Z.f `.u u + - ^ ! >.* ! q . ) j _ ! >.& + + } k k i + f 6 f 8 | 7 k                 ",
"h h - & & p C C C C C C a % k k k k ( 3 H , } h h ) +   7 % %         ~ $ + ] > > @.@.] ] } + + } } a k h h k a h i } } k h } } + = + 0 0 0 } } & - ,  +E..+W.W.K.K.F.# ++@+u u u u u $ & ! c ^ & .   ] } h q B ! a + + + } 7 7 k k } ] } k 7 } h               ",
"    - - - = C C C C C C 2 q % ) } b t 8.8.  k 7 k + q                 : . ) : H H 8.8.q 3 t b % h } = 5 6 g u g k } ] ] k 7 7 } + + + 0 0 0 ] } h , = #+.+$+W.W.K.# F.# u u u u u u | - ) 0 0 0 $ ] @ ] } j j _ & ) h 0 0 0 h % % ] ] k h = ( h }               ",
"      - . % i G | p >.p & - . % k k b A.8.H 7 7 h q   /             3 = , , :   8.Q Q 8.Q Q A.t % = [ 5 6 m g g k } } } 7 7 7 } } } k k } + ] } h h E.%+.+W.] @ + $ F.+ } , u u u u ] + k 0 0 0 + ] @ # + % _ $ + + + 0 0 0 k 7   } k k q 0 0 0 % h             ",
"      & j } = # } a 2 >.p q =   % j a Q 8.H j                       (       -     Q Q Q Q Q   % 7 [ 8 5 6 m g g 6 } } k 7 7 7 } } k i = + ] } 7 k % %+&+*+0 0 k ] + $ + } } + # # # + k } 0 0 0 + ] @ # % + ] ) } ) } 0 0 0 k k 0 0 0 , ^ 0 0 0 % h } }         ",
"        , } , q ] k a 2 >.!     h 2 p Q Q Q   *                   *               Q Q Q Q     % 7 5 f f 6 g g g 6 ] ] } } 0 0 0 + } ) $ # + 0 0 0 + W.=+0 0 0 + k ] + + + ] ] ] ] + k ] % } } } + + ~ k $ ] } } = } } } } % } h 0 0 0 , = 0 0 0 % t H = }       ",
"        a h , j ) a j     *             Q Q Q                                     Q Q Q     7 7 7 = 6 m g g g 6 5 h } ] ] 0 0 0 } } + # # + 0 0 0 + =+} 0 0 0 } k } + + ] ] } k } 7 } + @ % % ) h + ( { @ } k k h h k 7 } } % } 0 0 0 % k % k j % j a , ,       ",
"        7 h = 3 = p                     Q Q Q                                     Q Q Q   - = i h h g g g g g f 8 % k } } 0 0 0 k h ] + + + 0 0 0 + %+k k k } k k } } 0 0 0 k k % } } + + % % ) h       > k k 7 k k 7 7 h ] } % h j h > % } k a j j a , _ _     ",
"      , a i , & !               p.p.q.q.Q Q Q q.q.                        p.p.q.q.Q Q Q q.q.- - . , h g m m -+i j % 7 } } ] $ }     } + + } } k t + + ) + ) } k k k k 0 0 0 k 7 h h } ] % ] + %             } k k k % 7 + ] k } h j 7 % + % ] ] h 7 b @.&       ",
"      p a , w.                p.p.9.9.9.Q Q Q 9.q.q.                    p.p.9.9.9.Q Q Q 9.q.q.- . h 7 h ( . ) h 7 % 7 h } ) ( h       $ $ $ + h t t h } $ . h 7 7 7 k 0 9 9 k ( h h } k k }                 ] } k } h } @ { } ] } 7 % } ] } % ] k } } }         ",
"  = , q , q   H               p.p.p.p.p.p.p.p.p.q.q.                    p.p.p.p.p.p.p.p.p.q.q.        h . q } ) h 7 7 k h h = h         . $ $ + } h k } . = a j 7 h k k 7 k k % i } % }                       ] ] } k + { . > > + % 7 k k k h % + + ] }         ",
"  = = ) & q = = a             t.q.q.q.q.q.q.q.q.t.t.                    t.q.q.q.q.q.q.q.q.t.t.        7 ) = h . & h 7 k h h =               ~ ~ @ ] k k + , , a h + ] k % 7 7 h } % } . +                   q ] } } h - + h q i % ,       j a i % } } h         ",
"  } ] ]     = = a               t.t.t.t.t.t.t.t.u.                        t.t.t.t.t.t.t.t.u.          i   = i = A.. ( 7 h i q                   #   3 t b % = a 7 } + h 7 7 % k % 7 k ) }                     q ] h q _ _ a a % _         7 a ,                 ",
"            a , a               q.q.q.q.q.q.t.t.t.                        q.q.q.q.q.q.t.t.t.        /       &   8.H - ) . . $                         8.  H 3 ( ( } k k % , k % 7 7 %                           + , p p p a % a           7 i ,                 ",
"                                q.q.q.q.q.q.q.t.t.                        q.q.q.q.q.q.q.t.t.                    : 8.8.: : < $                         Q         } } b b % q % k %                                   = = . % k                                   ",
"                                q.q.q.q.q.q.q.t.u.                        q.q.q.q.q.q.q.t.u.                    : : 8.; - 1                           Q                 8.8.8.                                        @.>                                       ",
"                                  q.q.q.q.q.q.t.                            q.q.q.q.q.q.t.                    < 1 : - =                               Q                                                                 } )                                     ",
"                                  q.q.q.q.q.t.t.                            q.q.q.q.q.t.t.                        = = ) '                                                                                             = ) =                                     ",
"                                  q.q.q.q.q.t.u.                            q.q.q.q.q.t.u.                        ) . .                                                                                               = = =                                     ",
"                                  q.q.q.q.t.t.u.                            q.q.q.q.t.t.u.                                                                                                                                                                      "};
