/* XPM */
static char * jjWinter3_xpm[] = {
"128 128 86 1",
" 	c None",
".	c #060606",
"+	c #6F920B",
"@	c #696E11",
"#	c #62580D",
"$	c #FCFCFA",
"%	c #3C440C",
"&	c #BE7A6D",
"*	c #7AB602",
"=	c #101206",
"-	c #D5E0B9",
";	c #AE6E61",
">	c #2A3A02",
",	c #9A766A",
"'	c #C2D399",
")	c #79B202",
"!	c #2A360A",
"~	c #26320A",
"{	c #AFC477",
"]	c #6F880F",
"^	c #79AE05",
"/	c #1A2202",
"(	c #362E06",
"_	c #957763",
":	c #9E625A",
"<	c #465E0E",
"[	c #79AA08",
"}	c #A1BA62",
"|	c #6E8011",
"1	c #5D4A0B",
"2	c #222A0A",
"3	c #97883F",
"4	c #463A3A",
"5	c #2A1306",
"6	c #76A40D",
"7	c #9CB758",
"8	c #664A42",
"9	c #917E58",
"0	c #D68672",
"a	c #2E1806",
"b	c #4A620E",
"c	c #AB8E4A",
"d	c #8E8D36",
"e	c #9B933B",
"f	c #6C7A0E",
"g	c #3E360A",
"h	c #96B24F",
"i	c #2E3A0A",
"j	c #997F43",
"k	c #A4864D",
"l	c #769A16",
"m	c #463632",
"n	c #483C36",
"o	c #3E4E0E",
"p	c #562606",
"q	c #87893D",
"r	c #66680E",
"s	c #8B824D",
"t	c #5D420A",
"u	c #4B4336",
"v	c #6A7411",
"w	c #B88E54",
"x	c #9AB652",
"y	c #562206",
"z	c #9E7A4A",
"A	c #94B24A",
"B	c #888C2F",
"C	c #5F4E0C",
"D	c #C28A61",
"E	c #AA8254",
"F	c #583208",
"G	c #92AE46",
"H	c #8A922E",
"I	c #927A5A",
"J	c #562A06",
"K	c #966E4A",
"L	c #E6EDD5",
"M	c #5A3A09",
"N	c #92823A",
"O	c #65620E",
"P	c #562E07",
"Q	c #635E0D",
"R	c #5A3E09",
"S	c #593608",
"T	c #5E4609",
"U	c #62520C",
"      ll               *            |@                    l      l       yyyy*Sr]#tU         *     ll                  *        ",
"       lll        *    y           RllCpyy           pR)        lll^ R@@My      *   CFy     *+    ) ll *             py         ",
"       ll6l      y     y         l^ lll  yy+     PPyy  )) t)       )UMll        *      y     Q    )f@vtyyy         *UJ          ",
"       ll6l      y    yy         l   ll    Cvl) F1        p      JR1SJ#]|M      Jp      *    S   RQU l   yP1       ]U           ",
"        |ll   ^OCJP   y          ll  ll  pT@vTp 1l    ll py   ) Jp     llQJyy    py          P  yp   ll   RQQL$ppJt1Sp          ",
"       Fllllt ll   M ppyp         l   lUFCll  p-@ll  P#v p     T11M    lllM yyS   y         Sp yp         #ltJFM      y         ",
"       J lll #r  ll1 T   M        6l )6C lll  F@+lll   lQPF ll@vllCJy  lll#   #flPy   )     J$pF      ))  rC JCrlll    y+       ",
"    USpy   lll#R llrrb   )        Q@ )) lll    v|l        S llrl    y  r+lr   l@My  PM     PypF       )v   F   vv+          y   ",
"   ))  yyp  l+ Ul Urbll  )        lOC  ll      lQR )*      FLPJ     y  t l1  ll ppM#ll     py          #   P    #MJpy     yy    ",
"         SS    Q'SF  llll@       ll PM@ll    lll'F1*  M#r  yyy      y  p  y  l  J llll6l  py          ##   Mv*      ypSCCJ    * ",
"        FU#F   1Myyp    SS       ll^  @+v^yPUr@r#tRRL1#ll   pp      p  y  )     M       Jyy      l    rl    Q)         ll     y ",
"    l  Tt l#t  JJP FFPyyy ll    ll   PU|l  TrlllllrMSUllll  FM      + Fy       FT     UCFpSRPJPTll   PQAl   #   ll    [6l    y  ",
"   ll #l  llr't1C   Q      ll6llll  #M ll FOlllllllMt# lll  #)      l@R  ll    R1L yyJtUM ll   6ll   pTvvM  @@llll    [|l    P  ",
"   l  +   ll@@r@llllvQ     llflll  U@   TSF ll     P#+  lllCv^     QfQ    ll   UUTtT1R    lll  ll   yy  l + # U        QO   1   ",
"   l  l     QvbOrlllffv+   ll|ll )p llMpST   ll     Uv   llO  l  ytvl     ll+P#vf||]ll     ll     pyy       J  )       FM  v    ",
"     l      Ro   @lv@lO     #ll      l  Cllllll     Tvv{{ T#  l yy'x#PyyyPUrtSr]]||fv#Fy   ll    yy$        *          y PO[)   ",
"          $yya   ) R  yy   y1l       llr#Q#          |]}OtpPR+vCyyUQSyyyyypPp      pJFPpy*PUQPyyyyyyFC#tP              yyJ *    ",
"    pJpJ1Q-Sa    **1   yy*yy R        lvl  Jp+      lvr1PyyyPU@TyyJPyyyyJ              SJyyypyyyyyyyJTQQCSJFTtP     $$yp        ",
"   Fp    Qrr%     )    y     p         |lll          MJyyy         y    C#RJ               yy +     +J  O#TTCtTRpS#1JpJP        ",
" ffT      r|ll         y                 lll  ll     yyyy          y     llCP       y       p        yp  lll  r#p)TCFJS         ",
" **   00&$SQHHd  ll    y+               lllll ll  00&yyy$&&        y    )[llQM     J        F         Ft  ll  l     PJMCUC      ",
"     005$LRC{@GHlll     y             llll   lll 00$$yyy$5&&       yyyJ1v# ll@1PSOrSpJ      R         #rr     6          ppyy   ",
"     00DwceecD3Hlll l   yy          lllll     ll 000000000&&       y     FP lfv  ll  TU#    S       lfvlUS    6             yyy*",
"     ;E3ddd3kk3Nlllll    yJ         ll        l  ;&&&&&&&&;;       yy      @l @@Oll    RP   F       +]   yyyFl|QSM              ",
"      jBNN3BBBs  llll   *  O                      ;;;;;;;;:         y   lllll   #|l     *  JP      #|)    y      TTMJ           ",
"      EEk3Hd3z;    ll      *                      &&&&&&;;;         P  llll      |l        R +    pF      yy     ST RFPQ*       ",
"      &&EkkE&;;            *                      &&&&&&&;;         Q  l         @       *]1     *         y      P    O)       ",
"      &&&&&&&;:                                   &&&&&&&;:        *+            S      *UU                yy     JF    )       ",
"       &&&&&&;                                     &&&&&&;         Q             yy                         y      1            ",
"       &&&&&;;                                     &&&&&;;        *               *                         y      [            ",
"       &&&&&;:                                     &&&&&;:                                                  *                   ",
"       &&&&;;:                                     &&&&;;:                                                                      ",
"                   *                                                 *              **                                          ",
"                   y                                                J       *        v                                          ",
"        l          y                                    *         P1   *    *f       M            *  lll      **                ",
"        l          y                                    *        yF l  y    *fT      p *         yyyPr]l      U*                ",
"        ll         y        **       *         *        *Sp     yy  l  p      Fp    yy  yy      yy    |]l    p                  ",
"         l        +y        Ur       *  ll      y         yy   yy   ll R       y    y    yy    yy   p ll6    p                  ",
"     **Ptll       P         J        1  ll      y          y  yy     lr@)      y+   *     *   yy    F  ll    Mll             *  ",
"     *   Ql     l J        yy        J   ll     y          y$yy      l|l^   #U  y  yy     y  PP     T)^lll   Qll     )       y  ",
"        + #  P[l  F       yy         yy  ll     SC         yyy *     O|l   [ltpJP  p      y MQ*    pT*) ll  Cvl     T        y  ",
"          S J l  FQ^lll  yy+          y  lllPy   @         JJ       ptlll  l   T# TM      y$C**    *       tvll  Rrvll )    y   ",
"          yyJ    M)^ll   y            y   l6 yP }@        P1        y) llll    l|hr       ypM      y     + #7l y)#llll y  yy    ",
"          FS    pP       y            yy   l  trvC        M**      yy   lll    l]|r       yy       J      FT#tyy       y$yp     ",
"           #    y        y            +P       lQP +llll pF *     MJ    ll     vfv         +       Cl    l#Py         yypR      ",
"     l     @   pJ        y  l          Cp     llMy MOv6l y        U      l    @O'@rt      Fy       vl   l]|  )       yy  lll    ",
"     l    ^@r  ST       y   l         lvS        py     py       r#    l     l]vUrlrQQUrllR       l|}  JO+l       lO#R   lll *  ",
"    l       O  Cllllll  )   ll        llU ^ll  * Py     y        <g    ll+  r]l6llllll llvM       l|#pyp 6ll  llll++|#    ll[O  ",
"*yy         tLJt        y     )   *  lllrF ll  )QS     Py$  lfRtr#Py)PF#OtSUvllllll6   ll|   ^TRPUf@Myy  [v   lll|fvl    +ll|   ",
"  yS        pyyJ       yy    M    y  lllv1 llr  r llllrCJJFTv]U1#RpJT1FS       ll  S   l+v  #rr#M+O1      P     FJJR1Spyy  O    ",
"   pp       yyy       yy    yy     POl  vO  l@ lvhl6||v#PtrO+|l  a5(l FpP l       F     O  vrrl           y    yypS**   yyy     ",
"    *yy     Sp+   **  y    yy       OrMSOrM  OrlOrrOQ#C   6l l    aor  PpTll     O#    1TS#fQ     )P    lQR   yyy   *     yy    ",
"      yy   l#R     #  y    y       JT   tCS  lQMPFR1      [ll      OQC  SSOr  lll|llll+1RPTvl       vUPC}|l   yyy)         y    ",
"    Jpyyy   OQ     T  y   yy       y     Ft '{tpyS lll     ll  *   l1R#l tTU1Oll}}x|fQ1tSS l6      ^6  p1vll Myp TS       yyy   ",
"    1   y  P1Ol[MSlO  y  +yyyy    Rp     MQ@{#Jy  +         l  y     JSCll ^Crr#SFROvQ1R llflll     6l  yMlllrT ll#y     yy y   ",
"   r[   yp M1  l T@r  y  yy   J **       TQ}vQR    FP       llS    l  yPCllllr@OFyJCrQt ll|llll     ll   F1{||v lllyy    y  yy  ",
"    *    t'rbl    lOF$y yy *        l     O#rvl     Tp      llT    l   RQllllllrFJPS     l@ll      )     l|xrrllll  y    *   yy ",
"         r}r<l    l Pyy y           l )   vCtOvll  llM    l6 #    l    @||7llrvO         PC ^      t  llll]|OR  ll  y         y ",
"        lrUt(ll   l  yy y       ypTr#Py   vrUlv|]llllvR    vC    OQv6]||||7}@rll  l  )   )  [      QC llllr|f  1||  yy*       yy",
"  l       Jya ll     yy$y       *  l  yyF-v|llll]llll^U   1v    ^   6llvr#Urfll  lllCP  MR  l      l# ll  Tff ) lrMy yJ        *",
"  l       yy  ll      JJp               Uv|]ll   @6ll MJFMMU1F           FR#llll lllr   U  ll     ##CFpJF CC       yyyPr*       ",
"  ll      )p   l      ^T                lfv@^)    ll   FC     [          tQvl 6l l@#Ol CT        ^v     Uvf#         yJU*       ",
"   l      RR   ll     lU                 lRM      ll   tl     l         llvv  #llvQ   l#   l     ^)      l]l           +        ",
"   ll     #U    l    llM                 lCS+          #l     ll      llll#SpJUv@vl    O  ll              ]]           p        ",
" )  l     Ot         l p                  r#           r       l   llllll Fy   llllll6 1  ll              v]l          y        ",
"  pT ^   lCP  ^     l  y  lll             1Ol^         6                  py   lllllr  t  r@C1t           #]l      l  yy        ",
"   P )r^l Sp  v66     yy  [           )   FTll]|Oll    1     ])  )  Jpp   yy+  [r@llU  1TUfl  C   )   SMSJT|l]Q   ll yy     *** ",
"    S1    pM  rll    +y   JJ     )   Q)^l C#  6[rv     t FpPO+   Pyy   M  yyy    RFSt  URl6[   ^  tCCU#  FSfl6rU1@|OPy )    *#  ",
"    FM    )#  M  l   JJ    J      #S 1^ llfr     v    FR p   ll RJ     **  yy       t l#        JS1      Jp ll  l|@    lll   F  ",
"     #    1r JyJCv#  t     #      l JM lll@t     v1   JPJy    l#t      )*MpyyypJ  |r1R-t       Jy        yy    6ll1y  llll   p  ",
"     lU   OrtP   lrMFrl@rll][     l  FUOllrSy  T#rTF  pyy     CO  Fp    1P yy   #|l  JpJ     *rS        )py    Cl  yJ 666[  y   ",
"     llS  vr#      MFlllvllf[     ll  PPMll1p t1   S 1Py     JS ll RTllRJ  yy  TU     yp     ]r         #T    tP    pM 6)   y   ",
"  +  #OMPl|v@lll  SJ  llTLF         Jyy J1}OPM1  l P-UM +   T1    6 UhfR   yy JF      yy     O         rf#  llr      pF     J ll",
"   ypS  J Q#     py     Pyy         y    SOrt^  l  pM1R   [frllll   U|v    yy ............ pFt ^       |f    ]]       T    +Jlll",
"   y    yJPJ    ^F      py         yy     tCR  ll   MU#   [|llll    1ll  ......888..888.8....  1      v|OL  t|ll  llll]ll   p ll",
"   F     yyy   TO      yy          *       JP  l )  #vvl   vrU      t<%=..88.88..88..888...4..=M    +l|v-$yyF 66  llll]ll   y ll",
"   T#1   yyy  JS ll   yy      * *          ppF   *   #C   Mt Jyy    =~In,...m.mm.m.mm.m...nuI9i!     rv#Jyy                 y  l",
"   T l[  yy$$PRMFtQr#MJ     py  y          RMJ$$ 1t+ MP  yy    *   *.__4,,4...mm..mmmm..,nu9srvo    1#CFpyyyJJJJp    )      y   ",
" **T  l  Fp$t#rQMP  lltRll SS  *y     l  )  QF$ypJ   tS p*         y.,,4,,,44..........4,usOQQqb   P1#          yyyy  yy    p   ",
" ***   llUMSOf[        C@r1rrRp y +   l   F v1yy    TU# P   ll    yy.,,,,,,,4__,4,,,,,,4,I9u__qv pyJt )*    ll   y yyy yy  p*   ",
"      ll OUT@l[llll+    vl **l  yp   l   yp vQP   llrvlOT   ll1yyyyy.44,,,4,u99_,,,44,,,,,,,,_2brFy*  )     Qfll Jy  FJyyy F *  ",
"     lll TCCllllll  y   v        p )[6Ty y  ##  llllv@@#   16v#yyyyy..nuun4_Iq@o4,,,44444,,,,.=Ov1    t    yP lll S  l yyy M**  ",
"l  llll  pF lllll   yp [l        p  [  yyy  FF      U#C  MM1QQ1  yyyy./dd9,,_qBsu4,,,,,,444...p ll     O  yy + lllr lll  y$P    ",
"6#rl+l   PR ll    )p Jt      *   y      yy $yy     6QC JpJF1        yJ>]]>u4n9BqI4,,,___,,..yy  ll    lrM$y   llllf@ll   y$p    ",
"  1#r   FC6ll )p   pJ 1      S   yy      JR-Py     rvUpyyp           p   /...=ob!.....==...      l    l pJ1lllll   Oll   yyy    ",
"    UF  FUll  yy    S1-P    CC  *yyy *    #@#F     O|rSy             yp       TvOFyypS[             +l  )Clllll    [ll   yy     ",
"   SFpp JS    y   RCCTFp    1      yyy     ]vQ   yJCff   *  *        yy        <rg    l         )ppJ    J#llll      ll   yy     ",
"  Py  1Jyy    p )U@) Rpyy   P        yyy  )lvrl FpS#lll  F  J     yyyyy       J1b    l     ^       JMSyyyF           ^   y      ",
"l@t  llTJP    S  ll^   yy  yyy*       yyp  Q11{r#R llll[)T$P1     y   y      yyP  )^6l    Ulll     Fy  yyyy      J1U#]*  y      ",
" 6   lll##Ol6^t  ll     p  JJ       Mpy y$LRC##UQ##vO@l6)TJTll   y    JS    yyy    v| +   @Gll    v1     PPL  y*yPll     y      ",
" l   llll@vxlQFpP#|@    MLtt       |#   Pt'rvr1P   l [|fUF ll   )     Rrr* )Pp       P   M#f]vR)  vl     ##''TJ yJ#l    yy      ",
"   1R#lllC'QUS    lrF   UUU       )[    U@vr#RJ    l     S#ll     l  J1**  T1P        y  y l[)   [ll   lllv@rC    Tll   y       ",
"  )* S#]lMMt  l      *  tR               QCMJ)     l  )   @r    llll p     O#FyJ#@1Jy p pp l     ll       Q1t     SO    *       ",
"  )*   v|CFF ll         pp                Jyy          f)  1J   ll   *    Ur1    ll pP Rt        ll     ))CJ      pM   yy       ",
"        l#PP ll         y                 yy           |^    *            OQ     ll  ^lrllll     lll      #M       )   y        ",
"ll        PTll    lll  yy         ll      yy      l  ll|l               llrT          l@ll       lll     lf#           y        ",
"  l       P#l    lllll y           l      yy     ll  ll|l )       ^     llQF           P         lll     l|6          yy   *    ",
"   ll   l+F1   *  ll   ppSSPU|U    ll     pJ    ll    lfl P  llllll[    ll@t          Jy *        lll   [l||          y   r]    ",
"   lll  llSp  *lQ     RPF lR * *   ll     S^    ll    vf+  Ulllll||     ll]O        * S  y   *     +llr][l||l         y  Sr*    ",
" llll   ll#Pp   tPS   T  ll T       ll)*  UO   ^O +   Ol   S  l  M       l]vT)  ll  )rS+ y  p     RC#Oll[lv|ll   S#6  y$yJ      ",
"llll    ll}Mp    l@vQLS  lll +  *y  llvU  O#    MF   JCll  y  6 yy     )  l|QP   ll  T   S$pR   [#rl     lrr|l JP ll  yyy+      ",
"  ll )  lhx1F llllllvRp  lll     yy   R  lQM     UM p^ ll  ) l Py      y   |vty   llr1   #F  )[@@l@O     l 1v{SJ ll   PS        ",
"  l  *)11#QRFQllllll P pF#ll      yy Jp  ltp   lll1$J lll  RllMy       yy  l|#Jy -}|vl  lrF  ^|vl  Ut)   l PtTF ll    #rll      ",
"     Q)P  PpyF      *yyy R#U       y$p +  Jy    [ Syy  lll #{tJ   lll   y   lrMSCv]f    lr   #Q     CF     PFF  ll   rflll      ",
"  JypJ      yyy*    pJ     p       yPR    yy    )QPp    l+lrUF l        y   ll O|+]O   ll6  t1^      R     UQl      CQ          ",
"*yy          yyy   pM      yy*  l   MQl   yy$$   MP      lvvQ +l  )#    p     llll#Pp lll|  1        SF#v@ #O@   + Jt[          ",
"        ll   yyyy  PQ*     p    l    Ql  yJPFFSMRS l  lll|rlllll  )]1   M [    ll  yJ1lllr-PM        p rlUJ #6l   yJ          ll",
"    *    lll  yJRR$PQ*     F   l     1vl PT#Qrr@l  l lll+ll   ll    T $FU@@MFRMMR^  yF   Fyp         P vl * 1|6   R           ll",
"     y    lll LMrrLpM     v +  l   * S##LSOvlllll lllll+]l6  lllllllCJFUlllCCr      yy   yyy         MllC   S|66 Trllllll     ll",
"6fTp  y  ^ lvvQU|fL$p    ***        ypFFpJR--  FS#rQ6rQO  [  lllllll JTllll  |]    PPF  FJy + ll     Cll    J# rMCllll+6      ll",
"** pyyP  lvrUllllvSyy              y   yyyp$yyyyJCCFFFJP            JF ll    l++   QOlllOtp   ll     #      pJFPp     Q         ",
"      #@|||lF   llFyyy            yJ    yyy$yyyyyF  yyypppJ       yyy ll      l ^ v||lll@1    ll     [     TtPyy     pP         ",
"      llvl  P   ll yyy            y  l   yyyyy   yy    RRJyyyyyyyyyyyTr#P       FTOrll UTF    #@1yy       TOOU       y$    +    ",
"      lUS    v  l  yyy *         *    l  Jyyp     yy    l )pyyyyyyyyySTSyyy)pppyyJPPJpyyyyyyypSTSpJS^TMRTtCrvll     yyyyyyy     ",
"       y +   *)     yyy                ll1Fp       y     l           ypyyyyFtMJyyyyyy+yyyyyyyyy   UOOCFpPS1  +ll    St          ",
"      yy            yyy                 lr#R l     y      ll           yy   ll                      @tpy$      ll+ MOl          ",
"    ypp         00&&yyy&$            Dwk'UQ#kd     yy      ll  ^l       y   lll        )           *[  yp$      llrOll    yy*   ",
"    p M        00$$$yyy5&&          cer{-PRT'dk     y*       l# l       yy    lll      y  yJC**         ypPR1lll #rl6+rJyyy     ",
"   *  *1       000000000&&         leecD000D'dk      Pt l6l FR  l        pJ +  lll  ll y$yy              FClf||rtPRQ6]          ",
"     **Q       ;&&&&&&&&;;         ljE&&&&&&k3z       @vl[ Mp   l         1M   l66l ll yyy                vlll      ll          ",
"       *        ;;;;;;;;:            ;;;;;;;;K        lCtRFp    l         ]rOvll[[  llCyy                 ##                    ",
"                &&&&&&;;;            &&&&&&;;;        ) pp                6]l|vOU)RCvf1y                   y                    ",
"                &&&&&&&;;            &&&&&&&;;           yy               l|l     pt@l                     p                    ",
"                &&&&&&&;:            &&&&&&&;:            y                T        C##                    TT                   ",
"                 &&&&&&;              &&&&&&;             yy               y          )*                   *f                   ",
"                 &&&&&;;              &&&&&;;               *              *                               **                   ",
"                 &&&&&;:              &&&&&;:                                                                                   ",
"                 &&&&;;:              &&&&;;:                                                                                   "};
