/* XPM */
static char * gimp_temp_33686_xpm[] = {
"96 64 15 1",
" 	c None",
".	c #83AF84",
"+	c #5C935D",
"@	c #317033",
"#	c #B9D3B9",
"$	c #BDD6BE",
"%	c #73A474",
"&	c #A4C6A5",
"*	c #FCFDFC",
"=	c #427E43",
"-	c #091D0A",
";	c #061306",
">	c #1B511C",
",	c #103111",
"'	c #4C864D",
"....           +++   +++@                      ##                          ..  ++               ",
"..$$.         %&+@  +++@@                     #**#                        ...=+++@              ",
"...$$.       %&+@  +++@@         ..$$$$$$$$$..***#=...........=           .$.=+&+@              ",
" ...$$.     +++@  +++@@         ..............***#=...........==          .$.=+&+@              ",
"  ...$$.   +++@  ++++@          .=............***#==........====          .$.=+&+@              ",
"   ...$$.   +@@ ++++@            =============***#=============           .$.=+&+@              ",
"    ......     ++++@             =-           ***#               -------------+&+@;------------ ",
"     ......    +++@        ***# --=--         ***#        +++   --=========---+&+@;------------;",
"      ......   +@@     ******###-==---        ***#        +++   --------------+&+@;;----------;;",
"       ......     ##*******##### --=----      ***#       ++@@    -;;;;;;;;;;;;+&+@;;;;;;;;;;;;; ",
"        ..... #********#######     -=----     **##      +&@@              ====+&+@              ",
"         #**********#######         -------   ####      ++@               ..==+&+@              ",
"    #************######               ------   ##      &+@@               ...=+&+@     >>       ",
"  ************####                      ------        +++@                ...=+&+@    >>>,      ",
" ********#####===                        ;------      ++@@                ...=+&+@    >'>,      ",
"****######   ====.                    >>  ;;-----    +++@                 ...=+++@    >'>,      ",
" ####         =....                   >>,   ;;;--;  +++@                  ...=+++@    >'>,      ",
"               .....                 >>>,    ;;;;;  +++@                  ...=+++@    >'>,      ",
" >>>>>>>>>>>>>>>>>>>>>>>>>>>>>,      >>,,      ;;; +&+@           ###************#####>'>,##### ",
">>>>''''''''>>>>>>>>>>>>>>>>>>,,    >'>,,          ++@          ##********************>'>,###*##",
">>>>>>>>>>>>>>>>>>>>>>>>>>>>,,,>    >>>,          ++@@     >>   ##*******************#>'>,######",
" >,,,,,,,,,,,,,,,,,,,,,,,,,,,,,    >'>,          +&+@     >>>,   #####################>>>,##### ",
"                    =====        ..>>>,=...$$$..+++@@=....>'>,=           ====@@@@    >>>,      ",
"                     =....      ...>>,==..$$....++@@=.....>'>,==          ..==++@@    >>>,      ",
"                      =....     ..>>>,==.......+&@@==....=>'>,==          ...=+++@    >>>,      ",
"                       =....     =>>,==========++@@=======>'>,=           ...=+++@    >>,,      ",
"                    --  =....    >>>,         ++@@        >'>,            ...=+++@    >>,,      ",
"              ------=-;; =....   >>>         +++@         >>>,            ...=+++@    ,,,,      ",
"        ------=-------;;  =.... >>>,         ++@@         >>>,            ...=+++@     ,,       ",
" -------=-----;;;;;;;;;    =...=>>>,        ++@@          >>>,            ..==+++@              ",
" --------;;;;;;             =..=>>,        +++@           >>,,            ====+++@              ",
"--;;;;;;;;                   ===>>,         ++@            ,,              ==  ++               ",
">>'>           +@             --           ..      *#      --   *          >   --      +@       ",
">'>>'>        ++@@           ---          .$..    #*##    ---;  ****      >>> ---;    ++@       ",
" >>>''>>      ++@@          ---;          ...=   >>>>>,   -=-;  ****     >>>> -=-;   +&+@       ",
"  >>>>>>>>    +@@@         -=-;           ...=  >>'>>>>,  -=-;   ****#   >>>> ---;   +++@       ",
"    >>>>'>>> ++@@          --;;     &&   .$.=   >>>>>>,,  -=-;    ****# >>'>, -=-;  +&+@      ..",
"      >>>>>>>>+@@         --;;     &&++  ...=    ,,,,,,   -=-;     ****#>>>,  ---;  +++@     ...",
"        >>>>>>>>         --;;      &+++  ..==     ####    -=-;     ****#>>>,  ---;  +++@     ...",
"          >>>>>>>>      -=-;        ++++...=      ####    -=-;      ***>'>,   ---;  ++@     ...=",
"            @>>>>>>>   -=-;          ++++..=      ####    ---;       **>>>,   ---; +&+@    ...= ",
"            @@@>>>>>>>---;           ++++.=       **##    ---;        *>>>,   ---; ++@@    ..== ",
"            +@@  >>>>>>>;;            ++++=       **##    ---;        >>>,##  --;; ++@    .$.=  ",
"            +@@   ,,>>>>>>            +&++=       **##    ---;        >'>,### --;; +@@    ...=  ",
"-=         ++@@     ,,>>>>>>          .++++       **##    ---;        >>,,### --;;++@@    ..=   ",
"==-     ...++@===  -;;,,>>>>>>        .++++       **##    ---;       >>>,#####;;;;++@    .$.=   ",
"--=-  ....=++@==.=--;;  ,,>>>>>       .+++++      ####    ---;       >>>, #####;;;++@    ..==   ",
" ;;--....=++@@=..-=-;;   ,,>>>>,     ...+++@      ###     ---;       >>,,  #**##;+&@@   .$.=    ",
"  ;---...=++@@ ..--;;=     ,,,,,     ...+++@       ##     ---;      >>>,    #**##++@@   ..==    ",
"   ;---.= ++@   --;;===      ,,,    ...= ++@@             ---;      >>>,     #**#++@   .$.=     ",
"   .;---  ++@  --;;====          ..=..===++@@=........$$$.---;=     >>,      #***#+@   ...=     ",
"  ...;--- ++@ --;; ==..=        ...=..===+++@@=...$$$$$...---;==   >>>,       #***#@   ..==     ",
"  ...;;;;  +@ -;;  ....=        .==...====+++@==..........---;==   >>,,,>      #**##  ...=      ",
" .$.= ;;            ...=         ==..=====+++@@===========---;=    >>, >>,     @#**#  ...=      ",
" ...=        ###***************    ..=     +++@           ->>>>>  >>>,,>>,     @@#**#...=     ..",
" ...=       #******##**##****###  ..==     +++@       >>>>>>>>>,  >>,,>>>,     +@##**#..=    ..=",
".$.=        ****************####  ..==      +++@>>>>>>>>>>,,,,,,  >>, >>>,     +@@##*##.    ..==",
"...=         #################    ..=      >>>>>'>>>>>>,,,,,;;   >>>, >>>,    +++@ ##*#=   ..== ",
"...=              =====          ..==   >>>'>>>>>>,,,,,,  ;;;;   >>,, >'>,    ++@@ =##*#  ..==  ",
"...=         ........==          ..==  >>>>>,,,,,,,       --;;   >>,  >>>,    ++@  ==#*#*..==   ",
"...====......$......==          ...=   >>>,,,,@@@@        --;;  >>>,  >>,,   +++@  .==##..==    ",
"...===..........====            ====    ,,    @++@@       --;;  >>,,  >>,,   ++@@ ..== ..==     ",
".====...==========              ===            @@@@       ;;;;  >,,   >>,,   ++@@ ====..==      ",
"========                        ==              @@         ;;   ,,,    ,,    ++@  === .==       "};
