/* XPM */
static char * gimp_temp_336831_xpm[] = {
"64 64 7 1",
" 	c None",
".	c #FF0000",
"+	c #C91E1E",
"@	c #FF5E5E",
"#	c #A51A1A",
"$	c #FF2020",
"%	c #781212",
"        .++  ..         .++  ..         .++  ..              ..+",
"        ..+  ..+        ..+  ..+        ..+  ..+             ..+",
"        ...+...+        ...+...+        ...+...+            .@.+",
"        ...+@.++        ...+@.++        ...+@.++            ...+",
"         ...@.+          ...@.+          ...@.+             @.+ ",
"         ..@.+#          ..@.+#          ..@.+#             ..+ ",
"          .@.+            .@.+            .@.+             ..+  ",
"          @..+            @..+            @..+            .@.+  ",
"          @.+#+           @.+#+           @.+#+           ..++  ",
"         ..+##+          ..+##+          ..+##+          .@.+   ",
"         @.+#+++         @.+#+++         @.+#+++         ...+   ",
"         ..+#+.+         ..+#+.+         ..+#+.+         @.+    ",
"        ..++ ...+       ..++ ...+       ..++ ...+       ...+    ",
"        @.++ ...+       @.++ ...+       @.++ ...+       @.++    ",
"       ..++   ..++      .++   ..++      .++   ..++      ..+     ",
"       @.+#   ...+     ..+#   ...+     ..+#   ...+     ..++     ",
"      ..++     ..++   .@++     ..++   .@++     ..++   .@.+      ",
"      ..+#     ...+   @.+#     ...+   @.+#     ...+   @.++      ",
"     ..++       ..++ $..+       ..++ $..+       ..++ $..+       ",
"     @.++       .@.+ @..+       .@.+ @..+       .@.+ @.++       ",
"    ..++         ..+...+         ..+...+         ..+...+        ",
"    @.++         ...+..+         ...+..+         ...+.+         ",
"   ..++          ..@+.+          ..@+.+          ..@+.+         ",
"   @.+#           .@+++           .@+++           .@+++         ",
"  ...+            .@.+            .@.+            .@.+          ",
"  @.+%            +@.+            +@.+            +@.+          ",
" ...+            .+...+          .+...+          .+...+         ",
" ..++            .++..+          .++..+          .++..+         ",
"...+            ..+#...+        ..+#...+        ..+#...+        ",
"+.++            ...+.@.+        ...+.@.+        ...+.@.+        ",
"..+             ..+  .++        ..+  .++        ..+  .++        ",
"+++              +.  +++         +.  +++         +.  +++        ",
".++             .++  ..         .++  ..         .++  ..         ",
"..+             ..+  ..+        ..+  ..+        ..+  ..+        ",
"...+            ...+...+        ...+...+        ...+...+        ",
"...+            ...+@.++        ...+@.++        ...+@.++        ",
" ..+             ...@.+          ...@.+          ...@.+         ",
" ...+            ..@.+#          ..@.+#          ..@.+#         ",
"  ..+             .@.+            .@.+            .@.+          ",
"  ...+            @..+            @..+            @..+          ",
"   ..++           @.+#+           @.+#+           @.+#+         ",
"   ...+          ..+##+          ..+##+          ..+##+         ",
"    ..++         @.+#+++         @.+#+++         @.+#+++        ",
"    ...+         ..+#+.+         ..+#+.+         ..+#+.+        ",
"     ...+       ..++ ...+       ..++ ...+       ..++ ...+       ",
"     ...+       @.++ ...+       @.++ ...+       @.++ ...+       ",
"      ..++     ..++   ..++      .++   ..++      .++   ..++      ",
"      ...+     ..+#   ...+     ..+#   ...+     ..+#   ...+      ",
"       ..++   .@++     ..++   .@++     ..++   .@++     ..++     ",
"       ...+   @.+#     ...+   @.+#     ...+   @.+#     ...+     ",
"        ..++ $..+       ..++ $..+       ..++ $..+       ..++    ",
"        .@.+ @..+       .@.+ @..+       .@.+ @..+       ...+    ",
"         ..+...+         ..+...+         ..+...+         ..++   ",
"         ...+..+         ...+..+         ...+..+         ...+   ",
"         ..@+.+          ..@+.+          ..@+.+          ...+   ",
"          .@+++           .@+++           .@+++           ..+   ",
"          .@.+            .@.+            .@.+            .@.+  ",
"          +@.+            +@.+            +@.+             ..+  ",
"         .+...+          .+...+          .+...+            ...+ ",
"         .++..+          .++..+          .++..+             ..+ ",
"        ..+#...+        ..+#...+        ..+#...+            ...+",
"        ...+.@.+        ...+.@.+        ...+.@.+            ...+",
"        ..+  .++        ..+  .++        ..+  .++             .++",
"        ++.  +++         +.  +++         +.  +++             +++"};
