/* XPM */
static char * noname[] = {
"96 64 93 1",
"  c #15141A",
"# c #222127",
"@ c #4E4600",
"* c #323036",
"+ c #3F3E45",
"- c #970000",
"= c #801900",
"~ c #921500",
"/ c #883A01",
". c #B60800",
", c #A41400",
": c #B71F03",
"; c #A61C15",
"_ c #9E2700",
"& c #B72A15",
"% c #AB3C00",
"$ c #A04014",
"! c #BE3600",
"? c #CC2800",
"| c #D33A00",
"0 c #B02F2C",
"1 c #338C0B",
"2 c #487E08",
"3 c #625701",
"4 c #7A5706",
"5 c #876500",
"6 c #65730A",
"7 c #78690A",
"8 c #4D4E52",
"9 c #6A696D",
"A c #984D00",
"B c #A7570F",
"C c #AA5C22",
"D c #B64B11",
"E c #B65700",
"F c #BF5C1B",
"G c #996E00",
"H c #AE6900",
"I c #8D7212",
"J c #A97921",
"K c #AF8700",
"L c #BC8016",
"M c #B16C2B",
"N c #B15842",
"O c #B24B52",
"P c #BA664A",
"Q c #B65C5E",
"R c #B4783C",
"S c #AB8D32",
"T c #A48041",
"U c #A38B52",
"V c #958B6F",
"W c #A88E65",
"X c #BC9E49",
"Y c #BD8A61",
"Z c #BAA562",
"a c #C24A00",
"b c #C26406",
"c c #C57900",
"d c #C8701A",
"e c #DC4B00",
"f c #D96800",
"g c #C19600",
"h c #D18700",
"i c #C58338",
"j c #CFA300",
"k c #E6BA00",
"l c #75797F",
"m c #8A8586",
"n c #91939B",
"o c #989987",
"p c #AAA784",
"q c #A1A8A0",
"r c #A9B0B7",
"s c #CF6D71",
"t c #CE787F",
"u c #BF897E",
"v c #AC9B73",
"w c #BAA690",
"x c #C09D80",
"y c #C6AD74",
"z c #D09394",
"' c #CBA2A7",
"` c #BFB2B8",
"^ c #CFB494",
"( c #BBB8A7",
") c #D3B5B9",
"{ c #C8C8B5",
"} c #B1BEC8",
"[ c #C3D5DE",
"] c #CBCDCD",
"< c #D9E0E0",
"> c None",
">>>>>>>>>>>>>>>>>>>>>>>>>>>>>>>>>>>>>>>>>>>>>>>>>>>>>>>>>>>>>>>>>>>>>>>>>>>>>>>>>>>>>>>>>>>>>>>>",
">>>>>>>>>>>>>>>>>>>>>>>>>>>>>>>>>>>>>>>>>>>>>>>>>>>>>>>>>>>>>>>>>>>>>>>>>>>>>>>>>>>>>>>>>>>>>>>>",
">>>>>>>>>>>>>>kkjjjk>>>>>>>>>>>>>>>>>>>>>>>>>>>>>nnnqn>>>>>>>>>>>>>>>>>>>>>>>>>>>>>>>>>>>nqrq>>>",
">>>>>>>>>>>jgKHG5GGHKgk>>>>>>>>>>>>>>>>>>mnnnqqqrr`}}q>>>>>>>>>>>>>>>>>>>>>>>>>>>>qqqrr`}}}`n>>>",
">>>>>>>>>jHAA%_===HAAAHgk>>>>>>>>mnnnnnqqrrr`}}]]]]]]r>>>>>>>>>>>>>>>>>>>>nqqqqrr`}}}]]]]]]r>>>>",
">>>>>>>jKA_%A:~---HbA_%AHj>>>>>>mqrr`}}}]]]]]]]]]]]]]r>>>>>>>>>>>>>>>>>>nr`}}}}]]]]]]]]]]]r>>>>>",
">>>>>>jHAE:%I:----,a5!!:%Gg>>>>>mr]]]]]]]]]]]]]]]]]]]r>>>>>>>>>>>>>>>>>n`]]]]]]]]]]]]]]]]}n>>>>>",
">>>>>jG%!j?!%:-----:!!:!?_Ag>>>>m`]]]]]]]]]]]]]]]]]]]r>>>>>>>>>>>>>>>>>r]]]]]]]]]]]]]]]]]q>>>>>>",
">>>>jG_%7E!::!.---.:!!b!%!_Hj>>>m`]]]]]]]]]]]]]]]]]]]r>>>>>>>>>>>>>>>>q]]]]]]]]]]]]]]]]]`>>>>>>>",
">>>jK%!52%!?:!?...:ab!k!7!!AH>>>m`]]]]]]]]]]]]]]]]]]]`>>>>>>>>>>>>>>>n}]]]]]]]]]]]]]]]]}>>>>>>>>",
">>>gA!!//%!!::!!|??bb!b!A!%B%g>>m`]]]]]]]]]]]]]]]]]]]}>>>>>>>>>>>>>>mr]]]]]]]]]]]]]]]]]q>>>>>>>>",
">>gH%!_--~_A!:!ah!%!!!,_,:!%:K>>m`]]]]]]]]]]]]]]]]]]]}>>>>>>>>>>>>>>q]]]]]]]]]]]]]]]]]}>>>>>>>>>",
">>K%!:----~7!?!!a%2%:_---~!!AHK>m`]]]]]]]]]]]]]]]]]]]}>>>>>>>>>>>>>n}]]]]]]]]]]]]]]]}rn>>>>>>>>>",
">KH%!:--.--%!::!:%6!:-----:%6%K>m`]]]]]]]]]]]]]]]]]]]}>>>>>>>>>>>>n`]]]]]]]]]}}}rrqqnm9>>>>>>>>>",
">KH!E:.---.?AE!:!!%?:-----,%A%K>m`]]]]]]]]]]]]]]]]]]]]>>>>>>>>>>>>r]]]]}}`rrrqqqoonqrrll>>>>>>>>",
">KEac!:...:!AKb:!??:?.----!b?!K>m`]]]]]]]]]]]]]]]]]]]}>>>>>>>>>>>q``rqqnnnqoVWUUTXZy({rll>>>>>>>",
">K%!a!!:.:?B%EaB%:!a!:....ab!!K>n`]]]]]]]]]]]]]]]]]]]]>>>>>>>>>>`rqnnnnqq(vSJBB_~_EBFiypll>>>>>>",
">K!!4%!!|!!B!::%!!!j!??:::!!!!K>n`]]]]]]]]]]]]]]]]]}}`>>>>>>>>>>>`qrr}}]{XBAa:!.--:!!%Div9m>>>>>",
">K!!7A!cc!B!::?a!!!h!A%??!a!!aK>n`]]]]]]]]]]}}}rrqnnnml>>>>>>>>>>{r]]][{S%,=_%!:!:!!!_:%Jo9m>>>>",
">Ka!E!!bb%B?!a!c!:!!D6A!%bj!!bG>m}]]]]}}`rqqnnmmmmnnnn9m>>>>>>>>`]`}]]]X%!,--%%!!%%:--,%%Xq9m>>>",
">Ga!c!!:!!!?fh!H!::%IA!!B!f!!c5>n}rrnqmmmmmnmmVVVvp((]qlm>>>>>>>{`{r]]{H!%:::%%!!!a!,.:a!L]q9m>>",
">5b!E:!::!::ac%2!!:%/::!%!4%aK>>rrnmmnmnnqoWTMCB$$JMiZ^qlm>>>>>>>`}`r]{H!A!b%!aaD?a%%:a!!S[[ql`>",
">>c!:!?D%_~~~_%1ac:,--~_!A1AfG>>>rqqrr}]{ZMBE!%.,-:%a%DiWll>>>>>>{r}r}]Ua!!D_,!%A!,~_DBCi(]]]}}{",
">>5a:!!B%~---~!Aaj:----~:%AaK>>>>{r]]]]{Xa:~,%!:!:%!!,,%BWll>>>>>>`r`r]`Ra%%---_DF0OQu({][]}]m}]",
">>@c|!%A:-----_?!|:-.---_!|c5>>>>>``]]]X%%.,-_%!!%%:,-,!%L(mlq>>>>{r`rr[{WFd&0Otz()]`]][[]]}]#q]",
">>>5f!%A:-----,!!%!.----:|fG>>>>>>{r`]]K!A:!:%a!%:a!_::a!H{]mlr>>>>`r`r}[}(^``{]][[[}]]]]]]]]nr]",
">>>>Gf!Eb.----::A6!..--.|fK>>>>>>>>`r]]S!a!a!%a!A?:__!aBaU][]r`]>>>>rr`qr}}}}[]]}}}]]]]]]]}`}q]]",
">>>>>Hfeb:.-..!a%5aa:..|cK@>>>>>>>>>`r](M!!%,-,_Bb&;0NYp^]]]]qq]>>>>`r`r``qr}}}}}]]}{]]]]]]}r#]]",
">>>>>>Gce|?..:ah::bc||ecG>>>>>>>>>>>>rr[(YFd&;0Puw'``]]]]]]]]99]>>>>>`rr}}qr}}}]}}]rr]]]]]]]}8]>",
">>>>>>>5cffe||ef||effcH7>>>>>>>>>>>>>`r}[](^'``]]]][}]]]]]]]]nm]>>>>>`rq}}r``}}}}}}}`]]]]]]>>>>>",
">>>>>>>>>5HccfffffccG7>>>>>>>>>>>>>>>>`rr}}}][[]]]}}{]]]]>>>>>>>>>>>>>`r}]q`}}}}]]]]]]>>>>>>>>>>",
">>>>>>>>>>>35GGGG553>>>>>>>>>>>>>>>>>>>r``rq}}}}}]]]>>>>>>>>>>>>>>>>>>>r}]n}}}]]]>>>>>>>>>>>>>>>",
">>>>>>>>>>>>>>>>>>>>>>>>>>>>>>>>>>>>>>>>}}rr]>>>>>>>>>>>>>>>>>>>>>>>>>>r}}q>>>>>>>>>>>>>>>>>>>>>",
">>>>>>>>>>>>>>>>>>>>>>>>>>>>>>>>>>>>>>>>>>>>>>>>>>>>>]>>>>>>>>>>>>>>>>>>>>>>>>>>>>>>>>>>>>>>>>>>",
">>>>>>>>>>>>>>>>>>>>>qqqrrrrn>>>>>>>>>>>>>>>>>>>]]]]][]>>>>>>>>>>>>>>>>>>>>>>>>>>>>>>>>>>>>>>>>>",
">>>>>>>>>>>>>nnqqrrr`}}}]]]r>>>>>>>>>>>>>>]]]]]]]]]]]]]]>>>>>>>>>>>>>>>>>>>>>>>>>>>>>>>>>>>>>>>>",
">>>>>>>>nqrr`}}}}]]]]]]]]]`>>>>>>>>>]]]]]]]]][]]]]][[]]]<>>>>>>>>>>>>>>>>>>>>>>>>>>>>>>>>>>>>>>>",
">>>>>>>nr}]]]]]]]]]]]]]]]}n>>>>>>}]]]]]]{]]]])))''))]]]<<<>>>>>>>>>>>>>>>>>>>>>>>>>>>>>>>>>>>>>>",
">>>>>>>r]]]]]]]]]]]]]]]]]q>>>>>>>`]]]]]]'`)'ztzsttzsz]]]<<<>>>>>>>>>>>>>>>>>>>>>>>>>>>>>>>>>>>>>",
">>>>>>q]]]]]]]]]]]]]]]]]r>>>>>>>>`}]]]]])`''zzztzz'zt)]]]]<<>>>>>>>>>>>>>>>>>>>>>>>>>>>>>>>>>>>>",
">>>>>q}]]]]]]]]]]]]]]]]`>>>>>>>>>]r]]]{))]`]]])'''))))]]]]<<<>>>>>>>>>>>>>>>>>>>>>>>>>>>>>>>>>>>",
">>>>n`]]]]]]]]]]]]]]]]}>>>>>>>>>`]`r]]]){]][<)'z'z)'))]]]]<<<<>>>>>>>>>>>>>>>>>>>>>>>>>>>>>>>>>>",
">>>nr]]]]]]]]]]]]]]]]}r>>>>>>>>>{`]r}]]]]`]]]''''')))]))]]<<<<>>>>>>>>>>>>>>>>>>>>>>>>>>>>>>>>>>",
">>>r]]]]]]]]]]]]}}rrrnm>>>>>>>>>]`]`r]]]]]'])'`]]))])))]]]<<<<<>>>>>>>>>>>>>>>>>>>>>>>>>>>>>>>>>",
">>q]]]]]]}}}}rrqqqqqqn9m>>>>>>>>>{r]r`[]]]')))]]]]]])z)<<<<<<<]{>>>>>>>>>>>>>>>>>>>>>>>>>>>>>>>>",
">q`}`rqqqqqooVWWUvvw({qlm>>>>>>>`]r}`r][]]]{)`)<]]<<<]<<<<]]}r`]>>>>>>>>>>>>>>>>>>>>>>>>>>>>>>>>",
"rrqnnnnqqqvUMBB_~$BCMXyolm>>>>>>`}{r]rr<][[]]]]<<<<<<<[]]]{}]8l]>>>>>>>>>>>>>>>>>>>>>>>>>>>>>>>>",
">`qrr}}](XBAa!:.--!!a%DRVlm>>>>>]r]```q]<<<]]]]]]]]]r}}{{]]]]8l]>>>>>>>>>>>>>>>>>>>>>>>>>>>>>>>>",
">{r]]][(L!,~,%!:!:!!:~,%Jolm>>>>{``]r]rr]]]]}}}]}}}}r}]]]]]]}}`]>>>>>>>>>>>>>>>>>>>>>>>>>>>>>>>>",
"`}``]]]S%%.,-%%!!%!:--,%%Xrll>>>`{r}`r{rqrr``}}}}}}]]]]]]]}`}n]]>>>>>>>>>>>>>>>>>>>>>>>>>>>>>>>>",
"{`{r}]{H!A?!:%a!%:b%::!!!S[rlm>>{``r{r}`r`rn]}}}}]]}`]]]]]{}r ]]>>>>>>>>>>>>>>>>>]]]]]]>>>>>>>>>",
">``{r]]J!%!a!%a%%?%__%EDdp[]`r}>]``r``r}`}`n]}]]}}]rr]{{}]]]}9]]>>>>>>>>>]]]][][[[[[[]]]>>>>>>>>",
">}```r]wF!!%--,%DD;;0Pvx^]]]]n}]>{r{r}rr}}r``}}}}}}``]]]]]]]]<}]>>]]]]]]]]]]])])))])]]]<<>>>>>>>",
">``r`r`[wRFF;;0PYx'``]]]]]]}}#`]>{`rr``q}]r}}}}}}]]]]]]]]]]}}r]]>{`]]]]])))`'z'ttt'tz]]]]]<>>>>>",
">```r`r][{w^'``]]]][}[]]]]]}]l`]>>{r`r}r`}n`}]]]]]]]]]]]]]{}r#]]>>`}]]]]))'))''z'z''')]]]]<<>>>>",
">{```r`q`}}}}[[[]]]}`]]]]]}`rn]]>>>`r`r`]]n}]]]]]]]`r]]{}]]]r*]]>>{r]]])]]]]])''''))))])]]<<<>>>",
">>`r`r`r``qr}}}}}]]``]]]]]]}q*]]>>>`r`r`]]}}}`]]}]}``{]]]]]]}`}]>>>`r][]]])]])'))']])))]]]<<<<>>",
">>>`r`rr}}q`}}}}}}}`r]]]]]]]}n]]>>>>`q`qrr``}}}}}}}]]]]]]]}`}m]]>>>>`r]]]]'))']]]]]<]))<<<<<<<]>",
">>>{`r`q{}r``}}}}}]]]]]]]]]]]}}]>>>>`rrr``n}}}}}]]]{`]]]]]]}r#]]>>>>>r`[[]]]))]<<]]<]]]<]]]}}l]]",
">>>>`rrr}}n}}]]]]]]]]]]]]]{]]8`]>>>>>`qr}}m}}}]]]}]rr]]]]]]]}8]>>>>>>`r}[]]]]]]]]]]]}]]]]]{}}*]]",
">>>>>`rr}}n]]]]]]]]}r]]]]]}]]+]]>>>>>`rq]`r```}}}}}}`]]]]]]]>>>>>>>>>>`r}}}}}}]]}}}}`{{]]]]]]>>>",
">>>>>>`q``r`}`}]]]}}`{]]]]]]>>>>>>>>>>`r}}``}}}}}]]]]]]>>>>>>>>>>>>>>>>rr`}n}}}}}}{]]]>>>>>>>>>>",
">>>>>>`r`}r`}}}}}]]]]]>>>>>>>>>>>>>>>>`r`]n`]]}]]]]>>>>>>>>>>>>>>>>>>>>>r}]m]}]]>>>>>>>>>>>>>>>>",
">>>>>>>`}}qr}]]]>>>>>>>>>>>>>>>>>>>>>>>r}}n}]]>>>>>>>>>>>>>>>>>>>>>>>>>>>>>>>>>>>>>>>>>>>>>>>>>>"};
