/* XPM */
static char * lpStart_xpm[] = {
"128 32 5 1",
" 	c None",
".	c #FFFFFF",
"+	c #616161",
"@	c #000000",
"#	c #FFFF03",
"................................................................................................................................",
".++++++++++++++++++++++++++++++..++++++++++++++++++++++++++++++..++++++++++++++++++++++++++++++..++++++++++++++++++++++++++++++.",
".++++++++++++++++++++++++++++++..++++++++++++++++++++++++++++++..++++++++++++++++++++++++++++++..++++++++++++++++++++++++++++++.",
".++++++++++++++++++++++++++++++..+++++++++++++++@++++++++++++++..++++++++++++++++++++++++++++++..++++++++++++++++++++++++++++++.",
".++++++++++++++++++++++++++++++..+++++++++++++++@++++++++++++++..++++++++++++++++++++++++++++++..++++++++++++++++++++++++++++++.",
".++++++++++++++++++++++++++++++..++++++++++++++@#@+++++++++++++..++++++++++++++++++++++++++++++..++++++++++++++++++++++++++++++.",
".++++++++++++++++++++++++++++++..++++++++++++++@#@+++++++++++++..++++++++++++++++++++++++++++++..++++++++++++++++++++++++++++++.",
".++++++++++++++++++++++++++++++..+++++++++++++@###@++++++++++++..++++++++++++++++++++++++++++++..++++++++++++++++++++++++++++++.",
".++++++++++++++++++++++++++++++..+++++++++++++@###@++++++++++++..++++++++++++++++++++++++++++++..++++++++++++++++++++++++++++++.",
".++++++++++++++++++++++++++++++..+++++++++++++@###@++++++++++++..++++++++++++++++++++++++++++++..++++++++++++++++++++++++++++++.",
".++++++++++++++++++++++++++++++..++++++++++++@#####@+++++++++++..++++++++++++++++++++++++++++++..++++++++++++++++++++++++++++++.",
".++++++++++++++++++++++++++++++..++++++++++++@##@##@+++++++++++..++++++++++++++++++++++++++++++..++++++++++++++++++++++++++++++.",
".++++++++++++++++++++++++++++++..+++++++++++@###@###@++++++++++..++++++++++++++++++++++++++++++..++++++++++++++++++++++++++++++.",
".++++++++++++++++++++++++++++++..+++++++++++@###@###@++++++++++..++++++++++++++++++++++++++++++..++++++++++++++++++++++++++++++.",
".++++++++++++++++++++++++++++++..+++++++++++@###@###@++++++++++..++++++++++++++++++++++++++++++..++++++++++++++++++++++++++++++.",
".++++++++++++++++++++++++++++++..++++++++++@####@####@+++++++++..++++++++++++++++++++++++++++++..++++++++++++++++++++++++++++++.",
".++++++++++++++++++++++++++++++..++++++++++@####@####@+++++++++..++++++++++++++++++++++++++++++..++++++++++++++++++++++++++++++.",
".++++++++++++++++++++++++++++++..+++++++++@#####@#####@++++++++..++++++++++++++++++++++++++++++..++++++++++++++++++++++++++++++.",
".++++++++++++++++++++++++++++++..+++++++++@#####@#####@++++++++..++++++++++++++++++++++++++++++..++++++++++++++++++++++++++++++.",
".++++++++++++++++++++++++++++++..+++++++++@#####@#####@++++++++..++++++++++++++++++++++++++++++..++++++++++++++++++++++++++++++.",
".++++++++++++++++++++++++++++++..++++++++@######@######@+++++++..++++++++++++++++++++++++++++++..++++++++++++++++++++++++++++++.",
".++++++++++++++++++++++++++++++..++++++++@#############@+++++++..++++++++++++++++++++++++++++++..++++++++++++++++++++++++++++++.",
".++++++++++++++++++++++++++++++..+++++++@###############@++++++..++++++++++++++++++++++++++++++..++++++++++++++++++++++++++++++.",
".++++++++++++++++++++++++++++++..+++++++@#######@#######@++++++..++++++++++++++++++++++++++++++..++++++++++++++++++++++++++++++.",
".++++++++++++++++++++++++++++++..+++++++@#######@#######@++++++..++++++++++++++++++++++++++++++..++++++++++++++++++++++++++++++.",
".++++++++++++++++++++++++++++++..++++++@########@########@+++++..++++++++++++++++++++++++++++++..++++++++++++++++++++++++++++++.",
".++++++++++++++++++++++++++++++..++++++@#################@+++++..++++++++++++++++++++++++++++++..++++++++++++++++++++++++++++++.",
".++++++++++++++++++++++++++++++..+++++@###################@++++..++++++++++++++++++++++++++++++..++++++++++++++++++++++++++++++.",
".++++++++++++++++++++++++++++++..+++++@@@@@@@@@@@@@@@@@@@@@++++..++++++++++++++++++++++++++++++..++++++++++++++++++++++++++++++.",
".++++++++++++++++++++++++++++++..++++++++++++++++++++++++++++++..++++++++++++++++++++++++++++++..++++++++++++++++++++++++++++++.",
".++++++++++++++++++++++++++++++..++++++++++++++++++++++++++++++..++++++++++++++++++++++++++++++..++++++++++++++++++++++++++++++.",
"................................................................................................................................"};
