/* XPM */
static char * lrOfen_xpm[] = {
"128 32 10 1",
".	c #010000",
"+	c #F80C1F",
"@	c #BF0A18",
"#	c #78060F",
"$	c #333333",
"%	c #F9F509",
"&	c #EA1410",
"*	c #F47C0C",
"=	c #EF370E",
"-	c #B50E0E",
".++@#.++@#.++@#.++@#.++@#.++@#.+.++@#.++@#.++@#.++@#.++@#.++@#.+.++@#.++@#.++@#.++@#.++@#.++@#.+.++@#.++@#.++@#.++@#.++@#.++@#.+",
".+@##.+@##.+@##.+@##.+@##.+@##.+.+@##.+@##.+@##.+@##.+@##.+@##.+.+@##.+@##.+@##.+@##.+@##.+@##.+.+@##.+@##.+@##.+@##.+@##.+@##.+",
"................................................................................................................................",
"@#.++@#.++@#.++@#.++@#.++@#.++@#@#.++@#.++@#.++@#.++@#.++@#.++@#@#.++@#.++@#.++@#.++@#.++@#.++@#@#.++@#.++@#.++@#.++@#.++@#.++@#",
"##.+@##.+@##.+@##.+@##.+@##.+@####.+@##.+@##.+@##.+@##.+@##.+@####.+@##.+@##.+@##.+@##.+@##.+@####.+@##.+@##.+@##.+@##.+@##.+@##",
"................................................................................................................................",
".++@#.++@#.++@#.++@#.++@#.++@#.+.++@#.++@#.++@#.++@#.++@#.++@#.+.++@#.++@#.++@#.++@#.++@#.++@#.+.++@#.++@#.++@#.++@#.++@#.++@#.+",
".+@##.+@##.+@##.+@##.+@##.+@##.+.+@##.+@##.+@##.+@##.+@##.+@##.+.+@##.+@##.+@##.+@##.+@##.+@##.+.+@##.+@##.+@##.+@##.+@##.+@##.+",
"................................................................................................................................",
"@@#.+@@#.$$$$$$$$$$$$$$$$.@#.+@@@@#.+@@#.$$$$$$$$$$$$$$$$.@#.+@@@@#.+@@#.$$$$$$$$$$$$$$$$.@#.+@@@@#.+@@#.%%%%%%%%%%%%%%%%.@#.+@@",
"@##.+@##.$$$$$$$$$$$$$$$$.##.+@#@##.+@##.$$$$$$$$$$$$$$$$.##.+@#@##.+@##.$$$$$$$$$$$$$$$$.##.+@#@##.+@##.%%%%%%%%%%%%&%%%.##.+@#",
".........$$$$$$$$$$$$$$$$................$$$$$$$$$$$$$$$$................$$$$$$$$$%$$$$$$................%%*&**&*%%%%**%%.......",
".++@#.++.$$$$$$$$$$$$$$$$.++@#.+.++@#.++.$$$$$$$$$$$$$$$$.++@#.+.++@#.++.$$$$$$$$%$$$$$$$.++@#.+.++@#.++.%%%%**%*%%%***%%.++@#.+",
".+@##.+@.$$$$$$$$$$$$$$$$.+@##.+.+@##.+@.$$$$$$$$$$$$$$$$.+@##.+.+@##.+@.$%$%$$$*%%$%$$$$.+@##.+.+@##.+@.%%%**%%%*%%=%*%%.+@##.+",
".........$$$$$$$$$$$$$$$$................$$$$$$$$$$$$$$$$................$%$&$$$*%%$%%$%$................%%**%%%**%*==&&%.......",
"@@#.+@@#.$$$$$$$$$$$$$$$$.@#.+@@@@#.+@@#.$$$$$$$$$$$$$$$$.@#.+@@@@#.+@@#.$%$*%$$**&$*$$$$.@#.+@@@@#.+@@#.%**%%%==&%%=&&&%.@#.+@@",
"@##.+@##.$$$$$$$$$$$$$$$$.##.+@#@##.+@##.$$$$$$$$$$$$$$$$.##.+@#@##.+@##.$%$**%$**%**%$%$.##.+@#@##.+@##.%*=*%%=&&%*=&&&%.##.+@#",
".........$$$$$$$$$$$$$$$$................$$$$$$$$$$$$$$$$................%%*%=%%*%%%**%%$................%*===%=&&%*&&&%%.......",
".++@#.++.$$$$$$$$$$$$$$$$.++@#.+.++@#.++.$$$$$$$$$$$$$$$$.++@#.+.++@#.++.%&&==*%**$%%**%$.++@#.+.++@#.++.%*&=**&&%%=&&&%%.++@#.+",
".+@##.+@.$$$$$$$$$$$$$$$$.+@##.+.+@##.+@.$$-$$$$$$$$$$$$$.+@##.+.+@##.+@.*&&&=%%&=$&*&**$.+@##.+.+@##.+@.%*&**==*%==&=%%%.+@##.+",
".........$$$$$$$$$$$$$$$$................$----$$-$--$---$................%&&&=*%&&=&**=**................%**%%*%%%%=**%%%.......",
"@#.++@#..$$$$$$$$$$$$$$$$.#.++@#@#.++@#..$----$---------$.#.++@#@#.++@#..%*%&&****&=****&.#.++@#@#.++@#..%%%%%*%%%%=**%%%.#.++@#",
"##.+@##..$$$$$$$$$$$$$$$$.#.+@####.+@##..$$-$$$$$--$$$$$$.#.+@####.+@##..%%%***%%**%%%%&&.#.+@####.+@##..%%%%%%%%%%%%%%%%.#.+@##",
"................................................................................................................................",
".++@#.++@#.++@#.++@#.++@#.++@#.+.++@#.++@#.++@#.++@#.++@#.++@#.+.++@#.++@#.++@#.++@#.++@#.++@#.+.++@#.++@#.++@#.++@#.++@#.++@#.+",
".+@##.+@##.+@##.+@##.+@##.+@##.+.+@##.+@##.+@##.+@##.+@##.+@##.+.+@##.+@##.+@##.+@##.+@##.+@##.+.+@##.+@##.+@##.+@##.+@##.+@##.+",
"................................................................................................................................",
"@@#.+@@#.+@@#.+@@#.+@@#.+@@#.++@@@#.+@@#.+@@#.+@@#.+@@#.+@@#.++@@@#.+@@#.+@@#.+@@#.+@@#.+@@#.++@@@#.+@@#.+@@#.+@@#.+@@#.+@@#.++@",
"@##.+@##.+@##.+@##.+@##.+@##.+@@@##.+@##.+@##.+@##.+@##.+@##.+@@@##.+@##.+@##.+@##.+@##.+@##.+@@@##.+@##.+@##.+@##.+@##.+@##.+@@",
"................................................................................................................................",
".@@@.@@@.@@@.@@@.@@@.@@@.@@@.@@@.@@@.@@@.@@@.@@@.@@@.@@@.@@@.@@@.@@@.@@@.@@@.@@@.@@@.@@@.@@@.@@@.@@@.@@@.@@@.@@@.@@@.@@@.@@@.@@@",
"................................................................................................................................"};
