/* XPM */
static char * bwBroken_xpm[] = {
"32 32 18 1",
" 	c None",
".	c #F80C1F",
"+	c #BF0A18",
"@	c #78060F",
"#	c #010000",
"$	c #494E4D",
"%	c #444444",
"&	c #5F7775",
"*	c #789693",
"=	c #98CECA",
"-	c #FFFFFF",
";	c #B3B3B3",
">	c #030202",
",	c #2B3534",
"'	c #354241",
")	c #202827",
"!	c #647977",
"~	c #F2CD76",
"..++@#..+++@#..+++@#..++@#..+@#+",
".++@@#.+++@@#.+++@@#.++@@#.+@@#+",
"#######################@########",
"+#..++++@#..++@#..+++@#..++@#+++",
"+#.++++@@#.++@@#.+++@@#.++@@#+++",
"################################",
"+++#..#$%%%%%%%%%%%%%%%#+#..+@#+",
"+++#.+#&&&&&&&&#&&&&&&%#+#.+@@#+",
"#######&&&*&&&#&&****&&#########",
"+#..++#&==-=##==*=====;#++@#..++",
"+#.+++#&#=-=#*=##===#=;#+@@#.+++",
"#######&=#=##=*#==*#*=;#########",
"+++#..#&=####*#####*==;#@#..+@#+",
"+++#.+#&=##########=*-;#@#.+@@#+",
"#######&-*######=###==;#########",
"++++#.>&-=######==###=;#+++@#..+",
"++++#.,&==###*##==-=#*;#++@@#.++",
"######'&*#---=*#====-*;#########",
"++#..+)!=======&&=====;#+#..++#+",
"++#.++#****************#+#.+++#+",
"######~~~~~~~~~~~~~~~~~~########",
"#..+@#@@@@##@@@@##@@@##@@+@#..+@",
"#.+@@#.@@@@#@@@@@#@@@@#@@@@#.+@@",
"################################",
"++#..++@#..++@#..++@#..+@#..+@#+",
"++#.++@@#.++@@#.++@@#.+@@#.+@@#+",
"################################",
"++++@#..++@#..++@#..++@#..+@#..+",
"+++@@#.++@@#.++@@#.++@@#.+@@#.++",
"################################",
"#+++#+++#+++#+++#+++#+++#+++#+++",
"################################"};
