/* XPM */
static char * test_xpm[] = {
"16 16 9 1",
" 	c None",
".	c #000000",
"+	c #2E2E2E",
"$	c #6C6C6C",
"#	c #989898",
"%	c #C4C4C4",
"~	c #CECECE",
"-	c #DEDEDE",
"*	c #FBFBFB",
"                ",
"   ..........   ",
"  ..+####$+...  ",
" ..+%*****-$... ",
" .+%*******-$.. ",
" .#*********-+. ",
" .***********$. ",
" .***********#. ",
" .***********#. ",
" .***********#. ",
" .~**********+. ",
" .#*********%+. ",
" ..#*******%+.. ",
"  ..#~****#+..  ",
"   ..........   ",
"                "};
