/* XPM */
/*
    Copyright 2005 by Mark Weyer
    Maintenance modifications 2010,2011 by the cuyo developers

    This program is free software; you can redistribute it and/or modify
    it under the terms of the GNU General Public License as published by
    the Free Software Foundation; either version 2 of the License, or
    (at your option) any later version.

    This program is distributed in the hope that it will be useful,
    but WITHOUT ANY WARRANTY; without even the implied warranty of
    MERCHANTABILITY or FITNESS FOR A PARTICULAR PURPOSE.  See the
    GNU General Public License for more details.

    You should have received a copy of the GNU General Public License
    along with this program; if not, write to the Free Software
    Foundation, Inc., 59 Temple Place, Suite 330, Boston, MA  02111-1307  USA
*/
static char * noname[] = {
"96 32 17 1",
"  c None",
"A c None",
"B c None",
"C c #FF0000",
"D c #FF0000",
"E c #000000",
"F c #000000",
"G c #000000",
"H c #000000",
"I c #000000",
"J c #000000",
"K c #000000",
"L c #000000",
"M c #FF0000",
"N c #FF0000",
"O c #000000",
"P c #000000",
"PONMLKJIHGFEDCBAABCDEFGHIJKLMNOP                                ONMLKJIHGFEDCBA  ABCDEFGHIJKLMNO",
"OPONMLKJIHGFEDCBBCDEFGHIJKLMNOPO               AA               NMLKJIHGFEDCBA    ABCDEFGHIJKLMN",
"NOPONMLKJIHGFEDCCDEFGHIJKLMNOPON              ABBA              MLKJIHGFEDCBA      ABCDEFGHIJKLM",
"MNOPONMLKJIHGFEDDEFGHIJKLMNOPONM             ABCCBA             LKJIHGFEDCBA        ABCDEFGHIJKL",
"LMNOPONMLKJIHGFEEFGHIJKLMNOPONML            ABCDDCBA            KJIHGFEDCBA          ABCDEFGHIJK",
"KLMNOPONMLKJIHGFFGHIJKLMNOPONMLK           ABCDEEDCBA           JIHGFEDCBA            ABCDEFGHIJ",
"JKLMNOPONMLKJIHGGHIJKLMNOPONMLKJ          ABCDEFFEDCBA          IHGFEDCBA              ABCDEFGHI",
"IJKLMNOPONMLKJIHHIJKLMNOPONMLKJI         ABCDEFGGFEDCBA         HGFEDCBA                ABCDEFGH",
"HIJKLMNOPONMLKJIIJKLMNOPONMLKJIH        ABCDEFGHHGFEDCBA        GFEDCBA                  ABCDEFG",
"GHIJKLMNOPONMLKJJKLMNOPONMLKJIHG       ABCDEFGHIIHGFEDCBA       FEDCBA                    ABCDEF",
"FGHIJKLMNOPONMLKKLMNOPONMLKJIHGF      ABCDEFGHIJJIHGFEDCBA      EDCBA                      ABCDE",
"EFGHIJKLMNOPONMLLMNOPONMLKJIHGFE     ABCDEFGHIJKKJIHGFEDCBA     DCBA                        ABCD",
"DEFGHIJKLMNOPONMMNOPONMLKJIHGFED    ABCDEFGHIJKLLKJIHGFEDCBA    CBA                          ABC",
"CDEFGHIJKLMNOPONNOPONMLKJIHGFEDC   ABCDEFGHIJKLMMLKJIHGFEDCBA   BA                            AB",
"BCDEFGHIJKLMNOPOOPONMLKJIHGFEDCB  ABCDEFGHIJKLMNNMLKJIHGFEDCBA  A                              A",
"ABCDEFGHIJKLMNOPPONMLKJIHGFEDCBA ABCDEFGHIJKLMNOONMLKJIHGFEDCBA                                 ",
"ABCDEFGHIJKLMNOPPONMLKJIHGFEDCBA ABCDEFGHIJKLMNOONMLKJIHGFEDCBA                                 ",
"BCDEFGHIJKLMNOPOOPONMLKJIHGFEDCB  ABCDEFGHIJKLMNNMLKJIHGFEDCBA  A                              A",
"CDEFGHIJKLMNOPONNOPONMLKJIHGFEDC   ABCDEFGHIJKLMMLKJIHGFEDCBA   BA                            AB",
"DEFGHIJKLMNOPONMMNOPONMLKJIHGFED    ABCDEFGHIJKLLKJIHGFEDCBA    CBA                          ABC",
"EFGHIJKLMNOPONMLLMNOPONMLKJIHGFE     ABCDEFGHIJKKJIHGFEDCBA     DCBA                        ABCD",
"FGHIJKLMNOPONMLKKLMNOPONMLKJIHGF      ABCDEFGHIJJIHGFEDCBA      EDCBA                      ABCDE",
"GHIJKLMNOPONMLKJJKLMNOPONMLKJIHG       ABCDEFGHIIHGFEDCBA       FEDCBA                    ABCDEF",
"HIJKLMNOPONMLKJIIJKLMNOPONMLKJIH        ABCDEFGHHGFEDCBA        GFEDCBA                  ABCDEFG",
"IJKLMNOPONMLKJIHHIJKLMNOPONMLKJI         ABCDEFGGFEDCBA         HGFEDCBA                ABCDEFGH",
"JKLMNOPONMLKJIHGGHIJKLMNOPONMLKJ          ABCDEFFEDCBA          IHGFEDCBA              ABCDEFGHI",
"KLMNOPONMLKJIHGFFGHIJKLMNOPONMLK           ABCDEEDCBA           JIHGFEDCBA            ABCDEFGHIJ",
"LMNOPONMLKJIHGFEEFGHIJKLMNOPONML            ABCDDCBA            KJIHGFEDCBA          ABCDEFGHIJK",
"MNOPONMLKJIHGFEDDEFGHIJKLMNOPONM             ABCCBA             LKJIHGFEDCBA        ABCDEFGHIJKL",
"NOPONMLKJIHGFEDCCDEFGHIJKLMNOPON              ABBA              MLKJIHGFEDCBA      ABCDEFGHIJKLM",
"OPONMLKJIHGFEDCBBCDEFGHIJKLMNOPO               AA               NMLKJIHGFEDCBA    ABCDEFGHIJKLMN",
"PONMLKJIHGFEDCBAABCDEFGHIJKLMNOP                                ONMLKJIHGFEDCBA  ABCDEFGHIJKLMNO"};
