/* XPM */
static char *mbrBall3_xpm[] = {
"128 128 2 1",
"  c None",
"x c #FFFFFF",
"                                                                                                                                ",
"                                                                                                                                ",
"                                                                                                                                ",
"                                                                                                                                ",
"                                                                                                                                ",
"                                                                                                                                ",
"                                                                                                                                ",
"                                                                                                                                ",
"                  xxxxxxxxxxxx                                                                    xxxxxxxxxxxx                  ",
"                xxxxxxxxxxxxxxxx                                                                xxxxxxxxxxxxxxxx                ",
"              xxxxxxxxxxxxxxxxxxxx                                                            xxxxxxxxxxxxxxxxxxxx              ",
"             xxxxxxxxxxxxxxxxxxxxxx                                                          xxxxxxxxxxxxxxxxxxxxxx             ",
"            xxxxxxxxxxxxxxxxxxxxxxxx                                                        xxxxxxxxxxxxxxxxxxxxxxxx            ",
"           xxxxxxxxxxxxxxxxxxxxxxxxxx                                                      xxxxxxxxxxxxxxxxxxxxxxxxxx           ",
"          xxxxxxxxxxxxxxxxxxxxxxxxxxxx                                                    xxxxxxxxxxxxxxxxxxxxxxxxxxxx          ",
"          xxxxxxxxxxxxxxxxxxxxxxxxxxxx                                                    xxxxxxxxxxxxxxxxxxxxxxxxxxxx          ",
"         xxxxxxxxxxxxxxxxxxxxxxxxxxxxxx                                                  xxxxxxxxxxxxxxxxxxxxxxxxxxxxxx         ",
"         xxxxxxxxxxxxxxxxxxxxxxxxxxxxxx                                                  xxxxxxxxxxxxxxxxxxxxxxxxxxxxxx         ",
"        xxxxxxxxxxxxxxxxxxxxxxxxxxxxxxxx                                                xxxxxxxxxxxxxxxxxxxxxxxxxxxxxxxx        ",
"        xxxxxxxxxxxxxxxxxxxxxxxxxxxxxxxx                                                xxxxxxxxxxxxxxxxxxxxxxxxxxxxxxxx        ",
"        xxxxxxxxxxxxxxxxxxxxxxxxxxxxxxxx                                                xxxxxxxxxxxxxxxxxxxxxxxxxxxxxxxx        ",
"        xxxxxxxxxxxxxxxxxxxxxxxxxxxxxxxx                                                xxxxxxxxxxxxxxxxxxxxxxxxxxxxxxxx        ",
"        xxxxxxxxxxxxxxxxxxxxxxxxxxxxxxxx                                                xxxxxxxxxxxxxxxxxxxxxxxxxxxxxxxx        ",
"        xxxxxxxxxxxxxxxxxxxxxxxxxxxxxxxx                                                xxxxxxxxxxxxxxxxxxxxxxxxxxxxxxxx        ",
"        xxxxxxxxxxxxxxxxxxxxxxxxxxxxxxxx                                                xxxxxxxxxxxxxxxxxxxxxxxxxxxxxxxx        ",
"        xxxxxxxxxxxxxxxxxxxxxxxxxxxxxxxx                                                xxxxxxxxxxxxxxxxxxxxxxxxxxxxxxxx        ",
"        xxxxxxxxxxxxxxxxxxxxxxxxxxxxxxxx                                                xxxxxxxxxxxxxxxxxxxxxxxxxxxxxxxx        ",
"        xxxxxxxxxxxxxxxxxxxxxxxxxxxxxxxx                                                xxxxxxxxxxxxxxxxxxxxxxxxxxxxxxxx        ",
"        xxxxxxxxxxxxxxxxxxxxxxxxxxxxxxxx                                                xxxxxxxxxxxxxxxxxxxxxxxxxxxxxxxx        ",
"        xxxxxxxxxxxxxxxxxxxxxxxxxxxxxxxx                                                xxxxxxxxxxxxxxxxxxxxxxxxxxxxxxxx        ",
"         xxxxxxxxxxxxxxxxxxxxxxxxxxxxxx                                                  xxxxxxxxxxxxxxxxxxxxxxxxxxxxxx         ",
"         xxxxxxxxxxxxxxxxxxxxxxxxxxxxxx                                                  xxxxxxxxxxxxxxxxxxxxxxxxxxxxxx         ",
"          xxxxxxxxxxxxxxxxxxxxxxxxxxxx                                                    xxxxxxxxxxxxxxxxxxxxxxxxxxxx          ",
"          xxxxxxxxxxxxxxxxxxxxxxxxxxxx                                                    xxxxxxxxxxxxxxxxxxxxxxxxxxxx          ",
"           xxxxxxxxxxxxxxxxxxxxxxxxxx                                                      xxxxxxxxxxxxxxxxxxxxxxxxxx           ",
"            xxxxxxxxxxxxxxxxxxxxxxxx                                                        xxxxxxxxxxxxxxxxxxxxxxxx            ",
"             xxxxxxxxxxxxxxxxxxxxxx                                                          xxxxxxxxxxxxxxxxxxxxxx             ",
"              xxxxxxxxxxxxxxxxxxxx                                                            xxxxxxxxxxxxxxxxxxxx              ",
"                xxxxxxxxxxxxxxxx                                                                xxxxxxxxxxxxxxxx                ",
"                  xxxxxxxxxxxx                                                                    xxxxxxxxxxxx                  ",
"                                                                                                                                ",
"                                                                                                                                ",
"                                                                                                                                ",
"                                                                                                                                ",
"                                                                                                                                ",
"                                                                                                                                ",
"                                                                                                                                ",
"                                                                                                                                ",
"                                                                                                                                ",
"                                                                                                                                ",
"                                                                                                                                ",
"                                                                                                                                ",
"                                                                                                                                ",
"                                                                                                                                ",
"                                                                                                                                ",
"                                                                                                                                ",
"                                                                                                                                ",
"                                                                                                                                ",
"                                                                                                                                ",
"                                                                                                                                ",
"                                                                                                                                ",
"                                                                                                                                ",
"                                                                                                                                ",
"                                                                                                                                ",
"                                                                                                                                ",
"                                                                                                                                ",
"                                                                                                                                ",
"                                                                                                                                ",
"                                                                                                                                ",
"                                                                                                                                ",
"                                                                                                                                ",
"                                                                                                                                ",
"                                                                                                                                ",
"                                                                                                                                ",
"                                                                                                                                ",
"                                                                                                                                ",
"                                                                                                                                ",
"                                                                                                                                ",
"                                                                                                                                ",
"                                                                                                                                ",
"                                                                                                                                ",
"                                                                                                                                ",
"                                                                                                                                ",
"                                                                                                                                ",
"                                                                                                                                ",
"                                                                                                                                ",
"                                                                                                                                ",
"                                                                                                                                ",
"                  xxxxxxxxxxxx                                                                    xxxxxxxxxxxx                  ",
"                xxxxxxxxxxxxxxxx                                                                xxxxxxxxxxxxxxxx                ",
"              xxxxxxxxxxxxxxxxxxxx                                                            xxxxxxxxxxxxxxxxxxxx              ",
"             xxxxxxxxxxxxxxxxxxxxxx                                                          xxxxxxxxxxxxxxxxxxxxxx             ",
"            xxxxxxxxxxxxxxxxxxxxxxxx                                                        xxxxxxxxxxxxxxxxxxxxxxxx            ",
"           xxxxxxxxxxxxxxxxxxxxxxxxxx                                                      xxxxxxxxxxxxxxxxxxxxxxxxxx           ",
"          xxxxxxxxxxxxxxxxxxxxxxxxxxxx                                                    xxxxxxxxxxxxxxxxxxxxxxxxxxxx          ",
"          xxxxxxxxxxxxxxxxxxxxxxxxxxxx                                                    xxxxxxxxxxxxxxxxxxxxxxxxxxxx          ",
"         xxxxxxxxxxxxxxxxxxxxxxxxxxxxxx                                                  xxxxxxxxxxxxxxxxxxxxxxxxxxxxxx         ",
"         xxxxxxxxxxxxxxxxxxxxxxxxxxxxxx                                                  xxxxxxxxxxxxxxxxxxxxxxxxxxxxxx         ",
"        xxxxxxxxxxxxxxxxxxxxxxxxxxxxxxxx                                                xxxxxxxxxxxxxxxxxxxxxxxxxxxxxxxx        ",
"        xxxxxxxxxxxxxxxxxxxxxxxxxxxxxxxx                                                xxxxxxxxxxxxxxxxxxxxxxxxxxxxxxxx        ",
"        xxxxxxxxxxxxxxxxxxxxxxxxxxxxxxxx                                                xxxxxxxxxxxxxxxxxxxxxxxxxxxxxxxx        ",
"        xxxxxxxxxxxxxxxxxxxxxxxxxxxxxxxx                                                xxxxxxxxxxxxxxxxxxxxxxxxxxxxxxxx        ",
"        xxxxxxxxxxxxxxxxxxxxxxxxxxxxxxxx                                                xxxxxxxxxxxxxxxxxxxxxxxxxxxxxxxx        ",
"        xxxxxxxxxxxxxxxxxxxxxxxxxxxxxxxx                                                xxxxxxxxxxxxxxxxxxxxxxxxxxxxxxxx        ",
"        xxxxxxxxxxxxxxxxxxxxxxxxxxxxxxxx                                                xxxxxxxxxxxxxxxxxxxxxxxxxxxxxxxx        ",
"        xxxxxxxxxxxxxxxxxxxxxxxxxxxxxxxx                                                xxxxxxxxxxxxxxxxxxxxxxxxxxxxxxxx        ",
"        xxxxxxxxxxxxxxxxxxxxxxxxxxxxxxxx                                                xxxxxxxxxxxxxxxxxxxxxxxxxxxxxxxx        ",
"        xxxxxxxxxxxxxxxxxxxxxxxxxxxxxxxx                                                xxxxxxxxxxxxxxxxxxxxxxxxxxxxxxxx        ",
"        xxxxxxxxxxxxxxxxxxxxxxxxxxxxxxxx                                                xxxxxxxxxxxxxxxxxxxxxxxxxxxxxxxx        ",
"        xxxxxxxxxxxxxxxxxxxxxxxxxxxxxxxx                                                xxxxxxxxxxxxxxxxxxxxxxxxxxxxxxxx        ",
"         xxxxxxxxxxxxxxxxxxxxxxxxxxxxxx                                                  xxxxxxxxxxxxxxxxxxxxxxxxxxxxxx         ",
"         xxxxxxxxxxxxxxxxxxxxxxxxxxxxxx                                                  xxxxxxxxxxxxxxxxxxxxxxxxxxxxxx         ",
"          xxxxxxxxxxxxxxxxxxxxxxxxxxxx                                                    xxxxxxxxxxxxxxxxxxxxxxxxxxxx          ",
"          xxxxxxxxxxxxxxxxxxxxxxxxxxxx                                                    xxxxxxxxxxxxxxxxxxxxxxxxxxxx          ",
"           xxxxxxxxxxxxxxxxxxxxxxxxxx                                                      xxxxxxxxxxxxxxxxxxxxxxxxxx           ",
"            xxxxxxxxxxxxxxxxxxxxxxxx                                                        xxxxxxxxxxxxxxxxxxxxxxxx            ",
"             xxxxxxxxxxxxxxxxxxxxxx                                                          xxxxxxxxxxxxxxxxxxxxxx             ",
"              xxxxxxxxxxxxxxxxxxxx                                                            xxxxxxxxxxxxxxxxxxxx              ",
"                xxxxxxxxxxxxxxxx                                                                xxxxxxxxxxxxxxxx                ",
"                  xxxxxxxxxxxx                                                                    xxxxxxxxxxxx                  ",
"                                                                                                                                ",
"                                                                                                                                ",
"                                                                                                                                ",
"                                                                                                                                ",
"                                                                                                                                ",
"                                                                                                                                ",
"                                                                                                                                ",
"                                                                                                                                "};
