/* XPM */
static char * menupics_xpm[] = {
"128 32 12 1",
" 	c None",
".	c #000000",
"+	c #DDDDDD",
"@	c #BBBBBB",
"#	c #888888",
"$	c #B868E2",
"%	c #D2A0EF",
"&	c #67188E",
"*	c #FFFFFF",
"=	c #8927BA",
"-	c #43095B",
";	c #444444",
"                                                                                                                                ",
"                                                                                                                                ",
"             .......                                                                                                            ",
"          ...+++++@@.                        .......                                                                            ",
"        ..++++++@@@@@.                    ...+++++@@.                        .                                     .            ",
"       .++++++@@@@@@@@.                 ..++++++@@@@@.                      ..                                     ..           ",
"       .@@++@@@@@######.               .++++++@@@@@@@@.                    .$.                                     .%.          ",
"      .@@@@@@@##########.              .@@++@@@@@######.                  .%$.                                     .%$.         ",
"      .@@@@#############.             .@@@@@@@##########.                .%$&.                                     .$%$.        ",
"      .@@@###..###..####.             .@@@@#############.               .%%$&.                                     .$%$$.       ",
"       .####.**.#.**.###.             .@@@#..##..#######.              .%%=&&.................     .................$$=$$.      ",
"       .###.****.****.##.              .##.**..**.######.             .%%==&=$%%%%%%%%%%%%%%$.     .%%%%%%%%%%%%%%%%%$==$$.     ",
"       .##.*****.*****.#.              .#.***.****.#####.            .%%====$$%%%%%%%%%%%%%$&.     .$%%%%%%%%%%%%%%%%%===$$.    ",
"       .##.***...**..*..               ..****.*****.####.           .%%====================&&.     .$$====================$$.   ",
"        .#.***...**..*..               ....**.*..**.###.           .%%=====================&&.     .$$=====================$$.  ",
"        .#.****.#.****.                 ...**.*..**.###.          .$$======================&&.     .$$======================&&. ",
"      ...##....###....#..               .****..****.##.            .&&=====================&&.     .$$=====================--.  ",
"     .++++@@@@@@@@@@@++@@..           ..#....##....###..            .&&====================&&.     .$$====================--.   ",
"    .+++++++@@@@@@@@@+@@@@#.        ..++++@@@@@@@@@@@++@.            .&&===&----------------&.     .$----------------&===--.    ",
"    .+++@@@@@@#####@@@@@@##.       .++++++++@@@@@@@@@+@@#.            .&&==&&----------------.     .----------------&$==--.     ",
"   .@@@@@@##################.      .++++@@@@@@#####@@@@##.             .&&=&&.................     .................$$=--.      ",
"   .@@######################.     .@@@@@@@################.             .&&-&.                                     .$=--.       ",
"   .@#######################.     .@@@####################.              .&-&.                                     .$=-.        ",
"   .#######################;.     .@######################.               .&-.                                     .=-.         ",
"    .#####################;.      .######################;.                .-.                                     .=.          ",
"    .###################;;;.      .#####################;.                  ..                                     ..           ",
"     .;;;;;;;########;;;;;.        .#################;;;;.                   .                                     .            ",
"      ..;;;;;;;;;;;;;;;;..         .;;;;#########;;;;;;;.                                                                       ",
"        ......;;;;;;;;..            ..;;;;;;;;;;;;;;;;..                                                                        ",
"              ........                ...;;;;;;;;;....                                                                          ",
"                                         .........                                                                              ",
"                                                                                                                                "};
