/* XPM */
static char * sbBrezelS_xpm[] = {
"128 128 6 1",
" 	c None",
".	c #6D4B06",
"+	c #000000",
"@	c #FCE794",
"#	c #FFFFFF",
"$	c #E0B957",
"                                                                                                                                ",
"                                                                                                                                ",
"                                                                                                                                ",
"                                                                               ..                                               ",
"                                                                       ++     ....           ++                                 ",
"           ..........                      ...........................++....................++.......................           ",
"         ..............                ++.............................++....................++.........................         ",
"       ....@@@@@@@@@@....             ++++.@@@@@@@@@@@@@@@@@@@@@@@@@@++@@@@@...@@@@@@@@@@@@++@@@@@@@@@@@@@@@@@@@@@@@@....       ",
"      ...@@@@@@@@@@@@@@...            +##++@@@@@@@@@@@@@@@@@@@@@@@@@@++@@@@...@@@@@@@@@@@@@++@@@@@@@@@@@@@@@@@@@@@@@@@@...      ",
"     ...@@$$$$$$$$$$$$@@...          ++#++++$$$$$$$$$$$$$$$$$$$$$$$$++$$$$...$$$$$$$$$$$$$+++$$$$$$$$$$$$$$$$$$$$$$$$$@@...+    ",
"    ....@$$$$$$$$$$$$$$@....        .++++++++$$$$$$$$$$$$$$$$$$$$$$$++++++++++$$$$+++++++++++$$$$$$$$$$$$$$$$$$$$$$$$$$@..++    ",
"   ....$$..............$$....      ..+++++++++.....................++##++++++++++++##++++++++..........................$$+++.   ",
"   ..........................      ..++++++++++....................++#+++++++++..++#+++++++++.........................++++++.   ",
"  .........          .........    ....++++++++++                   ++++++++++++  ++++++++++++                     ++++++++++..  ",
"  .......              .......    ....++++++++++                    ++++++++++    ++++++++++                     +++++++++++..  ",
" +......                ......+   .....++++++++++                   ++++++++++    ++++++++++        +     +++  +++##+++++++...  ",
" ++.........        .........++   .......++++   +++  .......       ..++++++++ .... ++++++++..      ++.++++++++++++#++++++++...  ",
"  ++++++++++++    ++++++++++++    ............. ++++..........    ...  ++++  ......  ++++  ...    .+++++++++++  ++++++++++....  ",
"  .++##++++++++++++##++++++++.    ......    ....+##++.     ....  ...        ...  ...        ...  .++##++++++++  .+++++++++....  ",
"  .++#+++++++++..++#+++++++++.    .....       .++#++++       ......         ..    ..         .....++#++++++++....+++++++ .....  ",
"   ++++++++++++..++++++++++++      ....        ++++++++       ....          ...  ...          ....+++++++++++....   ++   ....   ",
"   .++++++++++....++++++++++.      ....        +++++++++      ....           ......           .... +++++++++ ....        ....   ",
"   .++++++++++....++++++++++.      .....       ++++++++++     ....            ....            .... +++++++   ....       .....   ",
"    .++++++++......++++++++.        .....     ..++++++++++   ......        ..........        ...... ++++++  ......     .....    ",
"    ...++++..........++++...        ............++++++++++..................................................................    ",
"     ......................          ............++++++++.....................    .........................................     ",
"      .........  .........            ..........  .++++........  ...........        ...........  .............  ..........      ",
"        ....        ....                .....        .......        ......            ......        .......        .....        ",
"                                                                                                                                ",
"                                                                                                                                ",
"                                                                                                                                ",
"                                                                                                                                ",
"                                                                                                                                ",
"                                                                                                                                ",
"                                                                                                                                ",
"                                                                               ..                                               ",
"                                                                       ++     ....           ++                                 ",
"           ..........                      ...........................++....................++.......................           ",
"         ..............                  .............................++....................++.........................         ",
"       ....@@@@@@@@@@....              ....@@@@@@@@@@@@@@@@@@@@@@@@@@++@@@@@...@@@@@@@@@@@@++@@@@@@@@@@@@@@@@@@@@@@@@....       ",
"      ...@@@@@@@@@@@@@@...            ...@@@@@@@@@@@@@@@@@@@@@@@@@@@@++@@@@...@@@@@@@@@@@@@++@@@@@@@@@@@@@@@@@@@@@@@@@@...      ",
"     ...@@$$$$$$$$$$$$@@...        + ...@@$$$$$$$$$$$$$$$$$$$$$$$$$$++$$$$...$$$$$$$$$$$$$+++$$$$$$$$$$$$$$$$$$$$$$$$$@@...+    ",
"    ....@$$$$$$$$$$$$$$@....       ++...@$$$$$$$$$$$$$$$$$$$$$$$$$$$++++++++++$$$$+++++++++++$$$$$$$$$$$$$$$$$$$$$$$$$$@..++    ",
"   ....$$..............$$....      +++.$$..........................++##++++++++++++##++++++++..........................$$+++.   ",
"   ..........................      ++++++..........................++#+++++++++..++#+++++++++.........................++++++.   ",
"  .........          .........    .++##++++++                      ++++++++++++  ++++++++++++                     ++++++++++..  ",
"  .......              .......    .++#++++++++                      ++++++++++    ++++++++++                     +++++++++++..  ",
"  ......                ......    ..++++++++++++  +++     +         ++++++++++    ++++++++++        +     +++  +++##+++++++...  ",
" +..........        ..........+   ..+++++++++++++++++++++.++       ..++++++++      ++++++++..      ++.++++++++++++#++++++++...  ",
" ++...........    ...........++   ...++++++++++  ++##+++++++..    ...  ++++          ++++  ...    .+++++++++++  ++++++++++....  ",
"  ++++++++++++.  .++++++++++++    ...+++++++++.. ++#+++++++++..  ...                        ...  .++##++++++++  .+++++++++....  ",
"  .++##++++++++++++##++++++++.    .....+++++++....+++++++++++......                          .....++#++++++++....+++++++ .....  ",
"   ++#+++++++++..++#+++++++++      ....  ++   ....+++++++++++ ....                            ....+++++++++++....   ++   ....   ",
"   ++++++++++++..++++++++++++      ....       .... +++++++++   ...                            .... +++++++++ ..          ....   ",
"    ++++++++++....++++++++++        ...       ....   +++++++   ...                            .... +++++++   ..         ....    ",
"    ++++++++++....++++++++++        ....      ....   ++++++   .....       .......            ...... ++++++  ...        ....     ",
"     ++++++++ ...  ++++++++          .....    ...            .....................   ..........................       ....      ",
"      .++++. ....    ++++             ...... ....           ......................................................   ....       ",
"       ..........   ....               ..........   ....  .....  ..............................  .......................        ",
"        ...............                 ......................      ....... ................        ...................         ",
"          .............                   ..................              ...... .......                  ....  ........        ",
"         ....  .........                 ....  ...........               .....   ... ....                ....    .......        ",
"        ....    .........               ....   ... ......               ....    ...   ...               ....    .... ....       ",
"       ....    ....   ...              ....    ...    ...              ....    ....   ...              ....    ....   ...       ",
"       ....   ....   ....              ....    ...   ....              ....   ....   ....              ....   ....    ...       ",
"       ..... ....   ....               ....     ..   ...               ....   ...  .....               ...   ....    ....       ",
"        ........   ....                ....     ...  ...               ....  ..........                ...  ....     ....       ",
"         .............                  ....    ... ...                 .... ........                  ........     ....        ",
"          .............                 .....    .. ...                 ...........                  ++ ......     .....        ",
"         .... ..........                 ...........................................................++++...............         ",
"        ....    .........                 ..........................................................+##++.............          ",
"       ....    ....   ...                  ....@@@...@@@@@@@@@@@@@@@@@@@@@@@....@@@@@@@@@@@@@@@@@@@++#++++@@@@@@@....           ",
"       ....   ....   ....                    ....@@...@@@@@@@@@@@@@@@@@@@@@....@@@@@@@@@@@@@@@@@@@@++++++++@@@@....             ",
"      ++.... ....   ....                    ....$$$...$$$$$$$$$$$$$$$$$$$$....$$$$$$$$$$$$$$$$$$$$$+++++++++$$$$....            ",
"     ++++.......   ....                   ....$$$$$$...$$$$$$$$$$$$$$$$$$....$$$$$$$$$$$$$$$$$$$$$$++++++++++$$$$$....          ",
"     +##++............                   ....$......................................................++++++++++....$....         ",
"    ++#++++............                 ............................................................++++++++++..........        ",
"    ++++++++. ..........                ........ ... ...              ....  ...                      ++++++++++  .......        ",
"    +++++++++   .........             +.......  ...   ...            ....   ....                    ...++++ ..+++  ......       ",
"    ++++++++++ ....   ...             ++....   ...    ...           ....     ...                   ...       .++++  .....       ",
"     ++++++++++...   ....             +++..   ....   ....          ....      ....                 ...        .+##++  ....       ",
"     ++++++++++..   ....              ++++++ ....   ....          ....        ...                ...         ++#++++ ....       ",
"      ++++++++++   ....               ++##++++++   ....          ....         ....              ...          ++++++++...        ",
"        ++++...+++....                ++#++++++++.....         .....           ...           +....           +++++++++..        ",
"          .....++++....               .++++++++++++..+++     +.....            ....        .++...            ++++++++++.        ",
"         .... .+##++....              .+++++++++++++++++++++.++...  ++          ...      ..++......           ++++++++++        ",
"        ....  ++#++++....             ..++++++++++..++##+++++++..  +++          ...    ...+++.......          ++++++++++        ",
"       ....   ++++++++...              .+++++++++.. ++#+++++++++...++.         ....   ...+++.........          ++++++++         ",
"       ....   +++++++++..              ...+++++++.   +++++++++++...++++++++++ ...+++++++++++  ........           ++++.          ",
"       ..... .++++++++++               .....++...   .+++++++++++..++##++++++++++++##++++++++   ........           ....          ",
"        .......++++++++++               ........   ...+++++++++   ++#+++++++++..++#+++++++++      ......          .....         ",
"         ......++++++++++                .............  +++++++   ++++++++++++..++++++++++++        .....         ......        ",
"          ......++++++++                  ............. ++++++     ++++++++++....++++++++++          .....       ... ...        ",
"         .... ....++++..                 .... ..........           ++++++++++ ...++++++++++           ....       ... ....       ",
"        ....    .........               ....    .........           ++++++++    ..++++++++             ....     ...   ...       ",
"       ....    ....   ...              ....    ....   ...             ++++.    .... ++++.              ....    ....   ...       ",
"       ....   ....   ....              ....   ....   ....              ....   ....   ....              ...   +....+  ....       ",
"       ...   ....    ....              ....  ....   ....               .....  ....  ....              ....  ++... ++ ....       ",
"       .........    ....               ...  ....   ....                 ...............               ...  ++...   ++...        ",
"        .........  ....                ...  ...   ....                    ...........                ...   ++.      +...        ",
"         .............                  ......   ....                  ++    .......         ++     ...   .+.       ....        ",
"         ...............                .....   ....       ...........++....................++........   ...        ...++       ",
"        ....   ..........                ...   ...       .............++....................++......... ...         ..++++      ",
"       ++++    .... .++++.              ..... ...      ....@@@@@@@@@@++@@@@@@...@@@@@@@@@@@++@@@@@@@@.....         ..++##+      ",
"     ++++++++  ... ++++++++             ........      ...@@@@@@@@@@@@++@@@@@...@@@@@@@@@@@@++@@@@@@@@@....         .++++#++     ",
"    ++#+++++++....++#+++++++            .......      ...@@$$$$$$$$$$++$$$$$...$$$$$$$$$$$$+++$$$$$$$$......        ++++++++     ",
"    +##+++++++....+##+++++++           +......      ....@$$$$$$$$$$$++++++++++$$$$+++++++++++$$$$$$$........      +++++++++     ",
"   ++++++++++++..++++++++++++         ++ .....     ....$$..........++##++++++++++++##++++++++..........$$....    ++++++++++     ",
"   ++++++++++++..++++++++++++         ++  .....    ................++#+++++++++..++#+++++++++................   ++++++++++      ",
"  .++++++++++++++++++++++++++.        +++    ...  .........        ++++++++++++  ++++++++++++    .............  ++++++++++      ",
"  ++++++++++++.  .++++++++++++        ++++++  ...........           ++++++++++    ++++++++++      ..   ........++++++++++       ",
" ++...........    ...........++       ++##++++++........            ++++++++++    ++++++++++.           .....+++.  ++++         ",
" +..........        ..........+       ++#++++++++...........        .++++++++  ....++++++++...      ........++++                ",
"  ......                ......         ++++++++++++..+++.....+     ... ++++   ...... ++++   ...   .........++##+                ",
"  .......              .......         +++++++++++++++++++++.++   ...        ...  ...        ... ....   ..++++#++               ",
"  .........          .........          ++++++++++..++##+++++++.....         ..    ..         .....      ++++++++               ",
"   ..........................           +++++++++  .++#+++++++++...          ...  ...          ...      +++++++++               ",
"   ....$$..............$$....             +++++++  ..+++++++++++...           ......           ...     ++++++++++               ",
"    ....@$$$$$$$$$$$$$$@....                ++     ..+++++++++++...            ....            ...    ++++++++++                ",
"     ...@@$$$$$$$$$$$$@@...                         ..+++++++++.....        ..........        .....   ++++++++++                ",
"      ...@@@@@@@@@@@@@@...                          ....+++++++........................................++++++++                 ",
"       ....@@@@@@@@@@....                            ...++++++.................    ......................++++                   ",
"         ..............                               .........   ...........        ........... .........                      ",
"           ..........                                   ....         ......            ......       ....                        ",
"                                                                                                                                ",
"                                                                                                                                ",
"                                                                                                                                ",
"                                                                                                                                "};
