/* XPM */
static char * sbBrezelB_xpm[] = {
"128 128 4 1",
" 	c None",
".	c #AD8B46",
"+	c #FFFFD4",
"@	c #FFF997",
"                                                                                                                                ",
"                                                                                                                                ",
"                                                                                                                                ",
"                                                                               ..                                               ",
"                                                                              ....                                              ",
"           ..........                      ..........................................................................           ",
"         ..............                  ..............................................................................         ",
"       ....++++++++++....              ....+++++++++++++++++++++++++++++++++...++++++++++++++++++++++++++++++++++++++....       ",
"      ...++++++++++++++...            ...++++++++++++++++++++++++++++++++++...+++++++++++++++++++++++++++++++++++++++++...      ",
"     ...++@@@@@@@@@@@@++...          ...++@@@@@@@@@@@@@@@@@@@@@@@@@@@@@@@@...@@@@@@@@@@@@@@@@@@@@@@@@@@@@@@@@@@@@@@@@@++...     ",
"    ....+@@@@@@@@@@@@@@+....        ....+@@@@@@@@@@@@@@@@@@@@@@@@@@@@@@@@...@@@@@@@@@@@@@@@@@@@@@@@@@@@@@@@@@@@@@@@@@@@+....    ",
"   ....@@..............@@....      ....@@..............................................................................@@....   ",
"   ..........................      ..........................................................................................   ",
"  .........          .........    .........                           ...              ...                           .........  ",
"  .......              .......    .......                            ...                ...                            .......  ",
"  ......                ......    ......                            ...                  ...                            ......  ",
"  ..........        ..........    ...........        .......       ...        ....        ...       .......        ...........  ",
"  ............    ............    .............    ...........    ...        ......        ...    ...........    .............  ",
"  ......   ....  ....   ......    ......    ....  ....     ....  ...        ...  ...        ...  ....     ....  ....    ......  ",
"  .....      ......      .....    .....       ......         ......         ..    ..         ......         ......       .....  ",
"   ....       ....       ....      ....        ....           ....          ...  ...          ....           ....        ....   ",
"   ....       ....       ....      ....        ....           ....           ......           ....           ....        ....   ",
"   .....      ....      .....      .....       ....           ....            ....            ....           ....       .....   ",
"    .....    ......    .....        .....     ......         ......        ..........        ......         ......     .....    ",
"    ........................        ........................................................................................    ",
"     ......................          .........................................    .........................................     ",
"      .........  .........            ..........  .............  ...........        ...........  .............  ..........      ",
"        ....        ....                .....        .......        ......            ......        .......        .....        ",
"                                                                                                                                ",
"                                                                                                                                ",
"                                                                                                                                ",
"                                                                                                                                ",
"                                                                                                                                ",
"                                                                                                                                ",
"                                                                                                                                ",
"                                                                               ..                                               ",
"                                                                              ....                                              ",
"           ..........                      ..........................................................................           ",
"         ..............                  ..............................................................................         ",
"       ....++++++++++....              ....+++++++++++++++++++++++++++++++++...++++++++++++++++++++++++++++++++++++++....       ",
"      ...++++++++++++++...            ...++++++++++++++++++++++++++++++++++...+++++++++++++++++++++++++++++++++++++++++...      ",
"     ...++@@@@@@@@@@@@++...          ...++@@@@@@@@@@@@@@@@@@@@@@@@@@@@@@@@...@@@@@@@@@@@@@@@@@@@@@@@@@@@@@@@@@@@@@@@@@++...     ",
"    ....+@@@@@@@@@@@@@@+....        ....+@@@@@@@@@@@@@@@@@@@@@@@@@@@@@@@@...@@@@@@@@@@@@@@@@@@@@@@@@@@@@@@@@@@@@@@@@@@@+....    ",
"   ....@@..............@@....      ....@@..............................................................................@@....   ",
"   ..........................      ..........................................................................................   ",
"  .........          .........    .........                           ...              ...                           .........  ",
"  .......              .......    .......                            ...                ...                            .......  ",
"  ......                ......    ......                            ...                  ...                            ......  ",
"  ..........        ..........    ...........        .......       ...                    ...       .......        ...........  ",
"  ............    ............    .............    ...........    ...                      ...    ...........    .............  ",
"  ......   ....  ....   ......    ......    ....  ....     ....  ...                        ...  ....     ....  ....    ......  ",
"  .....      ......      .....    .....       ......         ......                          ......         ......       .....  ",
"   ....       .....      ....      ....       .....           ....                            ....           ....        ....   ",
"   ....       ....      .....      ....       ....             ...                            ....           ..          ....   ",
"    ...       ....      ....        ...       ....             ...                            ....           ..         ....    ",
"    ....      ....     .....        ....      ....            .....       .......            ......         ...        ....     ",
"     .....    ...     .....          .....    ...            .....................   ..........................       ....      ",
"      ...... ....    ....             ...... ....           ......................................................   ....       ",
"       ..........   ....               ..........   ....  .....  ..............................  .......................        ",
"        ...............                 ......................      ....... ................        ...................         ",
"          .............                   ..................              ...... .......                  ....  ........        ",
"         ....  .........                 ....  ...........               .....   ... ....                ....    .......        ",
"        ....    .........               ....   ... ......               ....    ...   ...               ....    .... ....       ",
"       ....    ....   ...              ....    ...    ...              ....    ....   ...              ....    ....   ...       ",
"       ....   ....   ....              ....    ...   ....              ....   ....   ....              ....   ....    ...       ",
"       ..... ....   ....               ....     ..   ...               ....   ...  .....               ...   ....    ....       ",
"        ........   ....                ....     ...  ...               ....  ..........                ...  ....     ....       ",
"         .............                  ....    ... ...                 .... ........                  ........     ....        ",
"          .............                 .....    .. ...                 ...........                     ......     .....        ",
"         .... ..........                 ..............................................................................         ",
"        ....    .........                 ............................................................................          ",
"       ....    ....   ...                  ....+++...+++++++++++++++++++++++....+++++++++++++++++++++++++++++++++....           ",
"       ....   ....   ....                    ....++...+++++++++++++++++++++....++++++++++++++++++++++++++++++++....             ",
"       ..... ....   ....                    ....@@@...@@@@@@@@@@@@@@@@@@@@....@@@@@@@@@@@@@@@@@@@@@@@@@@@@@@@@@@....            ",
"        ........   ....                   ....@@@@@@...@@@@@@@@@@@@@@@@@@....@@@@@@@@@@@@@@@@@@@@@@@@@@@@@@@@@@@@@....          ",
"         .............                   ....@....................................................................@....         ",
"          .............                 ................................................................................        ",
"         .... ..........                ........ ... ...              ....  ...                      ...    ...  .......        ",
"        ....    .........              .......  ...   ...            ....   ....                    ...     ....   ......       ",
"       ....    ....   ...              .....   ...    ...           ....     ...                   ...       ...    .....       ",
"       ....   ....   ....              ....   ....   ....          ....      ....                 ...        ....    ....       ",
"       ..... ....   ....              ....   ....   ....          ....        ...                ...          ...    ....       ",
"        ........   ....               ...    ...   ....          ....         ....              ...            ...  ....        ",
"         .............                ...    .........         .....           ...            ....             ...  ....        ",
"          .............               ...     ..........     ......            ....        ......               ... ....        ",
"         .... ..........              ..       ...................              ...      ..........             .......         ",
"        ....    .........             ...       .................               ...    .............             ......         ",
"       ....    ....   ...              ..      ....   ................         ....   ....  .........            .....          ",
"       ....   ....   ....              ....   ....   ....   ...............   ....   ....     ........            ....          ",
"       ..... ....   ....               ..... ....   ....       ............. ....   ....       ........           ....          ",
"        ........   ....                 ........   ....             ............   ....           ......          .....         ",
"         .............                   .............                  ..............              .....         ......        ",
"          .............                   .............                   .............              .....       ... ...        ",
"         .... ..........                 .... ..........                 .... ..........              ....       ... ....       ",
"        ....    .........               ....    .........               ....    .........              ....     ...   ...       ",
"       ....    ....   ...              ....    ....   ...              ....    ....   ...              ....    ....   ...       ",
"       ....   ....   ....              ....   ....   ....              ....   ....   ....              ...    ....   ....       ",
"       ...   ....    ....              ....  ....   ....               .....  ....  ....              ....   ....    ....       ",
"       .........    ....               ...  ....   ....                 ...............               ...   ....     ...        ",
"        .........  ....                ...  ...   ....                    ...........                ...   ...       ...        ",
"         .............                  ......   ....                        .......                ...   ...       ....        ",
"         ...............                .....   ....       ...........................................   ...        ...         ",
"        ....   ..........                ...   ...       .............................................. ...         ...         ",
"       ....    .... ......              ..... ...      ....++++++++++++++++++...+++++++++++++++++++++.....         ....         ",
"     .....     ...    .....             ........      ...+++++++++++++++++++...+++++++++++++++++++++++....         ...          ",
"    .....     ....      ....            .......      ...++@@@@@@@@@@@@@@@@@...@@@@@@@@@@@@@@@@@@@@@@@......        ...          ",
"    ....      ....       ...            ......      ....+@@@@@@@@@@@@@@@@@...@@@@@@@@@@@@@@@@@@@@@@@........      ...           ",
"   .....      ....       ....            .....     ....@@..............................................@@....     ...           ",
"   ....      .....       ....             .....    ..........................................................    ...            ",
"  .....      ......      .....               ...  .........            ...              ...      .............  ...             ",
"  ......   ....  ....   ......                ...........             ...                ...      ..   ...........              ",
"  ............    ............                 .........             ...                  ...           .........               ",
"  ..........        ..........                   ...........        ...        ....        ...      ...........                 ",
"  ......                ......                    ............     ...        ......        ...   ............                  ",
"  .......              .......                    ......   ....   ...        ...  ...        ... ....   ......                  ",
"  .........          .........                    .....      .......         ..    ..         .....      .....                  ",
"   ..........................                      ....       .....          ...  ...          ...       ....                   ",
"   ....@@..............@@....                      ....       .....           ......           ...       ....                   ",
"    ....+@@@@@@@@@@@@@@+....                       .....      .....            ....            ...      .....                   ",
"     ...++@@@@@@@@@@@@++...                         .....    .......        ..........        .....    .....                    ",
"      ...++++++++++++++...                          ........................................................                    ",
"       ....++++++++++....                            ..........................    ........................                     ",
"         ..............                               .........   ...........        ........... .........                      ",
"           ..........                                   ....         ......            ......       ....                        ",
"                                                                                                                                ",
"                                                                                                                                ",
"                                                                                                                                ",
"                                                                                                                                "};
