/* XPM */
static char * sbBroetchenSB_xpm[] = {
"128 128 21 1",
" 	c None",
".	c #AD8B46",
"+	c #FFFFAB",
"@	c #6565A8",
"#	c #FFF997",
"$	c #FFFFD4",
"%	c #93856A",
"&	c #FFEF5F",
"*	c #FFA740",
"=	c #404040",
"-	c #F2C157",
";	c #FFFFFF",
">	c #FFFFE0",
",	c #C7B091",
"'	c #A69276",
")	c #8F826C",
"!	c #FFFFEA",
"~	c #706451",
"{	c #FFFFA2",
"]	c #DB546A",
"^	c #635842",
"                                                                                                                                ",
"                                                                                                                                ",
"                                                                                                          ....                  ",
"                                                                           ++@+@+@                    ..#$$......               ",
"                                              %%                        ++@+@&&&@&&@&               .....$$$#####               ",
"                                            ++%%+++                   @+@@&@&&@@&&@&@&@            ......#$$##$.....            ",
"                                         %%++%&&&&%%%&               ++@&&&&@&@&&@@&&@&@          .....####$$........           ",
"            +++*++&                   =++%%&%%&&%%&%%&&%%           ++@&@&@&&&&&@&&&@&@&&        .....##$.##$.........          ",
"         ++++&&&*&&&&&              %===&&%&%%&&%%&&&&%%%          =@&&&@&&&@@&@&@&@&&&&@&=      ....#$....##$........          ",
"       +++&&&-****&&&&&&             ======&%&&&&%&&&&&&&&        ==&&@&&&@&&&@&&&@&@&@&===     ....#$......#$.........         ",
"      ++****-*+&&&*-***&&           +==;;======%&&%%&&&&&&& +++*++&=========@&&@=========== +++*++&#........#$.........         ",
"     ++*++&&*+&&&&-*&&&**&          +==;========%&&%%&%%&++++&&&*&&&&&===========;;========++&&&*&&&&&.......#$........         ",
"    =+*+&&&&&*&&&-*+&&&&&*&=       ++&============&%===+++&&&-****&&&&&&=====@&==;=====+++&&&-****&&&&&&.....#$........         ",
"   ==&&&&&&&-*****+&&&&&&===       +&&================++****-*+&&&*-***&&====&&=======++****-*+&&&*-***&&.....$........         ",
"   ==========+&&&===========       +&&&==========&&==++*++&&*+&&&&-*&&&**&==@&&&=====++*++&&*+&&&&-*&&&**&.........#$$..        ",
"  ==;;============;;========       +&&&=========&&&=++*+&&&&&*&&&-*+&&&&&*&=&&@&====++*+&&&&&*&&&-*+&&&&&*&..$$$$###$.....      ",
"  ==;=========&&==;=========       +&&&&&=======&&&&+&&&&&&&-*****+&&&&&&&&&&&&&&===+&&&&&&&-*****+&&&&&&&.....$$$#$$......     ",
"  ============&&============       +&&&&&&&==&&&&&&++&&&&&&-*+&&&&*&&&&&&&&-&&&&&&&++&&&&&&-*+&&&&*&&&&&&........##$###.....    ",
"   ==========&&&&==========-        &&&&&&&&&&&&&&&+&&&&&&-*+&&&&&&*&&&&&&&-&&&&&&-+&&&&&&-*+&&&&&&*&&&&.........#$#.###.....   ",
"   ==========&&&&==========-         &&&&&&&&&&&&&&+&&&&&&*+&&&&&&&&*&&&&&&--------+&&&&&&*+&&&&&&&&*&&&........##$....##....   ",
"    ========&&&&&&========-           &&&&&&&&&&&&&+&&&&&&*&&&&&&&&&*&&&&&--       +&&&&&&*&&&&&&&&&*&&=........#$......##....= ",
"     &====&&&&&&&&&&====--                ---------+&&&&&&*&&&&&&&&&*&&&&&--       +&&&&&&*&&&&&&&&&*&==........#$........#.=== ",
"      &&&&&&&&&&&&&------                          +&&&&&&*&&&&&&&&&&&&&&---       +&&&&&&*&&&&&&&&&&&==========$...=========== ",
"          -----------                               &&&&&&&&&&&&&&&&&&&&---         &&&&&&&&&&&&&&&&&==;;============;;======== ",
"                                                     &&&&&&&&&&&&&&&&&----           &&&&&&&&&&&&&&&&==;=========..==;========= ",
"                                                      &&&&&&&&&&&&&------             &&&&&&&&&&&&&--============..============ ",
"                                                          -----------                     ----------- ==========....==========  ",
"                                                                                                      ==========....==========  ",
"                                                                                                       ========......========   ",
"                                                                                                         ==== .........====     ",
"                                                                                                                                ",
"                                                                                                                                ",
"                                                +++++++                  ....                                                   ",
"          +++*++&                            ++>+&&>>&&>&&            ......#$$..                                               ",
"       ++++&&&*&&&&&                       +>+&>&&&&&&&>&&&>          $$$$###$.....                                             ",
"     +++&&&-****&&&&&&                    +>>&&&&>&&&&&&&&>>&=     .....$$$#$$......                                            ",
"    ++****-*+&&&*-***&&                  >>&&>>&>>&>>&>>&&&&==    ........##$###.....                    @,;,,,@,,              ",
"   ++*++&&*+&&&&-*&&&**&                ++&&&>&&&&&&&&&>&&&===&  .........#$#.###.@+++@+@             ,,,,,,';'';'@'            ",
"  ++*+&&&&&*&&&-*+&&&&&*&               +&>>&&>>&>>&&&&&======&  ........#===..+@++@@&&@&&@&        ,@,,'@''@''''''''           ",
"  +&&&&&&&-*****+&&&&&&&&              ++&>&&&&&&&>&==========&>.........#======&&@&&@&@&@&@&&     ;,,'';'';'''@'@';@'          ",
" ++&&&&&&-*+&&&&*&&&&&&&&-             +&&&&&&&&>&&===========&-.........#==;;======@@&&@&&&@&@   ,,@'@''''''';''''''';         ",
" +&&&&&&-*+&&&&&&*&&&&&&&-            =+&&&&===&>===;;=======&&-........#$==;========&&@&@&@&&&& ,,'''';''@''''''''''))         ",
" +&&&&&&*+&&&&&&&&*&&&&&&-           ==+============;=======+++*++&.....#$+============&&&&&+++*++&'''''''''''%+++++++)         ",
" +&&&&&&*&&&&&&&&&*&&&&&--           ===========&&=======++++&&&*&&&&&..#.@=============&++++&&&*&&&&&''''''++%%&&%%&&&%&       ",
" +&&&&&&*&&&&&&+.+++++&&--          ==;;========&&&====+++&&&-****&&&&&&$++@==========@+++&&&-****&&&&&&''%%+&&%&%%%&&%%&&&     ",
" +&&&&&&*&&&++++&&.&&;&&.-          ==;========&&&&===++****-*+&&&*-***&&+&&=========&++****-*+&&&*-***&&++%&&&&&&&&&%%&&&&&    ",
"  &&&&&&&&+.+;&&&&&&&.&&&&&         ===========&&&&&&++*++&&*+&&&&-*&&&**&&&&&=======++*++&&*+&&&&-*&&=*++&&&&&%%&&&&&&&&&&%%=  ",
"   &&&&&&++&&&&.&&;&&&&&;&&&         =========&&&&&&++*+&&&&&*&&&-*+&&&&&*&&&&@&==&&++*+&&&&&*&&&-*+&==%%&&%%&&%&&&%&&&%%&&===  ",
"    &&&=++;&&&&&&&&&&.&&&&&.& =      =======  -+.+++++&&&&&&-*****+&&&&&&&&&&&&&&&&&+&&&&&&&-*****+&&==========&&%%===========  ",
"      ==+&&.&;&&&&.&&&&&&&;&===       ======++++&&;&&&&&&&&-*+&&&&*&&&&&&&&-&&&&&&&++&&&&&&-*+&&&&*&==;;============;;========- ",
"      ==========;&&&===========           +++&.&&&&.&&.&&&&*+&&&&&&*&&&&&&&-&&&&&&&+&&&&&&-*+&&&&&&*==;=========&&==;=========- ",
"     ==;;============;;========          +;&.&&&&&&&&;&&&;&&&&&&&&&&*&&&&&&-&&&&&&&+&&&&&&*+&&&&&&&&============&&============- ",
"     ==;=========;&==;=========         .+&&&&;&&.&&&&&&&&&&&&&&&&&&*&&&&&--&&&&&&&+&&&&&&*&&&&&&&&&*==========&&&&==========-- ",
"     ============&&============        ++&&&&&&&&&&&;&.&&&.&&&&&&&&&*&&&&&--    ---+&&&&&&*&&&&&&&&&*==========&&&&==========-- ",
"      =====....=&&&&==========-        +&&&....&&&&&&&&&&&&&&&&&&&&&&&&&&--....    +&&&&&&*&&&&&&&&&&&=====....&&&&&========--- ",
"      =..#$$......&&==========-       +..#$$......&.&&&&;&&&;&-&&&&&&&&..#$$......  &&&&&&&&&&&&&&&&&&&..#$$......&&&&====&---  ",
"     .....$$$#####&&&========--      .....$$$#####&&&&.&&&&.&&-&&&&&&.....$$$#####   &&&&&&&&&&&&&&&&.....$$$#####&&&&&&&----   ",
"    ......#$$##$.....&&====---      ......#$$##$.....&&&&&&&&&-&&&&-......#$$##$..... &&&&&&&&&&&&&-......#$$##$.....&------    ",
"   .....####$$........&&&----      .....####$$........&&&&&&&------.....####$$........    ---------.....####$$........--        ",
"  .....##$.##$.........-----      .....##$.##$.........&&&&&&--   .....##$.##$.........           .....##$.##$.........         ",
"  ....#$....##$........-          ....#$....##$........&&&&&---   ....#$....##$........           ....#$....##$........         ",
" ....#$......#$.........         ....#$......#$.........&&&---   ....#$......#$.........         ....#$......#$.........        ",
" ...#........#$.........         ...#........#$.........&----    ...#........#$.........         ...#........#$.........        ",
" .............#$........         .............#$........----     .............#$........         .............#$........        ",
" .............#$........         .........!!!!!!!!!!!!!.         .............#$........         .............#$........        ",
" .............,,~,~,,-,,,        ......!!!!{{{{{{{{{{{{{{=       ..............$........         ........!!!!!!!!!!!!!..        ",
" ..........,-,,,~'~~'-'~~''      ....!!!{{{{&&&&&&{{{{{{=={{     ..............#........         .....!!!!{{{{{{{{{{{{{{{       ",
"  .......~,,--''''''''''''''      ..!!{{&&-----------&&==={{{     ............,,,,,,,,~,, -       ..!!!{{{{&&&&&&{{{{{{{{{{     ",
"   .....,~,''''~''-''~~''--''      !!&&----!!!!!!!!!======-&{{     ........-,,~,--'''~~'''--       !!{{&&-----------&&{{{{{{    ",
"    ...,,'''~''~~'--'~''''''~)    !!&-!!!!!!!!{{==========!!!&{     .....,--,~~'-'~'''''~'''      !!&&----!!!!!!!!!!!!!!!-&{{   ",
"      ,,--'~~''''''''''--''~~)    !{{!!{{{{{{{{==========={{!!{         ,,,'''''''~~'''~~~'''    !!&-=!!!!!!!{{{{{{{{{{!!!!!={  ",
"      ~~''''''-''~~'''''-'''')   !={{{{{==={{===;;======={{{{{{-       ,-=='~''''''~'-'''''--)   !{{=={{{{{{{{{{{{{{{{{{{{==={  ",
"      ,~'''''--'''~''--'''''))   =={============;========{{{{{{-      ,,====~'''--'''--''''-')  !!{{=========={{{{==========={- ",
"      ,'''''''''''''''''''))))   ==========={{=========={{{{{{{-      ,'=;;=='''-''''''~;;;'')  !{{==;;============;;========{- ",
"      ,'''''!!!!!!!''''')))))   ==;;========{{{=========&{{{+++*++&   ,==;====''''~~'';;;]];+++*++&==;========={{==;========={- ",
"       ''!!!!{!{!{{!{!)))))     ==;========&&&{=======&&&++++&&&*&&&&&,========'''~';;;;]]]];&&&*&&&&&========={{============{- ",
"       !!!{!{!!!{!{{!{!{        ===========&&&&&&&==&&&+++&&&-****&&&&&========='';;;;^;]]]];-****&&&&&&======&&&&=========={-- ",
"      !!{!!{!{{{{{{{{{{{{        =========&&&&&&&&&&&&++****-*+&&&*-***=========;;^;^;;;]]]];;+&&&*-***&&=====&&&&==========&-- ",
"     !!{!!{!{{{{{{{{{{{{{{       =======&&&&&&&&&&&&&++*++&&*+&&&&-*&&&*======;;;=;;;;;;;]];;;&&&&-*&&&**&===&&&&&&========&--- ",
"    =!{!{!{{{{{{{{{{{{{{{{{=      ======&&&&&&&>+++>++*+&&&&&*&&&-*+&&&&====;;^;;=;;^;^;;;;;;;;&&-*+&&&&&*&&&&&&&&&&&====&&---  ",
"   ==!{!{{{{{{{&&{&{{{{{{===        &&&&&&&&+++>&&&>>&&>&&&&-*****+&&&&&&=;;^;;;;==;;;;;;;;;;;;***+&&&&&&&&&&&&,@,,,@,,,@,---   ",
"   =========={&&&===========            --+>+&&&&>&&&&&&>&&-*+&&&&*&&&&&;^;;;;^;^;===;;;^;.....&&&*&&&&&&&&-,,;,,,';'';''';'    ",
"  ==;;============;;========             +>>&>>&>>&>>&>>&>>&+&&&&&&*&&;;;;;^;;;;;;====.........&&&&*&&&&&&,,@,@'';@''''@'@'';   ",
"  ==;=========&&==;=========            ++>&&>&&&&&&&&&>&&>&&&&&&&&&^;;^;^;;;^;;..=;;==........&&&&&*&&&&@@,'@''''''@''''''''@  ",
"  ============&&============           ++>&>>&>>&>>&&>&&&>&&>>&&&&;^;;;;;;;......==;====..;;;;;&&&&&*&&&,,';'@'''@'''''';@'''') ",
"   ==========&&&&==========-           +&&&&&&&&&&>&>>&&>>&&&>&&&;;;;^...........========;.....&&&&&*&&,,''''''@''';''@''''@@') ",
"   ========....&&==========-          ++&&&....&&&&&&>&&&&&>&&-&&...............;=========.....&&&&&&&&,'''....'''''@'';'@''';) ",
"    ===..#$$......========-           +..#$$......>&&&&>>&>>&&-&&........#$$......=========....&&&&&&&&..#$$......''''''''''')) ",
"     .....$$$#####&&====--           .....$$$#####&&>>&&&&&&&&-&&.........$$$#####==========];]&&&&&&.....$$$#####''''''''')))) ",
"    ......#$$##$.....----           ......#$$##$.....&&&&&&&&--&&;;;......#$$##$.....=======];;&&&&-......#$$##$.....'''')))))  ",
"   .....####$$........             .....####$$........&&&&&&&----.......####$$........=====....----.....####$$........))))))    ",
"  .....##$.##$.........           .....##$.##$.........&&&&&---  ......##$.##$.........==......   .....##$.##$.........)        ",
"  ....#$....##$........           ....#$....##$........&&&&---   .....#$....##$................   ....#$....##$........         ",
" ....#$......#$.........         ....#$......#$.........&----    ....#$......#$................  ....#$......#$.........        ",
" ...#........#$.........         ...#........#$.........----     ...#........#$.........         ...#........#$.........        ",
" .............#$........         .............#$........         ........~....#$........         .............#$........        ",
" .............#+@+@+++..         .........!!!!!!!!!!!!!.         ........~++~~++........         .............#$........        ",
" ...........+@+@&@&&@@&@&@       ......!!!!{{{{{{{{{{{{{{{       .....++;+&&;&&&&~~.....         ...........#$$.........        ",
" .........+@+@@&@&&@&&@&&&@      ....!!!{{{{&&&&&&{{{{{{{{{{     ...~++~&&~~&&~&&&&&&...         .....$$$$###$..........        ",
"  .......++&@&&&&@&&@&@&@&&&      ..!!{{&&-----------&&{{{{{{     .++~&~&~&&&~&&~~&&;&.           ......$$$#$$.........         ",
"   .....+@&@&&@&@&&@&&&&&@@&@      =!&&----!!!!!!!!!!!!!!!=&{{    ++&&;&&~;&~&;&&&~&&&&           ........##$###......          ",
"    ...+@&@&&&&&&&@&&@&@&&&&&@    ==&-!!!!!!!!{{{{{{{{{{===!!&{  +;&~~&&&&&&~~&&&~;&&&&&         .........#$#.###.....          ",
"       +&&+++*++&&@&@&&&&@&@&&    =========={{{{==========={!!{  ==========&&&&===========       ........##$....##....          ",
"      +++++&&&*&&&&&&&@&@&&@&@-  ==;;============;;========{{{{-==;;============;;========      .........#$....@+@+++@.         ",
"  =  +++&&&-****&&&&&&&&&&@&&&-  ==;========={{==;========={{{{-==;=========&;==;=========      .........#$.+@++@&&@&&@&&       ",
"  ==++****-*+&&&*-***&&&@&&@&&-  ============{{============{{{{-============&&============      ........#$@+@&&@&&@@&@&@&@& =   ",
"  ===*++&&*+&&&&-*&&&**&&&&&&--  !=========={{{{=========={{+++*++&========&&&&==========   +++*++&.....#@+&&&@&@&@&@&@&&&&==   ",
"  ======&&&*&&&-*+&&&&&*&&&&&--  !==========&&{&=========++++&&&*&&&&&=====&&&&==========++++&&&*&&&&&..++&@@&@&&&&@&&&@@&===   ",
"  ==;;======****+&&&&&&&&&&&---  !{========&&&&&&======+++&&&-****&&&&&&==&&&&&&=======+++&&&-****&&&&&&+@&&&&&@&@@&&@&======&  ",
" +==;========&&&*&&&&&&&&-&---   !&&&====&&....&&&&===++****-*+&&&*-***&&!!!!!!!!!!!!!++****-*+&&&*-***&&&@&@@&&&&@==========@  ",
" +&============....&&&&&&----     &&&&&&......#$$..&&++*++&&*+&&&&-*&&!!!!{{{{{{{{{{{{{{{+&&*+&&&&-*&&&**&&@&@=@@&===========@- ",
" +&=========......#$$..&&---       &&&&&$$$$###$.....+*+&&&&&*&&&-*+!!!{{{{&&&&&&{{{{{{{{{{&&*&&&-*+&&&&&*&========;;=======&&- ",
" +&&========$$$$###$.....-          &.....$$$#$$......&&&&&&-*****+!!{{&&-----------&&{{{{{{-*****+&&&&&&&&========;========&&- ",
" +&&=====.....$$$#$$......          ........##$###.....&&&&-*+&&&&!!&&----!!!!!!!!!!!!!!!-&{{+&&&&*&&&&&&&&-====&==========&&-- ",
" +&&&&==........##$###.....        .........#$#.###.....=&-*+&&&&!!&=!!!!!!!!{{{{{{{{{{!!!!=&{&&&&&*&=&&&&,,-,,,,~,,,======&&-- ",
"  &&&&=.........#$#.###.....=    ==........##$....##..===&*+&&&&&!{==!{{{{{{{{{{{{{{{{{{{===!{&&&&&&*===~,,,--''~~'-'''==&&&--- ",
"   &&==........##$....##..===    ==========#$.===========&*&&&&&!!{=========={{{{==========={{-&&&&&*======''''''''--'''&&&---  ",
"    &==========#$.===========   ==;;===========;;========&*&&&&&!{==;;============;;========{{-&&&&&,==;;======--'''''~~'----   ",
"    ==;;===========;;========   ==;=========.==;=========&*&&&&&!{==;========={{==;========={{-&&&&,~==;========'''===''')=-    ",
"    ==;=========.==;=========   ============.============&&&&&&&!{============{{============{{-&&&,~~'===================)==    ",
"    ============.============    ==========...==========.&&&&&&&!{{=========={&&&==========&{--&&&,'''==========='==;;======    ",
"     ==========...==========.    ==========...==========.&&&&&&&!{&==========&&&&==========&&--&&&,'--'==========-==;========   ",
"     ==========...==========.     ========.....========.  ------!&&&========&&&&&&========&&------,''''========='''==========   ",
"      ========.....========.        ====.........====..          &&&&&====&&&&&&&&&&====&&&---    ,''''''======='''==========   ",
"        ====.........====..          .................            &&&&&&&&&&&&&&&&&&&&&&&----      ''''''''=='''')))========    ",
"         .................               .........                 &&&&&&&&&&&&&&&&&&&------        '''''''))))))))   ======    ",
"             .........                                                 -----------------                              =====     ",
"                                                                                                                                "};
