/* XPM */
static char * sbBurgerS_xpm[] = {
"128 128 18 1",
" 	c None",
".	c #CAB096",
"+	c #C07F33",
"@	c #D1B694",
"#	c #F0D1B2",
"$	c #E4973D",
"%	c #F8D8AF",
"&	c #CC6700",
"*	c #AC5700",
"=	c #000000",
"-	c #902425",
";	c #00A61E",
">	c #FFFFFF",
",	c #E50140",
"'	c #2CCA00",
")	c #34EF00",
"!	c #680104",
"~	c #FFF924",
"                                                                                                                                ",
"                                                           ..++++++++                      ..++++++++                           ",
"                                                        ..@++++++.+++++++               ..@++++++.+++++++                       ",
"                                           ##$$$$$$$$ ...++++.++++++++++.+            ...++++.++++++++++.+                      ",
"           ##$$$$$$$$                   ##%$$$$$$#$$$$$$$+++++++++++++.++++##$$$$$$$$..+++++++++++++++.++++                     ",
"        ##%$$$$$$#$$$$$$$             ###$$$$#$$#$$$$$$$#$.++.+++++.++++##%$$$$$$#$$$$$$$+.++.+++++.++++.+++                    ",
"      ###$$$$#$$#$$$$$$$#$           ##$$$$$$$$$$$$$$$#$$$$++++.++++++###$$$$#$$#$$$$$$$#$+++++.+++++++++++##$$$$$$$$           ",
"     ##$$$$$$$$$$$$$$$#$$$$         ##$$$$#$$#$$$$$#$$$$#$$$+++++++++##$$$$$$$$$$$$$$$#$$$$++++++++++++.##%$$$$$$#$$$$$$$       ",
"    ##$$$$#$$#$$$$$#$$$$#$$$       ##$$#$$$$$$$#$$$$$$$$$$$$$+++++.+##$$$$#$$#$$$$$#$$$$#$$$.+++++.++.###$$$$#$$#$$$$$$$#$      ",
"   ##$$#$$$$$$$#$$$$$$$$$$$$$      #$$$$$$$$$$$$$$$$$$$#$$$#$+.++++##$$#$$$$$$$#$$$$$$$$$$$$$+.++++++##$$$$$$$$$$$$$$$#$$$$     ",
"   #$$$$$$$$$$$$$$$$$$$#$$$#$     #$$$$$$$$$#$$$$$#$$#$$$$$$$$+++++#$$$$$$$$$$$$$$$$$$$#$$$#$+++++++##$$$$#$$#$$$$$#$$$$#$$$    ",
"  #$$$$$$$$$#$$$$$#$$#$$$$$$$$    #$$$$$$#$$$$#$$$$$$$$$$$$$$&++++#$$$$$$$$$#$$$$$#$$#$$$$$$$$+++++##$$#$$$$$$$#$$$$$$$$$$$$$   ",
"  #$$$$$$#$$$$#$$$$$$$$$$$$$$&    $$$$$$$$$$$$$$$$$$$$$$$$$$&&++++#$$$$$$#$$$$#$$$$$$$$$$$$$$&+++++#$$$$$$$$$$$$$$$$$$$#$$$#$   ",
"  $$$$$$$$$$$$$$$$$$$$$$$$$$&&     $$$$$$$$$$$$$$$$$$$$$$$&&&++++*$$$$$$$$$$$$$$$$$$$$$$$$$$&&+++*#$$$$$$$$$#$$$$$#$$#$$$$$$$$  ",
"   $$$$$$$$$$$$$$$$$$$$$$$&&&       =$$$$$$$$$$$$$$$$$$&&&&=-------$$$$$$$$$$$$$$$$$$$$$$$&&&-----#$$$$$$#$$$$#$$$$$$$$$$$$$$&  ",
"    =$$$$$$$$$$$$$$$$$$&&&&=       ==;>>$$$$$$$$$&&&&&&&;===--------=$$$$$$$$$$$$$$$$$$&&&&=------$$$$$$$$$$$$$$$$$$$$$$$$$$&&  ",
"   ==,>>,$$$$$$$$&&&&&&,,===       ==========;;;;===========-------==,>>,$$$$$$$$&&&&&&,,===-------$$$$$$$$$$$$$$$$$$$$$$$&&&   ",
"   ==========,,,,===========      ==>>============>>========'''''+'==========,,,,==========='''''+''=$$$$$$$$$$$$$$$$$$&&&&=    ",
"  ==>>============>>========      ==>=========>>==>========='''+++==>>============>>========'''++++==)>)$$$$$$$$$&&&&&&&>===    ",
"  ==>=========!!==>=========      ============&&============'+++++==>=========!!==>========='++++++==========)))>===========    ",
"  ============!!============       ==========&&&&==========&++++++============!!============++++++==>>============>>========    ",
"   ==========!!!!==========##      ==========&&&&==========##++++**==========!!!!==========##++++*==>=========;;==>=========    ",
"  #==========!!!!==========)#$    #)========&&&&&&========))#$    #==========!!!!==========)#$    ============,,============#   ",
"  #$========))))))========)$$$    #$)>====))))))))))====#))$$$    #$========))))))========)$$$    #==========,,,,==========)#$  ",
"  #$$$====##))))#)))====$$$$$&    #$$$)$))))))#))))))#))$$)$$&    #$$$====##))))#)))====$$$$$&    #==========))))==========$$$  ",
"  $$$$$$)$$$))$$$$)$$$$$$$$$&&    $$$$$$$))$)$$$))$))$$$$$$$&&    $$$$$$)$$$))$$$$)$$$$$$$$$&&    #$========))#)))========)$$&  ",
"   $$$$$$$$$)$$$$$$$$$$$$$&&&      $$$$$$$)$$$$$$)$$$$$$$$&&&      $$$$$$$$$)$$$$$$$$$$$$$&&&     $$$$====)$)$$$))$)====$$$$&&  ",
"     $$$$$$$$$$$$$$$$$$&&&&          $$$$$$$$$$$$$$$$$$&&&&          $$$$$$$$$$$$$$$$$$&&&&        $$$$$$$)$$$$$$)$$$$$$$$&&&   ",
"         $$$$$$$$$&&&&&&                 $$$$$$$$$&&&&&&                 $$$$$$$$$&&&&&&             $$$$$$$$$$$$$$$$$$&&&&     ",
"                                                                                                         $$$$$$$$$&&&&&&        ",
"                                                                                                                                ",
"                                                                                                                                ",
"                                                                                                                                ",
"                                                           ..++++++++                      ..++++++++                           ",
"                                                        ..@++++++.+++++++               ..@++++++.+++++++                       ",
"                                                      ...++++.++++++++++.+            ...++++.++++++++++.+                      ",
"                                                     ..+++++++++++++++.++++##$$$$$$$$..+++++++++++++++.++++##$$$$$$$$           ",
"           ##$$$$$$$$                      ##$$$$$$$$.++++.++.+++++.++++##%$$$$$$#$$$$$$$+.++.+++++.++++##%$$$$$$#$$$$$$$       ",
"        ##%$$$$$$#$$$$$$$               ##%$$$$$$#$$$$$$$++++++.++++++###$$$$#$$#$$$$$$$#$+++++.++++++###$$$$#$$#$$$$$$$#$      ",
"      ###$$$$#$$#$$$$$$$#$            ###$$$$#$$#$$$$$$$#$+++++++++++##$$$$$$$$$$$$$$$#$$$$++++++++++##$$$$$$$$$$$$$$$#$$$$     ",
"     ##$$$$$$$$$$$$$$$#$$$$          ##$$$$$$$$$$$$$$$#$$$$+.+++++.+##$$$$#$$#$$$$$#$$$$#$$$.+++++.+##$$$$#$$#$$$$$#$$$$#$$$    ",
"    ##$$$$#$$#$$$$$#$$$$#$$$        ##$$$$#$$#$$$$$#$$$$#$$$++.++++##$$#$$$$$$$#$$$$$$$$$$$$$+.++++##$$#$$$$$$$#$$$$$$$$$$$$$   ",
"   ##$$#$$$$$$$#$$$$$$$$$$$$$      ##$$#$$$$$$$#$$$$$$$$$$$$$++++++#$$$$$$$$$$$$$$$$$$$#$$$#$++++++#$$$$$$$$$$$$$$$$$$$#$$$#$   ",
"   #$$$$$$$$$$$$$$$$$$$#$$$#$      #$$$$$$$$$$$$$$$$$$$#$$$#$+++++#$$$$$$$$$#$$$$$#$$#$$$$$$$$++++#$$$$$$$$$#$$$$$#$$#$$$$$$$$  ",
"  #$$$$$$$$$#$$$$$#$$#$$$$$$$$    #$$$$$$$$$#$$$$$#$$#$$$$$$$$++++#$$$$$$#$$$$#$$$$$$$$$$$$$$&++++#$$$$$$#$$$$#$$$$$$$$$$$$$$&  ",
"  #$$$$$$#$$$$#$$$$$$$$$$$$$$&    #$$$$$$#$$$$#$$$$$$$$$$$$$$&+++*$$$$$$$$$$$$$$$$$$$$$$$$$$&&+++*$$$$$$$$$$$$$$$$$$$$$$$$$$&&  ",
"  $$$$$$$$$$$$$$$$$$$$$$$$$$&&    $$$$$$$$$$$$$$$$$$$$$$$$$$&&-----$$$$$$$$$$$$$$$$$$$$$$$&&&------$$$$$$$$$$$$$$$$$$$$$$$&&&   ",
"   $$$$$$$$$$$$$$$$$$$$$$$&&&      $$$$$$$$$$$$$$$$$$$$$$$&&&-------,$$$$$$$$$$$$$$$$$$&&&&,--------=$$$$$$$$$$$$$$$$$$&&&&     ",
"    =$$$$$$$$$$$$$$$$$$&&&&=        >$$$$$$$$$$$$$$$$$$&&&&=--------,,>>,$$$$$$$$&&&&&&&,,,,--------=!!!!$$$$$$$$&&&&&&&!!!!    ",
"   ==~~~~$$$$$$$$&&&&&&&~===        !!!>>$$$$$$$$&&&&&&&--=='''''+''=,,,,,,,,,,,,,,,,,,,,,,+'''''+''==!!!!!!!!!!!!!!!!!!!!!!    ",
"   ==========~~~~===========        !!!!!!!!!--->>------!==='''++++'==&&&,,,,,,,,,,,,,,&&&&&'''++++'===!!!!!!!!!!!!!!!!!!!!!    ",
"  ==>>============>>========        !!!!!!!!!!!!!-----======'+++++++===&&&&&&&&&&&&&&&&&&&&&'+++++++======!!!!!!!!!!!!!!!!!     ",
"  ==>=========~,==>=========-       ,!!!!!!!!!!!!!==========++++++++======&&&&&&&&&&&&&&&&&&++++++++==>>======!!!!!!!!!------   ",
"  ============--============        ,,>>,!!!!!!!!===========+++++***==>>======&&&&&&&&&&&&&;+++++***==>========-->>-------,,    ",
"   ==========--->==========         =,,,,,===,,===>>=======         ==>========&&&&&&&&;;;;;         ============>-===--,,,=    ",
"   ==========;;;;==========&       ==!============>========!         ============;;===;;;;;=        &=====================&==   ",
"    ========&&&&&&========&&       ===========!!==========!!        !=====================!==       &&==========&&==>>=======   ",
"    &&====&&&&&&&&&&====&&&&      ==>>========!!!=========!!        !!==========!!==>>=======       &&=========&&&==>=========  ",
"   ##&&&&&&&&&&&&&&&&&&&&&&##     ==>========!!!!=======!!!##      #!!=========!!!==>=========     ##&&&=======&&&&===========  ",
"  #))))))&&&&&&&&&&&&&&)))))#$    ===========!!!!!!!==!)))))#$    ###!!!=======!!!!===========    #))))))&==&&&&&&&===========  ",
"  #$)>))))))))))))))))))#))$$$    #=========))))))))))))#))$$$    #$$####!==!!!!!!!===========    #$)>))))))))))))))=========$  ",
"  #$$$)$))))))#))))))#))$$)$$&    #=======##))))#)))##))$$$$$&    #$$$$$$###########=========&    #$$$)$))))))#))))))#=======&  ",
"  $$$$$$$))$)$$$))$))$$$$$$$&&    $$======$$))$$$$)$$$$$$$$$&&    $$$$$$$$$$$$$$$$$$$$=======&    $$$$$$$))$)$$$))$))$======&&  ",
"   $$$$$$$)$$$$$$)$$$$$$$$&&&      $$$$$$$$$)$$$$$$$$$$$$$&&&      $$$$$$$$$$$$$$$$$$$======&      $$$$$$$)$$$$$$)$$$$$$$$&&&   ",
"    ,$$$$$$$$$$$$$$$$$$&&&&,        =$$$$$$$$$$$$$$$$$$&&&&=        )$$$$$$$$$$$$$$$$$$&&&&)        ,$$$$$$$$$$$$$$$$$&&&&&,    ",
"    ,,>>,$$$$$$$$&&&&&&&,,,,       ==;>>$$$$$$$$$&&&&&&&;===.+++++++;)>)$$$$$$$$$&&&&&&&>));.+++++++,,>>,$$$$$$$$$&&&&&,,,,,    ",
"    >,,,,,,,,,,,,,,,,,,,,,,=       ==========;;;;===========+++++.++;;)>))>>))))>)))>>));;;;+++++.++;,,,,,,,,,,,,,,,,,,,,,,;    ",
"     >>>>,,,,,,,,,,,,,,>>>==      ==>>============>>========+.++++++,;;;);;;));;;;);;;;;;;;=+.++++++;;>>;,,,,,,,,,,,,,,;;;;;    ",
"    >>>>>>>>>>>>>>>>>>>--===-     ==>=========&&==>=========++++++++,,>>,;;;);;;;;;;;;;,,,==++++++++=;;;;;;;;;;;;;;;;;;;;;;     ",
"    !!!>>>-->>--->>----====!      ============&&============#.+++++.>>>>>,,,,,,,,,,,,,,--===-.+++++~==~~~;;;;;;;;;;;;;;~~~~~    ",
"    !!!!!!!!!--->>----====!!      #==========&&&&==========##$+.++++!!!>>>-->>--->>---======+++.++++!===~~~~~~~~~~~~~~~~!!!!    ",
"    !!!!!!!!!!!!!----=====!!      #==========>>>>==========$$$++++++!!!!!!!!!--->>==========++++++++!====~~~~~~~~~~!!!!!!!!!    ",
"    >!!!!!!!!!!!!!!!=======>      #$========######========$$$&++++.+!!!!!!!!!!!!!===========.+++++.+!=>>==~~~~~!!!!!!!!!!!!!    ",
"     >>>>!!!!!!!!!!========       $$$$====$$$$$$$$$$====$$$$&&.+++++=!!!!!===!!===>>=======+++.+++++==>====~!!!!!!!!!!!!!!!     ",
"    !!!!!>>>>>>>>>=========!       $$$$$$$$$$$$$$$$$$$$$$$&&&++++++==)============>========)+++++++)========!!!!!!!!!!!)))))    ",
"    !!!!!!!!!!!!!==>>======!        =$$$$$$$$$$$$$$$$$$&&&&=+++++++===========))==========)&++++++++=========)))))))))))>))     ",
"    !!!!!!!!!!!!===>======!!       ==!!!!$$$$$$$$$&&&&&&!===++++++==>>========&))=========)&++++++++==========>))))))>))!!)!    ",
"    ,!!!!!!!!!!!==========!,       ==========!!!!===========+++++*==>========&&&)=======&&&&+++++***!==========!))!))!!!!!!!    ",
"    ,,>>,!!!!!!==========,,,      ==>>============>>========------===========&&&&)&&==&&&&&##-------!==========!!)!!!!!!!!!!    ",
"     ,,,,,,,,===,,,====,,,,       ==>=========!!==>=========#-----#=========&&&&&&&&&&&------$------,!==========!!!!!!!!!!!,    ",
"    )))>),,,====,,,,,,,)))))      ============~~============#$----#=======-->>--->>-------#$$$------,,>>====!!!===!!!!!,,,,,    ",
"    !)>))))=====))))))))!))!      #==========~~~~==========$$$'''+#$======###--->>------$$$$$&'''+''',,,,,,,,,,====,,,,,,,,     ",
"    !!)!))=======)))!!))!!!!      #==========~~)#==========$$&'+++$$$$$$$$$$$$$$$-----$$$$$$&&'++++'&&&&&,,,,,,=>>==,,,&&&&&    ",
"    !!!!)========!)!!!!!!!!!      $$========))$$$$========$$&&+++++$$$$$$$$$$$$$$$$$-$$$$$&&&+++++++&&&&&&&&&&==>====&&&&&&&    ",
"    =!!!=========!!!!!!!!!!        $$$====$$)$$$$$$$====$$&&&++++++++$$$$$$$$$$$$$$$$$$&&&&+++++++++&&&&&&&&&&========&&&&&&    ",
"    ==&==>>======!!!!!!&&&&&        =$$$$$$$$$$$$$$$$$$&&&&=+++++***~~~~~$$$$$$$$$&&&&&&~~~~~++++****&&&&&&&&&=========&&&&=    ",
"    &====>======&&&&&&&&&&&&       ==;>>;$$$$$$$$$&&&&&&;===        )))~~~~~~~~~~~~~~~~~~)))        ~~~~~&&&&&==========~===~   ",
"    &&==========&&&&&&&&&&&&       ==========;;;;===========        !)>))~~~~~~~~~~~))))!))!        ;;>~~~~~~~~============;    ",
"     &&========&&&&&&&&&&&&       ==>>============>>========        !!)!))!~~~~~!)))!!))!!!!        ,;;;;~~~~~~==========;;,    ",
"   ~~~~~~====&&&&&&&&&&~~~~~      ==>=========&&==>=========        !!!!)!!!~)!!!!)!!!!!!!!!        ,,>>,;;~~~~~========,,,,    ",
"   #;;>~~~~~~~~~~~~~~~~~~;;;#     ============&&============#      ##!!!!!!!)!!!!!!!!!!!!!!##      ##,,,,,,,~,,,,,====,,,,,##   ",
"  ###;;;;~~~~~~~~~~~;;;;;;;##$    #==========&&&&==========##$    #))))))!!!!!!!!!!!!!!)))))#$    ##)))>),,,,,,,,,,,,,,)))))#$  ",
"  #$$####;;~~~~~;;;;;;;####$$$    #==========&&&&==========$$$    #$)>))))))))))))))))))#))$$$    #$$)>)))))))))))))))))#))$$$  ",
"  #$$$$$$###~###########$$$$$&    #$========######========$$$&    #$$$)$))))))#))))))#))$$)$$&    #$$$)$))##))))#)))##))$$$$$&  ",
"  $$$$$$$$$$$$$$$$$$$$$$$$$$&&    $$$$====$$$$$$$$$$====$$$$&&    $$$$$$$))$)$$$))$))$$$$$$$&&    $$$$$$)$$$))$$$$)$$$$$$$$$&&  ",
"   $$$$$$$$$$$$$$$$$$$$$$$&&&      $$$$$$$$$$$$$$$$$$$$$$$&&&      $$$$$$$)$$$$$$)$$$$$$$$&&&      $$$$$$$$$)$$$$$$$$$$$$$&&&   ",
"    !$$$$$$$$$$$$$$$$$$&&&&!        ,$$$$$$$$$$$$$$$$$&&&&&,        =$$$$$$$$$$$$$$$$$&&&&&,        ,$$$$$$$$$$$$$$$$$&&&&&,    ",
"    !!!!!$$$$$$$$$&&&&&&!!!!        ,,>>,$$$$$$$$&&&&&&,,,,,.+++++++==>>,$$$$$$$$$&&&&&,,,,,.+++++++,,>>,$$$$$$$$&&&&&&,,,,,    ",
"    !!!!!!!!!!!!!!!!!!!!!!!!        ;,,,,,,,,,,,,,,,,,,,,,,;+++++.+)===,,,,,,,,,,,,,,,,,,,,)+++++.+++,,,,,,,,,,,,,,,,,,,,,,     ",
"   ##!!!!!!!!!!!!!!!!!!!!!!##       ;;>>;,,,,,,,,,,,,,,;;;;;+.++++++======,,,,,,,,,,,,,)>))++.++++++!!!!!,,,,,,,,,,,,,,!!!!!    ",
"  #))))))!!!!!!!!!!!!!!)))))#$       ;;;;;;;;;;;;;;;;;;;;;;++++++++~==>>======>))))))>))~~)~++++++++!!!!!!!!!!!!!!!!!!!!!!!!    ",
"  #$)>))))))))))))))))))#))$$$      !!!!!;;;;;;;;;;;;;;!!!!!+.+++++.==>========~))~))~~~;;;;+.+++++.!!!!!!!!!!!!!!!!!!!!!!!!    ",
"  #$$$)$))))))#))))))#))$$)$$&      !!!!!!!!!!!!!!!!!!!!!!!!+++.+++++============)~===;;;;;=+++.+++##!!!!!!!!!!!!!!!!!!!!!!##   ",
"  $$$$$$$))$)$$$))$))$$$$$$$&&      !!!!!!!!!!!!!!!!!!!!!!!!++++++++>=====================-==+++++#))))))!!!!!!!!!!!!!!)))))#$  ",
"   $$$$$$$)$$$$$$)$$$$$$$$&&&       ,!!!!!!!!!!!!!!!!!!!!!!,.+++++.+!!==========->==>>=======+++++#$)>))))))))))))))))))#))$$$  ",
"    >$$$$$$$$$$$$$$$$$$&&&&>        ,,>>,!!!!!!!!!!!!!!,,,,,++.+++++!!=========->>==>=========.+++#$$$)$))))))#))))))#))$$)$$&  ",
"     >>>>$$$$$$$$$&&&&&&>>>=       ##,,,,,,,,,,,,,,,,,,,,,,##++++++#!!!!=======!!--===========++++$$$$$$$))$)$$$))$))$$$$$$$&&  ",
"   ~~~~~~>>>>>>>>>>>>>>~~~==      ##)))>),,,,,,,,,,,,,,)))))#$++++###!!!!!==!!!!!!!===========+++++$$$$$$$)$$$$$$)$$$$$$$$&&&   ",
"    >>~~~~~~~~~~~~~~~~~~-===-     #$$)>)))))))))))))))))#))$$$++++#$$####!!!!!!!!!!!=========$++++++,$$$$$$$$$$$$$$$$$$&&&&=    ",
"    &&&>~~~~~~~~~~~---======      #$$$)$))##))))#)))##))$$$$$&+++*#$$$$$$#############=======&+++***,,>>,$$$$$$$$$&&&&&&,,==    ",
"    &&&&&&~~~~~->>==========      $$$$$$)$$$))$$$$)$$$$$$$$$&&----$$$$$$$$$$$$$$$$$$$$======&&------),,,,,,,,,,,,,,,,,,,,===    ",
"    &&&&&&&~&&&&&===========       $$$$$$$$$)$$$$$$$$$$$$$&&&------$$$$$$$$$$$$$$$$$$$$$$$&&&-------&)>)),,,,,,,,,,,,,======    ",
"    =&&&&&===&&===>>=======         =$$$$$$$$$$$$$$$$$$&&&&=--------,$$$$$$$$$$$$$$$$$$&&&&,--------&&)&))&&))))&)==========    ",
"   ==)============>========)       ==>>>>$$$$$$$$$&&&&&&>==='''''+'',,>>,$$$$$$$$$&&&&&&,,,,'''''+''&&&&)&&&))&&&===========    ",
"   ===========))==========),       ==========>>>>==========='''++++'+,,,,,,,,,,,,,,,,,,,,,,+'''++++'=&&&&&===&&===>>=======>    ",
"  ==>>========)),=========,       ==>>============>>========'+++++++!!!!!,,,,,,,,,,,,,,!!!!!'++++++==>============>========     ",
"  ==>========),,,=======&&&&      ==>=========&&==>=========++++++++!!!!!!!!!!!!!!!!!!!!!!!!+++++++===========>>==========!!    ",
"  ===========&&&&&&&==&&&&&&      ============&&============#++++***!!!!!!!!!!!!!!!!!!!!!!!!+++++*==>>========!!!=========!!    ",
"   =========&&&&&&&&&&&&&&&&#     #==========&&&&==========)#$     ##!!!!!!!!!!!!!!!!!!!!!!##     ==>========!!!!=======!!!!#   ",
"  #=======&&&&&&&&&&&&&&&&&##$    #==========))))==========$$$    #))))))!!!!!!!!!!!!!!)))))#$    ===========!!!!!!!==!!!!!##$  ",
"  #$======&&&&&&&&&&&&&####$$$    #$========))))#)========$$$&    #$)>))))))))))))))))))#))$$$    #=========!!!!!!!!!!!####$$$  ",
"  #$$$$$$###############$$$$$&    $$$$====$$))$$$$)$====$$$$&&    #$$$)$))))))#))))))#))$$)$$&    #=======##############$$$$$&  ",
"  $$$$$$$$$$$$$$$$$$$$$$$$$$&&     $$$$$$$$$)$$$$$$$$$$$$$&&&     $$$$$$$))$)$$$))$))$$$$$$$&&    $$======$$$$$$$$$$$$$$$$$$&&  ",
"   $$$$$$$$$$$$$$$$$$$$$$$&&&        $$$$$$$$$$$$$$$$$$&&&&        $$$$$$$)$$$$$$)$$$$$$$$&&&      $$$$$$$$$$$$$$$$$$$$$$$&&&   ",
"     $$$$$$$$$$$$$$$$$$&&&&              $$$$$$$$$&&&&&&             $$$$$$$$$$$$$$$$$$&&&&          $$$$$$$$$$$$$$$$$$&&&&     ",
"         $$$$$$$$$&&&&&&                                                 $$$$$$$$$&&&&&&                 $$$$$$$$$&&&&&&        ",
"                                                                                                                                ",
"                                                                                                                                "};
