/* XPM */
static char * sbBurgerB_xpm[] = {
"128 128 17 1",
" 	c None",
".	c #FFEFD5",
"+	c #FFBE71",
"@	c #FFF5D3",
"#	c #FFFFF1",
"$	c #FFD67B",
"%	c #FFFFEE",
"&	c #FFA53E",
"*	c #EB953E",
"=	c #3EE55C",
"-	c #CF6263",
";	c #FF3E7E",
">	c #FFFFFF",
",	c #6AFF3E",
"'	c #72FF3E",
")	c #A63E41",
"!	c #FFFF62",
"                                                                                                                                ",
"                                                           ..++++++++                      ..++++++++                           ",
"                                                        ..@++++++.+++++++               ..@++++++.+++++++                       ",
"                                           ##$$$$$$$$ ...++++.++++++++++.+            ...++++.++++++++++.+                      ",
"           ##$$$$$$$$                   ##%$$$$$$#$$$$$$$+++++++++++++.++++##$$$$$$$$..+++++++++++++++.++++                     ",
"        ##%$$$$$$#$$$$$$$             ###$$$$#$$#$$$$$$$#$.++.+++++.++++##%$$$$$$#$$$$$$$+.++.+++++.++++.+++                    ",
"      ###$$$$#$$#$$$$$$$#$           ##$$$$$$$$$$$$$$$#$$$$++++.++++++###$$$$#$$#$$$$$$$#$+++++.+++++++++++##$$$$$$$$           ",
"     ##$$$$$$$$$$$$$$$#$$$$         ##$$$$#$$#$$$$$#$$$$#$$$+++++++++##$$$$$$$$$$$$$$$#$$$$++++++++++++.##%$$$$$$#$$$$$$$       ",
"    ##$$$$#$$#$$$$$#$$$$#$$$       ##$$#$$$$$$$#$$$$$$$$$$$$$+++++.+##$$$$#$$#$$$$$#$$$$#$$$.+++++.++.###$$$$#$$#$$$$$$$#$      ",
"   ##$$#$$$$$$$#$$$$$$$$$$$$$      #$$$$$$$$$$$$$$$$$$$#$$$#$+.++++##$$#$$$$$$$#$$$$$$$$$$$$$+.++++++##$$$$$$$$$$$$$$$#$$$$     ",
"   #$$$$$$$$$$$$$$$$$$$#$$$#$     #$$$$$$$$$#$$$$$#$$#$$$$$$$$+++++#$$$$$$$$$$$$$$$$$$$#$$$#$+++++++##$$$$#$$#$$$$$#$$$$#$$$    ",
"  #$$$$$$$$$#$$$$$#$$#$$$$$$$$    #$$$$$$#$$$$#$$$$$$$$$$$$$$&++++#$$$$$$$$$#$$$$$#$$#$$$$$$$$+++++##$$#$$$$$$$#$$$$$$$$$$$$$   ",
"  #$$$$$$#$$$$#$$$$$$$$$$$$$$&    $$$$$$$$$$$$$$$$$$$$$$$$$$&&++++#$$$$$$#$$$$#$$$$$$$$$$$$$$&+++++#$$$$$$$$$$$$$$$$$$$#$$$#$   ",
"  $$$$$$$$$$$$$$$$$$$$$$$$$$&&     $$$$$$$$$$$$$$$$$$$$$$$&&&++++*$$$$$$$$$$$$$$$$$$$$$$$$$$&&+++*#$$$$$$$$$#$$$$$#$$#$$$$$$$$  ",
"   $$$$$$$$$$$$$$$$$$$$$$$&&&       =$$$$$$$$$$$$$$$$$$&&&&=-------$$$$$$$$$$$$$$$$$$$$$$$&&&-----#$$$$$$#$$$$#$$$$$$$$$$$$$$&  ",
"    ;$$$$$$$$$$$$$$$$$$&&&&;        ==>>$$$$$$$$$&&&&&&&====--------;$$$$$$$$$$$$$$$$$$&&&&;------$$$$$$$$$$$$$$$$$$$$$$$$$$&&  ",
"    ;;>>;$$$$$$$$&&&&&&;;;;;        >======================>--------;;>>;$$$$$$$$&&&&&&;;;;;-------$$$$$$$$$$$$$$$$$$$$$$$&&&   ",
"     ;;;;;;;;;;;;;;;;;;;;;;          >>>>==============>>>>+,,,,,+,,,;;;;;;;;;;;;;;;;;;;;;;+,,,,,+,,'$$$$$$$$$$$$$$$$$$&&&&'    ",
"    )))));;;;;;;;;;;;;;)))))        &&&&&>>>>>>>>>>>>>>&&&&&,,,++++,)))));;;;;;;;;;;;;;))))),,,++++,='>'$$$$$$$$$&&&&&&&>''=    ",
"    ))))))))))))))))))))))))        &&&&&&&&&&&&&&&&&&&&&&&&,+++++++)))))))))))))))))))))))),+++++++=='>''>>''''>'''>>''====    ",
"    ))))))))))))))))))))))))        &&&&&&&&&&&&&&&&&&&&&&&&++++++++))))))))))))))))))))))))++++++++;==='===''===='========;    ",
"   ##))))))))))))))))))))))##      ##&&&&&&&&&&&&&&&&&&&&&&##++++**##))))))))))))))))))))))##++++***;;>>;==='==========;;;;;    ",
"  ##'''>'))))))))))))))'''''#$    #''''''&&&&&&&&&&&&&&'''''#$    ##'''>'))))))))))))))'''''#$     ##;;;;;;;;;;;;;;;;;;;;;;##   ",
"  #$$'>'''''''''''''''''#''$$$    #$'>''''''''''''''''''#''$$$    #$$'>'''''''''''''''''#''$$$    #'''''';;;;;;;;;;;;;;'''''#$  ",
"  #$$$'$''##''''#'''##''$$$$$&    #$$$'$''''''#''''''#''$$'$$&    #$$$'$''##''''#'''##''$$$$$&    #$'>''''''''''''''''''#''$$$  ",
"  $$$$$$'$$$''$$$$'$$$$$$$$$&&    $$$$$$$''$'$$$''$''$$$$$$$&&    $$$$$$'$$$''$$$$'$$$$$$$$$&&    #$$$'$''''''#''''''#''$$'$$&  ",
"   $$$$$$$$$'$$$$$$$$$$$$$&&&      $$$$$$$'$$$$$$'$$$$$$$$&&&      $$$$$$$$$'$$$$$$$$$$$$$&&&     $$$$$$$''$'$$$''$''$$$$$$$&&  ",
"     $$$$$$$$$$$$$$$$$$&&&&          $$$$$$$$$$$$$$$$$$&&&&          $$$$$$$$$$$$$$$$$$&&&&        $$$$$$$'$$$$$$'$$$$$$$$&&&   ",
"         $$$$$$$$$&&&&&&                 $$$$$$$$$&&&&&&                 $$$$$$$$$&&&&&&             $$$$$$$$$$$$$$$$$$&&&&     ",
"                                                                                                         $$$$$$$$$&&&&&&        ",
"                                                                                                                                ",
"                                                                                                                                ",
"                                                                                                                                ",
"                                                           ..++++++++                      ..++++++++                           ",
"                                                        ..@++++++.+++++++               ..@++++++.+++++++                       ",
"                                                      ...++++.++++++++++.+            ...++++.++++++++++.+                      ",
"                                                     ..+++++++++++++++.++++##$$$$$$$$..+++++++++++++++.++++##$$$$$$$$           ",
"           ##$$$$$$$$                      ##$$$$$$$$.++++.++.+++++.++++##%$$$$$$#$$$$$$$+.++.+++++.++++##%$$$$$$#$$$$$$$       ",
"        ##%$$$$$$#$$$$$$$               ##%$$$$$$#$$$$$$$++++++.++++++###$$$$#$$#$$$$$$$#$+++++.++++++###$$$$#$$#$$$$$$$#$      ",
"      ###$$$$#$$#$$$$$$$#$            ###$$$$#$$#$$$$$$$#$+++++++++++##$$$$$$$$$$$$$$$#$$$$++++++++++##$$$$$$$$$$$$$$$#$$$$     ",
"     ##$$$$$$$$$$$$$$$#$$$$          ##$$$$$$$$$$$$$$$#$$$$+.+++++.+##$$$$#$$#$$$$$#$$$$#$$$.+++++.+##$$$$#$$#$$$$$#$$$$#$$$    ",
"    ##$$$$#$$#$$$$$#$$$$#$$$        ##$$$$#$$#$$$$$#$$$$#$$$++.++++##$$#$$$$$$$#$$$$$$$$$$$$$+.++++##$$#$$$$$$$#$$$$$$$$$$$$$   ",
"   ##$$#$$$$$$$#$$$$$$$$$$$$$      ##$$#$$$$$$$#$$$$$$$$$$$$$++++++#$$$$$$$$$$$$$$$$$$$#$$$#$++++++#$$$$$$$$$$$$$$$$$$$#$$$#$   ",
"   #$$$$$$$$$$$$$$$$$$$#$$$#$      #$$$$$$$$$$$$$$$$$$$#$$$#$+++++#$$$$$$$$$#$$$$$#$$#$$$$$$$$++++#$$$$$$$$$#$$$$$#$$#$$$$$$$$  ",
"  #$$$$$$$$$#$$$$$#$$#$$$$$$$$    #$$$$$$$$$#$$$$$#$$#$$$$$$$$++++#$$$$$$#$$$$#$$$$$$$$$$$$$$&++++#$$$$$$#$$$$#$$$$$$$$$$$$$$&  ",
"  #$$$$$$#$$$$#$$$$$$$$$$$$$$&    #$$$$$$#$$$$#$$$$$$$$$$$$$$&+++*$$$$$$$$$$$$$$$$$$$$$$$$$$&&+++*$$$$$$$$$$$$$$$$$$$$$$$$$$&&  ",
"  $$$$$$$$$$$$$$$$$$$$$$$$$$&&    $$$$$$$$$$$$$$$$$$$$$$$$$$&&-----$$$$$$$$$$$$$$$$$$$$$$$&&&------$$$$$$$$$$$$$$$$$$$$$$$&&&   ",
"   $$$$$$$$$$$$$$$$$$$$$$$&&&      $$$$$$$$$$$$$$$$$$$$$$$&&&-------;$$$$$$$$$$$$$$$$$$&&&&;---------$$$$$$$$$$$$$$$$$$&&&&     ",
"     $$$$$$$$$$$$$$$$$$&&&&         >$$$$$$$$$$$$$$$$$$&&&&---------;;>>;$$$$$$$$&&&&&&&;;;;--------)))))$$$$$$$$&&&&&&&))))    ",
"   !!!!!!$$$$$$$$&&&&&&&!!!!        )))>>$$$$$$$$&&&&&&&--)),,,,,+,,,;;;;;;;;;;;;;;;;;;;;;;+,,,,,+,,))))))))))))))))))))))))    ",
"    ;;!!!!!!!!!!!!!!!!!!;;;;        )))))))))--->>------)))),,,++++,&&&&&;;;;;;;;;;;;;;&&&&&,,,++++,))))))))))))))))))))))))    ",
"     ;;;!!!!!!!!!!!;;;;;;;;         )))))))))))))-----)))))),+++++++&&&&&&&&&&&&&&&&&&&&&&&&,++++++++))))))))))))))))))))))     ",
"    >>>>>;!!!!!;;;;;;;;------       ;)))))))))))))))-))))));++++++++&&&&&&&&&&&&&&&&&&&&&&&&++++++++>>>>>))))))))))))))------   ",
"    ==>>>>-!>>--->>-------==        ;;>>;))))))))))))));;;;;+++++***=&&&&&&&&&&&&&&&&&&&&&&=+++++***;;>>>>-->>--->>-------;;    ",
"     ========--->>------===          ;;;;;;;;;;;;;;;;;;;;;;         ==>>=&&&&&&&&&&&&&&=====         ;;;;;;;;--->>------;;;     ",
"    &&&&&========-----=&&&&&        )))));;;;;;;;;;;;;;)))))         ======================         &&&&&;;;;;;;;-----;&&&&&    ",
"    &&&&&&&&&&&&&&&&-&&&&&&&        ))))))))))))))))))))))))        )))))==============)))))        &&&&&&&&&&&&&&&&-&&&&&&&    ",
"    &&&&&&&&&&&&&&&&&&&&&&&&        ))))))))))))))))))))))))        ))))))))))))))))))))))))        &&&&&&&&&&&&&&&&&&&&&&&&    ",
"   ##&&&&&&&&&&&&&&&&&&&&&&##      ##))))))))))))))))))))))##      #))))))))))))))))))))))))#      ##&&&&&&&&&&&&&&&&&&&&&&##   ",
"  #''''''&&&&&&&&&&&&&&'''''#$    ##'''>'))))))))))))))'''''#$    ###))))))))))))))))))))))##$    #''''''&&&&&&&&&&&&&&'''''#$  ",
"  #$'>''''''''''''''''''#''$$$    #$$'>'''''''''''''''''#''$$$    #$$####))))))))))))))####$$$    #$'>''''''''''''''''''#''$$$  ",
"  #$$$'$''''''#''''''#''$$'$$&    #$$$'$''##''''#'''##''$$$$$&    #$$$$$$###############$$$$$&    #$$$'$''''''#''''''#''$$'$$&  ",
"  $$$$$$$''$'$$$''$''$$$$$$$&&    $$$$$$'$$$''$$$$'$$$$$$$$$&&    $$$$$$$$$$$$$$$$$$$$$$$$$$&&    $$$$$$$''$'$$$''$''$$$$$$$&&  ",
"   $$$$$$$'$$$$$$'$$$$$$$$&&&      $$$$$$$$$'$$$$$$$$$$$$$&&&      $$$$$$$$$$$$$$$$$$$$$$$&&&      $$$$$$$'$$$$$$'$$$$$$$$&&&   ",
"    ;$$$$$$$$$$$$$$$$$$&&&&;        =$$$$$$$$$$$$$$$$$$&&&&=        '$$$$$$$$$$$$$$$$$$&&&&'        ;$$$$$$$$$$$$$$$$$&&&&&;    ",
"    ;;>>;$$$$$$$$&&&&&&&;;;;        ==>>$$$$$$$$$&&&&&&&====.+++++++='>'$$$$$$$$$&&&&&&&>''=.+++++++;;>>;$$$$$$$$$&&&&&;;;;;    ",
"    >;;;;;;;;;;;;;;;;;;;;;;>        &======================&+++++.++=='>''>>''''>'''>>''====+++++.++=;;;;;;;;;;;;;;;;;;;;;;=    ",
"     >>>>;;;;;;;;;;;;;;>>>>         &&&&&==============&&&&&+.++++++;==='===''===='========;+.++++++==>>=;;;;;;;;;;;;;;=====    ",
"    >>>>>>>>>>>>>>>>>>>------       &&&&&&&&&&&&&&&&&&&&&&&&++++++++;;>>;==='==========;;;;;+++++++++======================     ",
"    )))>>>-->>--->>-------))       #>&&&&&&&&&&&&&&&&&&&&&&>#.+++++.>>>>>;;;;;;;;;;;;;;------.+++++!!!!!!==============!!!!!    ",
"    )))))))))--->>------))))      ###>>>>&&&&&&&&&&&&&&>>>>##$+.++++)))>>>-->>--->>-------))+++.++++))!!!!!!!!!!!!!!!!!!))))    ",
"    )))))))))))))-----))))))      #$$####>>>>>>>>>>>>>>####$$$++++++)))))))))--->>------))))++++++++))))!!!!!!!!!!!)))))))))    ",
"    >)))))))))))))))-))))))>      #$$$$$$###############$$$$$&++++.+)))))))))))))-----)))))).+++++.+))))))!!!!!)))))))))))))    ",
"     >>>>))))))))))))))>>>>       $$$$$$$$$$$$$$$$$$$$$$$$$$&&.++++++)))))))))))))))-))))))+++.++++++))))))!)))))))))))))))     ",
"    )))))>>>>>>>>>>>>>>)))))       $$$$$$$$$$$$$$$$$$$$$$$&&&++++++''''''))))))))))))))'''''+++++++''''''))))))))))))))'''''    ",
"    ))))))))))))))))))))))))        )$$$$$$$$$$$$$$$$$$&&&&)++++++++'>''''''''''''''''''&''&++++++++'>''''''''''''''''''>''     ",
"    ))))))))))))))))))))))))        )))))$$$$$$$$$&&&&&&))))++++++++&&'&''''''&''''''&''&&'&++++++++))')''''''>''''''>''))')    ",
"    ;))))))))))))))))))))));        ))))))))))))))))))))))))+++++***&&&&&''&'&&&''&''&&&&&&&+++++***)))))'')')))'')'')))))))    ",
"    ;;>>;))))))))))))));;;;;         ))))))))))))))))))))))--------##&&&&&'&&&&&&'&&&&&&&&&##-------))))))'))))))'))))))))))    ",
"     ;;;;;;;;;;;;;;;;;;;;;;        !!!!!!))))))))))))))!!!!!#-----##>>>>>&&&&&&&&&&&&&&------$------;))))))))))))))))))))));    ",
"    '''>';;;;;;;;;;;;;;'''''      ##''!!!!!!!!!!!!!!!!!!''''#$----#$$##>>>-->>--->>-------#$$$------;;>>;))))))))))))));;;;;    ",
"    )'>''''''''''''''''')'')      #$$'>'!!!!!!!!!!!'''''#''$$$,,,+#$$$$$$####--->>------$$$$$&,,,+,,,;;;;;;;;;;;;;;;;;;;;;;     ",
"    ))')''))'''')'''))''))))      #$$$'$''!!!!!'#'''##''$$$$$&,+++$$$$$$$$$$$$$$$-----$$$$$$&&,++++,&&&&&;;;;;;;;;;;;;;&&&&&    ",
"    ))))')))''))))')))))))))      $$$$$$'$$!''$$$$'$$$$$$$$$&&+++++$$$$$$$$$$$$$$$$$-$$$$$&&&+++++++&&&&&&&&&&&&&&&&&&&&&&&&    ",
"     )))))))'))))))))))))))        $$$$$$$$$'$$$$$$$$$$$$$&&&++++++++$$$$$$$$$$$$$$$$$$&&&&+++++++++&&&&&&&&&&&&&&&&&&&&&&&&    ",
"    &&&&&))))))))))))))&&&&&        =$$$$$$$$$$$$$$$$$$&&&&=+++++***!!!!!$$$$$$$$$&&&&&&!!!!!++++****&&&&&&&&&&&&&&&&&&&&&&     ",
"    &&&&&&&&&&&&&&&&&&&&&&&&        ==>>=$$$$$$$$$&&&&&&====        '''!!!!!!!!!!!!!!!!!!'''        !!!!!&&&&&&&&&&&&&&&!!!!!   ",
"    &&&&&&&&&&&&&&&&&&&&&&&&         ======================         )'>''!!!!!!!!!!!'''')'')        ==>!!!!!!!!!!!!!!!!!!===    ",
"     &&&&&&&&&&&&&&&&&&&&&&         &&&&&==============&&&&&        ))')'')!!!!!)'''))''))))        ;====!!!!!!!!!!!=======;    ",
"   !!!!!!&&&&&&&&&&&&&&!!!!!        &&&&&&&&&&&&&&&&&&&&&&&&        ))))')))!'))))')))))))))        ;;>>;==!!!!!=======;;;;;    ",
"   #==>!!!!!!!!!!!!!!!!!!===#      #&&&&&&&&&&&&&&&&&&&&&&&&#      ##)))))))'))))))))))))))##      ##;;;;;;;!;;;;;;;;;;;;;;##   ",
"  ###====!!!!!!!!!!!=======##$    ###&&&&&&&&&&&&&&&&&&&&&&##$    #''''''))))))))))))))'''''#$    ##'''>';;;;;;;;;;;;;;'''''#$  ",
"  #$$####==!!!!!=======####$$$    #$$####&&&&&&&&&&&&&&####$$$    #$'>''''''''''''''''''#''$$$    #$$'>'''''''''''''''''#''$$$  ",
"  #$$$$$$###!###########$$$$$&    #$$$$$$###############$$$$$&    #$$$'$''''''#''''''#''$$'$$&    #$$$'$''##''''#'''##''$$$$$&  ",
"  $$$$$$$$$$$$$$$$$$$$$$$$$$&&    $$$$$$$$$$$$$$$$$$$$$$$$$$&&    $$$$$$$''$'$$$''$''$$$$$$$&&    $$$$$$'$$$''$$$$'$$$$$$$$$&&  ",
"   $$$$$$$$$$$$$$$$$$$$$$$&&&      $$$$$$$$$$$$$$$$$$$$$$$&&&      $$$$$$$'$$$$$$'$$$$$$$$&&&      $$$$$$$$$'$$$$$$$$$$$$$&&&   ",
"    )$$$$$$$$$$$$$$$$$$&&&&)        ;$$$$$$$$$$$$$$$$$&&&&&;        ;$$$$$$$$$$$$$$$$$&&&&&;        ;$$$$$$$$$$$$$$$$$&&&&&;    ",
"    )))))$$$$$$$$$&&&&&&))))        ;;>>;$$$$$$$$&&&&&&;;;;;.+++++++;;>>;$$$$$$$$$&&&&&;;;;;.+++++++;;>>;$$$$$$$$&&&&&&;;;;;    ",
"    ))))))))))))))))))))))))        =;;;;;;;;;;;;;;;;;;;;;;=+++++.+'';;;;;;;;;;;;;;;;;;;;;;'+++++.+++;;;;;;;;;;;;;;;;;;;;;;     ",
"   ##))))))))))))))))))))))##       ==>>=;;;;;;;;;;;;;;=====+.++++++'>''';;;;;;;;;;;;;;'>''++.++++++)))));;;;;;;;;;;;;;)))))    ",
"  #''''''))))))))))))))'''''#$       ======================++++++++!!!'!''''''>''''''>''!!'!++++++++))))))))))))))))))))))))    ",
"  #$'>''''''''''''''''''#''$$$      )))))==============)))))+.+++++.==!!!''!'!!!''!''!!!====+.+++++.))))))))))))))))))))))))    ",
"  #$$$'$''''''#''''''#''$$'$$&      ))))))))))))))))))))))))+++.+++++===!!'!!!!!!'!========++++.+++##))))))))))))))))))))))##   ",
"  $$$$$$$''$'$$$''$''$$$$$$$&&      ))))))))))))))))))))))))++++++++>>>>>=!!!!!========------+++++#''''''))))))))))))))'''''#$  ",
"   $$$$$$$'$$$$$$'$$$$$$$$&&&       ;))))))))))))))))))))));.+++++.+)))>>>-!>>--->>-------)).+++++#$'>''''''''''''''''''#''$$$  ",
"    >$$$$$$$$$$$$$$$$$$&&&&>        ;;>>;))))))))))))));;;;;++.+++++)))))))))--->>------))))++.+++#$$$'$''''''#''''''#''$$'$$&  ",
"     >>>>$$$$$$$$$&&&&&&>>>        ##;;;;;;;;;;;;;;;;;;;;;;##++++++#)))))))))))))-----))))))#+++++$$$$$$$''$'$$$''$''$$$$$$$&&  ",
"   !!!!!!>>>>>>>>>>>>>>!!!!!      ##'''>';;;;;;;;;;;;;;'''''#$++++###)))))))))))))))-))))))##$+++++$$$$$$$'$$$$$$'$$$$$$$$&&&   ",
"    >>!!!!!!!!!!!!!!!!!!-----     #$$'>'''''''''''''''''#''$$$++++#$$####))))))))))))))####$$$++++++;$$$$$$$$$$$$$$$$$$&&&&;    ",
"    &&&>!!!!!!!!!!!-------&&      #$$$'$''##''''#'''##''$$$$$&+++*#$$$$$$###############$$$$$&+++***;;>>;$$$$$$$$$&&&&&&;;;;    ",
"    &&&&&&!!!!!->>------&&&&      $$$$$$'$$$''$$$$'$$$$$$$$$&&----$$$$$$$$$$$$$$$$$$$$$$$$$$&&------';;;;;;;;;;;;;;;;;;;;;;'    ",
"    &&&&&&&!&&&&&-----&&&&&&       $$$$$$$$$'$$$$$$$$$$$$$&&&------$$$$$$$$$$$$$$$$$$$$$$$&&&-------&'>'';;;;;;;;;;;;;;'&''&    ",
"     &&&&&&&&&&&&&&&-&&&&&&         >$$$$$$$$$$$$$$$$$$&&&&>--------;$$$$$$$$$$$$$$$$$$&&&&;--------&&'&''&&''''&'''&&''&&&&    ",
"    '''>'&&&&&&&&&&&&&&'''''         >>>>$$$$$$$$$&&&&&&>>>+,,,,,+,,;;>>;$$$$$$$$$&&&&&&;;;;,,,,,+,,&&&&'&&&''&&&&'&&&&&&&&&    ",
"    ;'>''''''''''''''''';'';        &&&&&>>>>>>>>>>>>>>&&&&&,,,++++,+;;;;;;;;;;;;;;;;;;;;;;+,,,++++,>&&&&&&&'&&&&&&&&&&&&&&>    ",
"     ;';'';;'''';''';;'';;;         &&&&&&&&&&&&&&&&&&&&&&&&,+++++++)))));;;;;;;;;;;;;;))))),++++++++>>>>&&&&&&&&&&&&&&>>>>     ",
"    &&&&';;;'';;;;';;;;&&&&&        &&&&&&&&&&&&&&&&&&&&&&&&++++++++))))))))))))))))))))))))++++++++)))))>>>>>>>>>>>>>>)))))    ",
"    &&&&&&&&'&&&&&&&&&&&&&&&       ##&&&&&&&&&&&&&&&&&&&&&&##++++***))))))))))))))))))))))))+++++***))))))))))))))))))))))))    ",
"   #&&&&&&&&&&&&&&&&&&&&&&&&#     ##'''>'&&&&&&&&&&&&&&'''''#$     ##))))))))))))))))))))))##      #))))))))))))))))))))))))#   ",
"  ###&&&&&&&&&&&&&&&&&&&&&&##$    #$$'>'''''''''''''''''#''$$$    #''''''))))))))))))))'''''#$    ###))))))))))))))))))))))##$  ",
"  #$$####&&&&&&&&&&&&&&####$$$    #$$$'$''##''''#'''##''$$$$$&    #$'>''''''''''''''''''#''$$$    #$$####))))))))))))))####$$$  ",
"  #$$$$$$###############$$$$$&    $$$$$$'$$$''$$$$'$$$$$$$$$&&    #$$$'$''''''#''''''#''$$'$$&    #$$$$$$###############$$$$$&  ",
"  $$$$$$$$$$$$$$$$$$$$$$$$$$&&     $$$$$$$$$'$$$$$$$$$$$$$&&&     $$$$$$$''$'$$$''$''$$$$$$$&&    $$$$$$$$$$$$$$$$$$$$$$$$$$&&  ",
"   $$$$$$$$$$$$$$$$$$$$$$$&&&        $$$$$$$$$$$$$$$$$$&&&&        $$$$$$$'$$$$$$'$$$$$$$$&&&      $$$$$$$$$$$$$$$$$$$$$$$&&&   ",
"     $$$$$$$$$$$$$$$$$$&&&&              $$$$$$$$$&&&&&&             $$$$$$$$$$$$$$$$$$&&&&          $$$$$$$$$$$$$$$$$$&&&&     ",
"         $$$$$$$$$&&&&&&                                                 $$$$$$$$$&&&&&&                 $$$$$$$$$&&&&&&        ",
"                                                                                                                                ",
"                                                                                                                                "};
