/* XPM */
static char * sbKaeseS_xpm[] = {
"128 128 7 1",
" 	c None",
".	c #000000",
"+	c #FFF924",
"@	c #F4C013",
"#	c #FFFFFF",
"$	c #FFE770",
"%	c #B7900E",
"                                                                                                                                ",
"                                                                                                                                ",
"                                                                                                                                ",
"                                                                                                                                ",
"                                                                                                                                ",
"                                                                                                                                ",
"                                                                                                                                ",
"                                                                                            ..                                  ",
"       ..                                                    ..                            ....                                 ",
"      ....                             ..                 ++....       ...    +++++      +..++                                  ",
"     ..+++++++                        .... +++++  ++++++++++..+++++ ++...++ +++++++++++++...+++++   ..  +++++++   +++           ",
"   ++..+++++++++++++++     ..         ..++++++++++++++++++++..+++++++++.++++++++++++++......++++++++...+++++++++++++++++++      ",
"    ..++++++++++++++++++++....       ..++++++++++++++++++++..+++++++++++++++++++++..........++++++++......+++++++++++++++++     ",
"    ..@+++++++++++++++++++..++.      ..++++++++++++++++++++..++++++++++++++++++++...........++++++++..##......+++++++++++++     ",
"  @..$$$@++++++++++++++++..++++     ..++++++++++++++++++++...+++++++.+++++...++...##.......+++++++++..#........+++++++++++..    ",
" @@..$@@@@+++++++++++++@@..@@@.     ..........@@@+...........++++++..+............#........++++++++++............++...@@@@@.    ",
" @..@@@@@@@@++++++@@@@@@...@@@@    ..##............##........++++++...........++..........+++++++++++.....................@..   ",
" @..........@++@...........@@@@    ..#.........@@..#.........+++++..##........+++.........@@@@+++++@@@..........@@..##.......   ",
" ..##............##........@@@@    ............@@............@@@@@..#........@@@@.......@@@@@@@@@@@@@@.........@@@..#.........  ",
" ..#.........@@..#.........@@@      ..........@@@%..........@@@@@%...........@@@@%%@..@@@@@@@@@@@%%@@@@@.......@@%%...........  ",
" ............@@............@@%      ..........@%%%..........@@@%%%@.........@@@%%%@@@@@@@@@@@@@%%%@@@@@@@@..@@@%%%@...........  ",
"  ..........@@@@..........@@%        ........%%%%@@........@@%%%%@@.......@@@%%%%@@@@@@@@@@@@%%%%@@@@@@@@@@@@%%%%@@@.........   ",
"  ..........@@@@..........%%          @....%%%%%@@@@@....@@%%%%%@@@@......@%%%%%@@@@@@@@@@@%%%%%@@@@@@@@@@@%%%%%@@@@@@.......   ",
"   ........@@@%%%........%               %%%%%@@@@@@@@@@@%%%%%@@@@@@@@@@@%%%%%@@@@@@@@@@@%%%%%@@@@@@@@@@@%%%%%@@@@@@@%......    ",
"     ....@@@@    @@....                      @@@@@@@@@@@     @@@@@@@@@@@     @@@@@@@@@@@     @@@@@@@@@@@     @@@@@@%%           ",
"                                                                                                                                ",
"                                                                                                                                ",
"                                                                                                                                ",
"                                                                                                                                ",
"                                                                                                                                ",
"                                                                                                                                ",
"                                                                                                                                ",
"                                                                                                                                ",
"                                                                                                                                ",
"                                                                                                                                ",
"                                                                                                                                ",
"                                                                                                                                ",
"                                                                                                                                ",
"                                                                                                                                ",
"       ..                                                                                                                       ",
"      ....                                                   ..                           ..                                    ",
"      .....                            ..                 ++....              +++++      ...++      ..                          ",
"     ..+++++++                        .... +++++  ++++++++++..+++++    ++++ ++++++++++......+++++  .... +++++++   +++    ..     ",
"   ++..+++++++++++++++     ..         ..++++++++++++++++++++..++++++ ..+++++++++++..........+++++++..++++++++++++++++++++...    ",
"    ..++++++++++++++++++++....       ..++++++++++++++++++++..+++++++..+++++++++++...........++++++..++++++++++++++++++++..+.    ",
"    ..++++++++++++++++++++..++.      ..++++++++++++++++++++..+++++++.+++++...++...##.......+++++++..++++++++++++++++++++..++    ",
"  @..++++++++++++++++++++..++++     ..++++++++++++++++++++...++++++..+............#........++++++..++++++++++++++++++++...+++   ",
" @@..++++++++++++++++++++..+@@.     ..........++++...........++++++...........++..........+++++++..........++++...........+++   ",
" @..@++++@+@++++++++++++...@@@@    ..##............##........+++++..##........+++.........++++++..##............##........@++   ",
" @..........++++...........@@@@    ..#.........++..#.........+++++..#........++++.......+++@@@++..#.........++..#.........@@    ",
" ..##............##........@@@@    ............+@............++@@+...........+@@++++..+@+@+@@@@@............+@............@@    ",
" ..#.........++..#.........@@@      ..........+@@%..........+@@@@%+.........++@@+++@+++@++@@@@@@@..........@+@@..........@@%    ",
" ............++............@@%      ..........+%%%..........@@@%%%+.......++++@+++++++++++@@@@@%%..........@+@@..........@%     ",
"  ..........++@+..........@@%        ........+%%%@@........@@%%%%@@+......+@++%+++++++++++@@@%%%%@........@++%%%........@%      ",
"  ..........@+@+..........%%          @....%+%%%@@@++....+@%%%%%@@@+++++++@++%++@+++@++++@@%%%%%@@@@....@+@+%%%%@@....@+%       ",
"   ........+@+%++........%              +++%+%@@@@@@++++++%%%%@@@@@@+++++++++%+@@@++@+@++%%%%%@@@@@@++@+++%+%%@@@@@+++++        ",
"     ....@+@++ ++++....+                ++++ @@@@@@@+@+@++   @@@@@@@++++++++ ++@@@@+@+@++    @@@@@@@@+++++ + @@@@@@%++++        ",
"       ++ + ++  ++++ +++                ++++        +++ +           ++++++++ +     + + ++            ++ ++ +        ++++        ",
"       ++++ ++  +++  +++                ++++        +++++            ++++++ ++     + +++              + ++++        ++++        ",
"       ++++ +   ++   +++                + +          ++++              + ++ +      +++++              ++++++         +++        ",
"       ++ +++   ++   +++                +++          ++++              ++++++       + ++               + +++         +++        ",
"        + +++   ++   +++                +++          + +                +++++       + ++               + +++         +++        ",
"        + ++     +   +++                + +          + +                ++ ++       + ++               +++++         +++        ",
"        + ++         +++                +++          +++                ++ +        ++++                + ++         +++        ",
"        + ++         +++                + ++         +++                ++ +        ++++                + ++         +++        ",
"        + ++         +++                ++++         +++                ++++        ++ +                + ++         +++        ",
"        ++++        ++++                ++++         +++                ++++        ++ +               +++++         +++        ",
"        ++++        ++++                ++++         +++                ++ +        ++ +               ++++++       ++++        ",
"        ++ +        + ++                 ++          + +                ++ ++       ++ ++              + ++++       ++++        ",
"        ++ +        + ++                             + +               ++ +++      +++ ++             ++ ++ +       ++++        ",
"       +++ ++      ++  ++                            +++               ++ +++      ++++ +             +++++ +        +++        ",
"       + + ++      ++  ++                            +++               ++++ ++    ++ ++ ++           ++ + + ++        +         ",
"      ++ +  ++     +++ ++                            +++    ..        +++++  +    ++ ++ ++ ..       +++ + + ++                  ",
"      +  +  ++    ++ +.++.                          +++++ +..++    .. ++++ + +++++++ ++  +..++     +++..+ +  ++                 ",
"     +++++++++    ++.+.+..                 +++++  ++++++++...+++++..+++++++++++++++++++++..++++++ +++....++++++   +++           ",
"   +++++++++++++++++++ ...              +++++++++++++++......++++..++++++++++++++++++++....++++++++++.##..++++++++++++++++      ",
"    ++++++++++++++++......++           ++++++++++++..........++++..........++++...........++++++++++..#....++++++++++++++++     ",
"   .@+++++++++++..........++++        ++++++++++++...........+++..##............##........++++++++++........++++++++++++++++    ",
"  ..$++++++++++...........+++++      .+++++...++...##.......++++..#.........++..#.........++++++++++.........+++++++++++++++    ",
" ..$$+++...++...##.......++++@      ..+............#........++++............++............++++++++++..........++++++++++++++    ",
" ..$............#........++++@@     ...........@+..........++++++..........++++..........++++++++++++..........++@@++++++++@    ",
" ...........++..........+++++@@    ..##........+++.........++++++..........++++..........+@@+++++++++..........+@@@+++++++@@    ",
"..##........+++.........@@++@@@    ..#........@+++.......@+++@@@@@........+++++@........++@+++@@@@@@++..........@@@@+++++@@@    ",
"..#........++++.......++@@++@@     ...........++@++++..++++@@@@@@%%@....++++++@@@%....+++@@++@@@@%%@@+++....+@+...%@+++++@@%    ",
"...........+++++++..%@+@@@++@%      .........++%%%++++++@+@@@@@%%%@@++++++++++@%%%++@++++@++@@@%%%@@@++++++++++....@@++++@%     ",
" .........++++++++++@@+@@+++%       .......@+%+%%@+++@+@+@@@@%%%%@@@+++++++@++%%%@@+@++++@+@@%%%%@@@@@++@+++++%.##..@++++%      ",
" .......++++++++++++@@+@@++%         ......%++%%@@@++@+++@@%%%%%@@@@@++++++%+%%%@@@+@+++@++%%%%%@@@@@@++++@+++..#....++++       ",
"  ......++++@++++++++@+%+++            +++++++@@@@@++@++@%%%%%@@@@@@@++@+++%+%@@@@@+@+++++%%%%@@@@@@@@++++%++%........+++       ",
"       ++++@@ +++++@+@+ ++             +++++ +@@@@@++@++     @@@@@@@@@++ ++ +@@@@@@+++++++   @@@@@@@@@@+++ ++@.........++       ",
"       ++++   +++++ +++ ++             +++++ +     +++++              ++ + ++       +++++              +++ ++ ..........        ",
"       +++++  +++++  +++++             +++ ++       +++               ++ + +        +++++              +++ ++  ..........       ",
"       +++++ +++++   ++++              ++++++       +++                +++ +        ++++               +++ ++  ..........       ",
"       +++++++++++   ++++              ++++++        ++                +++ +         +++               + ++++   ........        ",
"        ++++++ ++    ++++              ++ +++        ++                +++++         +++                ++++      ....++        ",
"        +++++        +++                + ++         ++                +++++         + +                + ++         +++        ",
"        ++++         +++                + ++         ++                 ++++         +++                + ++         +++        ",
"        ++++         +++                ++++         +++                + ++         +++                + ++         +++        ",
"        ++++         +++                ++++         + +                + ++         +++                + ++          +         ",
"        +++          + +                ++++         + +                + ++         +++                + ++                    ",
"         ++          +++                ++++         + +                ++++         +++                + ++                    ",
"                     +++                ++++         + +               ++ ++        +++++               + ++                    ",
"                    ++++                 +++        ++ +               ++ +++       +++ +               + ++                    ",
"                    ++++                  ++        +  +               ++++ +      ++ + ++              + +++                   ",
"                   ++ ++                  ++        +  ++    ..      ..++++ +      ++ ++ +             +  ++++                  ",
"                  +++ ++                  ++        +  ++   ....    ....+++ +      ++  + +             +  +++++                 ",
"      ..        ++++  +++                ++ +      ++  ++ +...+.    .##..+++ ++++++++  + +++++      .. + + ++ +                 ",
"     +...++++++++++  ++ +                +++++++  ++++++++...++++++..#....+++++++++++++++++++++++   ..+++++++++   +++           ",
"   +++......+++++++++++ +               +++++++++++++++......++++++........+++++++++++++++++++++++++...+++++++++++++++++++      ",
"    ++..##......++++++++++++..         ++++++++++++..........++++++.........++++++++++++++++++++++++......+++++++++++++++++     ",
"    @@..#........+++++++++++..        ++++++++++++...........++++++..........+++++++++++++++++++++++..##......+++++++++++++     ",
"  @@$$$............++...+++++..      .+++++...++...##.......++++++++..........++++++++++++++++++++++..#........+++++++++++..    ",
" @@$$$@.....................@..     ..@............#........++++++++..........+++++++++++++++++++++++............++...@@@@@.    ",
" @$$@@@@..........@@..##........    ...........@@..........++++++++++..........++++++++++++++++++++++.....................@..   ",
" @$@@@@@.........@@@..#.........   ..##........@@@.........++++++++@@@@....+++...++++++@@@@@@@+++++@@@..........@@..##.......   ",
" @@@@@@@@@.......@@@@...........   ..#........@@@@.......@@@@@@@@@@@@@@@@@@@@@....@@@@@@@@@@@@@@@@@@@@.........@@@..#.........  ",
"  @@@@@@@@@%..@@@@@@@...........   ...........@@@%%@@..@@@@@@@@@@%%@@@@@@@@@@@.##..@@@@@@@@@@@@@@%%@@@@@.......@@%%...........  ",
"  @@@@@@@%%%@@@@@@@%%@.........     .........@@%%%@@@@@@@@@@@@@%%%@@@@@@@@@@@..#....@@@@@@@@@@@%%%@@@@@@@@..@@@%%%@...........  ",
"   @@@@%%%%@@@@@@@%%@@@@.......     .......@@%%%%@@@@@@@@@@@@%%%%@@@@@@@@@@@@........@@@@@@@@%%%%@@@@@@@@@@@@%%%%@@@.........   ",
"     %%%%@@@@@@@%%%@@@@@......       ......%%%%%@@@@@@@@@@@%%%%%@@@@@@@@@@@%%.........@@@@@%%%%%@@@@@@@@@@@%%%%%@@@@@@.......   ",
"       @@@@@@@%%%%%@@@@%%%               %%%%%@@@@@@@@@@@%%%%%@@@@@@@@@@@%%%%..........@@%%%%%@@@@@@@@@@@%%%%%@@@@@@@%......    ",
"         @@@@    @@@@@                       @@@@@@@@@@@     @@@@@@@@@@@     @...........    @@@@@@@@@@@     @@@@@@%%           ",
"                                                                              ..........                                        ",
"                                                                               ........                                         ",
"                                                                                 ....                                           ",
"                                                                                                                                ",
"                                                                                                                                ",
"                                                                                                                                ",
"                                                                                                                                "};
