/* XPM */
static char * sbKaese_xpm[] = {
"128 128 5 1",
" 	c None",
".	c #FFF924",
"+	c #F4C013",
"@	c #FFE770",
"#	c #B7900E",
"                                                                                                                                ",
"                                                                                                                                ",
"                                                                                                                                ",
"                                                                                                                                ",
"                                                                                                                                ",
"                                                                                                                                ",
"                                                                                                                                ",
"                                                                                                                                ",
"                                                                                                                                ",
"                                                          .....               .....      .....                                  ",
"     .........                             .....  ................. ....... .....................       .......   ...           ",
"   ...................                  ..................................................................................      ",
"    ........................           ....................................................................................     ",
"    +++.......................        .....................................................................................     ",
"  ++@@@@+......................       ....................................................................................      ",
" ++@@@++++.............+++++++       ++@......+++.....................................................................+++++     ",
" +@@++++++++......+++++++++++++     ++@@@+++++++++++.............................................................+++++++++++    ",
" +@++++++++++..++++++++++++++++     +@@+++++++++++++++++...........+++++++.............+++++++.....++++++......+++++++++++++    ",
" ++++++++++++#+++++++++++++++++     +@++++++++++++++++++++++++++++++++++++++++++++++++++++++++++++++++++++++++++++++++++++++    ",
"  +++++++++##++++++++#++++++++      +++++++++++++##++++++++++++++##++++++++++++++##++++++++++++++##++++++++++++++##++++++++#    ",
"  +++++++###+++++++##++++++++#       ++++++++++###+++++++++++++###+++++++++++++###+++++++++++++###+++++++++++++###++++++++#     ",
"   ++++####+++++++##++++++++#        ++++++++####++++++++++++####++++++++++++####++++++++++++####++++++++++++####++++++++#      ",
"     ####+++++++###+++++++##          +++++#####+++++++++++#####+++++++++++#####+++++++++++#####+++++++++++#####+++++++##       ",
"       +++++++#####++++###               #####+++++++++++#####+++++++++++#####+++++++++++#####+++++++++++#####+++++++##         ",
"         ++++    +++++                       +++++++++++     +++++++++++     +++++++++++     +++++++++++     ++++++##           ",
"                                                                                                                                ",
"                                                                                                                                ",
"                                                                                                                                ",
"                                                                                                                                ",
"                                                                                                                                ",
"                                                                                                                                ",
"                                                                                                                                ",
"                                                                                                                                ",
"                                                                                                                                ",
"                                                                                                                                ",
"                                                                                                                                ",
"                                                                                                                                ",
"                                                                                                                                ",
"                                                                                                                                ",
"                                                                                                                                ",
"                                                                                                                                ",
"                                                          .....               .....      .....                                  ",
"     .........                             .....  ................. ....... .....................       .......   ...           ",
"   ...................                  ..................................................................................      ",
"    ........................           ....................................................................................     ",
"    +.........................        ......................................................................................    ",
"  ++@..........................      ........................................................................................   ",
" ++@@.......................++       +.......................................................................................   ",
" +@@+....+.+...............++++     ++.......+.+..........................................................................+..   ",
" +@++....+.+..............+++++     +@@.+...+.+.......+....................................+++.................+.........+++    ",
" +++++...+.+..............+++++     +@+..+......++.............++.............++.......+.+.++++++.........++.++++........+++    ",
"  ++++.....##.............++++      +++.....+..++##..........++++#............++...+...+..+++++++#......+.++.++++#....+..++#    ",
"  ++++....##..............+++#       ++........###+........++++###............+...........+++++###+.....+.++.++###....+.++#     ",
"   +++....#+..+.......+..+++#        +++..+.+.###++.....+.+++####++........+..#...........+++####++..+..+.+..####+....+.+#      ",
"     ##...+.+.+.......+..+##          ++...#.###+++.......+#####+++.......+..#..+...+....++#####++++..+.+.+.####+++...+.#       ",
"       ..+..+.#.....+.+..#              ...#.#++++++......####++++++.........#.+++..+.+..#####++++++..+...#.##+++++.....        ",
"       ..+.+.. .....+...                .... +++++++.+.+..   +++++++........ ..++++.+.+..    ++++++++..... . ++++++#....        ",
"       .. . ..  .... ...                ....        ... .           ........ .     . . ..            .. .. .        ....        ",
"       .... ..  ...  ...                ....        .....            ...... ..     . ...              . ....        ....        ",
"       .... .   ..   ...                . .          ....              . .. .      .....              ......         ...        ",
"       .. ...   ..   ...                ...          ....              ......       . ..               . ...         ...        ",
"        . ...   ..   ...                ...          . .                .....       . ..               . ...         ...        ",
"        . ..     .   ...                . .          . .                .. ..       . ..               .....         ...        ",
"        . ..         ...                ...          ...                .. .        ....                . ..         ...        ",
"        . ..         ...                . ..         ...                .. .        ....                . ..         ...        ",
"        . ..         ...                ....         ...                ....        .. .                . ..         ...        ",
"        ....        ....                ....         ...                ....        .. .               .....         ...        ",
"        ....        ....                ....         ...                .. .        .. .               ......       ....        ",
"        .. .        . ..                 ..          . .                .. ..       .. ..              . ....       ....        ",
"        .. .        . ..                             . .               .. ...      ... ..             .. .. .       ....        ",
"       ... ..      ..  ..                            ...               .. ...      .... .             ..... .        ...        ",
"       . . ..      ..  ..                            ...               .... ..    .. .. ..           .. . . ..        .         ",
"      .. .  ..     ... ..                            ...              .....  .    .. .. ..          ... . . ..                  ",
"      .  .  ..    .. . ..                           ..... .....       .... . ....... ..  .....     ...  . .  ..                 ",
"     .........    .. . ..                  .....  ................. ............................. .... ........   ...           ",
"   ................... ...              ..................................................................................      ",
"    ........................           ....................................................................................     ",
"    +.........................        ......................................................................................    ",
"  ++@..........................       ......................................................................................    ",
" ++@@........................+       +......................................................................................    ",
" +@@++.......................++     ++@........+...+.............................................................++........+    ",
" +@+++.......................++     +@@...................................................++....................+++.......++    ",
" +++++............+++...++..+++     +@+.+...+.+..........+...++++++............+++........+...++++++......+.....++++.....+++    ",
"  ++++.............++...++..++      +++.....+...+..........++++++##+..........+++#.......++..++++##++.....+..+.++##+.....++#    ",
"  ++++..............#+.+++..+#       ++........###......+.+++++###++..........+###..+....+..+++###+++..........###+++....+#     ",
"   +++..............++.++...#        ++....+.#.##+...+.+.++++####+++.......+..###++.+....+.++####+++++..+.....###++++....#      ",
"     #..............++.++..#          +....#..##+++..+...++#####+++++......#.###+++.+...+..#####++++++....+...##+++++....       ",
"       .....+........+.#...            .......+++++..+..+#####+++++++..+...#.#+++++.+.....####++++++++....#..#+++++++#...       ",
"       ....++ .....+.+. ..             ..... .+++++..+..     +++++++++.. .. .++++++.......   ++++++++++... ..++++++## ...       ",
"       ....   ..... ... ..             ..... .     .....              .. . ..       .....              ... ..         ..        ",
"       .....  .....  .....             ... ..       ...               .. . .        .....              ... ..         ..        ",
"       ..... .....   ....              ......       ...                ... .        ....               ... ..         ..        ",
"       ...........   ....              ......        ..                ... .         ...               . ....         ..        ",
"        ...... ..    ....              .. ...        ..                .....         ...                ....          ..        ",
"        .....        ...                . ..         ..                .....         . .                . ..         ...        ",
"        ....         ...                . ..         ..                 ....         ...                . ..         ...        ",
"        ....         ...                ....         ...                . ..         ...                . ..         ...        ",
"        ....         ...                ....         . .                . ..         ...                . ..          .         ",
"        ...          . .                ....         . .                . ..         ...                . ..                    ",
"         ..          ...                ....         . .                ....         ...                . ..                    ",
"                     ...                ....         . .               .. ..        .....               . ..                    ",
"                    ....                 ...        .. .               .. ...       ... .               . ..                    ",
"                    ....                  ..        .  .               .... .      .. . ..              . ...                   ",
"                   .. ..                  ..        .  ..              .... .      .. .. .             .  ....                  ",
"                  ... ..                  ..        .  ..             ..... .      ..  . .             .  .....                 ",
"                ....  ...                .. .      ..  .. .....      ....... ........  . .....         . . .. .                 ",
"     ..............  .. .                .......  ................. .............................     .........   ...           ",
"   .................... .               ..................................................................................      ",
"    ........................           ....................................................................................     ",
"    +++.......................        .....................................................................................     ",
"  ++@@@@+......................       ....................................................................................      ",
" ++@@@++++.............+++++++       ++@......+++.....................................................................+++++     ",
" +@@++++++++......+++++++++++++     ++@@@+++++++++++.............................................................+++++++++++    ",
" +@++++++++++..++++++++++++++++     +@@+++++++++++++++++...........+++++++.............+++++++.....++++++......+++++++++++++    ",
" ++++++++++++#+++++++++++++++++     +@++++++++++++++++++++++++++++++++++++++++++++++++++++++++++++++++++++++++++++++++++++++    ",
"  +++++++++##++++++++#++++++++      +++++++++++++##++++++++++++++##++++++++++++++##++++++++++++++##++++++++++++++##++++++++#    ",
"  +++++++###+++++++##++++++++#       ++++++++++###+++++++++++++###+++++++++++++###+++++++++++++###+++++++++++++###++++++++#     ",
"   ++++####+++++++##++++++++#        ++++++++####++++++++++++####++++++++++++####++++++++++++####++++++++++++####++++++++#      ",
"     ####+++++++###+++++++##          +++++#####+++++++++++#####+++++++++++#####+++++++++++#####+++++++++++#####+++++++##       ",
"       +++++++#####++++###               #####+++++++++++#####+++++++++++#####+++++++++++#####+++++++++++#####+++++++##         ",
"         ++++    +++++                       +++++++++++     +++++++++++     +++++++++++     +++++++++++     ++++++##           ",
"                                                                                                                                ",
"                                                                                                                                ",
"                                                                                                                                ",
"                                                                                                                                ",
"                                                                                                                                ",
"                                                                                                                                ",
"                                                                                                                                "};
