/* XPM */
static char * spInkey_xpm[] = {
"96 128 11 1",
" 	c None",
".	c #183F3F",
"+	c #317F7F",
"@	c #4ABFBF",
"#	c #62FFFF",
"$	c #96FFFF",
"%	c #CBFFFF",
"&	c #FFFFFF",
"*	c #7F8EFF",
"=	c #0030FF",
"-	c #318EFF",
"                                                                                                ",
"                                                                                                ",
"                                                                                                ",
"                                                                                                ",
"                                                                                                ",
"                                                                                                ",
"            .+@@@@+.                                .+@@@@+.        .+@@@@+.                    ",
"          .@########@.                            .@########@.    .@########@.                  ",
"         +############+                          +############+  +############+                 ",
"        .##############.                        .##############..##############.                ",
"        +##############+                        +##############++##############+                ",
"        @##$%&%$##$%&%$@                        @##$%&%$##$%&%$@@##$%&%$##$%&%$@                ",
"       .###%&&*=-#%&&*=-.                      .###%&&*=-#%&&*=-###%&&*=-#%&&*=-.               ",
"       +###&&&===#&&&===+                      +###&&&===#&&&===###&&&===#&&&===+               ",
"       @###%&&*=-#%&&*=-@                      @###%&&*=-#%&&*=-###%&&*=-#%&&*=-@               ",
"       @###$%&%$##$%&%$#@                      @###$%&%$##$%&%$####$%&%$##$%&%$#@               ",
"       ##################                      ##################################               ",
"       ##################                      ##################################               ",
"       ##################                      ##################################               ",
"       ##################                      ##################################               ",
"       ##################                      ##################################               ",
"       ##################                      ##################################               ",
"       #####@######@#####                      ########@@##############@@########               ",
"       @###+ +####+ +###@                      ###+####..####+####+####..####+###               ",
"       +##+   +##+   +##+                      ##+ @##@  @##@ +##+ @##@  @##@ +##               ",
"       .@+     ++     +@.                      #@  .@#+  +#@.  @@  .@#+  +#@.  @#               ",
"                                                                                                ",
"                                                                                                ",
"                                                                                                ",
"                                                                                                ",
"                                                                                                ",
"                                                                                                ",
"                                                                                                ",
"                                                                                                ",
"                                                                                                ",
"                                                                                                ",
"                                                                                                ",
"                                                                                                ",
"            .+@@@@+.                .+@@@@+.                                        .+@@@@+.    ",
"          .@########@.            .@########@.                                    .@########@.  ",
"         +############+          +############+                                  +############+ ",
"        .##############.        .##############.                                .##############.",
"        +##############+        +##############+                                +##############+",
"        @$%&%$##$%&%$##@        @$%&%$##$%&%$##@                                @$%&%$##$%&%$##@",
"       .-=*&&%#-=*&&%###.       -=*&&%#-=*&&%###.                              .-=*&&%#-=*&&%###",
"       +===&&&#===&&&###+       ===&&&#===&&&###+                              +===&&&#===&&&###",
"       @-=*&&%#-=*&&%###@       -=*&&%#-=*&&%###@                              @-=*&&%#-=*&&%###",
"       @#$%&%$##$%&%$###@       #$%&%$##$%&%$###@                              @#$%&%$##$%&%$###",
"       ##################       #################                              #################",
"       ##################       #################                              #################",
"       ##################       #################                              #################",
"       ##################       #################                              #################",
"       ##################       #################                              #################",
"       ##################       #################                              #################",
"       #####@######@#####       #######@@########                              ########@@#######",
"       @###+ +####+ +###@       ##+####..####+###                              ###+####..####+##",
"       +##+   +##+   +##+       #+ @##@  @##@ +##                              ##+ @##@  @##@ +#",
"       .@+     ++     +@.       @  .@#+  +#@.  @#                              #@  .@#+  +#@.  @",
"                                                                                                ",
"                                                                                                ",
"                                                                                                ",
"                                                                                                ",
"                                                                                                ",
"                                                                                                ",
"                                         +#-=-####-=-#+                                         ",
"                                        .#$===$##$===$#.                                        ",
"                                        +#%*=*%##%*=*%#+                                        ",
"                                        @#&&&&&##&&&&&#@                                        ",
"                                       .##%&&&%##%&&&%##.                                       ",
"                                       +##$%&%$##$%&%$##+                                       ",
"            .+@@@@+.                   @################@                                       ",
"          .@########@.                 @################@                                       ",
"         +#-=-####-=-#+                ##################                                       ",
"        .#$===$##$===$#.               ##################                                       ",
"        +#%*=*%##%*=*%#+               ##################                                       ",
"        @#&&&&&##&&&&&#@               ##################                                       ",
"       .##%&&&%##%&&&%##.              ##################                                       ",
"       +##$%&%$##$%&%$##+              ##################                                       ",
"       @################@              ########@@########                   .+@@@@+.            ",
"       @################@              ###+####..####+###                 .@########@.          ",
"       ##################              ##+ @##@  @##@ +##                +#-=-####-=-#+         ",
"       ##################              #@  .@#+  +#@.  @#               .#$===$##$===$#.        ",
"       ##################                                               +#%*=*%##%*=*%#+        ",
"       ##################                                               @#&&&&&##&&&&&#@        ",
"       ##################                                              .##%&&&%##%&&&%##.       ",
"       ##################                                              +##$%&%$##$%&%$##+       ",
"       #####@######@#####                                              @################@       ",
"       @###+ +####+ +###@                                              @################@       ",
"       +##+   +##+   +##+                                              ##################       ",
"       .@+     ++     +@.                                              ##################       ",
"                                                                       ##################       ",
"                                                                       ##################       ",
"                                                                       ##################       ",
"                                                                       ##################       ",
"                                                                       ########@@########       ",
"                                                                       ###+####..####+###       ",
"                                                                         +############+         ",
"                                                                        .##############.        ",
"                                                                        +##############+        ",
"                                                                        @##############@        ",
"                                                                       .################.       ",
"                                                                       +##$%&%$##$%&%$##+       ",
"            .+@@@@+.                                                   @##%&&&%##%&&&%##@       ",
"          .@########@.                                                 @##&&&&&##&&&&&##@       ",
"         +############+                                                ###%*=*%##%*=*%###       ",
"        .##############.                                               ###$===$##$===$###       ",
"        +##############+                                               ####-=-####-=-####       ",
"        @##############@                                               ##################       ",
"       .################.                                              ##################       ",
"       +##$%&%$##$%&%$##+                                              ##################       ",
"       @##%&&&%##%&&&%##@                   .+@@@@+.                   ########@@########       ",
"       @##&&&&&##&&&&&##@                 .@########@.                 ###+####..####+###       ",
"       ###%*=*%##%*=*%###                +############+                ##+ @##@  @##@ +##       ",
"       ###$===$##$===$###               .##############.               #@  .@#+  +#@.  @#       ",
"       ####-=-####-=-####               +##############+                                        ",
"       ##################               @##############@                                        ",
"       ##################              .################.                                       ",
"       ##################              +##$%&%$##$%&%$##+                                       ",
"       #####@######@#####              @##%&&&%##%&&&%##@                                       ",
"       @###+ +####+ +###@              @##&&&&&##&&&&&##@                                       ",
"       +##+   +##+   +##+              ###%*=*%##%*=*%###                                       ",
"       .@+     ++     +@.              ###$===$##$===$###                                       ",
"                                       ####-=-####-=-####                                       ",
"                                       ##################                                       ",
"                                       ##################                                       ",
"                                       ##################                                       ",
"                                       ########@@########                                       ",
"                                       ###+####..####+###                                       "};
