/* XPM */
static char * spLabyrinth_xpm[] = {
"128 160 16 1",
" 	c None",
".	c #00197F",
"+	c #0030FF",
"@	c #FFFFFF",
"#	c #000000",
"$	c #4A4A4A",
"%	c #007B7B",
"&	c #00FFFF",
"*	c #FFFFEF",
"=	c #5F5F5F",
"-	c #7F7F7F",
";	c #3F3F3F",
">	c #1F1F1F",
",	c #9F9F9F",
"'	c #BFBFBF",
")	c #DFDFDF",
"                                                                 .+.                        .+.  .+.                        .+. ",
"    ........................    ................................ .+.                        .+. .+.                          .+.",
"   .++++++++++++++++++++++++.   ++++++++++++++++++++++++++++++++ .+.                        .+. +.                            .+",
"  .+........................+.  ................................ .+.                        .+. .                              .",
" .+.                        .+.                                  .+.                        .+.                                 ",
" .+.                        .+.                                  .+.                        .+.                                 ",
" .+.                        .+.                                  .+.                        .+.                                 ",
" .+.                        .+.                                  .+.                        .+.                                 ",
" .+.                        .+.                                  .+.                        .+.                                 ",
" .+.                        .+.                                  .+.                        .+.                                 ",
" .+.                        .+.                                  .+.                        .+.                                 ",
" .+.                        .+.                                  .+.                        .+.                                 ",
" .+.                        .+.                                  .+.                        .+.                                 ",
" .+.                        .+.                                  .+.                        .+.                                 ",
" .+.                        .+.                                  .+.                        .+.                                 ",
" .+.                        .+.                                  .+.                        .+.                                 ",
" .+.                        .+.                                  .+.                        .+.                                 ",
" .+.                        .+.                                  .+.                        .+.                                 ",
" .+.                        .+.                                  .+.                        .+.                                 ",
" .+.                        .+.                                  .+.                        .+.                                 ",
" .+.                        .+.                                  .+.                        .+.                                 ",
" .+.                        .+.                                  .+.                        .+.                                 ",
" .+.                        .+.                                  .+.                        .+.                                 ",
" .+.                        .+.                                  .+.                        .+.                                 ",
" .+.                        .+.                                  .+.                        .+.                                 ",
" .+.                        .+.                                  .+.                        .+.                                 ",
" .+.                        .+.                                  .+.                        .+.                                 ",
" .+.                        .+.                                  .+.                        .+.                                 ",
"  .+........................+.  ................................ .+.                        .+. .                              .",
"   .++++++++++++++++++++++++.   ++++++++++++++++++++++++++++++++ .+.                        .+. +.                            .+",
"    ........................    ................................ .+.                        .+. .+.                          .+.",
"                                                                 .+.                        .+.  .+.                        .+. ",
"                                @@@@@@@@@@@@@@+..+@@@@@@@@@@@@@@                                                                ",
"                                ##############.++.##############                                                                ",
"                                ###############..###############                                                                ",
"                                ################################                                                                ",
"                                                                                                                                ",
"                                                                                                                                ",
"                                                                                                                                ",
"                                                                                                                                ",
"                                                                                                                                ",
"                                                                                                                                ",
"                                                                                                                                ",
"                                                                                                                                ",
"                                                                                                                                ",
"                                                                                                                                ",
"             $%%%$                                                                                                              ",
"             %%&&%                                                                                                              ",
"             %&*&%                                                                                                              ",
"             %%&%%                                                                                                              ",
"             $%%%$                                                                                                              ",
"                                                                                                                                ",
"                                                                                                                                ",
"                                                                                                                                ",
"                                                                                                                                ",
"                                                                                                                                ",
"                                                                                                                                ",
"                                                                                                                                ",
"                                                                                                                                ",
"                                                                                                                                ",
"                                ################################                                                                ",
"                                ###############..###############                                                                ",
"                                ##############.++.##############                                                                ",
"                                @@@@@@@@@@@@@@+..+@@@@@@@@@@@@@@                                                                ",
"                                                                                                                                ",
"                                                                                                                                ",
"                                                                                                                                ",
"                                                                                                                                ",
"                                                                                                                                ",
"                                                                                                                                ",
"                                                                                                                                ",
"                                                                                                                                ",
"                                                                                                                                ",
"                                                                                                                                ",
"                                                                             ==--=;                                             ",
"                                             >=--=>                         -,,,,,-=                                            ",
"             >=,-;>                         =-'',,-;                       -''''',,-=                                           ",
"            >'''',->                       ;-''''',->                     --))))''',-;                                          ",
"            -)))'',;                       -)))))'',=                     ,)))))))',,=                                          ",
"            ))@))''-                       ))@@)))',-                     ))@@@)))'',-                                          ",
"            )@@@))',                       )@@@@))''-                     ))@@@@)))',-                                          ",
"            ,@@@@)'=                       ,@@@@@)''=                     '@@@@@@))',=                                          ",
"            >'@@))'>                       ;)@@@@)'->                     ,)@@@@@))',=                                          ",
"             >,))->                         -)@@))-=                       '@@@@@))'-                                           ",
"                                             ;,))-;                         ')@)))--                                            ",
"                                                                             ,')),-                                             ",
"                                                                                                                                ",
"                                                                                                                                ",
"                                                                                                                                ",
"                                                                                                                                ",
"                                                                                                                                ",
"                                                                                                                                ",
"                                                                                                                                ",
"                                                                                                                                ",
"                                                                                                                                ",
"                                                                                                                                ",
"                                                                                                                                ",
"                                                                                                                                ",
"                                                                                                                                ",
"                                                                                                                                ",
"                                                                                                                                ",
"                                                                                                                                ",
"                                                                                                                                ",
"                                                                                                                                ",
"                                                                                                                                ",
"                                                                                                                                ",
"                                                                                                                                ",
"                                                                                                                                ",
"                                                                                                                                ",
"                                                                                                                                ",
"                                                                                                                                ",
"                                                                                                                                ",
"                                                                                                                                ",
"                                                                                                                                ",
"                                                                                                                                ",
"                                                                                                                                ",
"                                                                                                                                ",
"                                                                                                                                ",
"                                                                                                                                ",
"                                                                                                                                ",
"                                                                                                                                ",
"                                                                                                                                ",
"                                                                                                                                ",
"                                                                                                                                ",
"                                                                                                                                ",
"                                                                                                                                ",
"                                                                                                                                ",
"                                                                                                                                ",
"                                                                                                                                ",
"                                                                                                                                ",
"                                                                                                                                ",
"                                                                                                                                ",
"                                                                                                                                ",
"                                                                                                                                ",
"                                                                                                                                ",
"                                                                                                                                ",
"                                                                                                                                ",
"                                                                                                                                ",
"                                                                                                                                ",
"                                                                                                                                ",
"                                                                                                                                ",
"                                                                                                                                ",
"                                                                                                                                ",
"                                                                                                                                ",
"                                                                                                                                ",
"                                                                                                                                ",
"                                                                                                                                ",
"                                                                                                                                ",
"                                                                                                                                ",
"                                                                                                                                ",
"                                                                                                                                ",
"                                                                                                                                ",
"                                                                                                                                ",
"                                                                                                                                ",
"                                                                                                                                ",
"                                                                                                                                ",
"                                                                                                                                ",
"                                                                                                                                ",
"                                                                                                                                ",
"                                                                                                                                "};
