/* XPM */
static char * spPacman10_xpm[] = {
"96 128 5 1",
" 	c None",
".	c #3F3F0C",
"+	c #FFFF31",
"@	c #7F7F19",
"#	c #BFBF26",
"                                                                                                ",
"                                                                                                ",
"                                                                                                ",
"                                                                                                ",
"                                                                                                ",
"                                                                                                ",
"                                                                                                ",
"                                                                                                ",
"                                                                                                ",
"                                                                                                ",
"                                                                                                ",
"                                                                                                ",
"                                                                                                ",
"                                                                                                ",
"              .++.                                    .++.            .++.                      ",
"              ++@+                                    ++@+            ++@+                      ",
"              +++#                                    +++#            +++#                      ",
"              .++.                                    .++.            .++.                      ",
"                                                                                                ",
"                                                                                                ",
"                                                                                                ",
"                                                                                                ",
"                                                                                                ",
"                                                                                                ",
"                                                                                                ",
"                                                                                                ",
"                                                                                                ",
"                                                                                                ",
"                                                                                                ",
"                                                                                                ",
"                                                                                                ",
"                                                                                                ",
"                                                                                                ",
"                                                                                                ",
"                                                                                                ",
"                                                                                                ",
"                                                                                                ",
"                                                                                                ",
"                                                                                                ",
"                                                                                                ",
"                                                                                                ",
"                                                                                                ",
"                                                                                                ",
"                                                                                                ",
"                                                                                                ",
"                                                                                                ",
"              .++.                    .++.                                            .++.      ",
"              +@++                    +@++                                            +@++      ",
"              #+++                    #+++                                            #+++      ",
"              .++.                    .++.                                            .++.      ",
"                                                                                                ",
"                                                                                                ",
"                                                                                                ",
"                                                                                                ",
"                                                                                                ",
"                                                                                                ",
"                                                                                                ",
"                                                                                                ",
"                                                                                                ",
"                                                                                                ",
"                                                                                                ",
"                                                                                                ",
"                                                                                                ",
"                                                                                                ",
"                                                                                                ",
"                                                                                                ",
"                                                                                                ",
"                                                                                                ",
"                                                                                                ",
"                                                                                                ",
"                                              .#+.                                              ",
"                                              ++@+                                              ",
"                                              ++++                                              ",
"                                              .++.                                              ",
"                                                                                                ",
"                                                                                                ",
"                                                                                                ",
"                                                                                                ",
"              .#+.                                                                              ",
"              ++@+                                                                              ",
"              ++++                                                                              ",
"              .++.                                                                              ",
"                                                                                                ",
"                                                                                                ",
"                                                                                                ",
"                                                                                                ",
"                                                                              .#+.              ",
"                                                                              ++@+              ",
"                                                                              ++++              ",
"                                                                              .++.              ",
"                                                                                                ",
"                                                                                                ",
"                                                                                                ",
"                                                                                                ",
"                                                                                                ",
"                                                                                                ",
"                                                                                                ",
"                                                                                                ",
"                                                                                                ",
"                                                                                                ",
"                                                                                                ",
"                                                                                                ",
"                                                                              .++.              ",
"                                                                              ++++              ",
"                                                                              ++@+              ",
"                                                                              .#+.              ",
"                                                                                                ",
"                                                                                                ",
"                                                                                                ",
"                                                                                                ",
"              .++.                                                                              ",
"              ++++                                                                              ",
"              ++@+                                                                              ",
"              .#+.                                                                              ",
"                                                                                                ",
"                                                                                                ",
"                                                                                                ",
"                                                                                                ",
"                                              .++.                                              ",
"                                              ++++                                              ",
"                                              ++@+                                              ",
"                                              .#+.                                              ",
"                                                                                                ",
"                                                                                                ",
"                                                                                                ",
"                                                                                                ",
"                                                                                                ",
"                                                                                                "};
