/* XPM */
static char * spPacman3_xpm[] = {
"96 128 6 1",
" 	c None",
".	c #3F3F0C",
"+	c #BFBF26",
"@	c #FFFF31",
"#	c #000000",
"$	c #7F7F19",
"                                                                                                ",
"                                                                                                ",
"                                                                                                ",
"                                                                                                ",
"                                                                                                ",
"                                                                                                ",
"                                                                                                ",
"            .+@@@@+.                                .+@@@@+.        .+@@@@+.                    ",
"          .+@@@@.@@@+.                            .+@@@@.@@@+.    .+@@@@.@@@+.                  ",
"         .@@@@@@#@@@@@.                          .@@@@@@#@@@@@.  .@@@@@@#@@@@@.                 ",
"        .@@@@@.###.@@@@.                        .@@@@@.###.@@@@..@@@@@.###.@@@@.                ",
"        +@@@@@@@#@@@@@@+                        +@@@@@@@#@@@@@@++@@@@@@@#@@@@@@+                ",
"       .@@@@@@@@.@@@@@+.                       .@@@@@@@@.@@@@@+.@@@@@@@@.@@@@@+.                ",
"       +@@@@@@@@@@@@+.                         +@@@@@@@@@@@@+.  @@@@@@@@@@@@+.                  ",
"       @@@@@@@@@@@+.                           @@@@@@@@@@@+.    @@@@@@@@@@+.                    ",
"       @@@@@@@@@+.                             @@@@@@@@@+.      @@@@@@@@+.                      ",
"       @@@@@@@+.                               @@@@@@@+.        @@@@@@+.                        ",
"       @@@@@@+                                 @@@@@@+          @@@@@+                          ",
"       +@@@@@@+$.                              +@@@@@@+$.       @@@@@@+$.                       ",
"       .@@@@@@@@@+$.                           .@@@@@@@@@+$.    @@@@@@@@@+$.                    ",
"        +@@@@@@@@@@@+$.                         +@@@@@@@@@@@+$. +@@@@@@@@@@@+$.                 ",
"        .@@@@@@@@@@@@@@.                        .@@@@@@@@@@@@@@..@@@@@@@@@@@@@@.                ",
"         .@@@@@@@@@@@@.                          .@@@@@@@@@@@@.  .@@@@@@@@@@@@.                 ",
"          .+@@@@@@@@+.                            .+@@@@@@@@+.    .+@@@@@@@@+.                  ",
"            .+@@@@+.                                .+@@@@+.        .+@@@@+.                    ",
"                                                                                                ",
"                                                                                                ",
"                                                                                                ",
"                                                                                                ",
"                                                                                                ",
"                                                                                                ",
"                                                                                                ",
"                                                                                                ",
"                                                                                                ",
"                                                                                                ",
"                                                                                                ",
"                                                                                                ",
"                                                                                                ",
"                                                                                                ",
"            .+@@@@+.                .+@@@@+.                                        .+@@@@+.    ",
"          .+@@@.@@@@+.            .+@@@.@@@@+.                                    .+@@@.@@@@+.  ",
"         .@@@@@#@@@@@@.          .@@@@@#@@@@@@.                                  .@@@@@#@@@@@@. ",
"        .@@@@.###.@@@@@.        .@@@@.###.@@@@@.                                .@@@@.###.@@@@@.",
"        +@@@@@@#@@@@@@@+        +@@@@@@#@@@@@@@+                                +@@@@@@#@@@@@@@+",
"        .+@@@@@.@@@@@@@@.       .+@@@@@.@@@@@@@@.                               .+@@@@@.@@@@@@@@",
"          .+@@@@@@@@@@@@+         .+@@@@@@@@@@@@+                                 .+@@@@@@@@@@@@",
"            .+@@@@@@@@@@@           .+@@@@@@@@@@@                                   .+@@@@@@@@@@",
"              .+@@@@@@@@@             .+@@@@@@@@@                                     .+@@@@@@@@",
"                .+@@@@@@@               .+@@@@@@@                                       .+@@@@@@",
"                  +@@@@@@                 +@@@@@@                                         +@@@@@",
"               .$+@@@@@@+              .$+@@@@@@+                                      .$+@@@@@@",
"            .$+@@@@@@@@@.           .$+@@@@@@@@@.                                   .$+@@@@@@@@@",
"         .$+@@@@@@@@@@@+         .$+@@@@@@@@@@@+                                 .$+@@@@@@@@@@@+",
"        .@@@@@@@@@@@@@@.        .@@@@@@@@@@@@@@.                                .@@@@@@@@@@@@@@.",
"         .@@@@@@@@@@@@.          .@@@@@@@@@@@@.                                  .@@@@@@@@@@@@. ",
"          .+@@@@@@@@+.            .+@@@@@@@@+.                                    .+@@@@@@@@+.  ",
"            .+@@@@+.                .+@@@@+.                                        .+@@@@+.    ",
"                                                                                                ",
"                                                                                                ",
"                                                                                                ",
"                                                                                                ",
"                                                                                                ",
"                                                                                                ",
"                                                                                                ",
"                                          .        .+.                                          ",
"                                         .@.       +@@.                                         ",
"                                        .@@$      .@@@@.                                        ",
"                                        +@@+      +@@@@+                                        ",
"                                       .@@@@.    .@@@@@@.                                       ",
"                                       +@@@@$    +@@@.@@+                                       ",
"                                       @@@@@+   .@@@@#@@@                                       ",
"                                       @@@@@@.  +@@.###.@                                       ",
"          .        .+.                 @@@@@@$ .@@@@@#@@@                                       ",
"         .@.       +@@.                @@@@@@+ +@@@@@.@@@                                       ",
"        .@@$      .@@@@.               +@@@@@@+@@@@@@@@@+                                       ",
"        +@@+      +@@@@+               .@@@@@@@@@@@@@@@@.                                       ",
"       .@@@@.    .@@@@@@.               +@@@@@@@@@@@@@@+                                        ",
"       +@@@@$    +@@@.@@+               .@@@@@@@@@@@@@@.                                        ",
"       @@@@@+   .@@@@#@@@                .@@@@@@@@@@@@.                                         ",
"       @@@@@@.  +@@.###.@                 .+@@@@@@@@+.                                          ",
"       @@@@@@$ .@@@@@#@@@                   .+@@@@+.                      .        .+.          ",
"       @@@@@@+ +@@@@@.@@@                                                .@.       +@@.         ",
"       +@@@@@@+@@@@@@@@@+                                               .@@$      .@@@@.        ",
"       .@@@@@@@@@@@@@@@@.                                               +@@+      +@@@@+        ",
"        +@@@@@@@@@@@@@@+                                               .@@@@.    .@@@@@@.       ",
"        .@@@@@@@@@@@@@@.                                               +@@@@$    +@@@.@@+       ",
"         .@@@@@@@@@@@@.                                                @@@@@+   .@@@@#@@@       ",
"          .+@@@@@@@@+.                                                 @@@@@@.  +@@.###.@       ",
"            .+@@@@+.                                                   @@@@@@$ .@@@@@#@@@       ",
"                                                                       @@@@@@+ +@@@@@.@@@       ",
"                                                                       +@@@@@@+@@@@@@@@@+       ",
"                                                                       .@@@@@@@@@@@@@@@@.       ",
"                                                                        +@@@@@@@@@@@@@@+        ",
"                                                                        .@@@@@@@@@@@@@@.        ",
"                                                                         .@@@@@@@@@@@@.         ",
"                                                                          .+@@@@@@@@+.          ",
"                                                                          .+@@@@@@@@+.          ",
"                                                                         .@@@@@@@@@@@@.         ",
"                                                                        .@@@@@@@@@@@@@@.        ",
"                                                                        +@@@@@@@@@@@@@@+        ",
"                                                                       .@@@@@@@@@@@@@@@@.       ",
"                                                                       +@@@@@@+@@@@@@@@@+       ",
"                                                                       @@@@@@+ +@@@@@.@@@       ",
"            .+@@@@+.                                                   @@@@@@$ .@@@@@#@@@       ",
"          .+@@@@@@@@+.                                                 @@@@@@.  +@@.###.@       ",
"         .@@@@@@@@@@@@.                                                @@@@@+   .@@@@#@@@       ",
"        .@@@@@@@@@@@@@@.                                               +@@@@$    +@@@.@@+       ",
"        +@@@@@@@@@@@@@@+                                               .@@@@.    .@@@@@@.       ",
"       .@@@@@@@@@@@@@@@@.                                               +@@+      +@@@@+        ",
"       +@@@@@@+@@@@@@@@@+                                               .@@$      .@@@@.        ",
"       @@@@@@+ +@@@@@.@@@                                                .@.       +@@.         ",
"       @@@@@@$ .@@@@@#@@@                   .+@@@@+.                      .        .+.          ",
"       @@@@@@.  +@@.###.@                 .+@@@@@@@@+.                                          ",
"       @@@@@+   .@@@@#@@@                .@@@@@@@@@@@@.                                         ",
"       +@@@@$    +@@@.@@+               .@@@@@@@@@@@@@@.                                        ",
"       .@@@@.    .@@@@@@.               +@@@@@@@@@@@@@@+                                        ",
"        +@@+      +@@@@+               .@@@@@@@@@@@@@@@@.                                       ",
"        .@@$      .@@@@.               +@@@@@@+@@@@@@@@@+                                       ",
"         .@.       +@@.                @@@@@@+ +@@@@@.@@@                                       ",
"          .        .+.                 @@@@@@$ .@@@@@#@@@                                       ",
"                                       @@@@@@.  +@@.###.@                                       ",
"                                       @@@@@+   .@@@@#@@@                                       ",
"                                       +@@@@$    +@@@.@@+                                       ",
"                                       .@@@@.    .@@@@@@.                                       ",
"                                        +@@+      +@@@@+                                        ",
"                                        .@@$      .@@@@.                                        ",
"                                         .@.       +@@.                                         ",
"                                          .        .+.                                          "};
