/* XPM */
static char * spPacman9_xpm[] = {
"96 128 6 1",
" 	c None",
".	c #7F7F19",
"+	c #FFFF31",
"@	c #000000",
"#	c #BFBF26",
"$	c #3F3F0C",
"                                                                                                ",
"                                                                                                ",
"                                                                                                ",
"                                                                                                ",
"                                                                                                ",
"                                                                                                ",
"                                                                                                ",
"                                                                                                ",
"                                                                                                ",
"                                                                                                ",
"                                                                                                ",
"                                                                                                ",
"                                                                                                ",
"              .++.                                    .++.            .++.                      ",
"             .++@+.                                  .++@+.          .++@+.                     ",
"             ++++#$                                  ++++#$          ++++#$                     ",
"             +++#                                    +++#            +++#                       ",
"             .+++#$                                  .+++#$          .+++#$                     ",
"              .++.                                    .++.            .++.                      ",
"                                                                                                ",
"                                                                                                ",
"                                                                                                ",
"                                                                                                ",
"                                                                                                ",
"                                                                                                ",
"                                                                                                ",
"                                                                                                ",
"                                                                                                ",
"                                                                                                ",
"                                                                                                ",
"                                                                                                ",
"                                                                                                ",
"                                                                                                ",
"                                                                                                ",
"                                                                                                ",
"                                                                                                ",
"                                                                                                ",
"                                                                                                ",
"                                                                                                ",
"                                                                                                ",
"                                                                                                ",
"                                                                                                ",
"                                                                                                ",
"                                                                                                ",
"                                                                                                ",
"              .++.                    .++.                                            .++.      ",
"             .+@++.                  .+@++.                                          .+@++.     ",
"             $#++++                  $#++++                                          $#++++     ",
"               #+++                    #+++                                            #+++     ",
"             $#+++.                  $#+++.                                          $#+++.     ",
"              .++.                    .++.                                            .++.      ",
"                                                                                                ",
"                                                                                                ",
"                                                                                                ",
"                                                                                                ",
"                                                                                                ",
"                                                                                                ",
"                                                                                                ",
"                                                                                                ",
"                                                                                                ",
"                                                                                                ",
"                                                                                                ",
"                                                                                                ",
"                                                                                                ",
"                                                                                                ",
"                                                                                                ",
"                                                                                                ",
"                                                                                                ",
"                                                                                                ",
"                                              $ $.                                              ",
"                                             .# #+.                                             ",
"                                             ++#+@+                                             ",
"                                             ++++++                                             ",
"                                             .++++.                                             ",
"                                              .++.                                              ",
"                                                                                                ",
"                                                                                                ",
"              $ $.                                                                              ",
"             .# #+.                                                                             ",
"             ++#+@+                                                                             ",
"             ++++++                                                                             ",
"             .++++.                                                                             ",
"              .++.                                                                              ",
"                                                                                                ",
"                                                                                                ",
"                                                                              $ $.              ",
"                                                                             .# #+.             ",
"                                                                             ++#+@+             ",
"                                                                             ++++++             ",
"                                                                             .++++.             ",
"                                                                              .++.              ",
"                                                                                                ",
"                                                                                                ",
"                                                                                                ",
"                                                                                                ",
"                                                                                                ",
"                                                                                                ",
"                                                                                                ",
"                                                                                                ",
"                                                                                                ",
"                                                                                                ",
"                                                                              .++.              ",
"                                                                             .++++.             ",
"                                                                             ++++++             ",
"                                                                             ++#+@+             ",
"                                                                             .# #+.             ",
"                                                                              $ $.              ",
"                                                                                                ",
"                                                                                                ",
"              .++.                                                                              ",
"             .++++.                                                                             ",
"             ++++++                                                                             ",
"             ++#+@+                                                                             ",
"             .# #+.                                                                             ",
"              $ $.                                                                              ",
"                                                                                                ",
"                                                                                                ",
"                                              .++.                                              ",
"                                             .++++.                                             ",
"                                             ++++++                                             ",
"                                             ++#+@+                                             ",
"                                             .# #+.                                             ",
"                                              $ $.                                              ",
"                                                                                                ",
"                                                                                                ",
"                                                                                                ",
"                                                                                                ",
"                                                                                                "};
